n,o,l
charente_maritime,1.6353874,42.0
vienne,0.0,1.0
aude,5.1156073,4.0
haute_loire,0.0,1.0
haute_savoie,10.16019,30.0
dordogne,0.0,0.0
correze,0.0,0.0
indre_et_loire,0.9730036,1.0
saone_et_loire,9.4358425,13.0
loire_atlantique,0.0,0.0
haute_vienne,0.0,2.0
drome,1.5104263,7.0
cote_d'or,1.5256159,5.0
landes,101.15444,79.0
paris,0.0,0.0
charente,0.0,0.0
meurthe_et_moselle,4.6736627,7.0
essonne,65.46514,61.0
marne,10.521309,8.0
seine_saint_denis,68.9166,79.0
moselle,38.075146,52.0
bas_rhin,12.196275,37.0
pas_de_calais,16.038404,28.0
nord,17.939785,20.0
loiret,12.3181925,0.0
nievre,7.6586075,12.0
alpes_maritimes,7.4424896,1.0
pyrenees_atlantiques,0.7410568,0.0
val_d'oise,31.106924,41.0
meuse,1.1053612,3.0
mayenne,0.0,0.0
val_de_marne,62.80382,56.0
hautes_pyrenees,3.1248205,40.0
lot,0.0,0.0
isere,0.30636668,3.0
gironde,8.425799,14.0
yvelines,27.875814,41.0
yonne,0.15904671,3.0
haute_saone,3.8788197,23.0
somme,13.660571,18.0
eure_et_loir,25.28064,9.0
manche,9.438712,15.0
indre,1.6841325,16.0
haute_marne,0.0,3.0
haut_rhin,32.50727,67.0
maine_et_loire,0.0,0.0
jura,1.676662,1.0
savoie,0.18772708,0.0
ardennes,1.916823,5.0
haute_garonne,3.721311,2.0
rhone,11.053308,11.0
ardeche,1.0370233,7.0
aisne,17.833271,14.0
vosges,13.0943775,12.0
gers,1.1119847,6.0
oise,41.965847,32.0
hauts_de_seine,74.31658,93.0
territoire_de_belfort,2.9049194,2.0
lot_et_garonne,0.0,2.0
eure,25.077717,36.0
tarn,0.0,4.0
cher,8.9424095,17.0
aube,12.542658,20.0
vaucluse,2.4993389,5.0
pyrenees_orientales,0.11078054,0.0
var,15.946745,17.0
cantal,0.0,0.0
doubs,5.1234436,12.0
seine_et_marne,57.726677,72.0
ain,7.1180897,19.0
calvados,2.7344477,4.0
herault,21.088959,16.0
bouches_du_rhone,89.91869,127.0
puy_de_dome,5.109142,10.0
tarn_et_garonne,2.6698067,3.0
loire,0.0,1.0
gard,4.438654,10.0
loir_et_cher,0.0,0.0
alpes_de_haute_provence,0.0,4.0
orne,0.0,5.0
seine_maritime,12.057527,9.0
