n,o,l
granada,43.86067,49.0
palencia,18.69985,14.0
segovia,47.21274,104.0
valencia,101.326645,87.0
tarragona,14.951738,4.0
cadiz,32.108036,19.0
huelva,30.959126,4.0
caceres,75.35614,46.0
alicante,24.633425,28.0
cordoba,0.1832995,0.0
gipuzkoa,40.124836,9.0
cuenca,56.112583,50.0
sevilla,0.18777058,0.0
guadalajara,53.28192,60.0
salamanca,0.18800214,0.0
toledo,0.1879853,0.0
ciudad_real,17.19059,17.0
badajoz,775.4943,1012.0
barcelona,21.822746,53.0
avila,37.569923,40.0
lleida,53.094517,69.0
araba/alava,9.768315,0.0
albacete,0.18786773,0.0
almeria,13.859411,1.0
zamora,98.179955,40.0
girona,230.91927,114.0
bizkaia,29.534687,21.0
soria,30.269703,54.0
burgos,25.972746,18.0
jaen,28.127462,39.0
valladolid,51.812008,42.0
malaga,56.034927,16.0
leon,41.668423,140.0
castellon,22.705498,17.0
