n,o,l
siracusa,0.027199104,0.0
asti,0.0,17.0
oristano,0.084662005,0.0
grosseto,0.08417096,15.0
sondrio,0.0,22.0
ascoli_piceno,0.056842435,5.0
savona,0.0,25.0
reggio_emilia,0.47790614,15.0
torino,1.981842,0.0
rovigo,0.18956052,11.0
frosinone,0.11873405,0.0
campobasso,0.074072585,0.0
cosenza,0.10508466,5.0
trapani,0.058813278,0.0
pavia,0.75677013,140.0
cuneo,0.2483093,7.0
genova,0.7507958,103.0
treviso,0.0,49.0
barletta_andria_trani,0.06862603,7.0
udine,0.53725314,13.0
brescia,7.389123,338.0
ravenna,0.3859985,23.0
latina,0.048592933,5.0
gorizia,0.3106209,0.0
pordenone,0.37461486,14.0
massa_carrara,0.52358645,23.0
la_aquila,0.038076792,4.0
prato,0.11364919,7.0
rieti,0.08134766,0.0
aosta,0.008574378,14.0
ragusa,0.038073182,0.0
fermo,0.10549469,6.0
milano,6.8373456,244.0
firenze,0.26015183,31.0
arezzo,0.14330205,11.0
bolzano_bozen,0.87573266,48.0
piacenza,0.5564455,143.0
ancona,0.22709931,57.0
napoli,1.1487584,31.0
reggio_calabria,0.08736569,5.0
novara,0.33820838,0.0
pistoia,0.07984877,15.0
lodi,0.0,143.0
la_spezia,0.089722395,15.0
brindisi,0.12931173,3.0
taranto,0.058264114,0.0
potenza,0.13135539,0.0
perugia,0.26908186,0.0
alessandria,0.09558235,46.0
enna,0.050374463,0.0
imperia,0.034149397,23.0
vercelli,0.12057562,2.0
foggia,0.0,18.0
lecce,0.0,50.0
lecco,2.2041967,88.0
padova,0.0,0.0
messina,0.0,5.0
lucca,0.38186136,17.0
palermo,0.0146026425,0.0
livorno,0.0,0.0
benevento,0.22694731,13.0
catanzaro,0.08035728,2.0
bari,0.402963,4.0
caltanissetta,0.0,0.0
isernia,0.05011308,0.0
biella,0.06855242,0.0
verona,1.092022,65.0
caserta,0.0,3.0
chieti,0.0,2.0
varese,0.9370231,33.0
teramo,0.0,0.0
macerata,0.16455375,10.0
cagliari,0.065502435,1.0
terni,0.09689311,0.0
nuoro,0.0,0.0
trento,1.5710951,43.0
salerno,0.0,11.0
pesaro_e_urbino,1.9134701,95.0
venezia,0.6991961,34.0
siena,0.00016513094,17.0
vibo_valentia,0.07467221,12.0
matera,0.07156214,0.0
forli_cesena,0.17109321,13.0
parma,0.889162,52.0
trieste,1.1360873,17.0
roma,0.0802951,70.0
ferrara,0.13741374,5.0
belluno,0.0,19.0
sassari,0.030731943,2.0
avellino,0.017400175,5.0
agrigento,0.23397045,0.0
como,0.7728095,36.0
cremona,0.0,221.0
catania,0.027292583,0.0
bologna,0.8934102,40.0
pisa,0.44971612,11.0
viterbo,0.12581113,3.0
pescara,0.0,17.0
rimini,1.8241841,35.0
mantova,0.41209126,74.0
vicenza,0.23509412,23.0
verbano_cusio_ossola,0.0,7.0
modena,1.5748236,55.0
crotone,0.0,0.0
bergamo,4.8924055,496.0
