n,o,l
granada,44.981583,42.0
palencia,39.58407,4.0
segovia,31.565594,58.0
valencia,58.608383,0.0
tarragona,22.898073,0.0
cadiz,20.760983,8.0
huelva,20.422205,23.0
caceres,21.566113,12.0
alicante,39.469574,0.0
cordoba,19.98447,12.0
gipuzkoa,29.581804,60.0
cuenca,47.78759,0.0
sevilla,29.682907,22.0
guadalajara,38.029697,10.0
salamanca,49.51456,58.0
toledo,62.793053,12.0
ciudad_real,78.90593,30.0
badajoz,21.038416,1.0
barcelona,278.86298,0.0
avila,42.480247,25.0
lleida,27.745632,0.0
araba/alava,49.13017,0.0
albacete,47.0177,33.0
almeria,20.11311,7.0
zamora,19.522234,4.0
girona,62.857822,0.0
bizkaia,83.297165,0.0
soria,30.023424,39.0
burgos,33.704704,69.0
jaen,47.24224,51.0
valladolid,23.685694,28.0
malaga,60.29391,103.0
leon,46.301746,32.0
castellon,23.495079,0.0
