n,o,l
granada,78.249466,24.0
palencia,38.090042,20.0
segovia,64.32574,97.0
valencia,87.8312,146.0
tarragona,46.89668,16.0
cadiz,12.943611,9.0
huelva,144.5451,58.0
caceres,151.33104,68.0
alicante,116.454185,32.0
cordoba,0.103560776,0.0
gipuzkoa,50.218197,72.0
cuenca,100.739235,61.0
sevilla,0.1035597,0.0
guadalajara,111.0547,80.0
salamanca,0.1035597,0.0
toledo,0.1035597,0.0
ciudad_real,56.908596,10.0
badajoz,1650.9318,650.0
barcelona,48.703472,41.0
avila,76.07455,22.0
lleida,177.78738,36.0
araba/alava,23.946436,25.0
albacete,0.103559405,0.0
almeria,21.618116,16.0
zamora,68.305176,167.0
girona,320.45538,114.0
bizkaia,57.488415,34.0
soria,96.84706,57.0
burgos,69.97069,21.0
jaen,49.29926,20.0
valladolid,101.25237,51.0
malaga,97.70129,53.0
leon,71.3039,0.0
castellon,48.22398,65.0
