n,o,l
E10000013,37.493744,26.0
E08000001,26.243155,26.0
E06000032,23.153616,24.0
E08000034,24.810541,11.0
E06000022,4.084692,6.0
E10000006,60.696857,31.0
E10000025,67.03113,47.0
E08000009,25.671919,11.0
E06000049,23.167524,31.0
E10000024,47.465076,41.0
E09000017,29.86464,19.0
E08000027,34.0383,20.0
E06000021,12.02961,16.0
E10000019,34.052227,22.0
E08000008,17.99853,11.0
E09000026,29.703108,9.0
E06000001,3.735354,0.0
E06000050,30.265093,31.0
E08000017,21.641724,19.0
E06000055,14.460274,16.0
E06000040,6.6660094,7.0
E06000002,22.985617,17.0
E06000004,14.900772,2.0
E08000030,41.073338,34.0
E08000032,27.562365,32.0
E10000017,106.579575,82.0
E08000004,22.842064,20.0
E08000035,37.264336,50.0
E06000011,14.02332,13.0
E10000032,40.3147,41.0
E06000038,11.651918,19.0
E06000041,11.061283,27.0
E09000015,34.566452,18.0
E09000006,46.940155,22.0
E08000011,23.444977,26.0
E06000008,10.753283,5.0
E06000026,10.699761,7.0
E06000059,13.130269,9.0
E06000034,11.872219,4.0
E10000014,101.68858,86.0
E06000016,22.689291,11.0
E06000035,21.5312,25.0
E08000014,35.66353,25.0
E06000056,18.577814,22.0
E10000003,23.233088,26.0
E09000004,24.64326,10.0
E10000018,27.288504,34.0
E08000012,58.566868,34.0
E06000012,5.7896814,9.0
E10000027,13.880921,34.0
E06000014,7.059207,12.0
E08000036,21.946674,12.0
E09000008,63.157513,19.0
E06000046,3.0195308,1.0
E06000030,7.205142,11.0
E06000054,12.440085,9.0
E08000005,16.887815,16.0
E06000027,3.1667917,16.0
E10000016,102.3218,182.0
E10000030,93.142975,62.0
E08000013,29.69562,22.0
E06000033,17.998894,1.0
E08000016,22.035461,15.0
E09000016,29.02607,8.0
E06000051,16.150623,21.0
E08000037,27.166744,20.0
E06000052,20.473543,14.0
E09000010,30.180042,30.0
E10000021,57.673557,15.0
E06000039,44.214073,10.0
E08000024,8.409335,38.0
E09000027,17.401388,5.0
E09000009,39.78438,17.0
E10000020,36.861954,55.0
E10000023,31.20959,20.0
E10000029,29.932789,31.0
E06000045,18.398975,20.0
E08000018,30.304855,21.0
E10000034,46.939568,50.0
E06000018,17.147276,21.0
E08000019,79.16943,38.0
E06000017,3.5808516,0.0
E08000010,25.188728,38.0
E09000003,54.193512,14.0
E10000028,57.764328,47.0
E10000008,21.466623,31.0
E08000025,136.45528,93.0
E10000031,44.415504,26.0
E08000007,29.595728,20.0
E06000013,8.3882885,19.0
E06000005,3.6625977,7.0
E08000015,38.534786,30.0
E06000042,16.178205,13.0
E06000009,11.280169,20.0
E10000007,49.714985,38.0
E09000001,3.017537,0.0
E09000022,53.87682,10.0
E06000047,37.9235,39.0
E06000037,8.607111,10.0
E08000026,30.050028,20.0
E09000002,20.485928,9.0
E09000018,30.232891,11.0
E06000043,11.44159,15.0
E06000020,7.9932895,10.0
E06000057,22.417622,25.0
E06000006,14.17914,10.0
E08000003,38.52465,15.0
E10000015,100.31433,48.0
E06000024,6.5493536,18.0
E08000023,15.9588375,24.0
E06000036,6.0596466,6.0
E10000011,21.016445,20.0
E06000031,6.3774543,11.0
E08000021,37.313976,17.0
E10000002,30.432886,29.0
E06000044,5.8916116,8.0
E08000031,23.095648,27.0
E09000020,20.445332,8.0
E06000003,13.118859,6.0
E08000002,14.833107,31.0
E10000012,107.50055,45.0
E09000005,67.37353,28.0
E06000007,21.677195,13.0
E09000023,11.72803,8.0
E08000033,46.295788,27.0
E09000021,19.775766,9.0
E09000029,29.195103,15.0
E08000022,15.483769,12.0
E06000015,30.08169,11.0
