n,o,l
E10000013,32.173817,7.0
E08000001,22.05382,9.0
E06000032,10.428275,3.0
E08000034,11.74754,7.0
E06000022,4.772144,2.0
E10000006,28.137236,15.0
E10000025,35.894104,13.0
E08000009,8.402366,7.0
E06000049,23.434143,19.0
E10000024,18.878672,12.0
E09000017,12.047191,25.0
E08000027,17.897074,4.0
E06000021,10.633739,15.0
E10000019,21.293797,8.0
E08000008,8.652936,2.0
E09000026,5.9107227,2.0
E06000001,2.4246912,4.0
E06000050,16.65895,9.0
E08000017,11.693727,13.0
E06000055,8.835317,5.0
E06000040,3.1663237,4.0
E06000002,13.329699,5.0
E06000004,5.711301,4.0
E08000030,15.457221,0.0
E08000032,13.995934,18.0
E10000017,68.31471,21.0
E08000004,19.846842,14.0
E08000035,35.634148,25.0
E06000011,15.971204,8.0
E10000032,27.697721,11.0
E06000038,10.051306,3.0
E06000041,9.875684,5.0
E09000015,12.966777,5.0
E09000006,15.601014,11.0
E08000011,11.120381,5.0
E06000008,7.0504475,2.0
E06000026,6.8362427,1.0
E06000059,4.757676,6.0
E06000034,1.4448798,1.0
E10000014,64.40954,18.0
E06000016,13.852916,3.0
E06000035,13.123094,8.0
E08000014,16.838861,5.0
E06000056,6.0917716,8.0
E10000003,13.273249,11.0
E09000004,11.671539,4.0
E10000018,19.906868,7.0
E08000012,26.237246,10.0
E06000012,2.4282663,0.0
E10000027,13.92015,8.0
E06000014,5.3957787,8.0
E08000036,9.761129,9.0
E09000008,17.97615,12.0
E06000046,1.1667697,6.0
E06000030,9.98704,10.0
E06000054,9.516531,12.0
E08000005,12.641535,4.0
E06000027,6.836606,2.0
E10000016,114.40041,55.0
E10000030,61.47202,21.0
E08000013,9.556624,6.0
E06000033,2.2791474,7.0
E08000016,15.690152,16.0
E09000016,10.156475,4.0
E06000051,10.86167,15.0
E08000037,17.68925,5.0
E06000052,10.440572,4.0
E09000010,8.853676,4.0
E10000021,23.363646,10.0
E06000039,7.198325,7.0
E08000024,29.688713,5.0
E09000027,4.7407384,1.0
E09000009,16.648848,16.0
E10000020,45.99469,31.0
E10000023,18.260502,18.0
E10000029,37.68349,12.0
E06000045,9.391837,5.0
E08000018,19.735321,13.0
E10000034,27.196592,17.0
E06000018,8.357745,4.0
E08000019,49.98579,30.0
E06000017,1.5714709,1.0
E08000010,22.989214,13.0
E09000003,12.062837,4.0
E10000028,42.71639,40.0
E10000008,15.004083,4.0
E08000025,60.231384,21.0
E10000031,28.7119,25.0
E08000007,19.311459,9.0
E06000013,8.347543,5.0
E06000005,4.607545,6.0
E08000015,25.363428,13.0
E06000042,7.9033365,1.0
E06000009,16.395016,2.0
E10000007,22.568048,10.0
E09000001,2.014142,0.0
E09000022,11.632837,0.0
E06000047,34.851807,33.0
E06000037,8.612521,2.0
E08000026,11.097953,14.0
E09000002,8.164476,1.0
E09000018,8.784796,4.0
E06000043,8.890139,0.0
E06000020,7.0290565,3.0
E06000057,20.71642,1.0
E06000006,6.6321836,2.0
E08000003,23.397932,14.0
E10000015,42.05434,26.0
E06000024,3.2206976,1.0
E08000023,12.804941,5.0
E06000036,3.5735383,4.0
E10000011,12.384984,6.0
E06000031,2.6132872,3.0
E08000021,16.652294,6.0
E10000002,18.547993,9.0
E06000044,2.6768796,2.0
E08000031,16.19211,1.0
E09000020,3.148746,2.0
E06000003,4.6704097,0.0
E08000002,14.757174,4.0
E10000012,43.71214,29.0
E09000005,21.064276,6.0
E06000007,9.571589,5.0
E09000023,2.876639,1.0
E08000033,12.602417,4.0
E09000021,6.702752,5.0
E09000029,9.946275,15.0
E08000022,8.61542,0.0
E06000015,2.8814225,2.0
