n,o,l
granada,24.596884,30.0
palencia,12.190911,6.0
segovia,90.52046,88.0
valencia,107.74006,142.0
tarragona,0.0,0.0
cadiz,2.5537508,5.0
huelva,22.939924,38.0
caceres,83.30801,117.0
alicante,70.44315,23.0
cordoba,24.713266,12.0
gipuzkoa,34.925877,40.0
cuenca,61.954735,36.0
sevilla,55.073994,55.0
guadalajara,36.31744,19.0
salamanca,36.484924,88.0
toledo,70.0364,142.0
ciudad_real,144.7735,245.0
badajoz,30.085129,21.0
barcelona,914.5939,1089.0
avila,20.177187,36.0
lleida,51.482437,50.0
araba/alava,40.748066,38.0
albacete,31.559357,25.0
almeria,4.981167,8.0
zamora,19.545044,48.0
girona,0.0,0.0
bizkaia,185.20242,225.0
soria,33.81274,37.0
burgos,44.50984,86.0
jaen,150.89755,110.0
valladolid,17.76692,32.0
malaga,36.89508,66.0
leon,85.98929,184.0
castellon,46.587337,26.0
