n,o,l
siracusa,0.00918673,16.0
asti,2.1052957,28.0
oristano,0.11873717,0.0
grosseto,0.38295692,1.0
sondrio,1.5907198,5.0
ascoli_piceno,0.0,7.0
savona,5.2792664,0.0
reggio_emilia,12.396734,71.0
torino,25.960781,460.0
rovigo,1.3175327,6.0
frosinone,1.4573369,18.0
campobasso,0.4086928,0.0
cosenza,1.2870992,39.0
trapani,0.24219683,1.0
pavia,7.1524153,74.0
cuneo,8.687429,23.0
genova,16.588709,35.0
treviso,2.2863913,102.0
barletta_andria_trani,1.0574175,15.0
udine,2.0013623,4.0
brescia,16.281513,168.0
ravenna,0.9809577,15.0
latina,1.0048423,2.0
gorizia,0.0,2.0
pordenone,0.72801054,16.0
massa_carrara,2.983312,12.0
la_aquila,0.071991436,3.0
prato,0.26786476,29.0
rieti,2.1716943,0.0
aosta,2.5217986,13.0
ragusa,0.12179658,1.0
fermo,0.09745945,11.0
milano,39.157963,277.0
firenze,6.433374,71.0
arezzo,0.5477471,8.0
bolzano_bozen,8.426132,43.0
piacenza,3.7954698,26.0
ancona,3.6792285,17.0
napoli,4.2099867,46.0
reggio_calabria,0.28270394,0.0
novara,5.684663,117.0
pistoia,0.6420355,20.0
lodi,3.2377667,39.0
la_spezia,2.5773118,24.0
brindisi,0.8590172,11.0
taranto,0.20597428,7.0
potenza,0.14922619,2.0
perugia,0.46942785,5.0
alessandria,10.029219,173.0
enna,0.14442049,1.0
imperia,7.325778,12.0
vercelli,2.2184353,65.0
foggia,4.335821,24.0
lecce,4.05514,4.0
lecco,11.038689,87.0
padova,1.2954444,7.0
messina,0.5867036,1.0
lucca,2.4209564,61.0
palermo,1.1002065,6.0
livorno,0.5681802,0.0
benevento,0.5039952,50.0
catanzaro,0.22648925,4.0
bari,1.7389904,16.0
caltanissetta,0.28528148,1.0
isernia,0.042220816,0.0
biella,1.3094335,2.0
verona,12.44956,81.0
caserta,1.2458751,3.0
chieti,0.78328204,30.0
varese,9.975745,69.0
teramo,2.8022454,5.0
macerata,1.8835958,25.0
cagliari,0.26367,1.0
terni,0.3655033,1.0
nuoro,0.0,0.0
trento,10.344962,74.0
salerno,0.8948581,23.0
pesaro_e_urbino,5.1663604,19.0
venezia,9.695883,23.0
siena,0.5583679,9.0
vibo_valentia,0.0,2.0
matera,0.22787371,14.0
forli_cesena,2.6691365,23.0
parma,5.0458097,82.0
trieste,4.379855,50.0
roma,8.92124,102.0
ferrara,1.948787,60.0
belluno,1.8669839,32.0
sassari,1.8027574,1.0
avellino,0.0,9.0
agrigento,0.061444964,1.0
como,7.497377,79.0
cremona,5.8098717,71.0
catania,1.8654639,10.0
bologna,8.447481,110.0
pisa,1.8861593,17.0
viterbo,1.0269244,12.0
pescara,2.6707766,34.0
rimini,1.3360605,25.0
mantova,5.5558333,36.0
vicenza,6.335393,34.0
verbano_cusio_ossola,3.8219728,6.0
modena,7.087439,45.0
crotone,0.0,0.0
bergamo,10.557049,46.0
