n,o,l
siracusa,0.03624621,9.0
asti,1.9559201,14.0
oristano,0.2964167,0.0
grosseto,0.0006875992,1.0
sondrio,1.9685512,16.0
ascoli_piceno,0.0,1.0
savona,0.0,0.0
reggio_emilia,7.5531187,137.0
torino,25.429558,220.0
rovigo,1.3772203,14.0
frosinone,0.26723176,24.0
campobasso,0.0,0.0
cosenza,0.26440853,12.0
trapani,0.56623447,5.0
pavia,8.712299,88.0
cuneo,4.144054,40.0
genova,0.0,628.0
treviso,1.9786917,125.0
barletta_andria_trani,1.1210202,35.0
udine,3.8060775,17.0
brescia,13.936657,8.0
ravenna,2.1148918,315.0
latina,1.2167994,8.0
gorizia,0.17183149,2.0
pordenone,0.70277464,17.0
massa_carrara,2.0029202,35.0
la_aquila,0.9953548,8.0
prato,0.5577254,1.0
rieti,1.6177531,1.0
aosta,2.7401028,15.0
ragusa,0.10881603,2.0
fermo,0.6297492,20.0
milano,30.720888,252.0
firenze,9.214463,66.0
arezzo,0.66117287,2.0
bolzano_bozen,5.6752167,24.0
piacenza,1.7192218,27.0
ancona,2.373075,26.0
napoli,6.5346847,25.0
reggio_calabria,0.32050037,5.0
novara,2.368477,73.0
pistoia,0.9110577,46.0
lodi,1.9981924,26.0
la_spezia,1.571109,142.0
brindisi,1.0239336,22.0
taranto,0.6199237,9.0
potenza,0.33266336,5.0
perugia,1.5873038,8.0
alessandria,8.653828,70.0
enna,1.174316,7.0
imperia,0.0,132.0
vercelli,3.2053976,13.0
foggia,1.5171775,17.0
lecce,2.663972,24.0
lecco,7.7942696,91.0
padova,0.6615851,6.0
messina,0.9144741,5.0
lucca,1.4533694,34.0
palermo,0.22621775,12.0
livorno,0.0,22.0
benevento,0.24114427,13.0
catanzaro,0.020246707,7.0
bari,1.9219761,27.0
caltanissetta,0.28289187,2.0
isernia,0.26959473,0.0
biella,1.1661267,9.0
verona,4.104711,64.0
caserta,0.72128904,18.0
chieti,0.2546323,18.0
varese,8.0611515,22.0
teramo,1.0152111,19.0
macerata,2.5834305,50.0
cagliari,0.4459298,3.0
terni,0.64521766,15.0
nuoro,0.0,2.0
trento,8.024118,126.0
salerno,2.1020725,21.0
pesaro_e_urbino,3.667435,45.0
venezia,3.5880733,87.0
siena,0.5586697,1.0
vibo_valentia,0.23071328,1.0
matera,0.011945531,1.0
forli_cesena,4.4240623,24.0
parma,4.9153686,30.0
trieste,1.9612839,30.0
roma,7.3782597,80.0
ferrara,3.7123127,16.0
belluno,1.7273719,25.0
sassari,1.8598295,34.0
avellino,2.1806283,3.0
agrigento,0.0,3.0
como,6.011856,17.0
cremona,3.760464,99.0
catania,0.8223555,16.0
bologna,8.336543,102.0
pisa,0.8250617,8.0
viterbo,1.0087968,1.0
pescara,1.2436179,15.0
rimini,1.5620385,12.0
mantova,5.9033546,74.0
vicenza,6.675051,48.0
verbano_cusio_ossola,4.7436147,89.0
modena,6.3066974,53.0
crotone,0.2623342,1.0
bergamo,13.541957,63.0
