n,o,l
granada,40.02178,0.0
palencia,31.964222,25.0
segovia,42.10056,39.0
valencia,53.08246,75.0
tarragona,23.757914,0.0
cadiz,29.542044,0.0
huelva,30.546083,2.0
caceres,24.25345,80.0
alicante,49.528652,0.0
cordoba,30.276827,75.0
gipuzkoa,14.63283,0.0
cuenca,57.37344,0.0
sevilla,33.6388,58.0
guadalajara,38.294548,66.0
salamanca,52.205925,99.0
toledo,50.472908,88.0
ciudad_real,56.399002,4.0
badajoz,30.717764,0.0
barcelona,109.656425,35.0
avila,42.82932,0.0
lleida,23.816742,0.0
araba/alava,12.83806,0.0
albacete,51.85044,49.0
almeria,29.78866,17.0
zamora,34.31982,0.0
girona,25.533348,0.0
bizkaia,17.621454,51.0
soria,39.318752,63.0
burgos,48.42817,16.0
jaen,39.915974,0.0
valladolid,37.30263,34.0
malaga,35.395176,0.0
leon,43.715828,0.0
castellon,41.678467,9.0
