n,o,l
charente_maritime,0.17096516,0.0
vienne,0.0,0.0
aude,0.0,0.0
haute_loire,0.0,0.0
haute_savoie,3.946746,0.0
dordogne,0.0,0.0
correze,0.0,0.0
indre_et_loire,0.0,0.0
saone_et_loire,0.0,0.0
loire_atlantique,0.0,0.0
haute_vienne,0.0,0.0
drome,0.0,0.0
cote_d'or,0.0,0.0
landes,9.478094,2.0
paris,0.0,0.0
charente,0.0,0.0
meurthe_et_moselle,0.0,1.0
essonne,13.035723,0.0
marne,0.0,0.0
seine_saint_denis,4.906778,0.0
moselle,1.0896382,0.0
bas_rhin,0.6602862,0.0
pas_de_calais,6.8628325,0.0
nord,4.2649612,0.0
loiret,0.0,0.0
nievre,0.0,0.0
alpes_maritimes,0.0,0.0
pyrenees_atlantiques,0.0,0.0
val_d'oise,2.3169608,0.0
meuse,0.0,0.0
mayenne,0.0,0.0
val_de_marne,7.5835,0.0
hautes_pyrenees,0.0,0.0
lot,0.0,0.0
isere,0.0,0.0
gironde,0.0,0.0
yvelines,5.1494737,1.0
yonne,0.0,0.0
haute_saone,1.3752674,0.0
somme,4.572369,0.0
eure_et_loir,0.5460995,0.0
manche,3.4460454,0.0
indre,0.0,0.0
haute_marne,0.0,0.0
haut_rhin,1.6982045,0.0
maine_et_loire,0.0,0.0
jura,0.0,0.0
savoie,0.0,0.0
ardennes,0.0,0.0
haute_garonne,0.43850148,0.0
rhone,2.1758792,0.0
ardeche,0.0,0.0
aisne,1.6530045,0.0
vosges,0.0,0.0
gers,0.54710984,0.0
oise,4.450303,0.0
hauts_de_seine,4.567151,1.0
territoire_de_belfort,0.0,0.0
lot_et_garonne,0.0,0.0
eure,2.521285,0.0
tarn,0.0,0.0
cher,0.0,0.0
aube,0.31409043,0.0
vaucluse,0.0,0.0
pyrenees_orientales,0.0,0.0
var,0.26612177,0.0
cantal,0.0,0.0
doubs,0.0,0.0
seine_et_marne,8.952517,0.0
ain,1.0205582,0.0
calvados,0.0,0.0
herault,4.3238792,5.0
bouches_du_rhone,10.001189,0.0
puy_de_dome,0.0,1.0
tarn_et_garonne,0.0,0.0
loire,0.15518323,0.0
gard,1.6710668,0.0
loir_et_cher,0.0,0.0
alpes_de_haute_provence,0.0,0.0
orne,0.060814247,0.0
seine_maritime,0.47314465,0.0
