n,o,l
charente_maritime,0.33509633,0.0
vienne,0.0,0.0
aude,4.4360776,0.0
haute_loire,0.0,0.0
haute_savoie,18.753046,0.0
dordogne,0.05120533,0.0
correze,0.0,0.0
indre_et_loire,2.805107,0.0
saone_et_loire,1.4155455,0.0
loire_atlantique,1.5033597,0.0
haute_vienne,0.28545907,0.0
drome,3.059369,0.0
cote_d'or,0.8965342,0.0
landes,175.55325,49.0
paris,0.0,0.0
charente,0.0,0.0
meurthe_et_moselle,69.92918,45.0
essonne,2.5273378,0.0
marne,8.692757,0.0
seine_saint_denis,92.41426,23.0
moselle,8.098122,0.0
bas_rhin,13.790796,0.0
pas_de_calais,2.0001428,0.0
nord,7.622726,0.0
loiret,10.141584,0.0
nievre,1.2726275,0.0
alpes_maritimes,5.205964,0.0
pyrenees_atlantiques,3.7087998,0.0
val_d'oise,90.072235,19.0
meuse,0.0,0.0
mayenne,0.0,0.0
val_de_marne,47.282078,13.0
hautes_pyrenees,0.6655714,0.0
lot,0.45114505,0.0
isere,4.185652,0.0
gironde,13.171567,0.0
yvelines,36.09365,4.0
yonne,0.28626427,0.0
haute_saone,11.9007435,0.0
somme,10.523553,0.0
eure_et_loir,10.892305,0.0
manche,6.3765473,0.0
indre,0.98006505,0.0
haute_marne,0.005750343,0.0
haut_rhin,23.005615,12.0
maine_et_loire,0.0,0.0
jura,0.0,0.0
savoie,0.22153722,0.0
ardennes,0.6434022,0.0
haute_garonne,7.0308175,2.0
rhone,4.4090505,0.0
ardeche,1.1287783,0.0
aisne,2.5036032,0.0
vosges,9.176322,0.0
gers,1.4986663,0.0
oise,27.257956,11.0
hauts_de_seine,103.9236,24.0
territoire_de_belfort,1.6441975,0.0
lot_et_garonne,0.0,0.0
eure,5.43254,0.0
tarn,0.013339438,0.0
cher,11.775411,5.0
aube,7.1795063,0.0
vaucluse,4.468968,2.0
pyrenees_orientales,12.636082,0.0
var,0.0,0.0
cantal,0.0,2.0
doubs,5.78328,0.0
seine_et_marne,32.677265,8.0
ain,2.8880994,0.0
calvados,2.253337,0.0
herault,57.94088,3.0
bouches_du_rhone,117.8436,3.0
puy_de_dome,3.635039,1.0
tarn_et_garonne,0.88598406,0.0
loire,0.0,1.0
gard,2.806923,0.0
loir_et_cher,0.8488831,0.0
alpes_de_haute_provence,0.16699839,0.0
orne,2.0058038,0.0
seine_maritime,9.455498,0.0
