n,o,l
granada,55.35065,0.0
palencia,44.313477,6.0
segovia,50.87839,49.0
valencia,60.675404,10.0
tarragona,39.607544,0.0
cadiz,42.414078,0.0
huelva,34.208477,0.0
caceres,59.33279,1.0
alicante,16.30318,28.0
cordoba,53.523994,0.0
gipuzkoa,41.842606,0.0
cuenca,40.66436,59.0
sevilla,46.407394,0.0
guadalajara,58.29256,9.0
salamanca,54.719143,96.0
toledo,60.608074,46.0
ciudad_real,33.302296,79.0
badajoz,151.93684,1.0
barcelona,49.681206,0.0
avila,38.24252,16.0
lleida,9.798454,0.0
araba/alava,41.308346,0.0
albacete,58.463104,14.0
almeria,40.813618,0.0
zamora,42.865246,7.0
girona,14.349693,0.0
bizkaia,44.371212,0.0
soria,51.408813,0.0
burgos,71.253235,3.0
jaen,42.17938,9.0
valladolid,58.139477,0.0
malaga,25.043829,0.0
leon,35.79465,27.0
castellon,44.73776,3.0
