n,o,l
siracusa,0.35170716,4.0
asti,1.0822716,32.0
oristano,0.18710226,6.0
grosseto,0.013465915,0.0
sondrio,0.0,24.0
ascoli_piceno,0.5685538,25.0
savona,0.1331452,0.0
reggio_emilia,10.664171,99.0
torino,12.758872,305.0
rovigo,0.0,5.0
frosinone,0.62293994,31.0
campobasso,0.069275305,10.0
cosenza,0.5112831,2.0
trapani,0.3037438,2.0
pavia,6.9586844,97.0
cuneo,2.6981828,81.0
genova,3.365184,26.0
treviso,5.209231,73.0
barletta_andria_trani,0.6754854,8.0
udine,0.3798961,0.0
brescia,20.658264,154.0
ravenna,2.133808,12.0
latina,0.08463608,3.0
gorizia,0.6573979,7.0
pordenone,2.3581321,22.0
massa_carrara,0.20611642,18.0
la_aquila,0.37537336,8.0
prato,0.56549174,10.0
rieti,0.37738794,27.0
aosta,0.7350154,44.0
ragusa,0.3084365,8.0
fermo,1.2556025,13.0
milano,18.42448,235.0
firenze,3.3197372,65.0
arezzo,1.452342,22.0
bolzano_bozen,3.0983005,46.0
piacenza,7.1164036,119.0
ancona,3.6562603,56.0
napoli,0.78384227,62.0
reggio_calabria,0.39814603,5.0
novara,1.4598526,64.0
pistoia,0.49018037,8.0
lodi,2.0536473,29.0
la_spezia,1.1684107,14.0
brindisi,0.4397692,0.0
taranto,0.14823778,5.0
potenza,0.3419121,0.0
perugia,2.3044686,21.0
alessandria,0.0,37.0
enna,0.85811895,8.0
imperia,0.0,0.0
vercelli,0.23781525,24.0
foggia,0.36514908,52.0
lecce,4.335916,33.0
lecco,9.555848,76.0
padova,1.9076128,6.0
messina,1.0052665,10.0
lucca,2.4293904,18.0
palermo,0.6348364,9.0
livorno,0.0,6.0
benevento,0.051734403,9.0
catanzaro,0.0,5.0
bari,1.9865177,22.0
caltanissetta,0.09222546,0.0
isernia,0.0,0.0
biella,1.4293661,19.0
verona,4.0821133,130.0
caserta,0.24855815,15.0
chieti,0.9430222,7.0
varese,0.91975397,27.0
teramo,1.6262261,13.0
macerata,1.7960548,16.0
cagliari,0.49549848,8.0
terni,0.2321333,4.0
nuoro,0.0,0.0
trento,6.792612,64.0
salerno,1.7780213,3.0
pesaro_e_urbino,3.3465436,25.0
venezia,3.5352128,63.0
siena,0.41168696,15.0
vibo_valentia,0.061518665,0.0
matera,0.32996255,12.0
forli_cesena,1.517339,47.0
parma,8.239503,74.0
trieste,1.8782036,51.0
roma,9.277469,118.0
ferrara,1.0473448,14.0
belluno,1.3155842,7.0
sassari,0.0,32.0
avellino,0.77031994,6.0
agrigento,0.22998197,5.0
como,4.3838634,40.0
cremona,4.5803175,81.0
catania,2.339395,50.0
bologna,7.432946,68.0
pisa,1.8868846,25.0
viterbo,0.0,0.0
pescara,2.2335694,28.0
rimini,4.437213,25.0
mantova,3.6985168,71.0
vicenza,3.8822198,74.0
verbano_cusio_ossola,0.32160467,17.0
modena,9.160666,85.0
crotone,0.0,0.0
bergamo,22.289568,139.0
