n,o,l
granada,20.40212,12.0
palencia,5.501591,4.0
segovia,40.23977,26.0
valencia,84.73631,135.0
tarragona,14.520609,0.0
cadiz,6.6818757,5.0
huelva,43.822594,3.0
caceres,32.626667,135.0
alicante,24.827215,0.0
cordoba,57.961098,126.0
gipuzkoa,7.9706516,1.0
cuenca,25.23003,40.0
sevilla,27.48555,7.0
guadalajara,38.06371,32.0
salamanca,119.340416,103.0
toledo,93.52391,51.0
ciudad_real,16.917896,17.0
badajoz,676.7487,55.0
barcelona,19.116278,30.0
avila,29.052984,0.0
lleida,23.936115,0.0
araba/alava,6.6738806,3.0
albacete,27.850487,97.0
almeria,20.920498,19.0
zamora,0.30674613,0.0
girona,114.311356,0.0
bizkaia,27.914675,86.0
soria,69.575,35.0
burgos,39.3752,29.0
jaen,16.857578,15.0
valladolid,61.673653,0.0
malaga,36.161053,16.0
leon,13.603377,0.0
castellon,27.191175,35.0
