n,o,l
E10000013,23.120098,30.0
E08000001,5.5490665,22.0
E06000032,12.786066,26.0
E08000034,14.273832,19.0
E06000022,4.315225,0.0
E10000006,54.10695,68.0
E10000025,26.703913,51.0
E08000009,11.68778,13.0
E06000049,13.614748,18.0
E10000024,31.731432,40.0
E09000017,22.196579,33.0
E08000027,24.198614,22.0
E06000021,10.298911,3.0
E10000019,19.2309,26.0
E08000008,10.656618,18.0
E09000026,20.537537,26.0
E06000001,0.0,3.0
E06000050,16.686846,18.0
E08000017,17.721668,14.0
E06000055,7.4643393,11.0
E06000040,5.3613787,7.0
E06000002,12.572523,15.0
E06000004,5.3062906,8.0
E08000030,26.434576,30.0
E08000032,17.577154,20.0
E10000017,49.36355,86.0
E08000004,14.2043915,13.0
E08000035,24.013239,24.0
E06000011,8.016164,15.0
E10000032,22.4654,31.0
E06000038,11.487819,5.0
E06000041,9.600899,7.0
E09000015,32.744347,26.0
E09000006,32.002132,44.0
E08000011,12.326391,14.0
E06000008,3.4119496,8.0
E06000026,1.6881952,2.0
E06000059,5.741009,5.0
E06000034,7.7531934,10.0
E10000014,64.40797,79.0
E06000016,0.85651237,27.0
E06000035,7.665786,17.0
E08000014,15.960454,32.0
E06000056,8.969414,18.0
E10000003,17.06309,20.0
E09000004,18.186344,20.0
E10000018,7.324784,44.0
E08000012,35.765503,41.0
E06000012,1.3020735,2.0
E10000027,4.4360394,8.0
E06000014,0.0,5.0
E08000036,39.179863,46.0
E09000008,13.280402,16.0
E06000046,0.0,1.0
E06000030,2.4140193,4.0
E06000054,4.40898,10.0
E08000005,11.2082615,19.0
E06000027,0.4760607,7.0
E10000016,63.845825,93.0
E10000030,61.923454,65.0
E08000013,17.286669,18.0
E06000033,9.044758,15.0
E08000016,17.126293,33.0
E09000016,10.450093,26.0
E06000051,12.85258,9.0
E08000037,9.036095,19.0
E06000052,11.372355,20.0
E09000010,15.062916,26.0
E10000021,27.886908,48.0
E06000039,7.746516,6.0
E08000024,11.401744,46.0
E09000027,18.212631,16.0
E09000009,35.27244,39.0
E10000020,22.920454,25.0
E10000023,16.48337,19.0
E10000029,18.013617,26.0
E06000045,9.750087,19.0
E08000018,22.652462,29.0
E10000034,31.533806,38.0
E06000018,8.526712,14.0
E08000019,65.68515,110.0
E06000017,0.0,2.0
E08000010,12.697251,24.0
E09000003,46.96662,45.0
E10000028,43.597095,41.0
E10000008,14.155877,15.0
E08000025,99.64916,131.0
E10000031,28.526968,20.0
E08000007,13.116187,18.0
E06000013,3.7036355,7.0
E06000005,0.28139907,2.0
E08000015,17.623743,16.0
E06000042,0.0,17.0
E06000009,1.6866652,12.0
E10000007,33.60766,51.0
E09000001,0.073762044,1.0
E09000022,38.52239,41.0
E06000047,16.722748,25.0
E06000037,4.259295,4.0
E08000026,20.56916,29.0
E09000002,12.590464,18.0
E09000018,19.893234,22.0
E06000043,9.792504,6.0
E06000020,8.203729,6.0
E06000057,8.704861,17.0
E06000006,0.98488724,9.0
E08000003,25.121326,33.0
E10000015,66.77973,77.0
E06000024,2.9122295,4.0
E08000023,3.017161,13.0
E06000036,2.611213,9.0
E10000011,13.281103,27.0
E06000031,1.810241,4.0
E08000021,27.361012,34.0
E10000002,19.911842,23.0
E06000044,4.465386,1.0
E08000031,20.830666,23.0
E09000020,14.42063,18.0
E06000003,6.96541,8.0
E08000002,8.13107,6.0
E10000012,68.56001,87.0
E09000005,54.062046,46.0
E06000007,8.3680105,19.0
E09000023,7.2723336,5.0
E08000033,29.83217,38.0
E09000021,14.166306,12.0
E09000029,9.042516,19.0
E08000022,9.870685,19.0
E06000015,11.093925,24.0
