n,o,l
terni,9.274806,6.0
pistoia,21.456247,13.0
rieti,0.04458742,0.0
pesaro_e_urbino,95.5765,34.0
caserta,9.461161,15.0
brescia,494.36636,166.0
padova,113.39467,79.0
savona,13.1241455,0.0
cremona,208.2363,57.0
vicenza,67.6209,94.0
udine,42.225555,73.0
livorno,14.655323,9.0
bergamo,507.70218,273.0
campobasso,2.2573113,5.0
cosenza,4.481213,1.0
torino,289.4853,477.0
lecce,12.117198,3.0
lecco,93.88228,34.0
benevento,0.0,1.0
ferrara,17.465391,106.0
roma,128.6592,117.0
napoli,54.049458,70.0
salerno,16.768175,26.0
chieti,9.945533,7.0
vercelli,27.066015,18.0
firenze,63.363506,83.0
ascoli_piceno,3.9152033,1.0
foggia,25.46961,19.0
enna,2.443196,23.0
reggio_calabria,9.201264,4.0
matera,0.0,1.0
cuneo,71.35164,41.0
venezia,41.415718,82.0
grosseto,10.376728,9.0
massa_carrara,28.484713,15.0
caltanissetta,0.9688529,10.0
nuoro,0.0,0.0
biella,32.673943,17.0
mantova,99.665726,97.0
la_spezia,4.795922,18.0
palermo,7.8052216,6.0
gorizia,0.028099135,4.0
latina,23.9732,14.0
fermo,12.522633,7.0
piacenza,132.99803,31.0
trento,110.78782,111.0
lucca,38.39044,12.0
sassari,41.179768,38.0
genova,75.59851,132.0
isernia,0.0,25.0
oristano,0.0,1.0
vibo_valentia,0.0,3.0
aosta,103.53427,168.0
pavia,50.740295,29.0
reggio_emilia,179.543,108.0
rimini,93.39003,12.0
milano,615.3268,428.0
treviso,95.56746,30.0
viterbo,7.3971934,14.0
crotone,5.2740216,0.0
siracusa,1.7085342,1.0
pescara,42.699112,31.0
teramo,15.732041,19.0
sondrio,30.069479,26.0
siena,14.533396,2.0
ravenna,38.830673,32.0
potenza,6.5762253,2.0
forli_cesena,42.311222,58.0
cagliari,1.7585915,10.0
trapani,0.091578856,13.0
imperia,14.549131,0.0
arezzo,25.288376,12.0
varese,33.311478,63.0
ancona,71.30926,27.0
parma,95.557304,118.0
messina,18.688972,7.0
bolzano_bozen,82.32108,33.0
prato,12.270877,9.0
frosinone,4.4369993,10.0
ragusa,0.0,1.0
verona,132.04509,59.0
catania,25.311646,10.0
pordenone,19.678427,9.0
alessandria,98.97234,100.0
novara,56.16132,8.0
pisa,26.735657,37.0
catanzaro,2.9551027,0.0
macerata,34.180626,37.0
bari,29.303913,21.0
verbano_cusio_ossola,18.234056,30.0
avellino,14.499255,11.0
rovigo,6.8189716,4.0
asti,16.415325,37.0
brindisi,7.2705092,16.0
belluno,23.23632,23.0
trieste,26.086811,22.0
modena,117.14064,53.0
como,57.166176,63.0
lodi,78.63953,24.0
barletta_andria_trani,1.8383807,0.0
agrigento,0.040726013,2.0
la_aquila,0.17975235,8.0
perugia,51.05984,21.0
taranto,1.7181486,2.0
bologna,74.11595,90.0
