n,o,l
granada,42.724133,55.0
palencia,17.203596,30.0
segovia,85.548454,43.0
valencia,85.20086,83.0
tarragona,8.103621,7.0
cadiz,20.099405,12.0
huelva,34.744236,38.0
caceres,63.154617,40.0
alicante,57.21818,14.0
cordoba,0.34118125,33.0
gipuzkoa,29.292406,10.0
cuenca,49.51107,16.0
sevilla,0.34206477,55.0
guadalajara,72.5991,70.0
salamanca,0.3411991,77.0
toledo,0.34162232,88.0
ciudad_real,16.147223,13.0
badajoz,815.50604,501.0
barcelona,30.650585,24.0
avila,48.833065,12.0
lleida,55.672325,10.0
araba/alava,11.527092,3.0
albacete,0.34202382,23.0
almeria,11.831534,3.0
zamora,47.341522,0.0
girona,169.41396,35.0
bizkaia,17.504183,6.0
soria,42.39451,94.0
burgos,21.466831,27.0
jaen,24.79789,12.0
valladolid,73.67715,31.0
malaga,49.909946,15.0
leon,38.781715,13.0
castellon,22.818085,10.0
