n,o,l
charente_maritime,3.4322145,4.0
vienne,0.0,0.0
aude,7.8691707,8.0
haute_loire,0.022087194,1.0
haute_savoie,39.33316,8.0
dordogne,0.0,1.0
correze,0.0,0.0
indre_et_loire,3.422068,3.0
saone_et_loire,4.2811546,18.0
loire_atlantique,1.1446023,0.0
haute_vienne,0.19683643,2.0
drome,8.539813,5.0
cote_d'or,1.9499282,3.0
landes,221.54195,171.0
paris,0.0,0.0
charente,0.0,0.0
meurthe_et_moselle,5.1007385,16.0
essonne,82.35358,103.0
marne,14.369473,18.0
seine_saint_denis,112.33749,109.0
moselle,10.742155,74.0
bas_rhin,21.848238,12.0
pas_de_calais,3.042844,27.0
nord,17.74751,28.0
loiret,14.36345,19.0
nievre,0.26124328,35.0
alpes_maritimes,17.220396,30.0
pyrenees_atlantiques,2.5630367,2.0
val_d'oise,128.94797,32.0
meuse,0.05175163,3.0
mayenne,0.0,0.0
val_de_marne,73.66699,90.0
hautes_pyrenees,0.37520695,6.0
lot,0.0,0.0
isere,11.191154,2.0
gironde,18.974205,11.0
yvelines,52.32545,34.0
yonne,0.4951284,2.0
haute_saone,14.956597,6.0
somme,13.843238,19.0
eure_et_loir,23.288595,37.0
manche,5.0331006,21.0
indre,2.602268,7.0
haute_marne,0.0,1.0
haut_rhin,38.56264,33.0
maine_et_loire,0.0,0.0
jura,0.0,2.0
savoie,0.0,1.0
ardennes,0.0,12.0
haute_garonne,16.524662,12.0
rhone,14.537476,3.0
ardeche,3.5594494,5.0
aisne,9.802737,17.0
vosges,21.440657,10.0
gers,2.3704083,8.0
oise,49.961075,60.0
hauts_de_seine,162.42226,95.0
territoire_de_belfort,4.7301016,4.0
lot_et_garonne,0.0,1.0
eure,9.798172,26.0
tarn,0.0052627996,0.0
cher,16.203257,6.0
aube,11.648918,26.0
vaucluse,8.306383,3.0
pyrenees_orientales,0.0,3.0
var,26.164898,13.0
cantal,0.0,1.0
doubs,10.416726,7.0
seine_et_marne,42.611526,96.0
ain,6.1436443,6.0
calvados,11.864415,7.0
herault,94.859604,14.0
bouches_du_rhone,196.81631,102.0
puy_de_dome,6.0783157,8.0
tarn_et_garonne,0.40742052,3.0
loire,0.0,0.0
gard,5.526494,7.0
loir_et_cher,3.5894768,1.0
alpes_de_haute_provence,0.0,0.0
orne,2.6359694,1.0
seine_maritime,21.881796,23.0
