n,o,l
E10000013,22.33844,17.0
E08000001,18.599361,15.0
E06000032,11.990622,1.0
E08000034,8.818819,11.0
E06000022,2.1864152,1.0
E10000006,28.917141,76.0
E10000025,32.42991,12.0
E08000009,10.673222,11.0
E06000049,22.0437,19.0
E10000024,15.30455,34.0
E09000017,12.966505,5.0
E08000027,6.338411,25.0
E06000021,14.679254,12.0
E10000019,16.910095,14.0
E08000008,5.5028076,10.0
E09000026,5.5730443,4.0
E06000001,6.57218,10.0
E06000050,19.646025,14.0
E08000017,15.27922,29.0
E06000055,11.959038,14.0
E06000040,2.4645908,4.0
E06000002,12.680349,3.0
E06000004,6.7314076,6.0
E08000030,23.858381,10.0
E08000032,28.035902,50.0
E10000017,61.161045,43.0
E08000004,13.847721,20.0
E08000035,43.89986,35.0
E06000011,18.716244,34.0
E10000032,20.831772,25.0
E06000038,10.684079,13.0
E06000041,10.546817,7.0
E09000015,11.347378,28.0
E09000006,10.930883,30.0
E08000011,9.436331,15.0
E06000008,5.7439103,10.0
E06000026,7.006974,4.0
E06000059,4.703135,5.0
E06000034,3.4022202,5.0
E10000014,51.368153,39.0
E06000016,15.31857,13.0
E06000035,9.842669,9.0
E08000014,11.312635,15.0
E06000056,12.320001,7.0
E10000003,18.01733,23.0
E09000004,7.630365,5.0
E10000018,19.198086,21.0
E08000012,21.60152,23.0
E06000012,2.494028,0.0
E10000027,11.680888,21.0
E06000014,7.373261,19.0
E08000036,7.3208327,9.0
E09000008,12.533268,6.0
E06000046,2.7660286,8.0
E06000030,6.7482786,5.0
E06000054,6.325267,16.0
E08000005,10.769479,7.0
E06000027,8.151059,0.0
E10000016,95.43963,88.0
E10000030,44.118706,28.0
E08000013,15.930394,5.0
E06000033,3.0635777,4.0
E08000016,14.602088,14.0
E09000016,5.4173126,2.0
E06000051,13.570832,13.0
E08000037,19.73934,36.0
E06000052,5.7261167,13.0
E09000010,13.099154,6.0
E10000021,7.147072,15.0
E06000039,18.834826,4.0
E08000024,3.8313863,26.0
E09000027,1.2844377,10.0
E09000009,8.9256935,18.0
E10000020,43.329285,46.0
E10000023,24.254025,36.0
E10000029,8.272259,19.0
E06000045,30.603779,10.0
E08000018,16.751255,20.0
E10000034,17.25458,17.0
E06000018,11.26448,6.0
E08000019,38.480656,39.0
E06000017,2.0011907,0.0
E08000010,19.538155,13.0
E09000003,8.927308,12.0
E10000028,42.298218,32.0
E10000008,11.073851,23.0
E08000025,46.49522,44.0
E10000031,26.018917,23.0
E08000007,15.761816,21.0
E06000013,12.799216,7.0
E06000005,5.275372,11.0
E08000015,18.489723,14.0
E06000042,4.4061184,15.0
E06000009,15.157207,12.0
E10000007,1.9759853,22.0
E09000001,30.019648,0.0
E09000022,7.9419174,7.0
E06000047,36.016808,64.0
E06000037,6.087759,11.0
E08000026,14.127607,12.0
E09000002,3.0136554,2.0
E09000018,5.4022903,8.0
E06000043,2.4427392,5.0
E06000020,6.3277855,9.0
E06000057,14.050752,18.0
E06000006,2.88183,7.0
E08000003,20.277489,17.0
E10000015,36.03692,62.0
E06000024,4.016982,8.0
E08000023,16.202847,13.0
E06000036,2.6046994,3.0
E10000011,8.655953,13.0
E06000031,6.9325094,7.0
E08000021,13.308313,12.0
E10000002,15.901629,5.0
E06000044,3.811761,0.0
E08000031,23.332428,36.0
E09000020,2.6384668,0.0
E06000003,8.003849,7.0
E08000002,10.859996,7.0
E10000012,63.869625,48.0
E09000005,8.970945,9.0
E06000007,13.3590355,11.0
E09000023,3.3501334,1.0
E08000033,5.2478557,4.0
E09000021,3.858938,6.0
E09000029,6.0682297,10.0
E08000022,5.68345,7.0
E06000015,5.2471085,9.0
