n,o,l
E10000013,13.755393,7.0
E08000001,12.035818,8.0
E06000032,0.0,1.0
E08000034,14.42349,6.0
E06000022,1.1128867,2.0
E10000006,17.106304,30.0
E10000025,37.186527,18.0
E08000009,7.403416,6.0
E06000049,15.666418,14.0
E10000024,17.558317,11.0
E09000017,24.166494,9.0
E08000027,2.8480241,3.0
E06000021,14.377464,18.0
E10000019,9.506321,50.0
E08000008,6.2925816,4.0
E09000026,3.8749616,9.0
E06000001,3.9330966,10.0
E06000050,14.610004,9.0
E08000017,20.140299,0.0
E06000055,7.668362,9.0
E06000040,2.1471634,2.0
E06000002,6.149532,7.0
E06000004,6.4706926,7.0
E08000030,12.956227,3.0
E08000032,26.183132,17.0
E10000017,39.251778,22.0
E08000004,15.435989,26.0
E08000035,24.66286,37.0
E06000011,19.590708,12.0
E10000032,16.303371,7.0
E06000038,5.3751607,2.0
E06000041,5.5855618,6.0
E09000015,9.0334835,11.0
E09000006,13.501252,13.0
E08000011,7.6196837,2.0
E06000008,5.0476513,7.0
E06000026,1.5719851,6.0
E06000059,5.336541,1.0
E06000034,2.85449,3.0
E10000014,34.020676,21.0
E06000016,8.121447,8.0
E06000035,6.3309345,5.0
E08000014,8.877844,3.0
E06000056,4.959985,5.0
E10000003,20.385424,22.0
E09000004,5.592524,4.0
E10000018,12.79736,18.0
E08000012,15.334907,2.0
E06000012,0.25942785,1.0
E10000027,10.252795,4.0
E06000014,8.571487,14.0
E08000036,8.857724,15.0
E09000008,10.674281,4.0
E06000046,5.5270367,4.0
E06000030,5.1107745,9.0
E06000054,8.040823,6.0
E08000005,5.2560396,12.0
E06000027,0.59792304,2.0
E10000016,60.726185,53.0
E10000030,21.852436,13.0
E08000013,5.3764863,4.0
E06000033,3.3188977,7.0
E08000016,11.551933,7.0
E09000016,1.3171908,0.0
E06000051,9.381444,26.0
E08000037,18.623482,20.0
E06000052,3.6114345,4.0
E09000010,2.6974752,1.0
E10000021,9.524975,19.0
E06000039,17.797733,0.0
E08000024,7.664047,10.0
E09000027,4.5737214,4.0
E09000009,11.260565,14.0
E10000020,37.885494,23.0
E10000023,24.079144,15.0
E10000029,7.3647723,25.0
E06000045,24.474344,6.0
E08000018,12.694087,11.0
E10000034,12.528626,10.0
E06000018,6.5849676,5.0
E08000019,26.419912,13.0
E06000017,0.021823429,1.0
E08000010,12.753336,12.0
E09000003,6.065349,5.0
E10000028,27.506466,18.0
E10000008,9.915175,4.0
E08000025,26.223896,24.0
E10000031,17.104376,10.0
E08000007,14.333498,8.0
E06000013,9.484449,3.0
E06000005,5.9935694,4.0
E08000015,11.058494,11.0
E06000042,5.7465854,2.0
E06000009,7.451053,3.0
E10000007,13.82706,29.0
E09000001,0.613148,0.0
E09000022,5.055782,7.0
E06000047,43.480038,21.0
E06000037,3.606954,1.0
E08000026,12.965245,5.0
E09000002,1.0040352,6.0
E09000018,7.3016677,5.0
E06000043,1.4361744,0.0
E06000020,4.6503806,1.0
E06000057,12.35338,10.0
E06000006,2.9560318,3.0
E08000003,13.20678,17.0
E10000015,38.376755,19.0
E06000024,5.3786993,6.0
E08000023,11.925188,5.0
E06000036,1.2043636,2.0
E10000011,7.855757,3.0
E06000031,5.7654614,36.0
E08000021,13.603543,16.0
E10000002,6.5646825,8.0
E06000044,0.9220643,1.0
E08000031,15.48571,13.0
E09000020,1.7024678,6.0
E06000003,3.8156104,7.0
E08000002,6.0139427,4.0
E10000012,39.094997,47.0
E09000005,9.085403,5.0
E06000007,8.103575,4.0
E09000023,1.789365,5.0
E08000033,4.0489144,4.0
E09000021,5.0165005,1.0
E09000029,5.6346283,3.0
E08000022,5.8885202,6.0
E06000015,3.0230386,5.0
