n,o,l
siracusa,0.44116864,0.0
asti,6.2797656,12.0
oristano,0.21300358,1.0
grosseto,0.0,0.0
sondrio,4.27382,7.0
ascoli_piceno,0.0,0.0
savona,4.941458,21.0
reggio_emilia,4.399955,11.0
torino,43.680725,98.0
rovigo,0.91973996,0.0
frosinone,0.0,0.0
campobasso,0.0061906576,2.0
cosenza,0.57403773,0.0
trapani,0.0,0.0
pavia,13.4253,70.0
cuneo,8.1222925,28.0
genova,15.551038,45.0
treviso,3.108061,3.0
barletta_andria_trani,0.29472822,1.0
udine,0.26339173,1.0
brescia,14.372057,99.0
ravenna,0.72388905,4.0
latina,0.64918846,2.0
gorizia,0.78787756,1.0
pordenone,0.29548568,1.0
massa_carrara,0.7035574,0.0
la_aquila,0.0,0.0
prato,0.62122285,2.0
rieti,0.9292668,1.0
aosta,0.08770067,3.0
ragusa,0.36633083,0.0
fermo,0.37432253,1.0
milano,46.858597,313.0
firenze,6.9744306,15.0
arezzo,0.48384732,2.0
bolzano_bozen,2.5773401,1.0
piacenza,10.142637,9.0
ancona,0.7975603,2.0
napoli,3.6809177,15.0
reggio_calabria,0.0,0.0
novara,4.11478,5.0
pistoia,0.6986728,0.0
lodi,4.849737,41.0
la_spezia,0.6881995,3.0
brindisi,0.83372134,7.0
taranto,0.0,3.0
potenza,0.0,1.0
perugia,0.0,1.0
alessandria,11.42107,16.0
enna,0.57255965,3.0
imperia,1.5777825,6.0
vercelli,2.022497,3.0
foggia,1.7340623,11.0
lecce,4.282111,10.0
lecco,1.9322848,3.0
padova,0.19835177,1.0
messina,0.12474448,2.0
lucca,1.0325859,4.0
palermo,0.66340727,1.0
livorno,0.081882656,0.0
benevento,0.007111348,0.0
catanzaro,0.0,1.0
bari,2.813613,5.0
caltanissetta,0.0,0.0
isernia,0.0,1.0
biella,3.0624712,4.0
verona,13.937458,29.0
caserta,0.23131949,1.0
chieti,1.9958112,0.0
varese,5.458787,127.0
teramo,0.0,0.0
macerata,1.1368324,5.0
cagliari,0.0,0.0
terni,0.0,2.0
nuoro,0.0,0.0
trento,12.199247,19.0
salerno,0.0,2.0
pesaro_e_urbino,2.0395226,18.0
venezia,3.6486495,31.0
siena,0.0,0.0
vibo_valentia,0.0,0.0
matera,0.0,2.0
forli_cesena,2.4194887,19.0
parma,4.19819,14.0
trieste,3.7074537,6.0
roma,10.373884,75.0
ferrara,1.6604866,11.0
belluno,3.065644,1.0
sassari,0.44101933,1.0
avellino,0.0,5.0
agrigento,0.0,0.0
como,12.607393,37.0
cremona,6.914313,21.0
catania,2.3884077,9.0
bologna,8.679251,27.0
pisa,0.50160533,2.0
viterbo,0.53209,2.0
pescara,1.8584126,25.0
rimini,2.4685793,1.0
mantova,4.3509617,2.0
vicenza,4.5533733,10.0
verbano_cusio_ossola,1.3192176,1.0
modena,3.08702,8.0
crotone,0.0,0.0
bergamo,8.763269,37.0
