n,o,l
granada,44.312447,15.0
palencia,38.034264,1.0
segovia,48.86668,19.0
valencia,54.08932,119.0
tarragona,32.57254,0.0
cadiz,35.20356,0.0
huelva,32.134968,7.0
caceres,54.08623,3.0
alicante,21.745983,15.0
cordoba,58.49603,3.0
gipuzkoa,32.527092,0.0
cuenca,32.799976,90.0
sevilla,36.94559,3.0
guadalajara,45.93535,58.0
salamanca,54.289692,19.0
toledo,56.28696,24.0
ciudad_real,28.934294,30.0
badajoz,168.83524,0.0
barcelona,47.85259,0.0
avila,33.509113,21.0
lleida,34.38998,0.0
araba/alava,32.935215,0.0
albacete,53.320618,19.0
almeria,31.177864,0.0
zamora,43.126625,0.0
girona,42.868057,0.0
bizkaia,39.17409,0.0
soria,34.027462,32.0
burgos,87.83949,44.0
jaen,37.693027,3.0
valladolid,41.008835,9.0
malaga,54.275574,10.0
leon,28.799297,11.0
castellon,22.694494,14.0
