n,o,l
granada,33.168835,39.0
palencia,13.807261,47.0
segovia,57.648705,101.0
valencia,78.1188,179.0
tarragona,6.8261447,8.0
cadiz,17.306063,14.0
huelva,27.471355,152.0
caceres,50.617897,112.0
alicante,35.35793,71.0
cordoba,23.119053,0.0
gipuzkoa,0.15826775,20.0
cuenca,39.61259,60.0
sevilla,0.1574046,0.0
guadalajara,47.467594,95.0
salamanca,0.15792054,0.0
toledo,0.15833502,0.0
ciudad_real,10.24386,61.0
badajoz,572.1976,895.0
barcelona,29.029268,34.0
avila,21.95812,53.0
lleida,42.876637,82.0
araba/alava,0.15753642,3.0
albacete,9.784874,0.0
almeria,10.0441675,38.0
zamora,73.13113,0.0
girona,123.479546,259.0
bizkaia,20.48716,26.0
soria,37.80729,58.0
burgos,16.180153,46.0
jaen,37.45322,42.0
valladolid,20.918516,139.0
malaga,30.993792,16.0
leon,44.9162,0.0
castellon,25.876945,76.0
