n,o,l
siracusa,0.07598749,7.0
asti,0.13831718,11.0
oristano,0.05122533,1.0
grosseto,0.37089935,8.0
sondrio,0.7674352,1.0
ascoli_piceno,0.25788227,2.0
savona,0.6687956,26.0
reggio_emilia,1.7861035,115.0
torino,3.7144902,293.0
rovigo,0.1713617,5.0
frosinone,0.18856907,5.0
campobasso,0.014084179,0.0
cosenza,0.37671015,4.0
trapani,0.07246967,2.0
pavia,3.8919466,94.0
cuneo,0.73930955,30.0
genova,3.4764493,48.0
treviso,1.5244746,89.0
barletta_andria_trani,0.27356315,0.0
udine,0.5914403,29.0
brescia,6.891134,484.0
ravenna,0.8795074,29.0
latina,0.22141615,0.0
gorizia,0.17407069,0.0
pordenone,0.04772804,22.0
massa_carrara,1.4571546,33.0
la_aquila,0.11458467,1.0
prato,0.1714796,6.0
rieti,0.0,0.0
aosta,0.38153392,29.0
ragusa,0.026264023,2.0
fermo,0.30399376,10.0
milano,6.4333477,318.0
firenze,1.465277,81.0
arezzo,1.1274773,71.0
bolzano_bozen,1.738919,85.0
piacenza,7.9280252,136.0
ancona,1.5309851,47.0
napoli,1.2896092,0.0
reggio_calabria,0.5643071,1.0
novara,1.2121304,40.0
pistoia,0.4317599,22.0
lodi,1.1949847,27.0
la_spezia,0.4726637,18.0
brindisi,0.5401413,13.0
taranto,0.18720989,2.0
potenza,0.1473535,6.0
perugia,1.2346388,35.0
alessandria,0.77346265,51.0
enna,0.021891076,0.0
imperia,0.61182725,23.0
vercelli,0.91361785,18.0
foggia,1.1418496,0.0
lecce,1.7453899,26.0
lecco,1.9902847,101.0
padova,0.076838925,0.0
messina,0.7520436,3.0
lucca,2.1700487,26.0
palermo,0.053423572,7.0
livorno,0.026697986,0.0
benevento,0.56887996,3.0
catanzaro,0.19447301,6.0
bari,1.2631887,17.0
caltanissetta,0.0,2.0
isernia,0.025686346,1.0
biella,0.27952412,13.0
verona,2.5514436,145.0
caserta,0.05284157,0.0
chieti,0.0,3.0
varese,1.3998615,31.0
teramo,0.036828466,8.0
macerata,0.9364051,32.0
cagliari,0.03321431,5.0
terni,0.12641494,11.0
nuoro,0.0,0.0
trento,2.4004745,70.0
salerno,0.68360835,0.0
pesaro_e_urbino,5.294471,98.0
venezia,1.4068589,48.0
siena,0.19824088,4.0
vibo_valentia,0.15923947,0.0
matera,0.032046523,1.0
forli_cesena,1.3302069,27.0
parma,4.511039,0.0
trieste,0.0,3.0
roma,3.4408493,104.0
ferrara,0.41422972,6.0
belluno,0.04425853,31.0
sassari,0.4595493,11.0
avellino,0.46779937,0.0
agrigento,0.0,2.0
como,1.2970707,30.0
cremona,8.171666,94.0
catania,0.40580592,23.0
bologna,1.7403773,62.0
pisa,0.9635335,23.0
viterbo,0.016228247,8.0
pescara,0.9163815,22.0
rimini,0.0,104.0
mantova,4.0572987,49.0
vicenza,1.8138492,68.0
verbano_cusio_ossola,0.88120294,13.0
modena,1.616225,115.0
crotone,0.14258769,2.0
bergamo,13.560027,312.0
