n,o,l
terni,2.2243946,0.0
pistoia,12.215054,8.0
rieti,9.792952,0.0
pesaro_e_urbino,34.2069,17.0
caserta,7.0349727,1.0
brescia,198.49864,24.0
padova,71.438866,16.0
savona,7.993676,13.0
cremona,62.48444,60.0
vicenza,48.841415,18.0
udine,8.597651,1.0
livorno,7.287112,7.0
bergamo,73.72275,66.0
campobasso,0.33286938,2.0
cosenza,4.440039,0.0
torino,252.26813,263.0
lecce,3.260176,5.0
lecco,22.753067,20.0
benevento,3.3282518,0.0
ferrara,14.107799,16.0
roma,75.34431,67.0
napoli,42.13024,22.0
salerno,9.7317705,6.0
chieti,14.633631,17.0
vercelli,27.468153,15.0
firenze,67.205185,79.0
ascoli_piceno,0.13782218,3.0
foggia,19.518547,8.0
enna,2.0340605,0.0
reggio_calabria,0.2098979,0.0
matera,0.0,2.0
cuneo,67.742485,5.0
venezia,49.06697,12.0
grosseto,3.4197218,0.0
massa_carrara,22.704218,2.0
caltanissetta,0.16159645,0.0
nuoro,0.0,0.0
biella,8.608059,30.0
mantova,55.127586,23.0
la_spezia,27.014914,2.0
palermo,6.93879,9.0
gorizia,0.0,1.0
latina,4.561693,9.0
fermo,3.7880447,7.0
piacenza,23.682875,56.0
trento,99.57615,56.0
lucca,16.926857,12.0
sassari,14.621992,6.0
genova,154.76369,156.0
isernia,0.0,2.0
oristano,0.0,2.0
vibo_valentia,0.0,0.0
aosta,64.73643,8.0
pavia,15.453835,6.0
reggio_emilia,98.42973,25.0
rimini,16.638487,3.0
milano,318.3631,463.0
treviso,33.97302,14.0
viterbo,6.2532034,2.0
crotone,0.0,0.0
siracusa,1.795675,10.0
pescara,17.87496,7.0
teramo,13.550304,2.0
sondrio,14.114718,2.0
siena,1.1937817,3.0
ravenna,8.925869,0.0
potenza,0.0,3.0
forli_cesena,29.34897,24.0
cagliari,2.530872,1.0
trapani,0.7393414,1.0
imperia,38.20464,12.0
arezzo,3.7848883,7.0
varese,28.610178,7.0
ancona,55.860615,60.0
parma,30.995346,39.0
messina,6.1466956,3.0
bolzano_bozen,56.677814,5.0
prato,4.2891703,11.0
frosinone,10.261581,7.0
ragusa,0.0,2.0
verona,101.59754,19.0
catania,9.069285,10.0
pordenone,5.61267,8.0
alessandria,61.790646,8.0
novara,15.15761,3.0
pisa,87.72392,6.0
catanzaro,0.11790487,1.0
macerata,23.906935,13.0
bari,14.621882,8.0
verbano_cusio_ossola,38.98855,3.0
avellino,3.099029,4.0
rovigo,8.537981,1.0
asti,21.466383,52.0
brindisi,11.251129,10.0
belluno,12.861783,3.0
trieste,24.917011,4.0
modena,60.291904,24.0
como,35.5662,83.0
lodi,17.8797,23.0
barletta_andria_trani,68.68119,1.0
agrigento,0.0,0.0
la_aquila,2.0151541,0.0
perugia,0.69857454,2.0
taranto,1.7887546,2.0
bologna,85.70547,54.0
