n,o,l
charente_maritime,0.0,1.0
vienne,0.0,0.0
aude,0.0,0.0
haute_loire,0.0,0.0
haute_savoie,1.1463314,0.0
dordogne,0.0,0.0
correze,0.0,0.0
indre_et_loire,0.16819072,0.0
saone_et_loire,0.0,1.0
loire_atlantique,0.0,0.0
haute_vienne,0.19361317,0.0
drome,0.03436934,0.0
cote_d'or,0.0,0.0
landes,13.269385,0.0
paris,0.0,6.0
charente,0.0,0.0
meurthe_et_moselle,0.0,0.0
essonne,5.552993,15.0
marne,0.0,0.0
seine_saint_denis,1.9254076,7.0
moselle,0.0,0.0
bas_rhin,0.9888563,0.0
pas_de_calais,4.03061,2.0
nord,5.1705976,4.0
loiret,0.0,0.0
nievre,0.0,0.0
alpes_maritimes,0.0,0.0
pyrenees_atlantiques,0.0,11.0
val_d'oise,3.1256018,9.0
meuse,0.0,0.0
mayenne,0.0,0.0
val_de_marne,2.4690194,6.0
hautes_pyrenees,0.0,0.0
lot,0.0,0.0
isere,0.0,0.0
gironde,0.0,2.0
yvelines,2.7205887,5.0
yonne,0.0,0.0
haute_saone,0.2019107,0.0
somme,4.2220063,2.0
eure_et_loir,2.1098547,0.0
manche,0.007723391,0.0
indre,0.0,0.0
haute_marne,0.0,0.0
haut_rhin,0.0,0.0
maine_et_loire,0.0,0.0
jura,2.6112633,0.0
savoie,0.0,0.0
ardennes,0.19656384,6.0
haute_garonne,1.7524031,11.0
rhone,0.06866499,0.0
ardeche,0.0,0.0
aisne,0.36240882,6.0
vosges,1.184051,0.0
gers,0.4430222,1.0
oise,13.268805,15.0
hauts_de_seine,0.6947147,12.0
territoire_de_belfort,0.0,0.0
lot_et_garonne,0.0,0.0
eure,0.8916224,3.0
tarn,0.0,0.0
cher,1.9409983,2.0
aube,0.0,4.0
vaucluse,0.0,1.0
pyrenees_orientales,0.0,0.0
var,4.1571507,2.0
cantal,0.0,0.0
doubs,0.0,0.0
seine_et_marne,3.8239841,8.0
ain,0.0,4.0
calvados,0.0,0.0
herault,8.881867,7.0
bouches_du_rhone,22.214195,14.0
puy_de_dome,0.44071436,3.0
tarn_et_garonne,0.0,0.0
loire,0.0,0.0
gard,6.1927824,3.0
loir_et_cher,0.0,0.0
alpes_de_haute_provence,0.0,1.0
orne,0.0,0.0
seine_maritime,0.017991245,2.0
