n,o,l
siracusa,0.033160996,3.0
asti,2.0769796,32.0
oristano,0.3178704,8.0
grosseto,0.0032075085,1.0
sondrio,2.066961,2.0
ascoli_piceno,0.0,2.0
savona,0.0,15.0
reggio_emilia,7.9966574,37.0
torino,26.56745,387.0
rovigo,1.4276564,4.0
frosinone,0.28082582,5.0
campobasso,0.0,5.0
cosenza,0.32938474,10.0
trapani,0.59439087,0.0
pavia,9.152641,58.0
cuneo,4.5506687,83.0
genova,1.3516968,35.0
treviso,2.0872357,102.0
barletta_andria_trani,1.194765,3.0
udine,3.9561741,2.0
brescia,14.612676,6.0
ravenna,2.2205622,212.0
latina,1.2899562,9.0
gorizia,0.17182751,0.0
pordenone,0.7514539,1.0
massa_carrara,2.0505078,19.0
la_aquila,1.0420668,1.0
prato,0.5504608,9.0
rieti,1.6167243,1.0
aosta,2.8701174,22.0
ragusa,0.11241455,0.0
fermo,0.6610651,1.0
milano,32.28823,325.0
firenze,9.58114,51.0
arezzo,0.6924672,11.0
bolzano_bozen,5.921042,29.0
piacenza,1.8825356,25.0
ancona,2.5691574,22.0
napoli,6.7903986,37.0
reggio_calabria,0.35655028,0.0
novara,2.4792914,30.0
pistoia,0.99008715,11.0
lodi,2.0660033,52.0
la_spezia,2.0523047,5.0
brindisi,1.0790719,11.0
taranto,0.6300924,0.0
potenza,0.34702647,0.0
perugia,1.698195,4.0
alessandria,9.357008,116.0
enna,1.2039196,17.0
imperia,0.0,35.0
vercelli,3.3308394,23.0
foggia,1.6025593,27.0
lecce,2.8449163,19.0
lecco,8.197532,54.0
padova,0.6940881,11.0
messina,0.96873415,7.0
lucca,1.5371791,24.0
palermo,0.22235022,5.0
livorno,0.0,7.0
benevento,0.24630028,10.0
catanzaro,0.04027822,1.0
bari,2.030098,21.0
caltanissetta,0.31341037,0.0
isernia,0.3316119,0.0
biella,1.2165991,9.0
verona,4.446211,75.0
caserta,0.7775539,0.0
chieti,0.2687143,54.0
varese,8.363155,68.0
teramo,1.1500611,5.0
macerata,2.6949675,24.0
cagliari,0.4532583,3.0
terni,0.68189025,4.0
nuoro,0.0,0.0
trento,8.363887,82.0
salerno,2.1809814,12.0
pesaro_e_urbino,3.8380249,28.0
venezia,3.7832716,60.0
siena,0.5979465,8.0
vibo_valentia,0.24168742,0.0
matera,0.03346623,1.0
forli_cesena,4.6423225,33.0
parma,5.2053394,27.0
trieste,2.054244,56.0
roma,7.7654123,121.0
ferrara,3.96076,35.0
belluno,1.8025405,52.0
sassari,1.9337453,10.0
avellino,2.2373402,7.0
agrigento,0.0058273897,0.0
como,6.291636,52.0
cremona,3.9931324,40.0
catania,0.9063935,10.0
bologna,8.735076,129.0
pisa,0.89117813,16.0
viterbo,1.0350382,8.0
pescara,1.3203857,37.0
rimini,1.6460994,17.0
mantova,6.1953483,57.0
vicenza,6.938826,30.0
verbano_cusio_ossola,4.914456,7.0
modena,6.6588755,39.0
crotone,0.28065184,0.0
bergamo,14.17065,72.0
