n,o,l
siracusa,0.5300925,1.0
asti,7.5347905,0.0
oristano,0.14614937,3.0
grosseto,0.0,42.0
sondrio,3.5046852,33.0
ascoli_piceno,0.0,1.0
savona,4.0341897,57.0
reggio_emilia,9.473796,32.0
torino,46.901978,321.0
rovigo,2.5123138,3.0
frosinone,0.93238175,0.0
campobasso,0.33495858,5.0
cosenza,1.7583568,8.0
trapani,0.0,0.0
pavia,8.525958,45.0
cuneo,8.999558,100.0
genova,9.167284,45.0
treviso,6.0735083,19.0
barletta_andria_trani,0.051453166,4.0
udine,0.47205305,2.0
brescia,20.34534,65.0
ravenna,0.41963646,6.0
latina,0.6087384,11.0
gorizia,0.0,6.0
pordenone,0.3331437,1.0
massa_carrara,1.302685,11.0
la_aquila,0.0,0.0
prato,0.69033575,9.0
rieti,0.0,1.0
aosta,4.0373993,0.0
ragusa,0.0,4.0
fermo,0.092071876,4.0
milano,45.42478,219.0
firenze,7.0448775,75.0
arezzo,1.0073605,4.0
bolzano_bozen,4.071338,20.0
piacenza,6.631492,60.0
ancona,2.3359056,4.0
napoli,4.472016,19.0
reggio_calabria,0.0,0.0
novara,6.4851017,31.0
pistoia,0.5489589,9.0
lodi,2.8256612,67.0
la_spezia,1.7212572,4.0
brindisi,1.8208224,7.0
taranto,0.034906954,0.0
potenza,0.0,0.0
perugia,0.18676129,3.0
alessandria,10.018722,66.0
enna,0.6453755,0.0
imperia,1.6505053,19.0
vercelli,1.9785872,8.0
foggia,3.224657,9.0
lecce,3.066492,8.0
lecco,5.171061,8.0
padova,1.4553311,5.0
messina,0.5984007,4.0
lucca,2.1921692,14.0
palermo,0.381003,12.0
livorno,0.18484601,2.0
benevento,0.87779295,2.0
catanzaro,0.0,0.0
bari,3.3066945,6.0
caltanissetta,0.0,0.0
isernia,0.0,0.0
biella,2.8087394,7.0
verona,10.585905,75.0
caserta,0.0,15.0
chieti,1.7881866,19.0
varese,8.332823,31.0
teramo,0.010253683,1.0
macerata,1.4481498,9.0
cagliari,0.36514652,1.0
terni,0.21147767,0.0
nuoro,0.09098942,2.0
trento,7.968222,2.0
salerno,0.78104544,62.0
pesaro_e_urbino,2.0969586,10.0
venezia,3.451696,2.0
siena,0.55298793,2.0
vibo_valentia,0.0,0.0
matera,0.057626914,1.0
forli_cesena,2.1824725,15.0
parma,4.3325315,23.0
trieste,2.5639598,13.0
roma,11.171228,73.0
ferrara,2.6258304,8.0
belluno,5.481711,5.0
sassari,0.70125127,11.0
avellino,0.15855087,2.0
agrigento,0.0,0.0
como,9.760319,71.0
cremona,11.093898,39.0
catania,3.508903,17.0
bologna,8.886249,69.0
pisa,0.7800559,9.0
viterbo,0.30736053,4.0
pescara,4.5729537,9.0
rimini,1.2839673,7.0
mantova,7.34285,25.0
vicenza,5.6655774,53.0
verbano_cusio_ossola,0.8831247,19.0
modena,5.410361,19.0
crotone,0.0,0.0
bergamo,7.0691075,45.0
