n,o,l
terni,6.0033407,1.0
pistoia,7.54744,3.0
rieti,9.749641,0.0
pesaro_e_urbino,34.54513,41.0
caserta,5.814462,6.0
brescia,263.21356,190.0
padova,100.69514,44.0
savona,3.5028281,0.0
cremona,103.382164,224.0
vicenza,61.631348,25.0
udine,14.6866865,11.0
livorno,10.970116,6.0
bergamo,272.11465,82.0
campobasso,5.0109076,0.0
cosenza,9.67831,4.0
torino,253.20546,190.0
lecce,15.097861,6.0
lecco,53.227505,30.0
benevento,4.149699,0.0
ferrara,14.067183,2.0
roma,112.30825,116.0
napoli,56.364037,61.0
salerno,18.32105,5.0
chieti,15.926028,13.0
vercelli,19.944658,13.0
firenze,57.366055,10.0
ascoli_piceno,16.33845,1.0
foggia,23.96227,0.0
enna,16.135912,2.0
reggio_calabria,10.383752,0.0
matera,6.5636554,2.0
cuneo,39.900787,26.0
venezia,40.182495,145.0
grosseto,11.781678,41.0
massa_carrara,27.239288,12.0
caltanissetta,1.1563674,3.0
nuoro,1.9648391,0.0
biella,24.53404,17.0
mantova,75.578575,85.0
la_spezia,17.602804,0.0
palermo,8.161051,9.0
gorizia,2.348692,4.0
latina,6.867564,6.0
fermo,13.037136,2.0
piacenza,84.14088,38.0
trento,77.86418,73.0
lucca,17.819826,40.0
sassari,40.22717,8.0
genova,53.13438,0.0
isernia,0.0,0.0
oristano,0.0,1.0
vibo_valentia,0.0,0.0
aosta,77.32214,60.0
pavia,30.857096,6.0
reggio_emilia,112.60529,39.0
rimini,38.400326,21.0
milano,410.3794,481.0
treviso,53.56823,0.0
viterbo,6.2897825,2.0
crotone,0.5333155,0.0
siracusa,3.1446087,1.0
pescara,30.770105,41.0
teramo,29.648945,0.0
sondrio,24.901201,76.0
siena,13.344413,1.0
ravenna,23.889454,26.0
potenza,3.4629602,2.0
forli_cesena,35.229675,34.0
cagliari,3.1839406,6.0
trapani,1.39049,2.0
imperia,4.0575404,0.0
arezzo,11.590745,24.0
varese,63.206825,15.0
ancona,45.82083,48.0
parma,62.192383,42.0
messina,19.503183,7.0
bolzano_bozen,72.56498,51.0
prato,8.475555,1.0
frosinone,24.624022,0.0
ragusa,1.498342,1.0
verona,118.59368,52.0
catania,24.632664,15.0
pordenone,24.889214,8.0
alessandria,48.425377,67.0
novara,39.296375,17.0
pisa,21.300657,7.0
catanzaro,11.906358,1.0
macerata,14.031916,16.0
bari,36.533165,41.0
verbano_cusio_ossola,18.971807,11.0
avellino,5.921209,1.0
rovigo,3.6757648,0.0
asti,22.404297,14.0
brindisi,4.1950407,21.0
belluno,16.232378,22.0
trieste,25.683664,26.0
modena,111.81344,45.0
como,57.659397,16.0
lodi,29.385277,5.0
barletta_andria_trani,2.9162636,91.0
agrigento,3.134879,2.0
la_aquila,6.4666786,0.0
perugia,40.8206,0.0
taranto,5.397751,4.0
bologna,120.3601,95.0
