n,o,l
terni,0.0,0.0
pistoia,5.3433633,6.0
rieti,0.0,0.0
pesaro_e_urbino,22.979473,16.0
caserta,1.7928721,0.0
brescia,141.22118,55.0
padova,46.962536,15.0
savona,4.873625,34.0
cremona,103.25042,14.0
vicenza,30.828247,28.0
udine,3.3543234,0.0
livorno,9.72033,0.0
bergamo,54.413654,22.0
campobasso,0.13884798,0.0
cosenza,8.890332,4.0
torino,260.83826,259.0
lecce,1.185171,3.0
lecco,22.536968,9.0
benevento,0.0,0.0
ferrara,14.849983,3.0
roma,90.799255,62.0
napoli,45.245148,7.0
salerno,7.9717116,2.0
chieti,11.474557,0.0
vercelli,20.440449,8.0
firenze,55.12127,41.0
ascoli_piceno,0.6857568,0.0
foggia,6.612968,12.0
enna,2.5042663,1.0
reggio_calabria,0.58773017,0.0
matera,0.5510683,1.0
cuneo,68.3495,27.0
venezia,29.691084,13.0
grosseto,7.154334,1.0
massa_carrara,8.600041,1.0
caltanissetta,0.40739343,0.0
nuoro,0.0,1.0
biella,9.668364,3.0
mantova,48.96958,19.0
la_spezia,9.451307,4.0
palermo,2.8354418,13.0
gorizia,0.0,4.0
latina,2.369713,3.0
fermo,1.3141044,4.0
piacenza,27.002253,69.0
trento,64.978004,47.0
lucca,5.7941556,3.0
sassari,15.2559,3.0
genova,110.433754,45.0
isernia,0.0,1.0
oristano,0.0,0.0
vibo_valentia,0.0,0.0
aosta,9.362371,4.0
pavia,58.102528,69.0
reggio_emilia,62.53207,47.0
rimini,15.686078,15.0
milano,294.219,216.0
treviso,27.465805,24.0
viterbo,5.0889707,5.0
crotone,0.0,0.0
siracusa,3.1693494,3.0
pescara,21.045397,7.0
teramo,2.9956772,1.0
sondrio,25.991854,37.0
siena,0.34461403,1.0
ravenna,18.950876,1.0
potenza,0.0,0.0
forli_cesena,30.171432,20.0
cagliari,2.843739,1.0
trapani,0.0,0.0
imperia,34.43282,21.0
arezzo,15.2328825,3.0
varese,60.294834,48.0
ancona,18.531466,5.0
parma,30.104342,13.0
messina,3.5152595,5.0
bolzano_bozen,43.249603,11.0
prato,6.9171414,3.0
frosinone,3.9576504,1.0
ragusa,0.0,2.0
verona,79.39702,39.0
catania,5.892817,2.0
pordenone,3.5304265,4.0
alessandria,56.941563,71.0
novara,63.65475,26.0
pisa,14.83756,1.0
catanzaro,0.0817712,1.0
macerata,13.135857,7.0
bari,17.274607,12.0
verbano_cusio_ossola,13.842614,0.0
avellino,2.0765283,2.0
rovigo,3.558232,1.0
asti,33.68565,26.0
brindisi,12.796296,11.0
belluno,14.644739,23.0
trieste,21.165916,7.0
modena,44.697502,27.0
como,72.93312,37.0
lodi,25.39052,7.0
barletta_andria_trani,10.424727,2.0
agrigento,0.0,0.0
la_aquila,1.754848,0.0
perugia,0.0,1.0
taranto,0.554652,3.0
bologna,70.94399,64.0
