n,o,l
granada,37.34328,32.0
palencia,17.786268,36.0
segovia,31.125313,15.0
valencia,38.77136,24.0
tarragona,23.071558,16.0
cadiz,3.6420455,3.0
huelva,4.7254806,11.0
caceres,20.190775,4.0
alicante,15.986663,11.0
cordoba,4.3409557,1.0
gipuzkoa,11.700406,30.0
cuenca,24.430384,47.0
sevilla,15.583118,12.0
guadalajara,20.034994,32.0
salamanca,28.874935,42.0
toledo,38.910255,94.0
ciudad_real,61.25022,88.0
badajoz,5.2805905,3.0
barcelona,411.9683,268.0
avila,23.842722,64.0
lleida,21.53418,27.0
araba/alava,18.420607,140.0
albacete,13.975969,30.0
almeria,3.8550172,6.0
zamora,6.8909936,3.0
girona,60.190132,87.0
bizkaia,65.73842,222.0
soria,28.280434,66.0
burgos,17.028288,42.0
jaen,19.38405,49.0
valladolid,7.5707364,8.0
malaga,29.85506,17.0
leon,26.472675,27.0
castellon,5.207862,5.0
