n,o,l
siracusa,0.0,5.0
asti,0.0,26.0
oristano,0.050229315,60.0
grosseto,0.6430886,15.0
sondrio,1.2241411,0.0
ascoli_piceno,0.0,45.0
savona,0.19551262,0.0
reggio_emilia,9.457407,135.0
torino,0.0,297.0
rovigo,0.33921456,0.0
frosinone,0.037941378,41.0
campobasso,0.37733883,6.0
cosenza,0.28052098,26.0
trapani,0.0,1.0
pavia,0.72080165,165.0
cuneo,0.0,40.0
genova,2.995901,62.0
treviso,3.3683598,49.0
barletta_andria_trani,0.049682666,4.0
udine,14.593496,43.0
brescia,2.4266279,373.0
ravenna,2.1043003,33.0
latina,0.0,3.0
gorizia,0.08737938,6.0
pordenone,1.2847428,30.0
massa_carrara,1.168675,136.0
la_aquila,0.105171666,13.0
prato,0.44302624,28.0
rieti,0.22265159,19.0
aosta,1.7165953,59.0
ragusa,0.08709962,0.0
fermo,0.30158263,8.0
milano,37.57628,314.0
firenze,2.7460117,91.0
arezzo,0.7662348,23.0
bolzano_bozen,2.6826158,106.0
piacenza,3.3886082,114.0
ancona,0.6124707,39.0
napoli,2.8415701,93.0
reggio_calabria,0.3099507,15.0
novara,0.0,48.0
pistoia,0.53849643,34.0
lodi,3.6970725,23.0
la_spezia,0.4488039,21.0
brindisi,0.48119402,23.0
taranto,0.032346014,15.0
potenza,0.5419739,8.0
perugia,2.4572835,71.0
alessandria,0.23185237,13.0
enna,0.0,91.0
imperia,0.449342,22.0
vercelli,0.0,39.0
foggia,1.3913239,30.0
lecce,0.35824668,106.0
lecco,3.9764397,118.0
padova,0.16244394,52.0
messina,2.8780825,24.0
lucca,2.1175566,137.0
palermo,0.09110111,14.0
livorno,0.0898642,6.0
benevento,0.0,16.0
catanzaro,0.34238446,3.0
bari,1.413668,25.0
caltanissetta,0.27966094,2.0
isernia,0.058553923,4.0
biella,0.51922303,7.0
verona,0.0,109.0
caserta,5.348795,32.0
chieti,0.60700667,40.0
varese,1.3606972,27.0
teramo,1.2907869,57.0
macerata,0.44094014,46.0
cagliari,0.28605974,14.0
terni,0.27721745,18.0
nuoro,0.057558246,4.0
trento,0.4305036,63.0
salerno,2.398911,114.0
pesaro_e_urbino,3.1453698,32.0
venezia,2.3736432,64.0
siena,0.0,19.0
vibo_valentia,0.024302386,10.0
matera,0.0738148,23.0
forli_cesena,1.79411,32.0
parma,1.511097,62.0
trieste,1.7749914,41.0
roma,6.050508,136.0
ferrara,0.55575955,37.0
belluno,0.11328675,38.0
sassari,0.88756645,71.0
avellino,0.948598,11.0
agrigento,0.11768567,0.0
como,8.551081,87.0
cremona,2.7110538,109.0
catania,0.74052095,22.0
bologna,1.8882698,173.0
pisa,1.3774942,48.0
viterbo,0.26994914,20.0
pescara,2.3764677,36.0
rimini,2.704521,59.0
mantova,5.2278447,86.0
vicenza,0.06865649,70.0
verbano_cusio_ossola,0.0,20.0
modena,4.312969,150.0
crotone,0.326357,7.0
bergamo,11.948168,289.0
