n,o,l
charente_maritime,0.6774812,2.0
vienne,0.0,0.0
aude,3.5619526,0.0
haute_loire,0.0,6.0
haute_savoie,8.398386,7.0
dordogne,0.0,0.0
correze,0.0,0.0
indre_et_loire,0.47950014,4.0
saone_et_loire,5.9283423,11.0
loire_atlantique,0.0,0.0
haute_vienne,0.0,0.0
drome,0.6616216,3.0
cote_d'or,0.9971061,1.0
landes,77.6831,115.0
paris,0.26370737,1.0
charente,0.0,0.0
meurthe_et_moselle,1.9482051,2.0
essonne,46.356705,41.0
marne,8.135967,15.0
seine_saint_denis,57.166447,77.0
moselle,29.51395,7.0
bas_rhin,9.669968,25.0
pas_de_calais,11.288526,21.0
nord,12.046558,17.0
loiret,9.327357,1.0
nievre,1.6334295,8.0
alpes_maritimes,2.3576977,0.0
pyrenees_atlantiques,0.41256353,1.0
val_d'oise,25.985092,34.0
meuse,0.8098417,0.0
mayenne,0.0,1.0
val_de_marne,47.81748,62.0
hautes_pyrenees,2.2684515,10.0
lot,0.0,1.0
isere,0.025227122,3.0
gironde,7.395999,7.0
yvelines,21.262123,52.0
yonne,0.0,4.0
haute_saone,2.7360866,24.0
somme,11.24263,23.0
eure_et_loir,18.247303,19.0
manche,6.34748,13.0
indre,0.54572386,8.0
haute_marne,0.0,0.0
haut_rhin,25.567059,18.0
maine_et_loire,0.0,0.0
jura,0.6118565,2.0
savoie,0.0,0.0
ardennes,0.23044604,1.0
haute_garonne,1.8314933,5.0
rhone,8.866941,6.0
ardeche,0.22074509,4.0
aisne,13.675117,17.0
vosges,11.5659275,9.0
gers,0.51626617,12.0
oise,33.561504,41.0
hauts_de_seine,61.656536,83.0
territoire_de_belfort,1.8716428,2.0
lot_et_garonne,0.0,0.0
eure,17.340904,31.0
tarn,0.0,1.0
cher,7.653183,10.0
aube,9.0916605,21.0
vaucluse,1.4808799,7.0
pyrenees_orientales,0.0,1.0
var,11.928443,11.0
cantal,0.0,1.0
doubs,3.4495876,7.0
seine_et_marne,41.172337,99.0
ain,4.913196,12.0
calvados,1.6755698,3.0
herault,19.232857,14.0
bouches_du_rhone,66.66037,112.0
puy_de_dome,4.1471987,18.0
tarn_et_garonne,3.9619207,0.0
loire,0.0,10.0
gard,4.691194,10.0
loir_et_cher,0.0,0.0
alpes_de_haute_provence,0.0,2.0
orne,0.0,3.0
seine_maritime,8.586137,12.0
