n,o,l
E10000013,42.528175,63.0
E08000001,31.288086,29.0
E06000032,22.434736,22.0
E08000034,23.855593,12.0
E06000022,5.374348,16.0
E10000006,60.30018,70.0
E10000025,57.625427,34.0
E08000009,27.963049,23.0
E06000049,24.022478,29.0
E10000024,40.377697,18.0
E09000017,30.875446,27.0
E08000027,31.52499,20.0
E06000021,15.918178,24.0
E10000019,33.60903,29.0
E08000008,19.35203,10.0
E09000026,28.973116,10.0
E06000001,8.569334,4.0
E06000050,35.577785,25.0
E08000017,18.507923,4.0
E06000055,17.121037,17.0
E06000040,10.863349,2.0
E06000002,26.509748,17.0
E06000004,18.969479,6.0
E08000030,36.70219,21.0
E08000032,27.7294,18.0
E10000017,109.857285,73.0
E08000004,23.218493,48.0
E08000035,32.593967,47.0
E06000011,17.798996,22.0
E10000032,43.235935,26.0
E06000038,16.771473,14.0
E06000041,15.187286,16.0
E09000015,31.251492,27.0
E09000006,40.312824,23.0
E08000011,25.362562,12.0
E06000008,14.88789,12.0
E06000026,16.577599,13.0
E06000059,17.200571,12.0
E06000034,14.617915,4.0
E10000014,91.403885,83.0
E06000016,26.091024,20.0
E06000035,25.84937,23.0
E08000014,38.95738,14.0
E06000056,20.568323,18.0
E10000003,25.873867,24.0
E09000004,26.65624,14.0
E10000018,28.569708,27.0
E08000012,58.193165,34.0
E06000012,0.5071134,4.0
E10000027,17.861635,16.0
E06000014,9.356737,6.0
E08000036,63.670696,14.0
E09000008,21.90447,25.0
E06000046,0.9541043,5.0
E06000030,15.467077,14.0
E06000054,16.50724,5.0
E08000005,19.622892,18.0
E06000027,3.7472153,5.0
E10000016,86.759995,125.0
E10000030,82.51517,82.0
E08000013,32.88635,12.0
E06000033,20.327414,10.0
E08000016,18.51544,25.0
E09000016,30.337278,26.0
E06000051,17.240784,6.0
E08000037,32.513626,33.0
E06000052,20.933847,12.0
E09000010,28.849644,24.0
E10000021,56.474915,27.0
E06000039,47.909187,37.0
E08000024,15.750434,14.0
E09000027,17.216341,8.0
E09000009,36.05098,45.0
E10000020,37.851334,48.0
E10000023,34.28433,24.0
E10000029,18.120464,33.0
E06000045,29.006752,9.0
E08000018,26.022701,22.0
E10000034,36.323364,31.0
E06000018,21.04818,13.0
E08000019,71.332535,57.0
E06000017,1.6884825,1.0
E08000010,24.687216,24.0
E09000003,51.072403,21.0
E10000028,52.784462,60.0
E10000008,30.680021,28.0
E08000025,107.74025,64.0
E10000031,48.77274,30.0
E08000007,33.172356,32.0
E06000013,11.75914,3.0
E06000005,13.051621,4.0
E08000015,50.997948,30.0
E06000042,16.31727,17.0
E06000009,19.443653,17.0
E10000007,40.80647,26.0
E09000001,3.263166,0.0
E09000022,45.083904,16.0
E06000047,42.917717,56.0
E06000037,16.961485,13.0
E08000026,26.627258,15.0
E09000002,18.266516,10.0
E09000018,28.476353,16.0
E06000043,17.680244,11.0
E06000020,12.642335,7.0
E06000057,32.441677,24.0
E06000006,19.498764,12.0
E08000003,39.312153,37.0
E10000015,84.04798,76.0
E06000024,11.177968,4.0
E08000023,19.399708,18.0
E06000036,10.590928,4.0
E10000011,21.972971,18.0
E06000031,11.043571,4.0
E08000021,33.12953,29.0
E10000002,31.901052,26.0
E06000044,12.330159,9.0
E08000031,22.449297,25.0
E09000020,19.37352,10.0
E06000003,17.805138,9.0
E08000002,20.31322,20.0
E10000012,98.47963,57.0
E09000005,60.993664,39.0
E06000007,23.609472,28.0
E09000023,15.600966,12.0
E08000033,43.42309,8.0
E09000021,21.038416,10.0
E09000029,24.409798,14.0
E08000022,23.578594,8.0
E06000015,26.017801,12.0
