n,o,l
siracusa,0.22438347,2.0
asti,1.9180603,13.0
oristano,0.0,7.0
grosseto,1.5764505,3.0
sondrio,0.07701343,23.0
ascoli_piceno,0.27065378,0.0
savona,0.8979227,0.0
reggio_emilia,8.896573,101.0
torino,16.621414,195.0
rovigo,0.04127879,17.0
frosinone,0.4874745,5.0
campobasso,0.0,0.0
cosenza,1.1661458,13.0
trapani,0.5584877,6.0
pavia,3.02716,81.0
cuneo,1.7798016,64.0
genova,1.7398124,78.0
treviso,2.8448896,14.0
barletta_andria_trani,0.0,39.0
udine,1.0098156,7.0
brescia,22.183302,137.0
ravenna,0.5326222,20.0
latina,0.6460455,13.0
gorizia,0.33516213,3.0
pordenone,2.9719748,7.0
massa_carrara,0.064390376,31.0
la_aquila,0.6964841,4.0
prato,0.46892968,4.0
rieti,0.2511801,73.0
aosta,0.55859905,23.0
ragusa,0.31029415,6.0
fermo,0.6960941,4.0
milano,9.123049,308.0
firenze,2.4371338,54.0
arezzo,0.71075785,9.0
bolzano_bozen,4.652866,78.0
piacenza,5.4308476,44.0
ancona,1.9353416,45.0
napoli,3.1473012,36.0
reggio_calabria,0.4968873,6.0
novara,1.3179407,22.0
pistoia,0.18685064,6.0
lodi,0.0,23.0
la_spezia,2.3229012,5.0
brindisi,0.25604483,11.0
taranto,0.03511897,8.0
potenza,0.0,2.0
perugia,2.774375,4.0
alessandria,1.394676,141.0
enna,4.523294,3.0
imperia,0.0,6.0
vercelli,1.0846698,42.0
foggia,1.0058789,41.0
lecce,1.7605846,34.0
lecco,6.542836,119.0
padova,0.12347396,9.0
messina,1.1536437,10.0
lucca,0.0,16.0
palermo,1.9583346,2.0
livorno,0.0,0.0
benevento,0.75257844,1.0
catanzaro,1.2019198,1.0
bari,2.5735264,17.0
caltanissetta,0.38190588,2.0
isernia,0.0,0.0
biella,0.7310818,12.0
verona,8.114814,67.0
caserta,2.0148005,8.0
chieti,0.6763764,2.0
varese,1.5134512,102.0
teramo,6.052459,11.0
macerata,1.0386044,25.0
cagliari,0.27416536,0.0
terni,0.6467981,9.0
nuoro,0.0,0.0
trento,0.96727866,63.0
salerno,3.9756927,25.0
pesaro_e_urbino,1.3262646,66.0
venezia,1.2892926,62.0
siena,0.58215326,10.0
vibo_valentia,0.037831917,0.0
matera,0.41715425,7.0
forli_cesena,2.5574174,38.0
parma,5.862478,42.0
trieste,0.782739,38.0
roma,6.6167383,55.0
ferrara,1.2839739,22.0
belluno,1.3176413,20.0
sassari,0.87188333,9.0
avellino,0.3094857,18.0
agrigento,0.10145712,2.0
como,3.1683211,27.0
cremona,0.0,89.0
catania,1.0497794,20.0
bologna,10.706589,96.0
pisa,0.72813207,16.0
viterbo,0.3646691,0.0
pescara,1.7993526,1.0
rimini,3.7352438,22.0
mantova,7.0340085,40.0
vicenza,3.8563976,57.0
verbano_cusio_ossola,2.28286,63.0
modena,8.510001,82.0
crotone,0.0,2.0
bergamo,15.643886,103.0
