n,o,l
granada,62.27761,57.0
palencia,52.77416,19.0
segovia,60.611515,46.0
valencia,91.80753,95.0
tarragona,43.923733,13.0
cadiz,49.679253,12.0
huelva,44.903263,28.0
caceres,52.358566,22.0
alicante,56.65555,80.0
cordoba,41.942745,27.0
gipuzkoa,51.930084,0.0
cuenca,61.202934,45.0
sevilla,50.174583,20.0
guadalajara,61.911438,41.0
salamanca,71.82832,49.0
toledo,32.553154,65.0
ciudad_real,84.92397,55.0
badajoz,54.102215,4.0
barcelona,308.87906,349.0
avila,47.460003,21.0
lleida,54.293606,27.0
araba/alava,53.145416,0.0
albacete,51.123528,70.0
almeria,47.656403,24.0
zamora,42.52229,16.0
girona,39.025467,40.0
bizkaia,82.84524,0.0
soria,54.564503,28.0
burgos,62.014046,153.0
jaen,62.59899,70.0
valladolid,48.64887,14.0
malaga,54.56812,76.0
leon,82.78232,59.0
castellon,56.598564,67.0
