n,o,l
charente_maritime,1.0012575,0.0
vienne,0.0,0.0
aude,2.6305628,0.0
haute_loire,0.0,1.0
haute_savoie,9.479195,0.0
dordogne,0.0,0.0
correze,0.0,0.0
indre_et_loire,0.1231806,0.0
saone_et_loire,5.16994,0.0
loire_atlantique,0.0,0.0
haute_vienne,0.0,1.0
drome,0.9341982,0.0
cote_d'or,0.014980406,0.0
landes,63.902695,16.0
paris,0.0,0.0
charente,0.0,0.0
meurthe_et_moselle,45.850346,0.0
essonne,1.431107,1.0
marne,3.721047,1.0
seine_saint_denis,43.587482,5.0
moselle,5.170565,0.0
bas_rhin,6.9588675,0.0
pas_de_calais,10.138583,2.0
nord,7.3027906,0.0
loiret,5.8870397,0.0
nievre,1.8727678,0.0
alpes_maritimes,2.4933603,0.0
pyrenees_atlantiques,0.31449217,0.0
val_d'oise,20.508614,2.0
meuse,0.0,0.0
mayenne,0.0,0.0
val_de_marne,36.895752,2.0
hautes_pyrenees,0.92622006,0.0
lot,0.0,0.0
isere,0.6210073,0.0
gironde,3.7475338,0.0
yvelines,18.151773,2.0
yonne,0.0,0.0
haute_saone,1.7824591,1.0
somme,7.3341217,0.0
eure_et_loir,25.967422,1.0
manche,5.495897,1.0
indre,0.47971696,0.0
haute_marne,0.0,0.0
haut_rhin,13.857844,2.0
maine_et_loire,0.0,0.0
jura,7.1035557,0.0
savoie,0.0,0.0
ardennes,0.0,0.0
haute_garonne,2.252629,2.0
rhone,12.232894,0.0
ardeche,0.2632563,0.0
aisne,12.181787,0.0
vosges,9.843122,0.0
gers,0.0,0.0
oise,22.071672,5.0
hauts_de_seine,43.006203,1.0
territoire_de_belfort,0.47708696,0.0
lot_et_garonne,0.0,0.0
eure,13.763369,1.0
tarn,0.0,0.0
cher,4.8082256,1.0
aube,7.1003494,0.0
vaucluse,4.493684,0.0
pyrenees_orientales,7.180939,0.0
var,0.0,1.0
cantal,0.0,0.0
doubs,2.7148285,0.0
seine_et_marne,39.307674,1.0
ain,3.7311156,1.0
calvados,2.2053661,0.0
herault,16.265062,4.0
bouches_du_rhone,63.098255,6.0
puy_de_dome,2.8163328,2.0
tarn_et_garonne,0.37619197,0.0
loire,0.0,0.0
gard,5.3870955,1.0
loir_et_cher,0.0,0.0
alpes_de_haute_provence,0.0,0.0
orne,0.0,0.0
seine_maritime,8.590582,2.0
