n,o,l
E10000013,43.06752,23.0
E08000001,30.653433,35.0
E06000032,19.021086,15.0
E08000034,12.845259,11.0
E06000022,4.497928,5.0
E10000006,52.123055,37.0
E10000025,51.138367,34.0
E08000009,15.682097,13.0
E06000049,26.629225,21.0
E10000024,29.195347,16.0
E09000017,17.175188,10.0
E08000027,13.552397,7.0
E06000021,11.025726,13.0
E10000019,19.225782,20.0
E08000008,12.7048435,9.0
E09000026,21.390316,12.0
E06000001,2.0179653,9.0
E06000050,20.87276,13.0
E08000017,6.9675303,17.0
E06000055,13.089503,9.0
E06000040,1.0263699,3.0
E06000002,11.368862,22.0
E06000004,7.019497,15.0
E08000030,18.463514,20.0
E08000032,21.290318,34.0
E10000017,84.611534,87.0
E08000004,28.547918,22.0
E08000035,38.37564,49.0
E06000011,11.945707,14.0
E10000032,31.662884,19.0
E06000038,13.109679,14.0
E06000041,6.46637,26.0
E09000015,20.255693,13.0
E09000006,25.108097,9.0
E08000011,13.737499,10.0
E06000008,9.169489,8.0
E06000026,3.2333941,17.0
E06000059,6.300327,8.0
E06000034,5.4701796,9.0
E10000014,75.06878,64.0
E06000016,17.611494,21.0
E06000035,15.502763,9.0
E08000014,25.21299,19.0
E06000056,12.601154,13.0
E10000003,18.343184,31.0
E09000004,6.731678,14.0
E10000018,17.77777,22.0
E08000012,48.927338,21.0
E06000012,0.38176078,7.0
E10000027,10.296426,16.0
E06000014,4.6759663,13.0
E08000036,32.98141,16.0
E09000008,13.1076145,19.0
E06000046,0.3687283,4.0
E06000030,11.510668,12.0
E06000054,8.268138,8.0
E08000005,19.597515,16.0
E06000027,1.1250459,9.0
E10000016,105.52195,127.0
E10000030,73.07094,47.0
E08000013,12.286025,10.0
E06000033,3.03229,5.0
E08000016,18.215654,20.0
E09000016,20.72214,10.0
E06000051,9.553185,9.0
E08000037,28.72609,17.0
E06000052,12.896058,4.0
E09000010,21.502085,10.0
E10000021,23.73892,9.0
E06000039,7.2566414,7.0
E08000024,38.37927,15.0
E09000027,4.004279,2.0
E09000009,29.185486,9.0
E10000020,46.82616,69.0
E10000023,23.178041,22.0
E10000029,25.344362,27.0
E06000045,9.539514,14.0
E08000018,18.707193,22.0
E10000034,30.602285,28.0
E06000018,10.379313,21.0
E08000019,47.618736,43.0
E06000017,0.12683442,5.0
E08000010,25.139065,22.0
E09000003,26.733763,6.0
E10000028,44.855877,58.0
E10000008,18.73907,9.0
E08000025,57.85619,63.0
E10000031,28.067331,33.0
E08000007,25.292551,24.0
E06000013,5.2358255,18.0
E06000005,8.482573,6.0
E08000015,34.407394,28.0
E06000042,9.044405,10.0
E06000009,9.658159,16.0
E10000007,28.330626,16.0
E09000001,0.16823456,0.0
E09000022,21.253805,12.0
E06000047,46.96829,38.0
E06000037,2.994807,6.0
E08000026,14.367953,10.0
E09000002,11.07791,6.0
E09000018,13.423366,5.0
E06000043,7.7735405,1.0
E06000020,0.489273,15.0
E06000057,29.577042,13.0
E06000006,7.458945,4.0
E08000003,44.798126,24.0
E10000015,65.56717,49.0
E06000024,1.5765924,9.0
E08000023,11.277675,19.0
E06000036,4.2960334,7.0
E10000011,15.087384,9.0
E06000031,0.29628462,9.0
E08000021,25.274462,18.0
E10000002,19.68931,21.0
E06000044,5.4451637,16.0
E08000031,16.731335,38.0
E09000020,8.137106,17.0
E06000003,4.3317738,12.0
E08000002,18.724121,10.0
E10000012,66.060715,61.0
E09000005,26.7973,9.0
E06000007,18.978807,13.0
E09000023,3.6691513,7.0
E08000033,18.425896,4.0
E09000021,10.289317,5.0
E09000029,20.734003,12.0
E08000022,10.703284,15.0
E06000015,6.6390376,11.0
