n,o,l
siracusa,0.47557372,0.0
asti,0.32494333,26.0
oristano,0.5340573,12.0
grosseto,0.031646848,0.0
sondrio,0.0,45.0
ascoli_piceno,0.38519156,3.0
savona,0.66805136,19.0
reggio_emilia,4.243611,68.0
torino,8.708433,298.0
rovigo,0.24540928,2.0
frosinone,0.09267408,15.0
campobasso,0.04664094,6.0
cosenza,0.0,16.0
trapani,0.20276785,1.0
pavia,5.182562,55.0
cuneo,1.2926157,42.0
genova,0.68558043,7.0
treviso,1.1596131,92.0
barletta_andria_trani,0.12922078,3.0
udine,1.832918,20.0
brescia,22.976576,393.0
ravenna,1.3405324,26.0
latina,0.1615446,23.0
gorizia,0.0,2.0
pordenone,0.80880755,31.0
massa_carrara,0.7380982,25.0
la_aquila,0.14994943,7.0
prato,0.33507004,22.0
rieti,0.060050383,2.0
aosta,2.0103607,7.0
ragusa,0.10526419,0.0
fermo,0.4651967,6.0
milano,10.2616415,375.0
firenze,2.8865125,74.0
arezzo,1.4489994,10.0
bolzano_bozen,3.0708039,57.0
piacenza,6.899626,96.0
ancona,2.8363614,49.0
napoli,0.4759799,45.0
reggio_calabria,0.0,3.0
novara,1.679874,51.0
pistoia,1.0327905,14.0
lodi,1.4542414,43.0
la_spezia,0.41996595,0.0
brindisi,0.31399646,1.0
taranto,0.0,5.0
potenza,0.0,0.0
perugia,1.3140186,48.0
alessandria,2.7999766,129.0
enna,0.09782086,19.0
imperia,0.7007872,18.0
vercelli,1.356964,27.0
foggia,0.0,29.0
lecce,0.058030214,81.0
lecco,2.9256468,93.0
padova,0.0,19.0
messina,0.0,12.0
lucca,0.2993505,24.0
palermo,0.18523386,61.0
livorno,0.02425772,1.0
benevento,0.29210645,22.0
catanzaro,0.0,3.0
bari,0.0,36.0
caltanissetta,0.08370483,11.0
isernia,0.031594586,0.0
biella,0.07510483,27.0
verona,6.1090755,129.0
caserta,0.3415072,28.0
chieti,0.048235103,4.0
varese,0.8743184,29.0
teramo,0.30146605,16.0
macerata,1.594719,42.0
cagliari,0.29565567,3.0
terni,0.543226,21.0
nuoro,0.052834537,4.0
trento,2.2307389,87.0
salerno,0.62333214,3.0
pesaro_e_urbino,2.470004,59.0
venezia,1.888503,38.0
siena,0.23502502,16.0
vibo_valentia,0.05186539,1.0
matera,0.067131475,7.0
forli_cesena,0.82678217,57.0
parma,0.0,71.0
trieste,0.0,9.0
roma,3.5320756,116.0
ferrara,0.2021172,18.0
belluno,1.1392825,19.0
sassari,1.3158073,49.0
avellino,0.62756574,10.0
agrigento,0.16068134,2.0
como,1.4673537,136.0
cremona,3.4084704,54.0
catania,0.9084607,12.0
bologna,3.041983,135.0
pisa,0.22543848,19.0
viterbo,0.5382797,28.0
pescara,0.67279345,0.0
rimini,4.090564,49.0
mantova,2.7173154,108.0
vicenza,3.4657557,53.0
verbano_cusio_ossola,0.3668136,39.0
modena,5.0182934,199.0
crotone,0.019767214,4.0
bergamo,17.625702,257.0
