n,o,l
siracusa,0.45987207,3.0
asti,0.28818595,34.0
oristano,0.5179978,10.0
grosseto,0.034695957,0.0
sondrio,0.0,11.0
ascoli_piceno,0.3826965,16.0
savona,0.59881854,16.0
reggio_emilia,4.1940103,150.0
torino,8.602764,275.0
rovigo,0.22470228,3.0
frosinone,0.10226977,20.0
campobasso,0.049214646,11.0
cosenza,0.0,17.0
trapani,0.18488337,9.0
pavia,5.000989,97.0
cuneo,1.2892421,33.0
genova,0.40209186,147.0
treviso,1.0727032,43.0
barletta_andria_trani,0.109822914,2.0
udine,1.7000246,335.0
brescia,22.530287,32.0
ravenna,1.323789,6.0
latina,0.14672676,24.0
gorizia,0.0,6.0
pordenone,0.7740435,6.0
massa_carrara,0.6454929,23.0
la_aquila,0.15145227,13.0
prato,0.32917297,4.0
rieti,0.061809495,14.0
aosta,1.9997991,73.0
ragusa,0.10293163,0.0
fermo,0.4046895,5.0
milano,9.850896,546.0
firenze,2.8408403,102.0
arezzo,1.4099163,12.0
bolzano_bozen,2.9964473,105.0
piacenza,6.5923877,85.0
ancona,2.7742925,75.0
napoli,0.38546735,71.0
reggio_calabria,0.0,34.0
novara,1.6723421,37.0
pistoia,1.0284663,11.0
lodi,1.2315106,28.0
la_spezia,0.3725661,0.0
brindisi,0.2820983,4.0
taranto,0.0,6.0
potenza,0.0,12.0
perugia,1.2666643,46.0
alessandria,2.7363064,24.0
enna,0.099996135,58.0
imperia,0.62775004,0.0
vercelli,1.1258012,29.0
foggia,0.0,22.0
lecce,0.0,0.0
lecco,2.8422713,115.0
padova,0.0,10.0
messina,0.0,65.0
lucca,0.1790009,54.0
palermo,0.18091035,4.0
livorno,0.03306506,0.0
benevento,0.22966959,16.0
catanzaro,0.0,5.0
bari,0.0,49.0
caltanissetta,0.08621293,11.0
isernia,0.034695245,0.0
biella,0.046896115,11.0
verona,6.016792,122.0
caserta,0.34501892,40.0
chieti,0.049703993,37.0
varese,0.82271886,46.0
teramo,0.3076905,44.0
macerata,1.5740298,19.0
cagliari,0.30208236,5.0
terni,0.37631398,5.0
nuoro,0.05257283,1.0
trento,1.1083139,16.0
salerno,0.56794137,89.0
pesaro_e_urbino,2.1449687,70.0
venezia,1.8305345,48.0
siena,0.21740752,38.0
vibo_valentia,0.038555518,0.0
matera,0.06869895,8.0
forli_cesena,0.794283,30.0
parma,0.0,57.0
trieste,0.0,24.0
roma,3.4411047,106.0
ferrara,0.19579746,19.0
belluno,1.0994756,29.0
sassari,1.2288301,8.0
avellino,0.58664554,15.0
agrigento,0.1603617,20.0
como,1.4203978,157.0
cremona,2.916217,111.0
catania,0.7486035,20.0
bologna,2.9953854,157.0
pisa,0.14781277,34.0
viterbo,0.5400346,35.0
pescara,0.6428369,64.0
rimini,3.9468586,34.0
mantova,2.5596201,66.0
vicenza,3.4284053,68.0
verbano_cusio_ossola,0.35220373,38.0
modena,4.9158106,172.0
crotone,0.0,3.0
bergamo,17.055508,178.0
