n,o,l
siracusa,0.076116994,0.0
asti,2.2360492,5.0
oristano,0.0,0.0
grosseto,0.0,0.0
sondrio,0.86149776,29.0
ascoli_piceno,0.0,0.0
savona,4.0378113,30.0
reggio_emilia,4.8189607,5.0
torino,38.00101,71.0
rovigo,0.0,0.0
frosinone,0.004574284,0.0
campobasso,0.0,3.0
cosenza,0.0,1.0
trapani,0.0,0.0
pavia,7.5113764,19.0
cuneo,2.2955368,3.0
genova,12.342292,0.0
treviso,1.6399573,4.0
barletta_andria_trani,0.010232512,0.0
udine,0.015074275,0.0
brescia,10.356478,128.0
ravenna,0.0,0.0
latina,0.27175826,0.0
gorizia,0.0,1.0
pordenone,0.106615186,3.0
massa_carrara,0.48335582,1.0
la_aquila,0.0,0.0
prato,0.00037415326,3.0
rieti,0.0,5.0
aosta,0.3255611,2.0
ragusa,0.0,0.0
fermo,0.39191693,0.0
milano,38.685215,136.0
firenze,4.5526786,11.0
arezzo,0.469706,0.0
bolzano_bozen,0.41125625,0.0
piacenza,8.682666,11.0
ancona,0.10643972,2.0
napoli,2.071445,5.0
reggio_calabria,0.0,0.0
novara,3.7057097,13.0
pistoia,0.25379154,0.0
lodi,6.212951,16.0
la_spezia,0.7641121,4.0
brindisi,0.68609583,1.0
taranto,0.0,1.0
potenza,0.2649219,0.0
perugia,0.0,2.0
alessandria,7.368579,12.0
enna,0.043721735,0.0
imperia,1.3354445,14.0
vercelli,1.3869307,5.0
foggia,0.9929852,1.0
lecce,3.5270574,25.0
lecco,0.53507984,3.0
padova,0.09856662,1.0
messina,0.13754757,0.0
lucca,0.84206027,0.0
palermo,0.7067289,2.0
livorno,0.0,2.0
benevento,0.2514043,0.0
catanzaro,0.0,0.0
bari,0.23435184,7.0
caltanissetta,0.0,0.0
isernia,0.0,0.0
biella,0.34301138,1.0
verona,6.1249523,11.0
caserta,0.0,1.0
chieti,0.041984506,6.0
varese,8.52488,77.0
teramo,0.0,1.0
macerata,0.5957937,7.0
cagliari,0.0,1.0
terni,0.11394015,3.0
nuoro,0.0,0.0
trento,6.0139747,6.0
salerno,0.0,0.0
pesaro_e_urbino,2.2124238,15.0
venezia,2.4923525,12.0
siena,0.0,0.0
vibo_valentia,0.0,0.0
matera,0.19176486,1.0
forli_cesena,1.0018774,4.0
parma,1.7820385,2.0
trieste,1.3527224,6.0
roma,10.132468,16.0
ferrara,0.22994916,0.0
belluno,1.0292597,2.0
sassari,0.10310857,0.0
avellino,0.30662316,1.0
agrigento,0.0,0.0
como,4.661811,42.0
cremona,3.548039,5.0
catania,1.0619253,1.0
bologna,7.7755404,21.0
pisa,0.1740225,0.0
viterbo,0.090944074,1.0
pescara,3.2755985,0.0
rimini,1.0153784,3.0
mantova,1.5070273,4.0
vicenza,2.7165658,14.0
verbano_cusio_ossola,1.8357145,4.0
modena,3.7352724,7.0
crotone,0.0,0.0
bergamo,7.4508986,503.0
