n,o,l
siracusa,0.22486003,0.0
asti,1.4381121,12.0
oristano,4.711862,1.0
grosseto,0.0,0.0
sondrio,0.0,7.0
ascoli_piceno,0.0,0.0
savona,3.4947953,21.0
reggio_emilia,4.760884,11.0
torino,51.81016,98.0
rovigo,0.0,0.0
frosinone,0.22126955,0.0
campobasso,0.0,2.0
cosenza,0.0,0.0
trapani,0.0,0.0
pavia,11.125633,70.0
cuneo,5.1522837,28.0
genova,17.453661,45.0
treviso,2.4960952,3.0
barletta_andria_trani,0.0021631941,1.0
udine,14.889671,1.0
brescia,0.10285325,99.0
ravenna,0.0,4.0
latina,0.41414154,2.0
gorizia,0.08271628,1.0
pordenone,0.14277223,1.0
massa_carrara,0.39894712,0.0
la_aquila,0.0,0.0
prato,0.15778193,2.0
rieti,0.2148154,1.0
aosta,0.42874295,3.0
ragusa,0.0,0.0
fermo,0.6866179,1.0
milano,51.256947,313.0
firenze,6.955909,15.0
arezzo,0.4415866,2.0
bolzano_bozen,1.0541668,1.0
piacenza,13.186505,9.0
ancona,0.20961742,2.0
napoli,1.7204413,15.0
reggio_calabria,0.0,0.0
novara,4.8913217,5.0
pistoia,0.5039931,0.0
lodi,2.460138,41.0
la_spezia,0.4028619,3.0
brindisi,0.5333088,7.0
taranto,0.0,3.0
potenza,0.0,1.0
perugia,0.0,1.0
alessandria,0.1094677,16.0
enna,10.465396,3.0
imperia,4.1097693,6.0
vercelli,1.6263361,3.0
foggia,2.7445722,11.0
lecce,2.7961884,10.0
lecco,1.1011945,3.0
padova,0.061900496,1.0
messina,0.34756607,2.0
lucca,0.4991054,4.0
palermo,1.2368239,1.0
livorno,0.0,0.0
benevento,0.13039866,0.0
catanzaro,0.0,1.0
bari,1.1898373,5.0
caltanissetta,0.0011640266,0.0
isernia,0.0,1.0
biella,0.0,4.0
verona,9.843176,29.0
caserta,0.8177431,1.0
chieti,1.044505,0.0
varese,0.0,127.0
teramo,7.1875668,0.0
macerata,0.5138665,5.0
cagliari,0.0,0.0
terni,0.25319916,2.0
nuoro,0.0,0.0
trento,0.06440954,19.0
salerno,8.528287,2.0
pesaro_e_urbino,2.6760418,18.0
venezia,3.30427,31.0
siena,0.0,0.0
vibo_valentia,0.0,0.0
matera,0.0,2.0
forli_cesena,1.7696246,19.0
parma,3.2057028,14.0
trieste,1.9860293,6.0
roma,11.043442,75.0
ferrara,0.6203196,11.0
belluno,2.606739,1.0
sassari,0.12723221,1.0
avellino,0.38794792,5.0
agrigento,0.0,0.0
como,7.7566843,37.0
cremona,3.9289732,21.0
catania,0.637291,9.0
bologna,12.049312,27.0
pisa,0.10900158,2.0
viterbo,0.16011679,2.0
pescara,1.0602043,25.0
rimini,2.3555846,1.0
mantova,2.5510201,2.0
vicenza,4.2130327,10.0
verbano_cusio_ossola,1.1173023,1.0
modena,4.4467673,8.0
crotone,0.0,0.0
bergamo,9.194792,37.0
