n,o,l
granada,30.546242,47.0
palencia,13.903608,9.0
segovia,58.062458,81.0
valencia,94.313,25.0
tarragona,4.4656124,0.0
cadiz,12.457246,7.0
huelva,51.433586,43.0
caceres,58.251854,63.0
alicante,52.841145,111.0
cordoba,2.4882252,21.0
gipuzkoa,12.660991,10.0
cuenca,37.821266,75.0
sevilla,4.9556274,76.0
guadalajara,47.998215,61.0
salamanca,8.334474,12.0
toledo,29.345612,46.0
ciudad_real,23.563204,121.0
badajoz,523.8051,15.0
barcelona,17.629507,1002.0
avila,29.110409,14.0
lleida,21.381458,48.0
araba/alava,4.0584807,20.0
albacete,10.590679,37.0
almeria,8.432048,2.0
zamora,0.68160826,5.0
girona,115.35655,0.0
bizkaia,24.788082,154.0
soria,25.328083,40.0
burgos,25.98557,25.0
jaen,22.692343,180.0
valladolid,113.30929,12.0
malaga,24.67945,81.0
leon,2.476997,186.0
castellon,31.52321,17.0
