n,o,l
E10000013,40.570858,29.0
E08000001,28.58879,23.0
E06000032,19.412004,1.0
E08000034,8.855337,11.0
E06000022,6.313106,10.0
E10000006,44.898273,29.0
E10000025,33.0152,19.0
E08000009,15.76662,8.0
E06000049,26.079008,21.0
E10000024,26.949518,11.0
E09000017,15.908371,12.0
E08000027,17.128561,10.0
E06000021,10.638916,11.0
E10000019,22.465912,27.0
E08000008,8.76499,6.0
E09000026,15.328254,6.0
E06000001,4.162042,3.0
E06000050,21.4509,18.0
E08000017,5.31199,7.0
E06000055,11.517761,3.0
E06000040,5.0808983,4.0
E06000002,14.101142,10.0
E06000004,9.324003,9.0
E08000030,14.295568,10.0
E08000032,19.678082,7.0
E10000017,83.099464,49.0
E08000004,30.861507,24.0
E08000035,38.4789,33.0
E06000011,12.299958,21.0
E10000032,27.534193,18.0
E06000038,16.107096,6.0
E06000041,6.8415136,8.0
E09000015,18.574156,13.0
E09000006,18.269186,9.0
E08000011,13.499756,7.0
E06000008,9.989548,5.0
E06000026,4.599633,13.0
E06000059,5.417692,6.0
E06000034,4.059328,1.0
E10000014,70.71854,50.0
E06000016,19.4991,23.0
E06000035,15.165502,12.0
E08000014,22.532322,12.0
E06000056,15.051271,2.0
E10000003,16.956469,16.0
E09000004,7.343189,18.0
E10000018,20.238821,20.0
E08000012,40.842346,21.0
E06000012,2.9651606,1.0
E10000027,12.599914,8.0
E06000014,3.724023,6.0
E08000036,12.174319,7.0
E09000008,27.089184,7.0
E06000046,2.6472602,1.0
E06000030,12.145728,14.0
E06000054,10.732831,10.0
E08000005,17.113163,14.0
E06000027,4.941499,22.0
E10000016,102.09683,68.0
E10000030,65.2111,39.0
E08000013,11.515334,3.0
E06000033,5.327346,5.0
E08000016,20.587904,23.0
E09000016,20.21649,10.0
E06000051,8.095765,12.0
E08000037,25.989277,16.0
E06000052,13.81187,6.0
E09000010,22.728981,7.0
E10000021,26.2305,31.0
E06000039,38.77502,28.0
E08000024,8.656219,6.0
E09000027,5.4900694,9.0
E09000009,26.99767,11.0
E10000020,46.131367,54.0
E10000023,24.605026,14.0
E10000029,9.177717,5.0
E06000045,27.02324,31.0
E08000018,17.799232,18.0
E10000034,30.265438,15.0
E06000018,10.155277,10.0
E08000019,46.411232,42.0
E06000017,2.670619,0.0
E08000010,29.05463,19.0
E09000003,19.124973,9.0
E10000028,42.229813,42.0
E10000008,21.977087,7.0
E08000025,50.097023,49.0
E10000031,29.368057,31.0
E08000007,23.368793,15.0
E06000013,9.686844,7.0
E06000005,7.6428556,5.0
E08000015,31.931313,26.0
E06000042,9.414982,7.0
E06000009,11.051398,21.0
E10000007,24.695454,27.0
E09000001,2.489439,0.0
E09000022,26.156612,11.0
E06000047,46.41168,27.0
E06000037,6.0330815,6.0
E08000026,16.41282,5.0
E09000002,9.337636,11.0
E09000018,11.67833,11.0
E06000043,8.139536,8.0
E06000020,0.34150288,4.0
E06000057,32.985985,20.0
E06000006,8.000933,9.0
E08000003,42.586258,19.0
E10000015,62.140408,33.0
E06000024,4.0491166,2.0
E08000023,10.697079,7.0
E06000036,4.9771805,2.0
E10000011,14.298134,13.0
E06000031,2.3053694,4.0
E08000021,23.249155,18.0
E10000002,13.611599,16.0
E06000044,7.8115706,1.0
E08000031,13.210004,12.0
E09000020,5.3643575,0.0
E06000003,9.583895,8.0
E08000002,19.997946,8.0
E10000012,57.35373,27.0
E09000005,26.84888,14.0
E06000007,14.362506,7.0
E09000023,5.071378,2.0
E08000033,12.5377655,7.0
E09000021,7.0037613,2.0
E09000029,11.455001,7.0
E08000022,8.723599,4.0
E06000015,8.7594595,4.0
