n,o,l
charente_maritime,0.0,3.0
vienne,0.0,2.0
aude,0.0,1.0
haute_loire,0.15421511,3.0
haute_savoie,0.16160783,4.0
dordogne,0.0,1.0
correze,0.0,0.0
indre_et_loire,0.0,1.0
saone_et_loire,3.5958903,6.0
loire_atlantique,0.0,0.0
haute_vienne,0.0,0.0
drome,0.0,2.0
cote_d'or,0.0,5.0
landes,55.154625,32.0
paris,0.0,0.0
charente,0.0,0.0
meurthe_et_moselle,39.35051,2.0
essonne,3.0518332,49.0
marne,11.468163,2.0
seine_saint_denis,45.768414,24.0
moselle,15.881326,9.0
bas_rhin,14.880867,4.0
pas_de_calais,10.779631,9.0
nord,6.851751,17.0
loiret,0.0,4.0
nievre,0.681764,0.0
alpes_maritimes,2.1575308,0.0
pyrenees_atlantiques,3.4939866,0.0
val_d'oise,21.414824,14.0
meuse,0.40177712,0.0
mayenne,0.0,0.0
val_de_marne,31.455317,29.0
hautes_pyrenees,0.9190218,1.0
lot,0.0,0.0
isere,0.0,1.0
gironde,0.0131411115,0.0
yvelines,22.432484,30.0
yonne,0.0556175,0.0
haute_saone,3.4261959,2.0
somme,6.4072137,6.0
eure_et_loir,6.446759,3.0
manche,7.166884,8.0
indre,0.39189517,0.0
haute_marne,0.0,0.0
haut_rhin,3.557316,6.0
maine_et_loire,0.0,0.0
jura,0.5716114,1.0
savoie,0.0,0.0
ardennes,0.0,2.0
haute_garonne,0.4893645,6.0
rhone,2.256704,4.0
ardeche,2.1467876,0.0
aisne,5.0432096,4.0
vosges,1.1130587,1.0
gers,1.4563032,0.0
oise,9.620955,13.0
hauts_de_seine,37.283978,23.0
territoire_de_belfort,0.0,1.0
lot_et_garonne,0.0,0.0
eure,15.071705,6.0
tarn,0.0,2.0
cher,0.8487059,3.0
aube,4.179164,3.0
vaucluse,2.3598633,0.0
pyrenees_orientales,0.0,0.0
var,0.0,0.0
cantal,5.3953147,0.0
doubs,3.7649462,2.0
seine_et_marne,51.024666,42.0
ain,14.4959135,5.0
calvados,1.2283981,0.0
herault,14.72108,16.0
bouches_du_rhone,39.467407,30.0
puy_de_dome,1.3453574,4.0
tarn_et_garonne,0.0,1.0
loire,0.09123828,0.0
gard,1.5313377,9.0
loir_et_cher,0.0,1.0
alpes_de_haute_provence,0.08113848,1.0
orne,0.0,7.0
seine_maritime,5.1133814,4.0
