n,o,l
siracusa,0.0,5.0
asti,0.0719745,0.0
oristano,0.59431106,21.0
grosseto,0.018035393,0.0
sondrio,0.3992953,80.0
ascoli_piceno,0.19310378,2.0
savona,0.507036,5.0
reggio_emilia,1.5094321,194.0
torino,4.973215,0.0
rovigo,0.08246608,19.0
frosinone,0.4037567,0.0
campobasso,0.08684654,8.0
cosenza,0.124753386,7.0
trapani,0.0,5.0
pavia,4.1972675,33.0
cuneo,1.106027,0.0
genova,2.0752764,110.0
treviso,2.5515678,46.0
barletta_andria_trani,0.25936022,3.0
udine,0.35339755,85.0
brescia,11.685352,463.0
ravenna,0.9186602,32.0
latina,0.098131314,0.0
gorizia,0.0,0.0
pordenone,0.7302937,21.0
massa_carrara,0.8974907,24.0
la_aquila,0.19541031,5.0
prato,0.044948768,11.0
rieti,0.04897115,6.0
aosta,1.0850245,50.0
ragusa,0.0,1.0
fermo,0.064210355,22.0
milano,9.779768,634.0
firenze,1.1713138,54.0
arezzo,0.21892315,0.0
bolzano_bozen,1.5157273,60.0
piacenza,3.5886247,88.0
ancona,2.2538958,44.0
napoli,1.5493217,100.0
reggio_calabria,0.13503987,10.0
novara,0.7901996,0.0
pistoia,0.4739203,23.0
lodi,4.568899,83.0
la_spezia,0.5691711,5.0
brindisi,0.0,10.0
taranto,0.036989287,4.0
potenza,0.027929174,8.0
perugia,0.0,72.0
alessandria,2.441611,0.0
enna,0.014108848,13.0
imperia,0.48207486,16.0
vercelli,0.0,0.0
foggia,0.23835376,43.0
lecce,2.2581775,64.0
lecco,3.7212934,42.0
padova,0.08477335,0.0
messina,0.0,6.0
lucca,0.7022591,25.0
palermo,0.07899539,5.0
livorno,0.02481686,4.0
benevento,0.48271668,0.0
catanzaro,0.04710759,7.0
bari,0.017663289,25.0
caltanissetta,0.083817266,6.0
isernia,0.023966398,3.0
biella,0.28397632,0.0
verona,4.3041034,60.0
caserta,0.4421341,29.0
chieti,0.28203523,25.0
varese,1.2569166,45.0
teramo,0.20543504,29.0
macerata,0.53742987,26.0
cagliari,0.095747024,9.0
terni,0.0,10.0
nuoro,0.0,1.0
trento,0.0,68.0
salerno,0.28081316,27.0
pesaro_e_urbino,2.6883786,73.0
venezia,1.2235179,49.0
siena,0.37703976,1.0
vibo_valentia,0.0,0.0
matera,0.021321166,2.0
forli_cesena,1.0861648,56.0
parma,1.6564655,69.0
trieste,1.2649885,28.0
roma,3.9969902,88.0
ferrara,0.44723058,14.0
belluno,1.1286978,10.0
sassari,0.0,60.0
avellino,0.046221804,32.0
agrigento,0.0,3.0
como,1.5557711,52.0
cremona,5.2376204,119.0
catania,0.0,20.0
bologna,2.5704563,70.0
pisa,0.46098572,22.0
viterbo,0.18843435,11.0
pescara,0.6496567,63.0
rimini,2.9133568,78.0
mantova,2.2304537,122.0
vicenza,0.7758493,31.0
verbano_cusio_ossola,0.45863444,0.0
modena,3.3097486,88.0
crotone,0.0,16.0
bergamo,13.854579,340.0
