n,o,l
charente_maritime,2.253755,0.0
vienne,0.0,0.0
aude,1.8680217,0.0
haute_loire,0.0,0.0
haute_savoie,10.357865,0.0
dordogne,0.0,0.0
correze,0.0,0.0
indre_et_loire,0.5775986,1.0
saone_et_loire,5.1582284,1.0
loire_atlantique,0.0,0.0
haute_vienne,0.0,0.0
drome,0.9718091,0.0
cote_d'or,1.7508544,0.0
landes,0.57432985,16.0
paris,81.153336,0.0
charente,0.0,0.0
meurthe_et_moselle,2.8468053,5.0
essonne,31.992105,0.0
marne,8.426739,0.0
seine_saint_denis,57.38993,7.0
moselle,13.103605,0.0
bas_rhin,9.827102,0.0
pas_de_calais,7.1220965,0.0
nord,5.5769053,0.0
loiret,9.104774,0.0
nievre,1.1480294,1.0
alpes_maritimes,5.1382165,0.0
pyrenees_atlantiques,1.5560285,0.0
val_d'oise,27.434675,3.0
meuse,0.1710333,0.0
mayenne,0.0,0.0
val_de_marne,44.04938,5.0
hautes_pyrenees,2.4452524,1.0
lot,0.0,0.0
isere,0.6394076,0.0
gironde,8.837678,0.0
yvelines,20.811125,0.0
yonne,0.0,0.0
haute_saone,2.1874003,0.0
somme,9.485063,3.0
eure_et_loir,13.459744,0.0
manche,7.2222357,0.0
indre,0.4876472,0.0
haute_marne,0.0,0.0
haut_rhin,31.207306,0.0
maine_et_loire,0.0,0.0
jura,1.9205241,0.0
savoie,0.04279375,0.0
ardennes,0.1941795,1.0
haute_garonne,3.1094604,0.0
rhone,7.4505167,0.0
ardeche,0.0,0.0
aisne,11.849118,0.0
vosges,12.282988,0.0
gers,0.715762,0.0
oise,31.480164,2.0
hauts_de_seine,66.10627,2.0
territoire_de_belfort,1.6429224,0.0
lot_et_garonne,0.0,0.0
eure,6.731456,0.0
tarn,0.0,0.0
cher,4.753728,0.0
aube,6.0840096,0.0
vaucluse,2.902393,0.0
pyrenees_orientales,0.0,1.0
var,8.951096,0.0
cantal,0.0,1.0
doubs,3.7436073,0.0
seine_et_marne,32.688046,4.0
ain,1.4758804,0.0
calvados,1.7388073,13.0
herault,25.225962,1.0
bouches_du_rhone,59.63997,1.0
puy_de_dome,4.37133,1.0
tarn_et_garonne,0.044278786,0.0
loire,0.0,0.0
gard,5.2626767,0.0
loir_et_cher,0.0,0.0
alpes_de_haute_provence,0.10070613,0.0
orne,0.0,0.0
seine_maritime,8.3085375,1.0
