n,o,l
E10000013,22.929422,13.0
E08000001,17.02679,14.0
E06000032,12.364385,0.0
E08000034,10.78994,13.0
E06000022,1.8019553,1.0
E10000006,29.941765,44.0
E10000025,31.910646,32.0
E08000009,9.936036,12.0
E06000049,22.912178,25.0
E10000024,16.750965,21.0
E09000017,13.630034,3.0
E08000027,5.815109,18.0
E06000021,14.27849,21.0
E10000019,16.193985,11.0
E08000008,4.904966,8.0
E09000026,4.8896413,16.0
E06000001,6.8913236,4.0
E06000050,19.58389,19.0
E08000017,12.980231,22.0
E06000055,10.736379,15.0
E06000040,1.5279793,2.0
E06000002,11.032812,12.0
E06000004,6.7170124,10.0
E08000030,25.426996,21.0
E08000032,28.434856,26.0
E10000017,61.111446,64.0
E08000004,13.374677,13.0
E08000035,44.183537,21.0
E06000011,18.40371,28.0
E10000032,20.621008,22.0
E06000038,10.030534,5.0
E06000041,5.2316966,10.0
E09000015,10.414111,6.0
E09000006,11.789116,17.0
E08000011,9.992989,10.0
E06000008,5.360366,8.0
E06000026,5.98889,2.0
E06000059,4.9465938,3.0
E06000034,2.1404605,7.0
E10000014,53.37711,54.0
E06000016,14.120451,12.0
E06000035,9.550539,8.0
E08000014,9.471379,16.0
E06000056,12.164872,4.0
E10000003,17.712187,27.0
E09000004,5.8566823,11.0
E10000018,18.17802,17.0
E08000012,21.094955,21.0
E06000012,2.6114414,0.0
E10000027,11.24414,13.0
E06000014,6.6242595,12.0
E08000036,6.660212,21.0
E09000008,13.886124,19.0
E06000046,3.1104765,1.0
E06000030,5.950465,3.0
E06000054,6.0882087,6.0
E08000005,10.58947,6.0
E06000027,4.8088856,1.0
E10000016,91.931694,69.0
E10000030,44.16721,27.0
E08000013,16.045063,8.0
E06000033,2.0790896,5.0
E08000016,13.649013,10.0
E09000016,4.9319596,4.0
E06000051,13.979291,8.0
E08000037,20.295048,22.0
E06000052,5.5047097,4.0
E09000010,13.78552,3.0
E10000021,7.2549973,12.0
E06000039,17.505255,9.0
E08000024,3.1624398,25.0
E09000027,1.1733633,8.0
E09000009,8.397204,7.0
E10000020,44.258118,52.0
E10000023,24.734234,34.0
E10000029,8.850959,25.0
E06000045,31.842035,15.0
E08000018,16.155083,16.0
E10000034,17.453938,14.0
E06000018,11.476156,6.0
E08000019,36.426723,36.0
E06000017,1.9011314,0.0
E08000010,20.052454,9.0
E09000003,8.595816,9.0
E10000028,42.706165,31.0
E10000008,11.3377695,7.0
E08000025,46.020416,35.0
E10000031,24.603588,17.0
E08000007,15.401961,26.0
E06000013,13.176802,14.0
E06000005,4.8816614,6.0
E08000015,18.093182,8.0
E06000042,3.5288692,13.0
E06000009,15.158044,12.0
E10000007,0.8602133,7.0
E09000001,32.80186,0.0
E09000022,8.521957,7.0
E06000047,36.661034,46.0
E06000037,5.467886,5.0
E08000026,14.068977,6.0
E09000002,2.676044,0.0
E09000018,4.6307383,17.0
E06000043,1.7094307,4.0
E06000020,6.9187903,8.0
E06000057,13.098184,19.0
E06000006,1.9804162,5.0
E08000003,19.894749,17.0
E10000015,35.095043,33.0
E06000024,3.348195,9.0
E08000023,16.107208,24.0
E06000036,1.9441192,1.0
E10000011,7.647201,11.0
E06000031,6.2020817,8.0
E08000021,12.417616,34.0
E10000002,14.406381,6.0
E06000044,2.639743,2.0
E08000031,22.346304,8.0
E09000020,2.86572,4.0
E06000003,7.217994,6.0
E08000002,11.306964,11.0
E10000012,67.78429,40.0
E09000005,8.878889,12.0
E06000007,13.3199415,16.0
E09000023,2.5335162,7.0
E08000033,4.942292,7.0
E09000021,3.239526,12.0
E09000029,5.8558908,4.0
E08000022,5.625913,15.0
E06000015,5.307843,1.0
