n,o,l
siracusa,0.22964388,5.0
asti,1.9144317,27.0
oristano,0.0,6.0
grosseto,1.5689304,5.0
sondrio,0.06264176,14.0
ascoli_piceno,0.2714488,2.0
savona,0.8977018,2.0
reggio_emilia,8.923605,246.0
torino,16.649515,256.0
rovigo,0.056144547,4.0
frosinone,0.51465994,8.0
campobasso,0.0,15.0
cosenza,1.1440847,2.0
trapani,0.5346364,2.0
pavia,2.9599247,47.0
cuneo,1.8222684,47.0
genova,1.5803841,13.0
treviso,2.899189,32.0
barletta_andria_trani,0.0,5.0
udine,1.0378277,40.0
brescia,22.398472,231.0
ravenna,0.61442393,25.0
latina,0.6433571,15.0
gorizia,0.31829184,8.0
pordenone,2.922987,14.0
massa_carrara,0.06113628,50.0
la_aquila,0.68060046,5.0
prato,0.46850884,32.0
rieti,0.24035408,61.0
aosta,0.5553572,3.0
ragusa,0.29056865,1.0
fermo,0.7169722,4.0
milano,10.036856,611.0
firenze,2.468861,71.0
arezzo,0.66616166,11.0
bolzano_bozen,4.6588764,47.0
piacenza,5.522635,81.0
ancona,1.9428893,58.0
napoli,3.1435406,108.0
reggio_calabria,0.4893741,6.0
novara,1.3642414,57.0
pistoia,0.17400654,1.0
lodi,0.0,41.0
la_spezia,2.346185,0.0
brindisi,0.24251033,27.0
taranto,0.039657723,22.0
potenza,0.0,1.0
perugia,2.7718208,9.0
alessandria,1.39745,61.0
enna,4.527153,21.0
imperia,0.0,0.0
vercelli,1.0719175,15.0
foggia,1.0245894,33.0
lecce,1.9313385,46.0
lecco,6.609951,104.0
padova,0.16831651,8.0
messina,1.1317254,18.0
lucca,0.0,42.0
palermo,1.9597929,14.0
livorno,0.0,5.0
benevento,0.7554107,15.0
catanzaro,1.1777306,1.0
bari,2.55631,39.0
caltanissetta,0.38020295,6.0
isernia,0.0,0.0
biella,0.72974604,13.0
verona,8.281424,175.0
caserta,1.9608194,17.0
chieti,0.6445431,12.0
varese,1.5359111,44.0
teramo,6.114414,9.0
macerata,1.0067197,13.0
cagliari,0.261373,5.0
terni,0.66323817,6.0
nuoro,0.0,2.0
trento,0.9481922,124.0
salerno,4.108156,19.0
pesaro_e_urbino,1.3557556,58.0
venezia,1.3576072,61.0
siena,0.57598835,11.0
vibo_valentia,0.035980597,0.0
matera,0.41615748,10.0
forli_cesena,2.5243497,26.0
parma,5.7986536,72.0
trieste,0.8344616,30.0
roma,6.689146,74.0
ferrara,1.25514,6.0
belluno,1.3209158,30.0
sassari,0.83863586,11.0
avellino,0.31797054,32.0
agrigento,0.09170365,2.0
como,3.225492,56.0
cremona,0.0,72.0
catania,1.0360616,12.0
bologna,10.699832,144.0
pisa,0.7215083,20.0
viterbo,0.34303445,12.0
pescara,1.7977176,9.0
rimini,3.7155836,38.0
mantova,7.0841084,48.0
vicenza,3.8557475,85.0
verbano_cusio_ossola,2.2664766,17.0
modena,8.557168,75.0
crotone,0.0,1.0
bergamo,16.288187,236.0
