n,o,l
terni,8.380192,12.0
pistoia,20.225414,20.0
rieti,0.019730672,0.0
pesaro_e_urbino,96.255264,33.0
caserta,8.471336,21.0
brescia,485.6769,160.0
padova,106.69322,112.0
savona,14.189376,470.0
cremona,196.34567,79.0
vicenza,67.24538,39.0
udine,41.728405,32.0
livorno,17.366482,6.0
bergamo,507.99518,124.0
campobasso,1.9490676,12.0
cosenza,3.6716187,26.0
torino,315.03342,213.0
lecce,10.1856,6.0
lecco,101.65625,50.0
benevento,0.0,22.0
ferrara,16.048422,14.0
roma,119.77071,94.0
napoli,57.32863,34.0
salerno,17.139187,11.0
chieti,8.962005,8.0
vercelli,30.174002,22.0
firenze,59.05672,89.0
ascoli_piceno,3.4237952,2.0
foggia,24.449581,18.0
enna,1.6044734,4.0
reggio_calabria,8.42099,15.0
matera,0.0,11.0
cuneo,73.72986,63.0
venezia,41.088,139.0
grosseto,9.265169,4.0
massa_carrara,26.304243,8.0
caltanissetta,0.9224044,9.0
nuoro,0.0,3.0
biella,34.056736,12.0
mantova,98.707245,63.0
la_spezia,3.2774978,104.0
palermo,6.930723,3.0
gorizia,0.0,1.0
latina,33.865433,18.0
fermo,11.706313,3.0
piacenza,132.51181,50.0
trento,114.29799,65.0
lucca,44.68115,17.0
sassari,35.97905,16.0
genova,72.89704,612.0
isernia,0.0,4.0
oristano,0.0,4.0
vibo_valentia,0.0,3.0
aosta,97.19033,34.0
pavia,48.66112,120.0
reggio_emilia,182.50613,158.0
rimini,86.85564,30.0
milano,624.89136,411.0
treviso,90.62116,25.0
viterbo,6.7681417,3.0
crotone,3.986669,3.0
siracusa,1.4606539,2.0
pescara,40.950665,27.0
teramo,14.201929,35.0
sondrio,30.287115,28.0
siena,16.085497,1.0
ravenna,36.69781,20.0
potenza,6.0489836,3.0
forli_cesena,39.760807,53.0
cagliari,1.0820166,2.0
trapani,0.0739586,4.0
imperia,14.354472,343.0
arezzo,21.027067,8.0
varese,30.568003,66.0
ancona,69.291435,43.0
parma,103.59002,74.0
messina,16.444183,9.0
bolzano_bozen,83.99577,52.0
prato,11.7887125,6.0
frosinone,3.889712,5.0
ragusa,0.0,1.0
verona,122.96298,141.0
catania,21.54991,25.0
pordenone,17.561745,9.0
alessandria,111.74829,172.0
novara,58.030437,17.0
pisa,24.896025,19.0
catanzaro,2.4658778,7.0
macerata,31.021957,16.0
bari,26.823135,28.0
verbano_cusio_ossola,19.25591,21.0
avellino,13.684601,4.0
rovigo,5.679861,2.0
asti,20.18853,36.0
brindisi,6.1431103,12.0
belluno,23.85966,16.0
trieste,23.164762,19.0
modena,112.91716,58.0
como,53.050858,9.0
lodi,76.80292,65.0
barletta_andria_trani,2.0277793,17.0
agrigento,0.04331571,5.0
la_aquila,0.15437719,5.0
perugia,49.435547,20.0
taranto,1.4890407,2.0
bologna,74.46643,92.0
