n,o,l
granada,60.988865,0.0
palencia,51.837692,8.0
segovia,46.024025,35.0
valencia,62.98383,91.0
tarragona,37.947372,0.0
cadiz,38.329185,0.0
huelva,37.716682,0.0
caceres,43.5057,5.0
alicante,52.397884,82.0
cordoba,41.01103,0.0
gipuzkoa,42.559498,0.0
cuenca,53.492664,95.0
sevilla,48.14691,0.0
guadalajara,53.638546,26.0
salamanca,59.128456,112.0
toledo,63.575417,59.0
ciudad_real,92.95991,88.0
badajoz,38.560753,2.0
barcelona,256.57986,0.0
avila,54.47547,12.0
lleida,40.90048,0.0
araba/alava,48.223618,0.0
albacete,57.66408,73.0
almeria,37.419975,0.0
zamora,39.07839,6.0
girona,67.2189,0.0
bizkaia,85.92403,0.0
soria,54.54811,75.0
burgos,40.096626,62.0
jaen,63.148674,48.0
valladolid,39.365215,0.0
malaga,42.076813,0.0
leon,58.30017,31.0
castellon,51.544094,23.0
