n,o,l
siracusa,0.12822764,2.0
asti,3.8774195,36.0
oristano,0.05597505,34.0
grosseto,0.0,1.0
sondrio,2.2463348,4.0
ascoli_piceno,1.0777643,4.0
savona,0.17655571,26.0
reggio_emilia,6.5290365,84.0
torino,22.906723,334.0
rovigo,0.55835456,6.0
frosinone,1.3354112,4.0
campobasso,0.46727848,4.0
cosenza,0.20688136,0.0
trapani,0.17384812,4.0
pavia,8.381832,84.0
cuneo,5.2057,112.0
genova,5.0258985,154.0
treviso,4.669013,10.0
barletta_andria_trani,0.51787245,36.0
udine,1.1576494,12.0
brescia,13.321685,269.0
ravenna,1.2054474,8.0
latina,0.8237357,11.0
gorizia,0.2790292,2.0
pordenone,0.93382955,10.0
massa_carrara,1.276088,41.0
la_aquila,0.8563689,2.0
prato,0.34003443,23.0
rieti,1.3649418,3.0
aosta,3.8317256,19.0
ragusa,0.22505662,2.0
fermo,0.77279365,7.0
milano,29.52232,412.0
firenze,13.123285,105.0
arezzo,1.6579936,12.0
bolzano_bozen,5.180965,141.0
piacenza,6.1084766,37.0
ancona,4.202239,43.0
napoli,7.668952,62.0
reggio_calabria,0.769487,3.0
novara,4.1758347,65.0
pistoia,0.9063598,16.0
lodi,2.389821,71.0
la_spezia,0.0,41.0
brindisi,0.27941585,24.0
taranto,0.857411,3.0
potenza,0.13797411,1.0
perugia,1.5550026,4.0
alessandria,2.2276778,4.0
enna,0.7633728,57.0
imperia,0.0,0.0
vercelli,2.3095484,28.0
foggia,2.2960956,15.0
lecce,3.1363223,0.0
lecco,7.410082,60.0
padova,0.20796104,7.0
messina,1.9037777,21.0
lucca,2.046182,14.0
palermo,0.43363324,13.0
livorno,1.4829254,4.0
benevento,1.371203,19.0
catanzaro,0.0,1.0
bari,3.9225805,8.0
caltanissetta,0.15806192,6.0
isernia,0.0,6.0
biella,1.8725001,7.0
verona,7.979134,93.0
caserta,1.2037582,9.0
chieti,1.0688735,11.0
varese,0.9330336,7.0
teramo,2.027753,30.0
macerata,1.394388,17.0
cagliari,0.42192444,6.0
terni,0.18305498,6.0
nuoro,0.0,0.0
trento,7.740463,3.0
salerno,0.78194225,83.0
pesaro_e_urbino,3.844908,19.0
venezia,4.691404,74.0
siena,1.8528323,2.0
vibo_valentia,0.02411415,0.0
matera,0.47827533,2.0
forli_cesena,2.7138655,48.0
parma,4.008714,19.0
trieste,2.4290836,18.0
roma,9.969494,96.0
ferrara,0.93177843,36.0
belluno,1.3627595,11.0
sassari,2.3972561,13.0
avellino,1.2400832,1.0
agrigento,0.6231085,3.0
como,4.4286227,63.0
cremona,5.5895996,99.0
catania,3.5891497,11.0
bologna,8.412607,122.0
pisa,1.9636164,41.0
viterbo,0.9082589,3.0
pescara,2.5864332,20.0
rimini,0.819872,29.0
mantova,3.537022,75.0
vicenza,7.271143,46.0
verbano_cusio_ossola,2.3772936,6.0
modena,9.207854,76.0
crotone,0.0,4.0
bergamo,4.07396,51.0
