n,o,l
E10000013,14.324605,17.0
E08000001,10.168471,12.0
E06000032,0.4828744,4.0
E08000034,9.825863,9.0
E06000022,2.2146342,1.0
E10000006,23.447054,24.0
E10000025,13.723062,55.0
E08000009,6.461453,9.0
E06000049,15.632239,19.0
E10000024,15.82027,7.0
E09000017,2.7931812,5.0
E08000027,15.36267,5.0
E06000021,14.159287,17.0
E10000019,9.120867,7.0
E08000008,5.307113,10.0
E09000026,3.9570563,20.0
E06000001,3.1584778,4.0
E06000050,15.654612,5.0
E08000017,15.030749,1.0
E06000055,6.931366,8.0
E06000040,2.372027,1.0
E06000002,8.553153,17.0
E06000004,7.7716384,17.0
E08000030,12.529477,15.0
E08000032,25.803923,14.0
E10000017,39.773857,36.0
E08000004,12.24631,17.0
E08000035,24.943756,28.0
E06000011,17.772964,17.0
E10000032,14.54132,5.0
E06000038,6.365362,4.0
E06000041,3.60942,1.0
E09000015,2.0123098,10.0
E09000006,9.909512,12.0
E08000011,7.2715855,12.0
E06000008,3.2288418,5.0
E06000026,3.0365458,9.0
E06000059,2.9082568,1.0
E06000034,2.4561665,1.0
E10000014,32.845665,20.0
E06000016,8.9153,5.0
E06000035,4.4630046,5.0
E08000014,7.8177214,2.0
E06000056,4.1126447,3.0
E10000003,17.623478,22.0
E09000004,4.4747405,2.0
E10000018,12.980673,14.0
E08000012,15.419404,1.0
E06000012,0.8505744,2.0
E10000027,8.307218,3.0
E06000014,8.811259,23.0
E08000036,8.765593,16.0
E09000008,10.559259,4.0
E06000046,3.2529023,1.0
E06000030,3.6500137,4.0
E06000054,7.144188,3.0
E08000005,5.1344776,16.0
E06000027,2.2409499,5.0
E10000016,60.96157,79.0
E10000030,21.997114,26.0
E08000013,6.1695824,3.0
E06000033,2.2095764,3.0
E08000016,13.428366,8.0
E09000016,3.109651,5.0
E06000051,10.399662,12.0
E08000037,14.388323,14.0
E06000052,4.568127,6.0
E09000010,2.521707,5.0
E10000021,8.832659,7.0
E06000039,4.554863,4.0
E08000024,14.683505,14.0
E09000027,1.6167953,2.0
E09000009,8.74277,4.0
E10000020,41.31102,40.0
E10000023,24.004377,33.0
E10000029,19.348629,15.0
E06000045,7.05335,4.0
E08000018,12.865354,12.0
E10000034,12.394525,19.0
E06000018,4.813127,12.0
E08000019,28.45927,21.0
E06000017,2.0401702,1.0
E08000010,13.257876,39.0
E09000003,5.5698,6.0
E10000028,26.871744,33.0
E10000008,9.664282,3.0
E08000025,25.396864,51.0
E10000031,17.820518,25.0
E08000007,14.255995,15.0
E06000013,8.416128,9.0
E06000005,4.8612385,4.0
E08000015,11.633068,14.0
E06000042,1.7083547,4.0
E06000009,7.356825,5.0
E10000007,13.972973,23.0
E09000001,2.0542789,0.0
E09000022,3.7355347,3.0
E06000047,35.920116,35.0
E06000037,0.8490474,2.0
E08000026,7.490087,14.0
E09000002,2.239313,4.0
E09000018,4.6653996,1.0
E06000043,2.705562,7.0
E06000020,4.1046453,7.0
E06000057,9.635894,8.0
E06000006,2.7712827,2.0
E08000003,13.474076,26.0
E10000015,34.80704,32.0
E06000024,5.264829,3.0
E08000023,12.529745,10.0
E06000036,2.407191,1.0
E10000011,8.974856,10.0
E06000031,6.028323,5.0
E08000021,10.1039095,12.0
E10000002,7.3792167,4.0
E06000044,2.2481947,2.0
E08000031,7.9920225,7.0
E09000020,2.2099347,1.0
E06000003,3.88756,5.0
E08000002,7.359623,4.0
E10000012,37.571808,32.0
E09000005,5.936926,5.0
E06000007,7.6173778,3.0
E09000023,2.270807,9.0
E08000033,4.2923946,4.0
E09000021,3.6953864,1.0
E09000029,0.93050885,6.0
E08000022,4.3046694,9.0
E06000015,2.5550005,3.0
