n,o,l
granada,60.754353,46.0
palencia,42.970257,11.0
segovia,47.408436,69.0
valencia,61.369194,63.0
tarragona,29.685253,20.0
cadiz,28.046349,20.0
huelva,31.899197,12.0
caceres,48.304424,61.0
alicante,53.446434,0.0
cordoba,58.01401,130.0
gipuzkoa,34.158398,15.0
cuenca,43.530293,13.0
sevilla,56.718334,51.0
guadalajara,67.439316,37.0
salamanca,77.039604,109.0
toledo,107.23925,67.0
ciudad_real,26.72464,1.0
badajoz,386.63385,253.0
barcelona,48.765278,38.0
avila,32.429436,6.0
lleida,61.917843,0.0
araba/alava,31.560448,13.0
albacete,53.606396,88.0
almeria,34.19829,13.0
zamora,83.48421,0.0
girona,101.76989,0.0
bizkaia,37.828014,26.0
soria,72.358086,37.0
burgos,38.52174,168.0
jaen,32.474327,30.0
valladolid,80.70523,28.0
malaga,64.302704,92.0
leon,36.677853,0.0
castellon,72.44131,27.0
