n,o,l
charente_maritime,4.4885664,0.0
vienne,0.0,0.0
aude,1.6592412,0.0
haute_loire,0.24755871,0.0
haute_savoie,10.724437,0.0
dordogne,0.0,0.0
correze,0.0,0.0
indre_et_loire,0.0,0.0
saone_et_loire,3.2373276,0.0
loire_atlantique,0.0,0.0
haute_vienne,0.13939278,0.0
drome,0.0,0.0
cote_d'or,0.0,0.0
landes,69.12119,1.0
paris,0.0,0.0
charente,0.0,0.0
meurthe_et_moselle,2.3881412,1.0
essonne,57.510757,0.0
marne,13.947859,0.0
seine_saint_denis,46.335552,0.0
moselle,14.7150345,0.0
bas_rhin,9.275157,0.0
pas_de_calais,11.626311,0.0
nord,6.1812625,0.0
loiret,1.671572,0.0
nievre,1.0523549,0.0
alpes_maritimes,2.4815304,0.0
pyrenees_atlantiques,3.6913176,0.0
val_d'oise,22.076933,0.0
meuse,0.84645855,0.0
mayenne,0.0,0.0
val_de_marne,34.008873,0.0
hautes_pyrenees,4.5754,0.0
lot,0.0,0.0
isere,1.1318054,0.0
gironde,2.4383388,0.0
yvelines,21.531462,0.0
yonne,0.0,0.0
haute_saone,3.5972888,0.0
somme,6.5928464,0.0
eure_et_loir,25.505945,0.0
manche,3.648538,0.0
indre,2.2292995,0.0
haute_marne,0.0,0.0
haut_rhin,9.965723,0.0
maine_et_loire,0.0,0.0
jura,6.9359117,0.0
savoie,0.0,0.0
ardennes,0.0,0.0
haute_garonne,2.014311,1.0
rhone,3.1102102,0.0
ardeche,0.0,0.0
aisne,5.116594,0.0
vosges,2.8058794,0.0
gers,1.2474179,0.0
oise,19.11048,2.0
hauts_de_seine,44.878227,0.0
territoire_de_belfort,0.09125496,0.0
lot_et_garonne,0.0,0.0
eure,13.706044,0.0
tarn,0.14353825,0.0
cher,3.4979455,0.0
aube,7.382873,0.0
vaucluse,6.9439464,0.0
pyrenees_orientales,0.0,0.0
var,3.5976477,1.0
cantal,0.0,0.0
doubs,2.0240204,0.0
seine_et_marne,48.81876,2.0
ain,18.529606,0.0
calvados,2.4527814,0.0
herault,10.410004,3.0
bouches_du_rhone,55.07512,0.0
puy_de_dome,3.0695639,1.0
tarn_et_garonne,0.0,1.0
loire,0.0,0.0
gard,7.1376576,0.0
loir_et_cher,0.0,0.0
alpes_de_haute_provence,0.0,0.0
orne,0.0,0.0
seine_maritime,9.981389,0.0
