n,o,l
charente_maritime,5.621512,5.0
vienne,0.0,1.0
aude,1.5595508,1.0
haute_loire,0.0,1.0
haute_savoie,9.83842,4.0
dordogne,0.0,0.0
correze,0.0,0.0
indre_et_loire,0.0,1.0
saone_et_loire,3.879841,7.0
loire_atlantique,0.0,0.0
haute_vienne,0.0,2.0
drome,0.111818954,3.0
cote_d'or,0.0,1.0
landes,61.541576,79.0
paris,0.0,0.0
charente,0.0,0.0
meurthe_et_moselle,2.5019865,11.0
essonne,43.751385,58.0
marne,3.8687103,8.0
seine_saint_denis,43.411133,82.0
moselle,13.558397,25.0
bas_rhin,7.726057,27.0
pas_de_calais,10.466047,16.0
nord,7.319532,13.0
loiret,2.0968904,3.0
nievre,4.6537147,4.0
alpes_maritimes,2.824032,5.0
pyrenees_atlantiques,0.0,5.0
val_d'oise,19.60137,30.0
meuse,0.0,1.0
mayenne,0.0,1.0
val_de_marne,33.37205,58.0
hautes_pyrenees,6.136969,9.0
lot,0.0,0.0
isere,0.95510936,2.0
gironde,2.9237645,2.0
yvelines,23.051744,49.0
yonne,0.0,4.0
haute_saone,6.9022574,10.0
somme,6.7641864,9.0
eure_et_loir,21.60092,9.0
manche,4.9401793,18.0
indre,2.782873,3.0
haute_marne,0.0,0.0
haut_rhin,13.075796,16.0
maine_et_loire,0.0,0.0
jura,4.920753,4.0
savoie,0.0,0.0
ardennes,0.27586418,2.0
haute_garonne,1.5615748,4.0
rhone,2.4186833,5.0
ardeche,0.17384174,10.0
aisne,4.918227,8.0
vosges,2.7203708,3.0
gers,1.5301515,3.0
oise,19.988825,11.0
hauts_de_seine,42.1804,43.0
territoire_de_belfort,0.004790239,1.0
lot_et_garonne,0.0,0.0
eure,13.477685,28.0
tarn,0.0,0.0
cher,3.974227,4.0
aube,8.526165,8.0
vaucluse,4.993269,4.0
pyrenees_orientales,0.0,2.0
var,3.6819859,12.0
cantal,0.0,3.0
doubs,2.354765,13.0
seine_et_marne,45.608715,95.0
ain,10.627082,7.0
calvados,0.91593057,0.0
herault,6.179493,33.0
bouches_du_rhone,58.94745,56.0
puy_de_dome,4.097935,0.0
tarn_et_garonne,0.0,0.0
loire,0.48698008,0.0
gard,6.5441194,5.0
loir_et_cher,0.0,0.0
alpes_de_haute_provence,0.0,3.0
orne,0.0,2.0
seine_maritime,6.477757,3.0
