n,o,l
siracusa,0.40581596,1.0
asti,1.1520444,26.0
oristano,0.23184384,9.0
grosseto,0.032768056,37.0
sondrio,0.0,1.0
ascoli_piceno,0.6134024,1.0
savona,0.13479327,0.0
reggio_emilia,11.065758,108.0
torino,13.681501,477.0
rovigo,0.0,4.0
frosinone,0.6434738,10.0
campobasso,0.083622955,5.0
cosenza,0.5593479,1.0
trapani,0.34079808,13.0
pavia,7.202444,168.0
cuneo,2.8142164,82.0
genova,3.6099818,132.0
treviso,5.530347,30.0
barletta_andria_trani,0.69799924,0.0
udine,0.45181134,73.0
brescia,21.636166,166.0
ravenna,2.195724,32.0
latina,0.08243732,14.0
gorizia,0.68199086,4.0
pordenone,2.4801857,9.0
massa_carrara,0.261844,15.0
la_aquila,0.4068069,8.0
prato,0.62715405,9.0
rieti,0.39764515,0.0
aosta,0.8120236,29.0
ragusa,0.33721846,1.0
fermo,1.3319032,7.0
milano,18.703718,428.0
firenze,3.5303812,83.0
arezzo,1.5756005,12.0
bolzano_bozen,3.2113454,33.0
piacenza,7.40304,31.0
ancona,3.9084358,27.0
napoli,0.9370269,70.0
reggio_calabria,0.4272761,4.0
novara,1.6399902,37.0
pistoia,0.5758764,13.0
lodi,2.1339748,24.0
la_spezia,1.2202564,18.0
brindisi,0.47252846,16.0
taranto,0.17880069,2.0
potenza,0.36323828,2.0
perugia,2.469238,21.0
alessandria,0.0,100.0
enna,0.9058043,23.0
imperia,0.0,0.0
vercelli,0.35477084,18.0
foggia,0.41235155,19.0
lecce,4.4191947,34.0
lecco,9.859696,79.0
padova,1.982656,7.0
messina,1.0523019,3.0
lucca,2.506063,12.0
palermo,0.7472357,6.0
livorno,0.01227143,1.0
benevento,0.04425909,9.0
catanzaro,0.0,0.0
bari,2.10283,21.0
caltanissetta,0.116404556,10.0
isernia,0.0,25.0
biella,1.5999106,15.0
verona,4.2802896,59.0
caserta,0.29797944,17.0
chieti,0.98466486,7.0
varese,0.9984032,63.0
teramo,1.6965474,19.0
macerata,1.9632696,37.0
cagliari,0.5287273,10.0
terni,0.28180173,6.0
nuoro,0.0,0.0
trento,7.1468654,26.0
salerno,1.8704116,111.0
pesaro_e_urbino,3.4832656,34.0
venezia,3.6735458,41.0
siena,0.44995475,2.0
vibo_valentia,0.07656874,3.0
matera,0.35944426,1.0
forli_cesena,1.6942668,58.0
parma,8.624593,118.0
trieste,1.8963486,22.0
roma,9.638079,117.0
ferrara,1.1190354,106.0
belluno,1.3857113,23.0
sassari,0.0,38.0
avellino,0.7967398,11.0
agrigento,0.24795897,2.0
como,4.573704,63.0
cremona,4.805694,57.0
catania,2.4207926,10.0
bologna,7.7389736,90.0
pisa,1.964379,8.0
viterbo,0.0,14.0
pescara,2.3451092,31.0
rimini,4.6820564,12.0
mantova,3.8789613,97.0
vicenza,4.0313835,94.0
verbano_cusio_ossola,0.37455904,30.0
modena,9.6110115,53.0
crotone,0.0,0.0
bergamo,22.531286,273.0
