n,o,l
granada,43.918594,57.0
palencia,26.163136,19.0
segovia,39.070274,46.0
valencia,74.42057,95.0
tarragona,9.362323,13.0
cadiz,5.719899,12.0
huelva,11.225463,28.0
caceres,13.350019,22.0
alicante,63.747875,80.0
cordoba,13.894105,27.0
gipuzkoa,16.728945,0.0
cuenca,56.494335,45.0
sevilla,23.374731,20.0
guadalajara,25.002789,41.0
salamanca,64.64023,49.0
toledo,50.73866,65.0
ciudad_real,90.314095,55.0
badajoz,4.0263767,4.0
barcelona,416.2117,349.0
avila,42.992508,21.0
lleida,17.434927,27.0
araba/alava,34.842968,0.0
albacete,62.295223,70.0
almeria,8.8751335,24.0
zamora,14.524717,16.0
girona,93.89872,40.0
bizkaia,66.93998,0.0
soria,27.972805,28.0
burgos,87.78813,153.0
jaen,47.88604,70.0
valladolid,16.652702,14.0
malaga,65.06517,76.0
leon,43.947098,59.0
castellon,20.16229,67.0
