n,o,l
E10000013,19.276667,13.0
E08000001,12.889331,14.0
E06000032,4.6955624,0.0
E08000034,9.154369,13.0
E06000022,2.1244664,1.0
E10000006,41.185093,44.0
E10000025,21.456448,32.0
E08000009,8.128984,12.0
E06000049,20.712725,25.0
E10000024,22.30276,21.0
E09000017,4.0114603,3.0
E08000027,14.768269,18.0
E06000021,14.621359,21.0
E10000019,14.081857,11.0
E08000008,5.8514524,8.0
E09000026,3.6522088,16.0
E06000001,7.5210447,4.0
E06000050,18.118706,19.0
E08000017,18.248518,22.0
E06000055,10.767315,15.0
E06000040,3.6727903,2.0
E06000002,7.8670177,12.0
E06000004,7.2713747,10.0
E08000030,19.824522,21.0
E08000032,32.63009,26.0
E10000017,48.022797,64.0
E08000004,11.931917,13.0
E08000035,35.952934,21.0
E06000011,24.136879,28.0
E10000032,21.270243,22.0
E06000038,8.877873,5.0
E06000041,4.351536,10.0
E09000015,12.979775,6.0
E09000006,15.490888,17.0
E08000011,11.210209,10.0
E06000008,6.2249427,8.0
E06000026,3.4392922,2.0
E06000059,4.270863,3.0
E06000034,2.775258,7.0
E10000014,41.59234,54.0
E06000016,13.06305,12.0
E06000035,8.066696,8.0
E08000014,9.627938,16.0
E06000056,7.3869963,4.0
E10000003,18.167545,27.0
E09000004,5.036547,11.0
E10000018,16.399935,17.0
E08000012,20.302803,21.0
E06000012,2.150518,0.0
E10000027,11.524522,13.0
E06000014,10.389032,12.0
E08000036,11.818546,21.0
E09000008,7.032456,19.0
E06000046,4.9403524,1.0
E06000030,4.4958596,3.0
E06000054,9.179161,6.0
E08000005,7.4412594,6.0
E06000027,0.0,1.0
E10000016,81.083115,69.0
E10000030,30.300953,27.0
E08000013,10.508109,8.0
E06000033,2.6649091,5.0
E08000016,14.535474,10.0
E09000016,3.1680512,4.0
E06000051,13.3620825,8.0
E08000037,22.53553,22.0
E06000052,7.9732037,4.0
E09000010,7.9631367,3.0
E10000021,10.0523205,12.0
E06000039,3.92793,9.0
E08000024,17.603533,25.0
E09000027,1.727175,8.0
E09000009,10.344928,7.0
E10000020,42.123123,52.0
E10000023,28.556538,34.0
E10000029,26.889915,25.0
E06000045,6.9331875,15.0
E08000018,16.907503,16.0
E10000034,15.46642,14.0
E06000018,6.2607646,6.0
E08000019,35.681854,36.0
E06000017,1.6725967,0.0
E08000010,18.747421,9.0
E09000003,8.244335,9.0
E10000028,34.67788,31.0
E10000008,14.91776,7.0
E08000025,36.68791,35.0
E10000031,22.78352,17.0
E08000007,15.551913,26.0
E06000013,10.785984,14.0
E06000005,7.0982404,6.0
E08000015,14.675154,8.0
E06000042,5.387525,13.0
E06000009,13.357945,12.0
E10000007,32.462925,7.0
E09000001,1.6501746,0.0
E09000022,6.35574,7.0
E06000047,42.381786,46.0
E06000037,5.0386443,5.0
E08000026,7.7464833,6.0
E09000002,2.2124538,0.0
E09000018,4.190751,17.0
E06000043,3.1568813,4.0
E06000020,6.33223,8.0
E06000057,12.112743,19.0
E06000006,3.44392,5.0
E08000003,17.093664,17.0
E10000015,39.370525,33.0
E06000024,5.691922,9.0
E08000023,15.016379,24.0
E06000036,2.6715841,1.0
E10000011,10.128841,11.0
E06000031,7.3685117,8.0
E08000021,12.413218,34.0
E10000002,11.738275,6.0
E06000044,2.0113578,2.0
E08000031,22.51681,8.0
E09000020,1.9653914,4.0
E06000003,5.9428334,6.0
E08000002,10.36198,11.0
E10000012,57.107582,40.0
E09000005,7.161637,12.0
E06000007,11.21911,16.0
E09000023,2.7427568,7.0
E08000033,4.7584877,7.0
E09000021,3.7235773,12.0
E09000029,5.2844353,4.0
E08000022,4.5380926,15.0
E06000015,7.684808,1.0
