n,o,l
siracusa,0.27355203,3.0
asti,8.231139,26.0
oristano,0.0,1.0
grosseto,0.0,0.0
sondrio,2.5895944,37.0
ascoli_piceno,0.0,0.0
savona,5.777289,34.0
reggio_emilia,3.65588,47.0
torino,45.853092,259.0
rovigo,0.28410357,1.0
frosinone,0.21032959,1.0
campobasso,0.10104376,0.0
cosenza,0.17421743,4.0
trapani,0.0,0.0
pavia,10.076837,69.0
cuneo,6.1419616,27.0
genova,13.464046,45.0
treviso,2.0035918,24.0
barletta_andria_trani,0.0391483,2.0
udine,0.10001376,0.0
brescia,12.827219,55.0
ravenna,0.5214975,1.0
latina,0.7296226,3.0
gorizia,0.18554094,4.0
pordenone,0.2973221,4.0
massa_carrara,0.55603373,1.0
la_aquila,0.0,0.0
prato,0.8141665,3.0
rieti,0.37479267,0.0
aosta,0.36595365,4.0
ragusa,0.17570224,2.0
fermo,0.60771036,4.0
milano,54.892437,216.0
firenze,8.572034,41.0
arezzo,0.5103735,3.0
bolzano_bozen,1.2771884,11.0
piacenza,11.134439,69.0
ancona,0.7147659,5.0
napoli,3.0837417,7.0
reggio_calabria,0.0,0.0
novara,2.8332899,26.0
pistoia,0.62217236,6.0
lodi,4.173321,7.0
la_spezia,0.14441097,4.0
brindisi,0.63953674,11.0
taranto,0.0,3.0
potenza,0.0,0.0
perugia,0.0,1.0
alessandria,6.9944158,71.0
enna,0.16539563,1.0
imperia,3.0292573,21.0
vercelli,1.5226136,8.0
foggia,1.4829162,12.0
lecce,2.5789576,9.0
lecco,1.9619327,15.0
padova,0.1959588,5.0
messina,0.22224832,3.0
lucca,1.1393671,3.0
palermo,1.0211024,13.0
livorno,0.0,0.0
benevento,0.35670036,0.0
catanzaro,0.0,1.0
bari,1.7212933,12.0
caltanissetta,0.14560941,0.0
isernia,0.0,1.0
biella,3.3225389,3.0
verona,9.090185,39.0
caserta,0.18999767,0.0
chieti,2.7524297,0.0
varese,8.3623495,48.0
teramo,0.0,1.0
macerata,1.4968556,7.0
cagliari,0.0,1.0
terni,0.0,0.0
nuoro,0.0,1.0
trento,8.073598,47.0
salerno,0.27145308,2.0
pesaro_e_urbino,3.1588018,16.0
venezia,3.4472692,13.0
siena,0.028957803,1.0
vibo_valentia,0.0,0.0
matera,0.0,1.0
forli_cesena,2.0134785,20.0
parma,3.2910116,13.0
trieste,1.436248,7.0
roma,10.979403,62.0
ferrara,1.6788672,3.0
belluno,1.6769444,23.0
sassari,0.44438285,3.0
avellino,0.3807923,2.0
agrigento,0.0,0.0
como,13.148394,37.0
cremona,7.601864,14.0
catania,1.7662225,2.0
bologna,10.323699,64.0
pisa,0.33582458,1.0
viterbo,0.093241654,5.0
pescara,0.6540031,7.0
rimini,1.7559758,15.0
mantova,3.2911463,19.0
vicenza,4.624454,28.0
verbano_cusio_ossola,0.8041359,0.0
modena,3.866804,27.0
crotone,0.0,0.0
bergamo,8.605835,22.0
