n,o,l
charente_maritime,0.0,5.0
vienne,0.0,0.0
aude,0.0,1.0
haute_loire,0.0,0.0
haute_savoie,6.6758766,3.0
dordogne,0.0,0.0
correze,0.0,1.0
indre_et_loire,0.0,2.0
saone_et_loire,0.33181116,0.0
loire_atlantique,0.0,0.0
haute_vienne,0.0,0.0
drome,0.0,1.0
cote_d'or,0.0,0.0
landes,15.059382,16.0
paris,0.0,1.0
charente,0.0,0.0
meurthe_et_moselle,0.0,1.0
essonne,18.809547,37.0
marne,0.0,0.0
seine_saint_denis,8.5591755,8.0
moselle,1.2070354,8.0
bas_rhin,0.5521821,2.0
pas_de_calais,5.2005653,39.0
nord,4.1722527,15.0
loiret,0.0,0.0
nievre,0.0,2.0
alpes_maritimes,0.0,1.0
pyrenees_atlantiques,0.624122,3.0
val_d'oise,3.7576869,4.0
meuse,0.0,0.0
mayenne,0.0,0.0
val_de_marne,11.383639,11.0
hautes_pyrenees,0.0,1.0
lot,0.0,0.0
isere,0.0,0.0
gironde,0.0,1.0
yvelines,9.926981,7.0
yonne,0.0,0.0
haute_saone,0.0,15.0
somme,8.087002,3.0
eure_et_loir,0.36511174,4.0
manche,6.377559,2.0
indre,0.0,0.0
haute_marne,0.0,1.0
haut_rhin,0.30699125,16.0
maine_et_loire,0.0,0.0
jura,0.0,1.0
savoie,0.0,0.0
ardennes,0.0,0.0
haute_garonne,0.41481745,1.0
rhone,2.5572667,4.0
ardeche,0.0,1.0
aisne,2.0422685,7.0
vosges,0.0,0.0
gers,0.0,8.0
oise,6.6239524,16.0
hauts_de_seine,6.281331,9.0
territoire_de_belfort,0.0,0.0
lot_et_garonne,0.0,0.0
eure,3.6192176,10.0
tarn,0.0,1.0
cher,0.0,6.0
aube,0.44208246,4.0
vaucluse,0.0,2.0
pyrenees_orientales,0.0,2.0
var,0.19308217,5.0
cantal,0.0,0.0
doubs,0.0,0.0
seine_et_marne,11.935223,6.0
ain,2.3005419,2.0
calvados,0.0,0.0
herault,4.853299,15.0
bouches_du_rhone,13.91967,26.0
puy_de_dome,0.0,0.0
tarn_et_garonne,0.0,0.0
loire,0.62483484,1.0
gard,0.6899723,15.0
loir_et_cher,0.0,1.0
alpes_de_haute_provence,0.0,1.0
orne,0.6962973,1.0
seine_maritime,0.29407352,5.0
