n,o,l
terni,10.455885,6.0
pistoia,10.602162,16.0
rieti,4.4403358,3.0
pesaro_e_urbino,44.65293,19.0
caserta,8.71222,7.0
brescia,413.54202,269.0
padova,122.33174,60.0
savona,6.577566,26.0
cremona,135.72598,63.0
vicenza,67.30431,46.0
udine,23.199566,8.0
livorno,11.586536,19.0
bergamo,365.6292,51.0
campobasso,5.462951,4.0
cosenza,12.925027,0.0
torino,291.15054,334.0
lecce,17.679136,0.0
lecco,75.39552,21.0
benevento,0.0,4.0
ferrara,19.922121,36.0
roma,132.33531,96.0
napoli,59.495983,62.0
salerno,21.840103,3.0
chieti,22.425877,11.0
vercelli,24.691633,28.0
firenze,63.72177,105.0
ascoli_piceno,16.96115,4.0
foggia,21.11828,15.0
enna,19.971834,4.0
reggio_calabria,12.6508,3.0
matera,6.494334,2.0
cuneo,40.287678,74.0
venezia,47.845604,112.0
grosseto,20.436926,4.0
massa_carrara,41.311436,41.0
caltanissetta,2.2396817,6.0
nuoro,3.7267349,0.0
biella,24.485819,9.0
mantova,97.47604,75.0
la_spezia,20.462934,41.0
palermo,22.317549,13.0
gorizia,2.6150858,2.0
latina,9.87907,11.0
fermo,17.588385,7.0
piacenza,100.7702,37.0
trento,92.26336,83.0
lucca,27.43688,14.0
sassari,52.49952,13.0
genova,53.272408,154.0
isernia,0.0,6.0
oristano,0.0,1.0
vibo_valentia,0.19357836,0.0
aosta,101.04774,19.0
pavia,35.925575,84.0
reggio_emilia,144.45964,84.0
rimini,59.805874,29.0
milano,510.60043,412.0
treviso,66.1639,10.0
viterbo,13.1209135,3.0
crotone,0.611698,4.0
siracusa,2.3578882,2.0
pescara,33.07101,20.0
teramo,31.931053,7.0
sondrio,30.002872,36.0
siena,15.66176,2.0
ravenna,35.215763,12.0
potenza,5.012931,1.0
forli_cesena,47.65622,48.0
cagliari,3.086757,6.0
trapani,2.674864,4.0
imperia,9.847003,0.0
arezzo,16.47724,12.0
varese,79.54412,43.0
ancona,46.78915,30.0
parma,86.70754,19.0
messina,24.538956,7.0
bolzano_bozen,79.38447,141.0
prato,10.182923,23.0
frosinone,26.46857,4.0
ragusa,0.63624996,2.0
verona,134.43024,93.0
catania,22.470392,11.0
pordenone,26.074108,10.0
alessandria,83.33022,57.0
novara,41.124443,41.0
pisa,25.951311,65.0
catanzaro,14.2605505,1.0
macerata,24.267244,17.0
bari,40.542507,8.0
verbano_cusio_ossola,25.200275,6.0
avellino,6.5514913,1.0
rovigo,5.279209,6.0
asti,17.858328,34.0
brindisi,4.165175,24.0
belluno,21.507223,11.0
trieste,23.617071,18.0
modena,158.29112,76.0
como,72.431786,71.0
lodi,42.041912,36.0
barletta_andria_trani,4.0965505,99.0
agrigento,2.9166992,3.0
la_aquila,5.1250606,2.0
perugia,58.091984,4.0
taranto,5.046372,3.0
bologna,160.4224,122.0
