n,o,l
siracusa,0.13431576,7.0
asti,2.8654134,75.0
oristano,0.4111078,0.0
grosseto,0.07705473,0.0
sondrio,1.7257811,53.0
ascoli_piceno,0.082599536,0.0
savona,5.9976835,0.0
reggio_emilia,10.216692,59.0
torino,29.830982,210.0
rovigo,0.8970769,7.0
frosinone,1.5881699,0.0
campobasso,0.40945867,0.0
cosenza,1.2344713,22.0
trapani,0.4908235,2.0
pavia,9.874642,53.0
cuneo,8.512322,140.0
genova,24.312126,386.0
treviso,2.7710478,49.0
barletta_andria_trani,0.0,5.0
udine,3.828437,6.0
brescia,1.8729213,53.0
ravenna,16.26294,35.0
latina,1.3748884,6.0
gorizia,0.0,2.0
pordenone,0.585879,4.0
massa_carrara,1.0392302,6.0
la_aquila,0.9096757,8.0
prato,0.7122047,10.0
rieti,0.0,0.0
aosta,3.7081366,20.0
ragusa,0.0,0.0
fermo,0.5242346,0.0
milano,34.92887,189.0
firenze,8.373538,42.0
arezzo,0.62008536,34.0
bolzano_bozen,6.8969088,35.0
piacenza,3.1278684,29.0
ancona,4.281081,24.0
napoli,7.701252,78.0
reggio_calabria,0.62193507,5.0
novara,3.7777665,26.0
pistoia,1.1997416,4.0
lodi,2.726011,10.0
la_spezia,4.877622,0.0
brindisi,0.64884216,24.0
taranto,0.23617107,1.0
potenza,0.2702602,0.0
perugia,1.9973699,1.0
alessandria,10.372869,52.0
enna,0.62095493,8.0
imperia,8.022198,80.0
vercelli,2.3973465,9.0
foggia,2.3096087,3.0
lecce,3.342955,59.0
lecco,9.504211,53.0
padova,0.81507796,3.0
messina,0.5446975,1.0
lucca,2.4704278,1.0
palermo,0.72987664,6.0
livorno,0.46177396,1.0
benevento,0.75271314,6.0
catanzaro,0.3253227,1.0
bari,3.0671458,27.0
caltanissetta,0.5044768,4.0
isernia,0.90902007,0.0
biella,1.1126736,23.0
verona,10.308257,25.0
caserta,1.8649598,6.0
chieti,1.0223155,4.0
varese,4.8600082,102.0
teramo,2.6331813,2.0
macerata,2.6509356,3.0
cagliari,0.32543626,4.0
terni,0.7002975,0.0
nuoro,0.08748396,0.0
trento,10.714172,15.0
salerno,0.91260916,16.0
pesaro_e_urbino,3.1304548,14.0
venezia,4.9977326,25.0
siena,0.29663226,1.0
vibo_valentia,0.16326177,0.0
matera,0.37694362,0.0
forli_cesena,4.7881002,56.0
parma,7.4768233,9.0
trieste,2.244983,29.0
roma,9.247818,129.0
ferrara,4.0514812,17.0
belluno,1.5444692,12.0
sassari,1.885992,4.0
avellino,1.3004133,1.0
agrigento,0.19526365,2.0
como,6.1726065,91.0
cremona,8.051024,227.0
catania,1.62091,11.0
bologna,7.1554627,28.0
pisa,1.2649719,33.0
viterbo,1.1335454,8.0
pescara,3.044028,17.0
rimini,2.2755258,13.0
mantova,7.941778,60.0
vicenza,4.8336177,9.0
verbano_cusio_ossola,2.508199,17.0
modena,6.2194233,48.0
crotone,0.19692305,0.0
bergamo,13.569832,35.0
