n,o,l
charente_maritime,0.55824614,4.0
vienne,0.2080286,1.0
aude,4.525838,13.0
haute_loire,0.10243727,1.0
haute_savoie,20.370356,27.0
dordogne,0.042789996,1.0
correze,0.0,0.0
indre_et_loire,3.334758,6.0
saone_et_loire,1.623565,10.0
loire_atlantique,0.17478903,0.0
haute_vienne,0.3028883,4.0
drome,5.9954925,6.0
cote_d'or,1.7937036,2.0
landes,162.2169,0.0
paris,0.0,114.0
charente,0.0,0.0
meurthe_et_moselle,66.82976,3.0
essonne,4.2366385,78.0
marne,10.654568,12.0
seine_saint_denis,90.211334,81.0
moselle,14.192415,6.0
bas_rhin,13.913078,21.0
pas_de_calais,2.5419867,35.0
nord,7.977077,22.0
loiret,11.04442,20.0
nievre,0.44407535,2.0
alpes_maritimes,5.613036,14.0
pyrenees_atlantiques,3.9982688,7.0
val_d'oise,77.56259,48.0
meuse,0.022358803,1.0
mayenne,0.0,0.0
val_de_marne,50.83282,61.0
hautes_pyrenees,1.5065353,6.0
lot,0.0,0.0
isere,6.3178205,4.0
gironde,14.731545,10.0
yvelines,38.092255,33.0
yonne,1.607611,5.0
haute_saone,11.515514,7.0
somme,9.342615,20.0
eure_et_loir,14.540735,43.0
manche,8.0627165,8.0
indre,1.4714782,5.0
haute_marne,0.090158924,1.0
haut_rhin,24.877733,31.0
maine_et_loire,0.0,0.0
jura,0.19007637,3.0
savoie,0.1382321,1.0
ardennes,0.8676261,4.0
haute_garonne,8.388924,7.0
rhone,5.0637536,20.0
ardeche,0.6381971,7.0
aisne,3.961907,39.0
vosges,12.06772,25.0
gers,1.0378007,3.0
oise,26.972588,38.0
hauts_de_seine,106.49321,95.0
territoire_de_belfort,1.246093,7.0
lot_et_garonne,0.0,1.0
eure,5.4966664,63.0
tarn,0.3383496,0.0
cher,10.059983,14.0
aube,6.6330514,12.0
vaucluse,6.498876,4.0
pyrenees_orientales,15.500975,4.0
var,0.044556856,17.0
cantal,0.0,0.0
doubs,5.3447104,10.0
seine_et_marne,33.927998,79.0
ain,2.700251,23.0
calvados,6.911846,5.0
herault,56.143764,34.0
bouches_du_rhone,122.8893,106.0
puy_de_dome,3.2332413,8.0
tarn_et_garonne,0.72574955,0.0
loire,0.0,2.0
gard,2.2968783,7.0
loir_et_cher,1.12723,2.0
alpes_de_haute_provence,0.10693927,0.0
orne,0.29367337,0.0
seine_maritime,10.166675,13.0
