n,o,l
terni,15.115741,4.0
pistoia,11.910314,8.0
rieti,0.0,27.0
pesaro_e_urbino,97.69278,25.0
caserta,3.270594,15.0
brescia,461.743,154.0
padova,84.32701,76.0
savona,9.509738,0.0
cremona,218.14813,81.0
vicenza,48.321575,74.0
udine,25.955881,0.0
livorno,6.293678,9.0
bergamo,470.52933,139.0
campobasso,0.0,10.0
cosenza,1.3466929,2.0
torino,128.62955,305.0
lecce,11.155046,10.0
lecco,66.47512,33.0
benevento,0.0,6.0
ferrara,6.567338,14.0
roma,75.76225,118.0
napoli,32.789845,62.0
salerno,7.3319035,3.0
chieti,4.148211,7.0
vercelli,28.342014,24.0
firenze,27.05397,65.0
ascoli_piceno,1.0268917,25.0
foggia,13.269625,52.0
enna,0.0,8.0
reggio_calabria,8.558858,5.0
matera,0.0,12.0
cuneo,19.19335,81.0
venezia,39.891846,63.0
grosseto,6.897337,6.0
massa_carrara,18.874138,18.0
caltanissetta,0.0,0.0
nuoro,0.0,0.0
biella,12.617496,19.0
mantova,67.82909,71.0
la_spezia,6.9379897,14.0
palermo,3.0371103,9.0
gorizia,5.0089254,7.0
latina,0.06265199,3.0
fermo,4.7666235,13.0
piacenza,113.91766,119.0
trento,99.07086,64.0
lucca,14.629609,32.0
sassari,27.42262,18.0
genova,54.46997,26.0
isernia,0.0,0.0
oristano,0.0,0.0
vibo_valentia,1.124948,0.0
aosta,22.697905,97.0
pavia,105.641106,44.0
reggio_emilia,38.174427,99.0
rimini,55.880505,25.0
milano,322.9906,235.0
treviso,64.03756,73.0
viterbo,1.6941861,0.0
crotone,2.9558911,0.0
siracusa,2.4400156,4.0
pescara,23.707577,28.0
teramo,2.9352858,13.0
sondrio,12.354132,24.0
siena,5.2534866,15.0
ravenna,16.778158,12.0
potenza,0.16963747,0.0
forli_cesena,23.107117,47.0
cagliari,0.0,8.0
trapani,0.62605345,2.0
imperia,10.06774,0.0
arezzo,12.453666,22.0
varese,32.181805,27.0
ancona,49.957695,56.0
parma,87.83676,74.0
messina,0.07361866,6.0
bolzano_bozen,45.20189,46.0
prato,5.58249,10.0
frosinone,6.258679,31.0
ragusa,0.0,8.0
verona,72.92116,130.0
catania,21.829681,50.0
pordenone,8.287832,22.0
alessandria,47.01243,37.0
novara,25.033777,64.0
pisa,11.004474,25.0
catanzaro,0.26008013,5.0
macerata,21.787275,16.0
bari,17.230263,22.0
verbano_cusio_ossola,10.199988,17.0
avellino,8.216942,6.0
rovigo,1.2901254,5.0
asti,3.597669,32.0
brindisi,8.427938,0.0
belluno,13.829185,7.0
trieste,30.212465,51.0
modena,59.849087,85.0
como,36.781338,40.0
lodi,85.948654,29.0
barletta_andria_trani,0.9067949,8.0
agrigento,0.0,5.0
la_aquila,0.0,8.0
perugia,24.00319,21.0
taranto,0.320533,5.0
bologna,44.517475,68.0
