n,o,l
granada,53.20562,48.0
palencia,26.42338,34.0
segovia,42.36322,91.0
valencia,124.25294,215.0
tarragona,12.531048,52.0
cadiz,29.523409,29.0
huelva,55.37661,52.0
caceres,149.97748,26.0
alicante,47.741684,152.0
cordoba,46.152473,41.0
gipuzkoa,0.3858249,0.0
cuenca,61.20194,82.0
sevilla,0.38587835,156.0
guadalajara,66.21736,0.0
salamanca,0.3858926,131.0
toledo,0.3858959,0.0
ciudad_real,28.738163,0.0
badajoz,809.7024,25.0
barcelona,24.741081,1560.0
avila,38.841347,45.0
lleida,75.15131,59.0
araba/alava,0.38725168,97.0
albacete,15.662954,0.0
almeria,15.991701,28.0
zamora,29.210842,9.0
girona,136.1254,192.0
bizkaia,36.635742,900.0
soria,61.338387,104.0
burgos,31.702145,58.0
jaen,50.513763,121.0
valladolid,40.669853,46.0
malaga,52.10924,180.0
leon,51.262527,43.0
castellon,40.73771,47.0
