n,o,l
siracusa,0.06972879,4.0
asti,1.7890377,32.0
oristano,0.64155567,6.0
grosseto,0.025391374,0.0
sondrio,1.018085,24.0
ascoli_piceno,0.57190526,25.0
savona,0.8848083,0.0
reggio_emilia,13.609934,99.0
torino,5.9868197,305.0
rovigo,0.42201224,5.0
frosinone,0.0,31.0
campobasso,0.35005563,10.0
cosenza,0.1417329,2.0
trapani,0.34072423,2.0
pavia,5.705657,97.0
cuneo,3.473651,81.0
genova,1.590403,26.0
treviso,3.1627855,73.0
barletta_andria_trani,0.075379595,8.0
udine,2.9022236,0.0
brescia,29.375511,154.0
ravenna,3.2034407,12.0
latina,2.360822,3.0
gorizia,0.33815035,7.0
pordenone,1.1058756,22.0
massa_carrara,0.590162,18.0
la_aquila,0.124439254,8.0
prato,0.9544145,10.0
rieti,0.4208245,27.0
aosta,2.4493701,44.0
ragusa,0.0049367324,8.0
fermo,0.39137688,13.0
milano,35.064632,235.0
firenze,1.9989622,65.0
arezzo,0.012232121,22.0
bolzano_bozen,3.8404076,46.0
piacenza,6.78968,119.0
ancona,1.7558516,56.0
napoli,3.605112,62.0
reggio_calabria,0.4963682,5.0
novara,1.5439183,64.0
pistoia,0.5617678,8.0
lodi,4.4201884,29.0
la_spezia,0.32923815,14.0
brindisi,0.25497144,0.0
taranto,0.25829345,5.0
potenza,0.68914133,0.0
perugia,3.3827322,21.0
alessandria,4.490329,37.0
enna,0.43990484,8.0
imperia,0.59108865,0.0
vercelli,1.0155319,24.0
foggia,1.6011671,52.0
lecce,7.9138813,33.0
lecco,5.572434,76.0
padova,1.085739,6.0
messina,1.2092217,10.0
lucca,1.3082412,18.0
palermo,0.13377605,9.0
livorno,0.07512417,6.0
benevento,0.9838043,9.0
catanzaro,0.043369867,5.0
bari,1.792974,22.0
caltanissetta,0.43011358,0.0
isernia,0.04318759,0.0
biella,0.1427949,19.0
verona,5.4602194,130.0
caserta,0.566745,15.0
chieti,1.3902373,7.0
varese,1.7720451,27.0
teramo,1.2891847,13.0
macerata,1.2469662,16.0
cagliari,0.25257984,8.0
terni,0.73906827,4.0
nuoro,0.05013107,0.0
trento,6.9152393,64.0
salerno,1.4326725,3.0
pesaro_e_urbino,4.3909807,25.0
venezia,5.632402,63.0
siena,1.1168646,15.0
vibo_valentia,0.00936389,0.0
matera,0.0,12.0
forli_cesena,1.592259,47.0
parma,5.736069,74.0
trieste,2.14631,51.0
roma,6.3280225,118.0
ferrara,1.4183052,14.0
belluno,1.7331592,7.0
sassari,3.038822,32.0
avellino,1.4056668,6.0
agrigento,0.27341262,5.0
como,9.221723,40.0
cremona,4.262029,81.0
catania,1.4613199,50.0
bologna,7.617333,68.0
pisa,2.0064971,25.0
viterbo,0.69902545,0.0
pescara,2.737604,28.0
rimini,4.0084467,25.0
mantova,6.462145,71.0
vicenza,3.712285,74.0
verbano_cusio_ossola,1.4921393,17.0
modena,8.973528,85.0
crotone,0.2066592,0.0
bergamo,30.879097,139.0
