n,o,l
siracusa,0.5586955,4.0
asti,0.03861259,0.0
oristano,0.1681847,12.0
grosseto,4.0009227,0.0
sondrio,9.771922,2.0
ascoli_piceno,0.0,0.0
savona,5.9538574,28.0
reggio_emilia,7.3903284,32.0
torino,56.59773,191.0
rovigo,4.444265,1.0
frosinone,0.67221814,0.0
campobasso,0.03659171,0.0
cosenza,0.98815405,2.0
trapani,0.0,0.0
pavia,14.799194,34.0
cuneo,8.611226,9.0
genova,11.9208355,8.0
treviso,3.6307511,12.0
barletta_andria_trani,0.5992988,2.0
udine,0.5910658,29.0
brescia,18.545544,3.0
ravenna,0.614883,3.0
latina,0.0,3.0
gorizia,0.55684566,0.0
pordenone,0.1804213,1.0
massa_carrara,0.8923153,3.0
la_aquila,0.0,0.0
prato,0.57536495,0.0
rieti,0.7024466,1.0
aosta,0.71130836,6.0
ragusa,0.14119631,0.0
fermo,0.6575301,1.0
milano,69.06442,118.0
firenze,8.378019,17.0
arezzo,1.2244866,0.0
bolzano_bozen,2.4486659,1.0
piacenza,9.308286,39.0
ancona,2.154959,3.0
napoli,5.1484714,14.0
reggio_calabria,0.0,0.0
novara,6.492455,6.0
pistoia,0.901233,4.0
lodi,2.6413856,30.0
la_spezia,1.0481877,5.0
brindisi,1.335545,1.0
taranto,0.1431477,0.0
potenza,0.08871453,0.0
perugia,0.09792014,0.0
alessandria,12.929842,6.0
enna,0.4295205,25.0
imperia,2.974538,6.0
vercelli,2.127625,3.0
foggia,3.554206,2.0
lecce,2.0995255,54.0
lecco,4.204384,0.0
padova,0.86272097,1.0
messina,0.29148978,2.0
lucca,1.1907483,9.0
palermo,0.24489835,4.0
livorno,0.0,1.0
benevento,0.15779951,2.0
catanzaro,0.0,0.0
bari,4.1582294,3.0
caltanissetta,0.0,0.0
isernia,0.0,0.0
biella,0.12310599,4.0
verona,17.506306,29.0
caserta,3.9894376,2.0
chieti,3.0265968,1.0
varese,7.3035407,0.0
teramo,0.29586732,68.0
macerata,1.9860835,5.0
cagliari,0.26010546,1.0
terni,0.0,0.0
nuoro,0.0,3.0
trento,0.97398293,0.0
salerno,6.862773,66.0
pesaro_e_urbino,3.0813472,11.0
venezia,6.504604,15.0
siena,0.028147511,0.0
vibo_valentia,0.0,0.0
matera,0.14583448,6.0
forli_cesena,1.7708479,4.0
parma,6.4599695,5.0
trieste,1.3532917,10.0
roma,9.178811,48.0
ferrara,3.2314007,2.0
belluno,7.0519576,5.0
sassari,0.22984105,0.0
avellino,0.06797115,7.0
agrigento,0.0,0.0
como,13.0440645,20.0
cremona,14.53005,18.0
catania,4.7380543,12.0
bologna,9.458865,43.0
pisa,1.1307328,1.0
viterbo,0.2860871,1.0
pescara,4.2888136,31.0
rimini,2.744114,5.0
mantova,4.574405,5.0
vicenza,5.193714,12.0
verbano_cusio_ossola,0.750188,10.0
modena,4.478962,33.0
crotone,0.0,0.0
bergamo,9.564217,59.0
