n,o,l
siracusa,0.25013858,9.0
asti,1.739969,14.0
oristano,0.0,0.0
grosseto,0.18547669,1.0
sondrio,1.9676782,16.0
ascoli_piceno,0.06703308,1.0
savona,13.031592,0.0
reggio_emilia,13.671421,137.0
torino,19.577765,220.0
rovigo,1.0014349,14.0
frosinone,0.54955435,24.0
campobasso,0.7264141,0.0
cosenza,1.1631695,12.0
trapani,0.033369754,5.0
pavia,6.1332583,88.0
cuneo,5.7370257,40.0
genova,19.413185,628.0
treviso,2.7914414,125.0
barletta_andria_trani,0.5195875,35.0
udine,4.2232275,17.0
brescia,15.89997,8.0
ravenna,1.9523119,315.0
latina,1.4443245,8.0
gorizia,0.07463806,2.0
pordenone,0.80218893,17.0
massa_carrara,0.5759449,35.0
la_aquila,0.9626448,8.0
prato,1.5664515,1.0
rieti,0.8231888,1.0
aosta,3.0379357,15.0
ragusa,0.0,2.0
fermo,0.9965545,20.0
milano,38.748257,252.0
firenze,13.137806,66.0
arezzo,0.0,2.0
bolzano_bozen,4.4649086,24.0
piacenza,4.6081605,27.0
ancona,4.777989,26.0
napoli,7.999182,25.0
reggio_calabria,0.95890933,5.0
novara,2.1589184,73.0
pistoia,1.0932224,46.0
lodi,1.8005431,26.0
la_spezia,5.0636177,142.0
brindisi,1.2118222,22.0
taranto,0.800991,9.0
potenza,0.39211512,5.0
perugia,1.9927849,8.0
alessandria,9.410494,70.0
enna,1.0885109,7.0
imperia,8.970224,132.0
vercelli,2.4548273,13.0
foggia,1.7436173,17.0
lecce,3.4948702,24.0
lecco,8.870584,91.0
padova,0.6424624,6.0
messina,0.32267952,5.0
lucca,2.4577541,34.0
palermo,0.37030673,12.0
livorno,0.37871826,22.0
benevento,0.15956847,13.0
catanzaro,0.21860564,7.0
bari,2.6038432,27.0
caltanissetta,0.35835037,2.0
isernia,0.0,0.0
biella,0.9126846,9.0
verona,10.536419,64.0
caserta,1.2943325,18.0
chieti,0.70024,18.0
varese,4.928014,22.0
teramo,1.7688617,19.0
macerata,1.8947514,50.0
cagliari,0.38936484,3.0
terni,0.8610835,15.0
nuoro,0.11084819,2.0
trento,8.193266,126.0
salerno,1.3059875,21.0
pesaro_e_urbino,2.4933815,45.0
venezia,4.3561,87.0
siena,0.18499167,1.0
vibo_valentia,0.24403886,1.0
matera,0.65491474,1.0
forli_cesena,4.197183,24.0
parma,3.614121,30.0
trieste,1.8832364,30.0
roma,8.039434,80.0
ferrara,0.53052026,16.0
belluno,1.4293479,25.0
sassari,0.7858223,34.0
avellino,2.3182073,3.0
agrigento,0.023839682,3.0
como,7.3195844,17.0
cremona,4.7672896,99.0
catania,1.2434815,16.0
bologna,9.410496,102.0
pisa,1.0340893,8.0
viterbo,1.0956928,1.0
pescara,1.4392415,15.0
rimini,3.155394,12.0
mantova,5.2373276,74.0
vicenza,5.471541,48.0
verbano_cusio_ossola,2.9545565,89.0
modena,6.766601,53.0
crotone,0.20294286,1.0
bergamo,11.581334,63.0
