n,o,l
E10000013,31.056593,21.0
E08000001,20.455498,20.0
E06000032,14.732536,9.0
E08000034,10.346183,7.0
E06000022,0.0,1.0
E10000006,38.503,37.0
E10000025,32.056427,35.0
E08000009,9.78751,16.0
E06000049,21.934408,22.0
E10000024,26.761206,24.0
E09000017,15.883689,21.0
E08000027,9.666611,17.0
E06000021,7.4831777,16.0
E10000019,19.648327,26.0
E08000008,8.97268,8.0
E09000026,7.83909,14.0
E06000001,1.1624318,7.0
E06000050,15.736972,18.0
E08000017,9.153804,14.0
E06000055,9.9124155,7.0
E06000040,0.9151699,6.0
E06000002,11.305573,16.0
E06000004,3.4504714,15.0
E08000030,15.950881,35.0
E08000032,15.5094385,21.0
E10000017,72.37977,74.0
E08000004,15.597948,21.0
E08000035,34.70726,43.0
E06000011,12.888639,27.0
E10000032,29.891344,25.0
E06000038,18.520592,17.0
E06000041,9.858847,8.0
E09000015,10.556844,13.0
E09000006,14.328306,14.0
E08000011,9.083882,19.0
E06000008,6.514062,8.0
E06000026,2.1187303,9.0
E06000059,0.9885006,7.0
E06000034,0.21078376,6.0
E10000014,65.72574,83.0
E06000016,8.235133,28.0
E06000035,10.241612,19.0
E08000014,16.485966,15.0
E06000056,8.443963,11.0
E10000003,13.863324,22.0
E09000004,8.623526,11.0
E10000018,20.055285,30.0
E08000012,27.688805,30.0
E06000012,0.0,4.0
E10000027,15.828356,22.0
E06000014,2.6859093,8.0
E08000036,8.826906,12.0
E09000008,24.545237,25.0
E06000046,0.0,0.0
E06000030,7.326534,17.0
E06000054,5.6569877,10.0
E08000005,11.274744,26.0
E06000027,0.0,10.0
E10000016,120.36587,116.0
E10000030,59.31209,63.0
E08000013,9.363539,14.0
E06000033,0.0,7.0
E08000016,11.119832,17.0
E09000016,9.149737,11.0
E06000051,9.436598,10.0
E08000037,15.381115,14.0
E06000052,11.083289,8.0
E09000010,15.905186,25.0
E10000021,18.437603,15.0
E06000039,25.592182,7.0
E08000024,5.4832764,56.0
E09000027,0.80923754,4.0
E09000009,13.486235,19.0
E10000020,42.226242,40.0
E10000023,16.7755,39.0
E10000029,8.908692,58.0
E06000045,30.854765,17.0
E08000018,16.945358,19.0
E10000034,30.7644,31.0
E06000018,6.8917103,18.0
E08000019,42.434505,64.0
E06000017,0.0,0.0
E08000010,23.118603,30.0
E09000003,10.80129,10.0
E10000028,39.76047,51.0
E10000008,18.711824,18.0
E08000025,63.88089,54.0
E10000031,23.229769,27.0
E08000007,16.055466,21.0
E06000013,7.434705,17.0
E06000005,2.6361644,13.0
E08000015,25.286472,15.0
E06000042,6.8819227,5.0
E06000009,9.759201,21.0
E10000007,21.045332,23.0
E09000001,0.0,2.0
E09000022,8.956179,15.0
E06000047,32.805042,50.0
E06000037,6.762648,16.0
E08000026,11.123073,25.0
E09000002,5.6712775,7.0
E09000018,7.4583044,12.0
E06000043,6.3874464,8.0
E06000020,2.4301767,10.0
E06000057,20.81507,23.0
E06000006,2.8539078,7.0
E08000003,25.518297,31.0
E10000015,45.4673,47.0
E06000024,0.0,4.0
E08000023,15.370188,25.0
E06000036,1.5155466,5.0
E10000011,8.827638,10.0
E06000031,1.3902557,10.0
E08000021,15.2477455,18.0
E10000002,15.811872,11.0
E06000044,2.2728667,1.0
E08000031,15.127251,22.0
E09000020,1.1668696,7.0
E06000003,0.96029675,8.0
E08000002,12.653609,22.0
E10000012,45.0864,70.0
E09000005,22.3038,15.0
E06000007,12.467159,20.0
E09000023,1.3170369,4.0
E08000033,10.253994,14.0
E09000021,7.994755,9.0
E09000029,3.9854314,10.0
E08000022,6.369377,7.0
E06000015,0.58957887,9.0
