n,o,l
siracusa,0.18142436,5.0
asti,0.0,26.0
oristano,0.7815765,60.0
grosseto,0.02167859,15.0
sondrio,1.4918655,0.0
ascoli_piceno,0.18427154,45.0
savona,0.0,0.0
reggio_emilia,5.8664455,135.0
torino,3.761617,297.0
rovigo,0.0033781156,0.0
frosinone,0.13295886,41.0
campobasso,0.3363559,6.0
cosenza,0.31385744,26.0
trapani,0.1884385,1.0
pavia,2.0864143,165.0
cuneo,0.6907057,40.0
genova,2.9245434,62.0
treviso,0.49057555,49.0
barletta_andria_trani,0.117403,4.0
udine,1.512408,43.0
brescia,18.959362,373.0
ravenna,0.5364076,33.0
latina,0.0,3.0
gorizia,0.016832616,6.0
pordenone,0.0,30.0
massa_carrara,0.5251274,136.0
la_aquila,0.16079749,13.0
prato,0.47864765,28.0
rieti,0.3282341,19.0
aosta,2.4208593,59.0
ragusa,0.036456883,0.0
fermo,0.19885087,8.0
milano,22.989319,314.0
firenze,0.7530793,91.0
arezzo,0.0,23.0
bolzano_bozen,1.6004668,106.0
piacenza,4.809495,114.0
ancona,1.5155243,39.0
napoli,3.0609472,93.0
reggio_calabria,0.5595055,15.0
novara,1.2590076,48.0
pistoia,0.57460946,34.0
lodi,2.9796817,23.0
la_spezia,0.0,21.0
brindisi,0.4701512,23.0
taranto,0.25232822,15.0
potenza,0.32474688,8.0
perugia,2.49282,71.0
alessandria,1.5208465,13.0
enna,0.37260216,91.0
imperia,0.0,22.0
vercelli,0.089817815,39.0
foggia,1.6606863,30.0
lecce,2.8974638,106.0
lecco,0.0,118.0
padova,0.07685625,52.0
messina,0.6172148,24.0
lucca,1.3810395,137.0
palermo,0.25861615,14.0
livorno,0.06096642,6.0
benevento,0.041232552,16.0
catanzaro,0.2627173,3.0
bari,1.4667536,25.0
caltanissetta,0.13898143,2.0
isernia,0.016381655,4.0
biella,0.6505905,7.0
verona,0.8852295,109.0
caserta,1.05036,32.0
chieti,0.74097365,40.0
varese,1.3340364,27.0
teramo,1.0663162,57.0
macerata,0.94131637,46.0
cagliari,0.37578377,14.0
terni,0.21484521,18.0
nuoro,0.07844994,4.0
trento,1.0586619,63.0
salerno,0.9125456,114.0
pesaro_e_urbino,2.9718323,32.0
venezia,0.77044445,64.0
siena,0.020960502,19.0
vibo_valentia,0.0,10.0
matera,0.03927174,23.0
forli_cesena,2.5151992,32.0
parma,4.2077193,62.0
trieste,0.0,41.0
roma,2.7106202,136.0
ferrara,0.7209745,37.0
belluno,0.0,38.0
sassari,1.7771249,71.0
avellino,1.0501772,11.0
agrigento,0.11722739,0.0
como,2.1273682,87.0
cremona,9.309209,109.0
catania,0.54871446,22.0
bologna,2.5535114,173.0
pisa,0.6706238,48.0
viterbo,0.43895656,20.0
pescara,2.68836,36.0
rimini,0.7190506,59.0
mantova,5.202976,86.0
vicenza,1.8231388,70.0
verbano_cusio_ossola,0.33828548,20.0
modena,1.1569622,150.0
crotone,0.453516,7.0
bergamo,11.680672,289.0
