n,o,l
E10000013,44.28786,13.0
E08000001,29.641884,14.0
E06000032,12.953597,0.0
E08000034,17.027245,13.0
E06000022,3.7951522,1.0
E10000006,40.549236,44.0
E10000025,45.618816,32.0
E08000009,14.088645,12.0
E06000049,29.343765,25.0
E10000024,32.168312,21.0
E09000017,14.91112,3.0
E08000027,23.780529,18.0
E06000021,12.132225,21.0
E10000019,29.146606,11.0
E08000008,14.952455,8.0
E09000026,13.487849,16.0
E06000001,3.816582,4.0
E06000050,20.857964,19.0
E08000017,15.403377,22.0
E06000055,15.551191,15.0
E06000040,8.85838,2.0
E06000002,14.193392,12.0
E06000004,8.281317,10.0
E08000030,20.85566,21.0
E08000032,21.893368,26.0
E10000017,83.08393,64.0
E08000004,22.178349,13.0
E08000035,43.677387,21.0
E06000011,21.206553,28.0
E10000032,37.25491,22.0
E06000038,26.78829,5.0
E06000041,13.997851,10.0
E09000015,15.814938,6.0
E09000006,23.929588,17.0
E08000011,17.31506,10.0
E06000008,10.788697,8.0
E06000026,3.061533,2.0
E06000059,4.202388,3.0
E06000034,4.1301417,7.0
E10000014,78.53125,54.0
E06000016,12.238966,12.0
E06000035,14.255094,8.0
E08000014,25.925556,16.0
E06000056,11.040684,4.0
E10000003,20.510742,27.0
E09000004,15.733418,11.0
E10000018,29.015293,17.0
E08000012,38.590405,21.0
E06000012,3.3156435,0.0
E10000027,21.017658,13.0
E06000014,6.8759413,12.0
E08000036,14.272549,21.0
E09000008,32.93121,19.0
E06000046,3.0872998,1.0
E06000030,13.865987,3.0
E06000054,13.774746,6.0
E08000005,18.144835,6.0
E06000027,3.3010705,1.0
E10000016,143.07593,69.0
E10000030,84.23621,27.0
E08000013,18.872726,8.0
E06000033,4.1330876,5.0
E08000016,20.5241,10.0
E09000016,17.700422,4.0
E06000051,13.225413,8.0
E08000037,19.925951,22.0
E06000052,18.056763,4.0
E09000010,20.44041,3.0
E10000021,26.529787,12.0
E06000039,12.025421,9.0
E08000024,33.398277,25.0
E09000027,6.121792,8.0
E09000009,28.39684,7.0
E10000020,51.297802,52.0
E10000023,26.734745,34.0
E10000029,35.773045,25.0
E06000045,11.645622,15.0
E08000018,23.107183,16.0
E10000034,35.646976,14.0
E06000018,11.184905,6.0
E08000019,57.360786,36.0
E06000017,3.2188704,0.0
E08000010,28.924597,9.0
E09000003,18.852753,9.0
E10000028,49.572002,31.0
E10000008,25.131199,7.0
E08000025,70.912056,35.0
E10000031,30.202614,17.0
E08000007,24.896927,26.0
E06000013,11.045757,14.0
E06000005,6.09129,6.0
E08000015,34.42422,8.0
E06000042,13.525297,13.0
E06000009,13.314374,12.0
E10000007,28.61859,7.0
E09000001,2.7543395,0.0
E09000022,13.987218,7.0
E06000047,42.468204,46.0
E06000037,11.679206,5.0
E08000026,17.94345,6.0
E09000002,10.831164,0.0
E09000018,12.6143265,17.0
E06000043,10.558909,4.0
E06000020,3.7242591,8.0
E06000057,27.089819,19.0
E06000006,8.031232,5.0
E08000003,33.28982,17.0
E10000015,58.635754,33.0
E06000024,2.3034973,9.0
E08000023,22.620375,24.0
E06000036,6.1356773,1.0
E10000011,13.586221,11.0
E06000031,5.977248,8.0
E08000021,22.142796,34.0
E10000002,22.919643,6.0
E06000044,6.4905386,2.0
E08000031,19.943993,8.0
E09000020,4.584891,4.0
E06000003,5.111352,6.0
E08000002,17.998346,11.0
E10000012,60.43533,40.0
E09000005,30.547237,12.0
E06000007,19.413532,16.0
E09000023,5.843023,7.0
E08000033,17.01548,7.0
E09000021,14.733589,12.0
E09000029,25.50146,4.0
E08000022,9.848867,15.0
E06000015,4.2248974,1.0
