n,o,l
E10000013,53.315804,29.0
E08000001,34.197723,23.0
E06000032,28.440414,1.0
E08000034,20.349577,11.0
E06000022,15.41607,10.0
E10000006,67.24547,29.0
E10000025,73.743614,19.0
E08000009,25.39277,8.0
E06000049,32.685207,21.0
E10000024,32.03812,11.0
E09000017,22.007435,12.0
E08000027,24.250172,10.0
E06000021,19.370998,11.0
E10000019,27.151876,27.0
E08000008,10.967856,6.0
E09000026,26.942623,6.0
E06000001,9.504227,3.0
E06000050,29.118673,18.0
E08000017,1.7119056,7.0
E06000055,20.027927,3.0
E06000040,8.443777,4.0
E06000002,17.872759,10.0
E06000004,13.348094,9.0
E08000030,26.802631,10.0
E08000032,30.046738,7.0
E10000017,100.998314,49.0
E08000004,41.98118,24.0
E08000035,52.639515,33.0
E06000011,20.770012,21.0
E10000032,39.60115,18.0
E06000038,14.252111,6.0
E06000041,13.458176,8.0
E09000015,28.166918,13.0
E09000006,33.3027,9.0
E08000011,21.684645,7.0
E06000008,15.162406,5.0
E06000026,10.694402,13.0
E06000059,15.657777,6.0
E06000034,11.147232,1.0
E10000014,93.07112,50.0
E06000016,24.557137,23.0
E06000035,26.55629,12.0
E08000014,29.842407,12.0
E06000056,20.402388,2.0
E10000003,26.793453,16.0
E09000004,18.866152,18.0
E10000018,28.486607,20.0
E08000012,57.57036,21.0
E06000012,8.675874,1.0
E10000027,17.34787,8.0
E06000014,10.927995,6.0
E08000036,21.918003,7.0
E09000008,40.32424,7.0
E06000046,8.614437,1.0
E06000030,17.046665,14.0
E06000054,12.455473,10.0
E08000005,25.226074,14.0
E06000027,2.496356,22.0
E10000016,126.67336,68.0
E10000030,87.80011,39.0
E08000013,20.782333,3.0
E06000033,11.832723,5.0
E08000016,21.093903,23.0
E09000016,28.112097,10.0
E06000051,13.210374,12.0
E08000037,37.90147,16.0
E06000052,17.267506,6.0
E09000010,28.95783,7.0
E10000021,32.91286,31.0
E06000039,49.111183,28.0
E08000024,13.726372,6.0
E09000027,11.8566885,9.0
E09000009,37.60698,11.0
E10000020,52.703453,54.0
E10000023,28.37586,14.0
E10000029,33.649227,5.0
E06000045,15.244587,31.0
E08000018,21.093014,18.0
E10000034,38.2676,15.0
E06000018,18.052004,10.0
E08000019,58.477386,42.0
E06000017,9.444284,0.0
E08000010,28.010769,19.0
E09000003,35.721645,9.0
E10000028,53.535316,42.0
E10000008,22.456503,7.0
E08000025,72.62087,49.0
E10000031,34.273968,31.0
E08000007,33.533585,15.0
E06000013,6.261924,7.0
E06000005,7.1527824,5.0
E08000015,42.255386,26.0
E06000042,19.15859,7.0
E06000009,14.743386,21.0
E10000007,32.197136,27.0
E09000001,8.542489,0.0
E09000022,29.8957,11.0
E06000047,62.730858,27.0
E06000037,10.232787,6.0
E08000026,19.787716,5.0
E09000002,17.809591,11.0
E09000018,21.965397,11.0
E06000043,14.352733,8.0
E06000020,9.377811,4.0
E06000057,30.309828,20.0
E06000006,17.12546,9.0
E08000003,55.25159,19.0
E10000015,83.66426,33.0
E06000024,8.824681,2.0
E08000023,20.459467,7.0
E06000036,9.1897,2.0
E10000011,22.478785,13.0
E06000031,7.920573,4.0
E08000021,34.57237,18.0
E10000002,28.615286,16.0
E06000044,12.339985,1.0
E08000031,24.970438,12.0
E09000020,16.924265,0.0
E06000003,9.668036,8.0
E08000002,24.717598,8.0
E10000012,79.32029,27.0
E09000005,36.521255,14.0
E06000007,31.747976,7.0
E09000023,11.27581,2.0
E08000033,23.88595,7.0
E09000021,17.539165,2.0
E09000029,23.731325,7.0
E08000022,18.560524,4.0
E06000015,11.257615,4.0
