n,o,l
siracusa,0.76886374,0.0
asti,5.85063,14.0
oristano,0.04623335,0.0
grosseto,0.0,0.0
sondrio,1.7300811,36.0
ascoli_piceno,0.0,1.0
savona,2.599092,45.0
reggio_emilia,2.996085,13.0
torino,41.975002,88.0
rovigo,0.23672548,0.0
frosinone,0.43778738,2.0
campobasso,0.0,1.0
cosenza,0.20328,1.0
trapani,0.0,0.0
pavia,8.740077,31.0
cuneo,6.641674,16.0
genova,18.084307,39.0
treviso,2.0490403,2.0
barletta_andria_trani,0.0,0.0
udine,0.17298928,8.0
brescia,11.547767,124.0
ravenna,0.21567139,3.0
latina,0.8618193,0.0
gorizia,0.23567924,2.0
pordenone,0.34349138,1.0
massa_carrara,0.5588445,1.0
la_aquila,0.0,0.0
prato,0.33884737,2.0
rieti,0.43019196,0.0
aosta,0.39185527,4.0
ragusa,0.0009798855,0.0
fermo,0.19754863,0.0
milano,51.5856,182.0
firenze,7.526463,18.0
arezzo,0.20131755,1.0
bolzano_bozen,1.8545719,9.0
piacenza,11.71807,5.0
ancona,0.53065896,0.0
napoli,2.1813667,5.0
reggio_calabria,0.0,0.0
novara,2.411609,35.0
pistoia,0.46836367,0.0
lodi,3.2678227,49.0
la_spezia,0.42911184,3.0
brindisi,0.35414588,3.0
taranto,0.0,2.0
potenza,0.0,0.0
perugia,0.08273886,1.0
alessandria,7.545814,32.0
enna,0.3023968,0.0
imperia,2.4740207,7.0
vercelli,0.74617314,8.0
foggia,1.8694426,10.0
lecce,3.8486922,38.0
lecco,0.9764898,6.0
padova,0.008620948,0.0
messina,0.2456603,2.0
lucca,1.0704451,2.0
palermo,1.0868348,1.0
livorno,0.0,3.0
benevento,0.1174469,1.0
catanzaro,0.0,1.0
bari,1.2702821,29.0
caltanissetta,0.0,0.0
isernia,0.0,0.0
biella,1.7337952,5.0
verona,9.805295,37.0
caserta,0.09466231,0.0
chieti,1.1880397,0.0
varese,7.6252646,55.0
teramo,0.0,0.0
macerata,0.63917905,3.0
cagliari,0.0,0.0
terni,0.053747226,0.0
nuoro,0.0,0.0
trento,10.3954935,3.0
salerno,0.17222142,0.0
pesaro_e_urbino,2.215194,26.0
venezia,1.6831589,18.0
siena,0.0,0.0
vibo_valentia,0.0,0.0
matera,0.0,0.0
forli_cesena,2.1176577,7.0
parma,4.710596,16.0
trieste,2.6028252,2.0
roma,10.606816,37.0
ferrara,1.1206086,9.0
belluno,2.058787,1.0
sassari,0.37628096,5.0
avellino,0.0043373182,0.0
agrigento,0.0,0.0
como,10.6506195,39.0
cremona,4.639944,27.0
catania,1.0614052,6.0
bologna,10.709774,39.0
pisa,0.33761632,1.0
viterbo,0.2850306,0.0
pescara,1.3870698,21.0
rimini,1.7084181,10.0
mantova,3.4953103,4.0
vicenza,3.7794664,11.0
verbano_cusio_ossola,0.9357696,1.0
modena,3.1941159,6.0
crotone,0.0,0.0
bergamo,10.732108,35.0
