n,o,l
granada,90.0382,24.0
palencia,29.424631,20.0
segovia,51.593063,97.0
valencia,20.145151,146.0
tarragona,65.17893,16.0
cadiz,13.618415,9.0
huelva,47.901276,58.0
caceres,114.59142,68.0
alicante,141.79214,32.0
cordoba,43.599182,0.0
gipuzkoa,113.29699,72.0
cuenca,0.0,61.0
sevilla,103.56055,0.0
guadalajara,0.020903409,80.0
salamanca,92.43252,0.0
toledo,0.0,0.0
ciudad_real,0.0,10.0
badajoz,58.826206,650.0
barcelona,2055.7234,41.0
avila,41.829575,22.0
lleida,90.66754,36.0
araba/alava,168.08266,25.0
albacete,0.0,0.0
almeria,18.128016,16.0
zamora,8.722284,167.0
girona,148.70094,114.0
bizkaia,316.61026,34.0
soria,67.494095,57.0
burgos,70.0352,21.0
jaen,94.46817,20.0
valladolid,60.881535,51.0
malaga,122.066086,53.0
leon,82.79536,0.0
castellon,52.935837,65.0
