n,o,l
E10000013,26.351147,19.0
E08000001,20.515692,12.0
E06000032,2.374706,16.0
E08000034,16.704002,10.0
E06000022,4.974364,0.0
E10000006,33.872746,12.0
E10000025,35.750107,29.0
E08000009,13.086589,13.0
E06000049,24.185923,18.0
E10000024,23.26615,7.0
E09000017,13.28698,4.0
E08000027,9.804165,11.0
E06000021,18.308636,14.0
E10000019,20.848478,13.0
E08000008,7.8812943,9.0
E09000026,7.55299,7.0
E06000001,9.912274,7.0
E06000050,20.871334,12.0
E08000017,23.309044,1.0
E06000055,8.334294,7.0
E06000040,4.7045703,2.0
E06000002,12.234351,11.0
E06000004,9.845243,11.0
E08000030,34.82265,3.0
E08000032,33.076843,27.0
E10000017,66.08214,40.0
E08000004,16.299517,25.0
E08000035,53.697556,20.0
E06000011,22.230095,15.0
E10000032,23.978245,13.0
E06000038,12.134654,6.0
E06000041,6.3941684,0.0
E09000015,12.581158,16.0
E09000006,16.560465,13.0
E08000011,13.961718,7.0
E06000008,7.486996,6.0
E06000026,9.268738,2.0
E06000059,6.2680435,4.0
E06000034,4.897638,1.0
E10000014,58.663857,22.0
E06000016,18.529358,20.0
E06000035,13.405963,13.0
E08000014,12.104165,4.0
E06000056,11.775721,14.0
E10000003,20.719358,22.0
E09000004,8.532698,6.0
E10000018,21.465246,13.0
E08000012,23.956232,10.0
E06000012,4.71136,0.0
E10000027,14.98195,13.0
E06000014,8.955397,14.0
E08000036,16.816517,5.0
E09000008,8.824356,11.0
E06000046,4.7773376,3.0
E06000030,10.103707,1.0
E06000054,8.626109,2.0
E08000005,15.55331,13.0
E06000027,6.5594544,0.0
E10000016,101.626335,55.0
E10000030,49.283463,20.0
E08000013,18.80819,1.0
E06000033,5.048125,12.0
E08000016,14.385247,12.0
E09000016,7.495526,9.0
E06000051,16.388968,18.0
E08000037,24.747608,32.0
E06000052,7.4628816,4.0
E09000010,18.037178,3.0
E10000021,11.670955,14.0
E06000039,23.824821,4.0
E08000024,5.9148517,28.0
E09000027,4.7748365,1.0
E09000009,12.472728,5.0
E10000020,47.256985,40.0
E10000023,34.711285,30.0
E10000029,37.53771,41.0
E06000045,11.525508,11.0
E08000018,19.226416,5.0
E10000034,18.689924,8.0
E06000018,16.436184,9.0
E08000019,37.186466,15.0
E06000017,5.5039177,1.0
E08000010,23.922459,10.0
E09000003,10.812168,7.0
E10000028,47.05509,21.0
E10000008,15.844219,4.0
E08000025,49.206356,27.0
E10000031,25.28906,10.0
E08000007,17.77466,13.0
E06000013,18.333513,6.0
E06000005,8.24304,14.0
E08000015,21.251715,9.0
E06000042,5.987603,4.0
E06000009,18.253687,7.0
E10000007,29.919538,22.0
E09000001,4.721216,0.0
E09000022,11.80448,3.0
E06000047,39.460716,41.0
E06000037,7.573481,4.0
E08000026,15.620938,4.0
E09000002,5.3899527,3.0
E09000018,6.889361,14.0
E06000043,5.0158916,4.0
E06000020,5.554881,5.0
E06000057,17.173357,10.0
E06000006,5.344804,3.0
E08000003,24.348312,17.0
E10000015,39.25411,40.0
E06000024,5.687799,11.0
E08000023,22.849129,9.0
E06000036,5.0461636,1.0
E10000011,9.208795,8.0
E06000031,7.4467115,8.0
E08000021,16.016151,12.0
E10000002,15.928677,10.0
E06000044,3.9911442,1.0
E08000031,26.305311,18.0
E09000020,4.7269006,1.0
E06000003,10.367436,7.0
E08000002,16.502914,10.0
E10000012,73.706,44.0
E09000005,11.740917,2.0
E06000007,14.793209,10.0
E09000023,5.111768,3.0
E08000033,8.647,4.0
E09000021,5.8301125,3.0
E09000029,9.332154,2.0
E08000022,7.349457,1.0
E06000015,7.2349977,3.0
