n,o,l
charente_maritime,0.3095951,5.0
vienne,0.0,0.0
aude,0.0,1.0
haute_loire,0.0,0.0
haute_savoie,5.003827,0.0
dordogne,0.0,0.0
correze,0.0,0.0
indre_et_loire,0.050582252,0.0
saone_et_loire,0.21573557,0.0
loire_atlantique,0.0,0.0
haute_vienne,0.0,0.0
drome,0.0,0.0
cote_d'or,0.120182246,0.0
landes,11.284427,0.0
paris,0.0,4.0
charente,0.0,0.0
meurthe_et_moselle,0.0,0.0
essonne,14.2160845,10.0
marne,0.0,0.0
seine_saint_denis,6.019268,4.0
moselle,1.1615459,0.0
bas_rhin,0.75278765,0.0
pas_de_calais,8.359949,1.0
nord,5.71156,5.0
loiret,0.0,0.0
nievre,0.0,3.0
alpes_maritimes,0.0,0.0
pyrenees_atlantiques,0.0,17.0
val_d'oise,3.031563,6.0
meuse,0.0,1.0
mayenne,0.0,0.0
val_de_marne,9.24867,11.0
hautes_pyrenees,0.06258962,0.0
lot,0.0,0.0
isere,0.0,0.0
gironde,0.0,0.0
yvelines,6.1552806,6.0
yonne,0.0,6.0
haute_saone,1.954436,1.0
somme,4.8735356,7.0
eure_et_loir,0.6276146,17.0
manche,4.2470207,3.0
indre,0.0,0.0
haute_marne,0.0,0.0
haut_rhin,1.846168,2.0
maine_et_loire,0.0,0.0
jura,0.0,0.0
savoie,0.0,0.0
ardennes,0.0,0.0
haute_garonne,0.6973469,11.0
rhone,2.949479,0.0
ardeche,0.0,0.0
aisne,1.8397303,0.0
vosges,0.0,0.0
gers,0.8156043,1.0
oise,5.825315,6.0
hauts_de_seine,6.249894,13.0
territoire_de_belfort,0.0,2.0
lot_et_garonne,0.0,1.0
eure,2.992215,4.0
tarn,0.0,0.0
cher,0.24280232,1.0
aube,0.34051234,2.0
vaucluse,0.0,2.0
pyrenees_orientales,0.0,0.0
var,0.32161045,2.0
cantal,0.0,1.0
doubs,0.0,1.0
seine_et_marne,10.942292,7.0
ain,1.154781,4.0
calvados,0.0,0.0
herault,4.885078,9.0
bouches_du_rhone,12.762743,14.0
puy_de_dome,0.058689192,0.0
tarn_et_garonne,0.0,1.0
loire,0.0,0.0
gard,1.9092666,5.0
loir_et_cher,0.0,4.0
alpes_de_haute_provence,0.0,2.0
orne,0.38792977,0.0
seine_maritime,0.6370279,6.0
