n,o,l
charente_maritime,10.086625,11.0
vienne,2.715325,0.0
aude,20.345697,8.0
haute_loire,6.2383285,1.0
haute_savoie,52.22149,41.0
dordogne,8.2237835,1.0
correze,6.62116,1.0
indre_et_loire,10.835771,5.0
saone_et_loire,13.914799,8.0
loire_atlantique,11.102264,3.0
haute_vienne,8.632389,3.0
drome,12.792914,2.0
cote_d'or,8.665245,2.0
landes,269.95334,188.0
paris,2.0409784,1.0
charente,2.8282065,2.0
meurthe_et_moselle,17.819426,15.0
essonne,100.611534,66.0
marne,29.203081,23.0
seine_saint_denis,143.75407,92.0
moselle,24.377243,45.0
bas_rhin,55.70959,31.0
pas_de_calais,16.948248,16.0
nord,26.973015,11.0
loiret,35.76482,23.0
nievre,8.902425,5.0
alpes_maritimes,26.783096,25.0
pyrenees_atlantiques,9.178347,10.0
val_d'oise,137.41539,79.0
meuse,7.963362,4.0
mayenne,0.0,1.0
val_de_marne,109.019424,94.0
hautes_pyrenees,3.9009836,8.0
lot,1.1718829,0.0
isere,12.214084,8.0
gironde,32.251225,23.0
yvelines,81.47133,52.0
yonne,3.5438695,3.0
haute_saone,26.069746,7.0
somme,29.48838,16.0
eure_et_loir,44.210346,19.0
manche,16.38508,19.0
indre,12.286864,4.0
haute_marne,5.7934103,0.0
haut_rhin,45.951862,90.0
maine_et_loire,1.4866813,1.0
jura,7.9267416,5.0
savoie,6.1176972,3.0
ardennes,5.229884,5.0
haute_garonne,24.386227,10.0
rhone,9.038725,8.0
ardeche,5.37168,3.0
aisne,18.565498,34.0
vosges,38.66692,22.0
gers,10.465327,4.0
oise,98.761185,67.0
hauts_de_seine,248.76558,149.0
territoire_de_belfort,13.975199,7.0
lot_et_garonne,4.1051455,1.0
eure,19.726929,13.0
tarn,5.5036697,2.0
cher,24.469095,21.0
aube,30.328684,18.0
vaucluse,18.302855,12.0
pyrenees_orientales,2.353202,2.0
var,50.78696,22.0
cantal,5.138004,0.0
doubs,32.07496,14.0
seine_et_marne,84.55617,49.0
ain,9.417301,10.0
calvados,22.45625,6.0
herault,146.95839,49.0
bouches_du_rhone,380.88248,133.0
puy_de_dome,14.7318945,8.0
tarn_et_garonne,8.125005,3.0
loire,4.391626,0.0
gard,15.575034,11.0
loir_et_cher,15.786866,3.0
alpes_de_haute_provence,9.715639,3.0
orne,11.11148,2.0
seine_maritime,52.56934,18.0
