n,o,l
siracusa,0.46648318,0.0
asti,6.567418,6.0
oristano,0.0,0.0
grosseto,0.0,0.0
sondrio,2.4357917,1.0
ascoli_piceno,0.0,1.0
savona,4.5481515,3.0
reggio_emilia,3.5438163,3.0
torino,39.349907,66.0
rovigo,0.02369706,1.0
frosinone,0.009495556,1.0
campobasso,0.0,13.0
cosenza,0.06832294,1.0
trapani,0.0,0.0
pavia,11.996748,24.0
cuneo,3.8700469,5.0
genova,14.833156,30.0
treviso,2.5659668,2.0
barletta_andria_trani,0.0712181,0.0
udine,0.21485123,2.0
brescia,10.101272,2.0
ravenna,0.21948357,70.0
latina,0.4649741,0.0
gorizia,0.14837249,0.0
pordenone,0.31459934,0.0
massa_carrara,0.18193445,1.0
la_aquila,0.0,0.0
prato,0.41388512,1.0
rieti,0.0,2.0
aosta,0.5926379,1.0
ragusa,0.0,0.0
fermo,0.35403425,0.0
milano,44.544117,114.0
firenze,6.4024906,6.0
arezzo,0.16468108,3.0
bolzano_bozen,1.038697,3.0
piacenza,12.810218,14.0
ancona,0.28699896,0.0
napoli,1.9485445,11.0
reggio_calabria,0.0,0.0
novara,2.8602,6.0
pistoia,0.48814547,0.0
lodi,2.3498423,6.0
la_spezia,0.24145049,2.0
brindisi,0.57387215,0.0
taranto,0.0,1.0
potenza,0.0,0.0
perugia,0.0,0.0
alessandria,9.779675,2.0
enna,0.08656271,0.0
imperia,3.0598047,12.0
vercelli,0.7364753,15.0
foggia,1.5121245,5.0
lecce,3.9820812,50.0
lecco,1.6000459,5.0
padova,0.05102324,0.0
messina,0.16069889,1.0
lucca,0.7221084,1.0
palermo,1.1809424,3.0
livorno,0.0,1.0
benevento,0.14882705,0.0
catanzaro,0.0,1.0
bari,0.68050736,7.0
caltanissetta,0.13907361,0.0
isernia,0.0,0.0
biella,0.0,0.0
verona,5.672128,2.0
caserta,1.5551544,1.0
chieti,1.700699,0.0
varese,8.546558,14.0
teramo,0.0,0.0
macerata,0.868383,1.0
cagliari,0.0,1.0
terni,0.06497301,1.0
nuoro,0.0,0.0
trento,9.716558,2.0
salerno,0.19039333,0.0
pesaro_e_urbino,2.9845672,8.0
venezia,3.3991103,3.0
siena,0.0,0.0
vibo_valentia,0.0,0.0
matera,0.0,1.0
forli_cesena,2.393389,3.0
parma,3.565503,17.0
trieste,2.7594936,6.0
roma,11.270481,21.0
ferrara,0.75156134,2.0
belluno,1.6913462,0.0
sassari,0.19649586,0.0
avellino,0.45164603,0.0
agrigento,0.0,0.0
como,3.9589374,8.0
cremona,9.782795,2.0
catania,0.94085276,9.0
bologna,10.03417,11.0
pisa,0.19421338,1.0
viterbo,0.12439196,1.0
pescara,0.77033556,4.0
rimini,2.208454,5.0
mantova,2.4852834,0.0
vicenza,3.7525792,1.0
verbano_cusio_ossola,0.28674337,12.0
modena,3.9169595,23.0
crotone,0.0,0.0
bergamo,7.242798,50.0
