n,o,l
siracusa,0.56192523,10.0
asti,3.7838247,2.0
oristano,0.0,52.0
grosseto,0.0031192303,0.0
sondrio,1.2909552,2.0
ascoli_piceno,0.2779528,3.0
savona,5.1031823,13.0
reggio_emilia,9.536791,25.0
torino,56.007694,263.0
rovigo,0.20763928,1.0
frosinone,1.4337319,7.0
campobasso,0.47859836,2.0
cosenza,2.5561764,0.0
trapani,0.0,1.0
pavia,8.42714,8.0
cuneo,8.476756,12.0
genova,6.555955,156.0
treviso,8.849237,14.0
barletta_andria_trani,0.6123908,1.0
udine,0.072879255,24.0
brescia,25.800371,0.0
ravenna,1.1897796,1.0
latina,0.6829607,9.0
gorizia,0.0,1.0
pordenone,0.61634886,8.0
massa_carrara,1.7650666,2.0
la_aquila,0.10042116,0.0
prato,1.7801912,11.0
rieti,0.0,0.0
aosta,2.1144645,6.0
ragusa,0.0,2.0
fermo,0.48821405,7.0
milano,41.81962,463.0
firenze,8.015422,79.0
arezzo,1.9917791,7.0
bolzano_bozen,5.8718605,5.0
piacenza,6.166197,56.0
ancona,2.273671,7.0
napoli,4.3320737,22.0
reggio_calabria,0.011869505,0.0
novara,9.074165,6.0
pistoia,1.2747148,8.0
lodi,4.1313453,23.0
la_spezia,2.5252955,2.0
brindisi,2.0554657,10.0
taranto,0.17642625,2.0
potenza,0.0,3.0
perugia,0.2817517,2.0
alessandria,13.131077,0.0
enna,0.8739719,8.0
imperia,4.336243,12.0
vercelli,3.9043005,15.0
foggia,3.442731,8.0
lecce,2.8211112,20.0
lecco,7.375405,16.0
padova,1.0148778,3.0
messina,0.42620242,5.0
lucca,4.585593,12.0
palermo,0.3377979,9.0
livorno,0.16409615,0.0
benevento,2.635994,7.0
catanzaro,0.08725052,1.0
bari,3.2071452,8.0
caltanissetta,0.0,0.0
isernia,0.0,2.0
biella,2.0636864,1.0
verona,12.075989,19.0
caserta,0.0,30.0
chieti,3.2499008,17.0
varese,8.904564,2.0
teramo,0.3505965,60.0
macerata,2.163854,13.0
cagliari,0.29482174,1.0
terni,0.082841754,0.0
nuoro,0.0,0.0
trento,12.318604,6.0
salerno,1.3963674,56.0
pesaro_e_urbino,3.0484595,17.0
venezia,4.162866,5.0
siena,0.74454945,3.0
vibo_valentia,0.0,0.0
matera,0.49646395,2.0
forli_cesena,3.3538115,24.0
parma,6.788898,39.0
trieste,4.3976626,4.0
roma,13.245859,67.0
ferrara,4.507071,16.0
belluno,4.3750114,3.0
sassari,0.8532567,6.0
avellino,0.61767185,4.0
agrigento,0.0,0.0
como,7.742443,83.0
cremona,5.304199,60.0
catania,1.8578717,10.0
bologna,12.622674,54.0
pisa,1.2136209,3.0
viterbo,0.6159979,2.0
pescara,3.9335546,7.0
rimini,2.0249407,3.0
mantova,5.8105054,23.0
vicenza,5.42251,18.0
verbano_cusio_ossola,1.1525055,3.0
modena,6.027948,24.0
crotone,0.0,0.0
bergamo,7.9316397,66.0
