n,o,l
charente_maritime,4.0418034,3.0
vienne,0.0,2.0
aude,6.094028,15.0
haute_loire,0.0,1.0
haute_savoie,30.351683,43.0
dordogne,0.0,0.0
correze,0.0,1.0
indre_et_loire,3.0633974,2.0
saone_et_loire,5.07673,12.0
loire_atlantique,0.5077659,0.0
haute_vienne,0.25004074,5.0
drome,0.8023296,0.0
cote_d'or,0.25199828,2.0
landes,189.03632,188.0
paris,0.0,0.0
charente,0.0,2.0
meurthe_et_moselle,8.5365095,16.0
essonne,72.16964,178.0
marne,16.112219,14.0
seine_saint_denis,102.908676,123.0
moselle,26.478336,0.0
bas_rhin,30.093094,0.0
pas_de_calais,8.454198,31.0
nord,12.028646,19.0
loiret,18.508059,15.0
nievre,0.8706292,4.0
alpes_maritimes,20.508646,10.0
pyrenees_atlantiques,4.673519,6.0
val_d'oise,84.757774,53.0
meuse,0.018339735,6.0
mayenne,0.0,1.0
val_de_marne,82.2278,101.0
hautes_pyrenees,2.389493,2.0
lot,0.0,0.0
isere,2.8659942,12.0
gironde,19.223696,12.0
yvelines,48.83456,72.0
yonne,0.0,0.0
haute_saone,6.7630405,12.0
somme,11.81455,15.0
eure_et_loir,19.986147,113.0
manche,10.736801,8.0
indre,2.3401725,8.0
haute_marne,0.0,2.0
haut_rhin,62.388123,4.0
maine_et_loire,0.0,0.0
jura,0.03715591,36.0
savoie,0.0,2.0
ardennes,0.5996509,0.0
haute_garonne,12.411027,12.0
rhone,2.7488892,13.0
ardeche,1.0096343,0.0
aisne,20.352997,15.0
vosges,20.371151,11.0
gers,1.5003815,4.0
oise,57.33028,63.0
hauts_de_seine,142.92468,112.0
territoire_de_belfort,3.067175,5.0
lot_et_garonne,0.0,0.0
eure,10.230765,37.0
tarn,0.0,6.0
cher,14.737732,14.0
aube,12.685673,26.0
vaucluse,8.8078,31.0
pyrenees_orientales,0.0,2.0
var,19.550278,9.0
cantal,0.0,0.0
doubs,9.125986,11.0
seine_et_marne,50.20431,133.0
ain,4.2157536,10.0
calvados,5.5498333,2.0
herault,59.083534,23.0
bouches_du_rhone,169.31049,156.0
puy_de_dome,4.7308598,10.0
tarn_et_garonne,0.0,0.0
loire,0.0,1.0
gard,6.853288,35.0
loir_et_cher,0.112618335,2.0
alpes_de_haute_provence,0.26651165,2.0
orne,0.40082374,3.0
seine_maritime,16.084387,32.0
