n,o,l
charente_maritime,0.0,5.0
vienne,0.0,0.0
aude,0.0,1.0
haute_loire,0.0,0.0
haute_savoie,2.9036262,3.0
dordogne,0.0,0.0
correze,0.0,1.0
indre_et_loire,0.0,2.0
saone_et_loire,0.67870605,0.0
loire_atlantique,0.0,0.0
haute_vienne,0.0,0.0
drome,0.0,1.0
cote_d'or,0.0,0.0
landes,11.152968,16.0
paris,0.0,1.0
charente,0.0,0.0
meurthe_et_moselle,17.78359,1.0
essonne,0.0,37.0
marne,0.08195734,0.0
seine_saint_denis,13.576832,8.0
moselle,2.4784908,8.0
bas_rhin,0.49724138,2.0
pas_de_calais,3.5312216,39.0
nord,2.2631238,15.0
loiret,0.0,0.0
nievre,0.02024369,2.0
alpes_maritimes,0.0,1.0
pyrenees_atlantiques,1.4850302,3.0
val_d'oise,4.696249,4.0
meuse,0.058208957,0.0
mayenne,0.0,0.0
val_de_marne,8.124124,11.0
hautes_pyrenees,0.031142965,1.0
lot,0.0,0.0
isere,0.0,0.0
gironde,0.088440776,1.0
yvelines,6.5293894,7.0
yonne,0.0,0.0
haute_saone,0.0,15.0
somme,2.5473514,3.0
eure_et_loir,0.8226613,4.0
manche,4.011962,2.0
indre,0.0,0.0
haute_marne,0.0,1.0
haut_rhin,0.55772537,16.0
maine_et_loire,0.0,0.0
jura,0.8742798,1.0
savoie,0.0,0.0
ardennes,0.0,0.0
haute_garonne,1.037991,1.0
rhone,1.5504749,4.0
ardeche,0.0,1.0
aisne,2.168202,7.0
vosges,0.0,0.0
gers,0.15463586,8.0
oise,4.4682817,16.0
hauts_de_seine,4.7535105,9.0
territoire_de_belfort,0.0,0.0
lot_et_garonne,0.0,0.0
eure,2.7706792,10.0
tarn,0.0,1.0
cher,0.73471206,6.0
aube,1.0275207,4.0
vaucluse,0.0,2.0
pyrenees_orientales,0.0,2.0
var,0.0,5.0
cantal,0.24756807,0.0
doubs,0.15915099,0.0
seine_et_marne,9.439817,6.0
ain,2.005388,2.0
calvados,0.0,0.0
herault,3.787039,15.0
bouches_du_rhone,11.032544,26.0
puy_de_dome,0.06822422,0.0
tarn_et_garonne,0.0,0.0
loire,0.17183506,1.0
gard,0.9929953,15.0
loir_et_cher,0.0,1.0
alpes_de_haute_provence,0.0,1.0
orne,0.38372183,1.0
seine_maritime,0.8279634,5.0
