n,o,l
E10000013,40.07278,17.0
E08000001,30.666454,15.0
E06000032,15.582662,1.0
E08000034,13.682309,11.0
E06000022,4.840678,1.0
E10000006,35.328022,76.0
E10000025,47.36469,12.0
E08000009,11.82061,11.0
E06000049,27.177124,19.0
E10000024,27.650187,34.0
E09000017,11.75786,5.0
E08000027,18.808788,25.0
E06000021,13.83215,12.0
E10000019,25.824938,14.0
E08000008,12.851914,10.0
E09000026,7.023757,4.0
E06000001,3.7725687,10.0
E06000050,19.54585,14.0
E08000017,9.943234,29.0
E06000055,11.974947,14.0
E06000040,6.5373526,4.0
E06000002,14.664732,3.0
E06000004,7.296906,6.0
E08000030,16.792873,10.0
E08000032,26.304535,50.0
E10000017,81.779205,43.0
E08000004,23.292873,20.0
E08000035,41.55547,35.0
E06000011,22.992058,34.0
E10000032,31.85671,25.0
E06000038,27.83397,13.0
E06000041,13.342835,7.0
E09000015,15.587589,28.0
E09000006,21.573208,30.0
E08000011,16.249111,15.0
E06000008,10.309373,10.0
E06000026,11.778987,4.0
E06000059,3.2044451,5.0
E06000034,2.7328856,5.0
E10000014,78.1647,39.0
E06000016,12.317912,13.0
E06000035,13.863978,9.0
E08000014,28.71691,15.0
E06000056,12.742141,7.0
E10000003,13.176396,23.0
E09000004,11.046172,5.0
E10000018,21.878462,21.0
E08000012,34.38827,23.0
E06000012,2.0494614,0.0
E10000027,15.407935,21.0
E06000014,4.162745,19.0
E08000036,34.443237,9.0
E09000008,15.551844,6.0
E06000046,2.1344032,8.0
E06000030,12.411749,5.0
E06000054,12.133314,16.0
E08000005,19.628315,7.0
E06000027,0.0,0.0
E10000016,123.547516,88.0
E10000030,90.6769,28.0
E08000013,16.775877,5.0
E06000033,4.715117,4.0
E08000016,22.06081,14.0
E09000016,16.619263,2.0
E06000051,10.064101,13.0
E08000037,22.983562,36.0
E06000052,9.27425,13.0
E09000010,17.954723,6.0
E10000021,26.727774,15.0
E06000039,13.894445,4.0
E08000024,40.444008,26.0
E09000027,4.846161,10.0
E09000009,33.57402,18.0
E10000020,52.523907,46.0
E10000023,27.01348,36.0
E10000029,27.616678,19.0
E06000045,7.0020576,10.0
E08000018,25.1991,20.0
E10000034,36.93067,17.0
E06000018,9.324736,6.0
E08000019,62.365616,39.0
E06000017,2.1440094,0.0
E08000010,26.011768,13.0
E09000003,20.06642,12.0
E10000028,49.10968,32.0
E10000008,25.127237,23.0
E08000025,70.779495,44.0
E10000031,26.66948,23.0
E08000007,24.898602,21.0
E06000013,12.955848,7.0
E06000005,5.7007346,11.0
E08000015,37.18488,14.0
E06000042,12.053882,15.0
E06000009,11.142914,12.0
E10000007,28.698008,22.0
E09000001,1.7961951,0.0
E09000022,16.600674,7.0
E06000047,43.854855,64.0
E06000037,8.914846,11.0
E08000026,16.923147,12.0
E09000002,8.731758,2.0
E09000018,11.263146,8.0
E06000043,11.317318,5.0
E06000020,3.7574508,9.0
E06000057,28.672165,18.0
E06000006,7.4841337,7.0
E08000003,37.834644,17.0
E10000015,58.77912,62.0
E06000024,2.9561303,8.0
E08000023,20.114609,13.0
E06000036,7.0137143,3.0
E10000011,13.112736,13.0
E06000031,2.7146342,7.0
E08000021,17.048197,12.0
E10000002,21.229626,5.0
E06000044,8.76777,0.0
E08000031,17.473745,36.0
E09000020,2.279717,0.0
E06000003,5.668216,7.0
E08000002,19.754593,7.0
E10000012,60.71151,48.0
E09000005,28.604815,9.0
E06000007,14.235743,11.0
E09000023,8.333829,1.0
E08000033,9.977796,4.0
E09000021,10.403315,6.0
E09000029,23.202103,10.0
E08000022,9.347201,7.0
E06000015,5.5291405,9.0
