n,o,l
E10000013,26.404774,31.0
E08000001,11.697589,17.0
E06000032,17.100307,23.0
E08000034,16.281534,22.0
E06000022,10.204306,4.0
E10000006,32.24369,67.0
E10000025,57.08909,69.0
E08000009,16.157175,27.0
E06000049,19.5427,28.0
E10000024,31.62252,40.0
E09000017,26.070463,17.0
E08000027,28.490294,30.0
E06000021,9.5391445,9.0
E10000019,22.483948,14.0
E08000008,10.744678,18.0
E09000026,26.367188,28.0
E06000001,6.151431,2.0
E06000050,18.042227,25.0
E08000017,14.393571,11.0
E06000055,20.140854,12.0
E06000040,11.678141,4.0
E06000002,13.525786,13.0
E06000004,12.680701,13.0
E08000030,26.45863,48.0
E08000032,21.361488,19.0
E10000017,59.345787,93.0
E08000004,17.687763,23.0
E08000035,24.736084,30.0
E06000011,9.340041,7.0
E10000032,27.390106,21.0
E06000038,11.066329,10.0
E06000041,14.986332,4.0
E09000015,39.653122,31.0
E09000006,40.332043,36.0
E08000011,12.449333,22.0
E06000008,8.195537,12.0
E06000026,9.713743,12.0
E06000059,11.977778,10.0
E06000034,16.917372,17.0
E10000014,67.00289,87.0
E06000016,14.694044,24.0
E06000035,15.089204,24.0
E08000014,24.68576,32.0
E06000056,16.490835,23.0
E10000003,23.40033,22.0
E09000004,28.018513,17.0
E10000018,23.417246,19.0
E08000012,34.13968,55.0
E06000012,8.489138,1.0
E10000027,12.19011,19.0
E06000014,5.632626,11.0
E08000036,53.752357,80.0
E09000008,17.215717,17.0
E06000046,0.9938031,1.0
E06000030,9.420634,12.0
E06000054,17.754019,10.0
E08000005,17.337887,9.0
E06000027,9.53789,2.0
E10000016,78.656235,82.0
E10000030,69.86788,70.0
E08000013,17.67316,26.0
E06000033,11.968285,14.0
E08000016,21.701889,14.0
E09000016,18.238485,30.0
E06000051,14.09703,8.0
E08000037,10.327345,23.0
E06000052,18.021923,17.0
E09000010,27.699448,26.0
E10000021,33.698597,51.0
E06000039,15.044988,3.0
E08000024,17.312548,37.0
E09000027,27.11018,7.0
E09000009,46.37113,41.0
E10000020,25.443035,27.0
E10000023,21.20931,20.0
E10000029,21.244991,21.0
E06000045,16.815796,17.0
E08000018,17.28185,15.0
E10000034,27.784155,31.0
E06000018,15.5901375,20.0
E08000019,56.90774,53.0
E06000017,0.0,0.0
E08000010,16.30128,24.0
E09000003,60.466503,65.0
E10000028,45.90019,58.0
E10000008,22.288754,23.0
E08000025,87.354454,102.0
E10000031,29.654327,51.0
E08000007,15.494233,28.0
E06000013,7.246583,4.0
E06000005,7.257045,5.0
E08000015,16.847084,52.0
E06000042,5.768574,12.0
E06000009,6.10031,18.0
E10000007,34.566086,26.0
E09000001,5.5539846,0.0
E09000022,46.75921,43.0
E06000047,22.89346,36.0
E06000037,0.51974565,5.0
E08000026,21.308708,20.0
E09000002,17.019318,22.0
E09000018,27.649366,33.0
E06000043,14.53757,12.0
E06000020,11.480682,7.0
E06000057,16.07707,24.0
E06000006,10.653822,14.0
E08000003,24.194386,35.0
E10000015,72.205154,102.0
E06000024,11.62488,7.0
E08000023,10.028034,13.0
E06000036,6.0198994,3.0
E10000011,17.895983,17.0
E06000031,8.288117,5.0
E08000021,27.257635,31.0
E10000002,24.46796,32.0
E06000044,7.617258,5.0
E08000031,21.780542,17.0
E09000020,26.517649,19.0
E06000003,14.300103,7.0
E08000002,13.908808,8.0
E10000012,88.353165,100.0
E09000005,63.02543,58.0
E06000007,9.23211,24.0
E09000023,10.731791,11.0
E08000033,43.179413,52.0
E09000021,20.134443,16.0
E09000029,27.438063,29.0
E08000022,15.727056,14.0
E06000015,8.417294,19.0
