n,o,l
charente_maritime,1.5136789,10.0
vienne,0.0,1.0
aude,4.703829,2.0
haute_loire,0.13893886,1.0
haute_savoie,15.044512,15.0
dordogne,0.1123106,1.0
correze,0.0,2.0
indre_et_loire,1.234467,5.0
saone_et_loire,5.4853535,26.0
loire_atlantique,0.781538,2.0
haute_vienne,0.06866878,1.0
drome,2.0908544,7.0
cote_d'or,2.9908137,7.0
landes,118.087326,123.0
paris,0.16420494,2.0
charente,0.014360979,3.0
meurthe_et_moselle,52.063156,2.0
essonne,4.543467,59.0
marne,12.576215,11.0
seine_saint_denis,86.03954,96.0
moselle,24.403925,12.0
bas_rhin,16.354733,23.0
pas_de_calais,10.090408,20.0
nord,9.68572,13.0
loiret,14.138127,18.0
nievre,2.4916594,3.0
alpes_maritimes,9.410432,7.0
pyrenees_atlantiques,3.0399382,5.0
val_d'oise,43.488678,47.0
meuse,1.0156193,0.0
mayenne,0.0,0.0
val_de_marne,62.07182,87.0
hautes_pyrenees,2.9037924,10.0
lot,0.0,3.0
isere,0.46320605,4.0
gironde,14.122646,18.0
yvelines,32.286392,31.0
yonne,0.036895677,0.0
haute_saone,2.806338,10.0
somme,12.161655,23.0
eure_et_loir,17.942396,46.0
manche,8.223216,21.0
indre,1.5135832,6.0
haute_marne,0.08750363,0.0
haut_rhin,46.01325,34.0
maine_et_loire,0.0,1.0
jura,0.90661544,12.0
savoie,0.16122335,4.0
ardennes,0.7173014,1.0
haute_garonne,5.027104,12.0
rhone,6.372636,36.0
ardeche,0.52441764,2.0
aisne,15.517066,33.0
vosges,17.605907,31.0
gers,1.3440675,3.0
oise,49.831135,44.0
hauts_de_seine,95.072495,96.0
territoire_de_belfort,2.36582,5.0
lot_et_garonne,0.0,0.0
eure,9.661575,20.0
tarn,0.025703818,1.0
cher,5.99847,6.0
aube,9.494536,12.0
vaucluse,5.2663245,6.0
pyrenees_orientales,13.227474,1.0
var,0.0,26.0
cantal,0.0,0.0
doubs,3.2069414,13.0
seine_et_marne,51.288574,57.0
ain,2.889419,2.0
calvados,3.8123586,6.0
herault,37.321815,47.0
bouches_du_rhone,89.23259,153.0
puy_de_dome,6.4338045,10.0
tarn_et_garonne,0.09666321,2.0
loire,0.0,1.0
gard,9.949581,5.0
loir_et_cher,0.009465218,0.0
alpes_de_haute_provence,0.5464146,3.0
orne,0.04006841,4.0
seine_maritime,12.025644,26.0
