n,o,l
siracusa,0.064241745,13.0
asti,1.719702,21.0
oristano,0.6164706,27.0
grosseto,0.037641536,0.0
sondrio,0.89388835,41.0
ascoli_piceno,0.57350993,31.0
savona,0.80602306,0.0
reggio_emilia,13.374325,112.0
torino,4.9911757,295.0
rovigo,0.41304427,23.0
frosinone,0.0,50.0
campobasso,0.34444097,25.0
cosenza,0.13469967,8.0
trapani,0.34019336,1.0
pavia,5.5275364,107.0
cuneo,3.3940277,46.0
genova,1.3056202,0.0
treviso,3.0004542,77.0
barletta_andria_trani,0.072771914,20.0
udine,2.709026,29.0
brescia,28.616604,334.0
ravenna,3.1523268,64.0
latina,2.4449222,8.0
gorizia,0.3360399,10.0
pordenone,1.0659311,18.0
massa_carrara,0.5479795,4.0
la_aquila,0.12206728,4.0
prato,0.9349972,11.0
rieti,0.41709298,2.0
aosta,2.3988364,7.0
ragusa,0.008597504,6.0
fermo,0.34642625,44.0
milano,34.551826,848.0
firenze,1.9178953,55.0
arezzo,0.0,20.0
bolzano_bozen,3.7174113,48.0
piacenza,6.5783854,91.0
ancona,1.5993173,49.0
napoli,3.4533384,39.0
reggio_calabria,0.4842764,18.0
novara,1.4078058,60.0
pistoia,0.522589,10.0
lodi,4.3207827,84.0
la_spezia,0.3256422,12.0
brindisi,0.24849501,6.0
taranto,0.2550032,18.0
potenza,0.6829786,14.0
perugia,3.3252945,77.0
alessandria,4.232727,34.0
enna,0.42549822,43.0
imperia,0.53744125,25.0
vercelli,0.9092334,28.0
foggia,1.5501873,28.0
lecce,7.7772226,83.0
lecco,5.4040546,141.0
padova,1.054924,47.0
messina,1.1886489,13.0
lucca,1.2516894,45.0
palermo,0.10634002,12.0
livorno,0.07339309,0.0
benevento,0.97559184,25.0
catanzaro,0.042145733,2.0
bari,1.7592733,51.0
caltanissetta,0.42792273,5.0
isernia,0.048943486,5.0
biella,0.083563,9.0
verona,5.291213,98.0
caserta,0.5111152,12.0
chieti,1.3688056,29.0
varese,1.7113317,34.0
teramo,1.2566005,67.0
macerata,1.1830181,10.0
cagliari,0.25434452,9.0
terni,0.7281631,15.0
nuoro,0.05405312,26.0
trento,6.649226,75.0
salerno,1.389565,24.0
pesaro_e_urbino,4.265628,42.0
venezia,5.5158978,46.0
siena,1.0793608,23.0
vibo_valentia,0.019246668,5.0
matera,0.0,12.0
forli_cesena,1.5252542,59.0
parma,5.566557,86.0
trieste,2.1063344,30.0
roma,6.12836,139.0
ferrara,1.3942455,8.0
belluno,1.669308,15.0
sassari,3.0744479,13.0
avellino,1.3366679,8.0
agrigento,0.27462783,5.0
como,8.965378,56.0
cremona,4.1817007,214.0
catania,1.423057,38.0
bologna,7.45438,146.0
pisa,1.9806814,33.0
viterbo,0.6949174,0.0
pescara,2.685963,33.0
rimini,3.8244498,53.0
mantova,6.347619,74.0
vicenza,3.6018226,75.0
verbano_cusio_ossola,1.4108862,8.0
modena,8.771642,143.0
crotone,0.19128554,9.0
bergamo,30.210787,386.0
