n,o,l
granada,27.394678,85.0
palencia,10.578731,63.0
segovia,38.212894,30.0
valencia,80.452774,133.0
tarragona,13.812247,3.0
cadiz,7.910909,2.0
huelva,12.387567,6.0
caceres,40.897038,67.0
alicante,31.150051,3.0
cordoba,7.7468157,43.0
gipuzkoa,21.86491,6.0
cuenca,50.029995,9.0
sevilla,22.224596,49.0
guadalajara,30.210587,69.0
salamanca,44.28124,89.0
toledo,103.661415,204.0
ciudad_real,85.90991,9.0
badajoz,16.402945,260.0
barcelona,595.18445,55.0
avila,18.355898,2.0
lleida,23.814783,34.0
araba/alava,19.818998,0.0
albacete,24.511076,85.0
almeria,6.029478,9.0
zamora,14.909598,22.0
girona,0.45763367,60.0
bizkaia,91.03602,19.0
soria,23.051556,70.0
burgos,35.8806,15.0
jaen,50.41084,16.0
valladolid,15.828739,95.0
malaga,29.276655,16.0
leon,68.50483,3.0
castellon,23.194185,49.0
