n,o,l
granada,56.720493,0.0
palencia,42.691875,8.0
segovia,38.027206,35.0
valencia,58.274612,91.0
tarragona,20.631502,0.0
cadiz,25.71179,0.0
huelva,31.880236,0.0
caceres,44.16628,5.0
alicante,46.2871,82.0
cordoba,56.515263,0.0
gipuzkoa,26.63445,0.0
cuenca,39.752235,95.0
sevilla,52.008125,0.0
guadalajara,52.448456,26.0
salamanca,70.70083,112.0
toledo,108.11541,59.0
ciudad_real,24.834373,88.0
badajoz,353.34933,2.0
barcelona,42.215664,0.0
avila,30.967806,12.0
lleida,56.324646,0.0
araba/alava,24.626547,0.0
albacete,57.88839,73.0
almeria,28.75177,0.0
zamora,54.984516,6.0
girona,73.85025,0.0
bizkaia,26.106346,0.0
soria,54.022907,75.0
burgos,36.30279,62.0
jaen,26.231361,48.0
valladolid,54.449677,0.0
malaga,65.14976,0.0
leon,29.064503,31.0
castellon,48.97091,23.0
