n,o,l
granada,22.012821,54.0
palencia,9.1018715,14.0
segovia,39.959812,33.0
valencia,66.631584,160.0
tarragona,0.28875798,19.0
cadiz,3.027495,17.0
huelva,8.386202,23.0
caceres,27.337347,32.0
alicante,47.428757,35.0
cordoba,9.896743,107.0
gipuzkoa,8.970633,5.0
cuenca,30.899984,30.0
sevilla,20.688997,33.0
guadalajara,15.038382,77.0
salamanca,34.30598,80.0
toledo,12.398318,96.0
ciudad_real,56.43137,38.0
badajoz,11.938213,771.0
barcelona,351.80518,15.0
avila,15.229038,38.0
lleida,17.05413,37.0
araba/alava,12.197312,14.0
albacete,18.90526,36.0
almeria,1.681367,23.0
zamora,10.9078045,0.0
girona,0.14232202,142.0
bizkaia,76.87712,52.0
soria,19.976404,73.0
burgos,17.95448,72.0
jaen,84.025536,23.0
valladolid,13.515785,31.0
malaga,12.274833,59.0
leon,32.228703,26.0
castellon,21.790062,56.0
