n,o,l
siracusa,0.08147778,3.0
asti,0.033895317,16.0
oristano,0.054946113,9.0
grosseto,0.06862133,15.0
sondrio,0.0700226,0.0
ascoli_piceno,0.04998357,7.0
savona,0.051173657,11.0
reggio_emilia,0.6509387,204.0
torino,0.0,124.0
rovigo,0.06795754,1.0
frosinone,0.026411157,5.0
campobasso,0.08324051,10.0
cosenza,0.06864808,5.0
trapani,0.048911326,0.0
pavia,1.7166198,89.0
cuneo,0.07514557,44.0
genova,0.4750755,34.0
treviso,0.28593063,87.0
barletta_andria_trani,0.04857022,2.0
udine,0.007002685,42.0
brescia,8.167418,380.0
ravenna,0.29661912,74.0
latina,0.010161068,21.0
gorizia,0.0,7.0
pordenone,0.04976868,30.0
massa_carrara,0.34512374,24.0
la_aquila,0.08044609,2.0
prato,0.09120386,17.0
rieti,0.05061611,6.0
aosta,0.29564205,49.0
ragusa,0.080480956,1.0
fermo,0.028534435,2.0
milano,3.753769,868.0
firenze,0.14085516,50.0
arezzo,0.16286263,0.0
bolzano_bozen,0.14174916,73.0
piacenza,1.5394301,118.0
ancona,0.4215724,51.0
napoli,0.0,47.0
reggio_calabria,0.081492916,11.0
novara,0.0,37.0
pistoia,0.104703635,10.0
lodi,1.0634613,96.0
la_spezia,0.13181376,4.0
brindisi,0.07828597,10.0
taranto,0.049529552,2.0
potenza,0.07612209,15.0
perugia,0.124244526,49.0
alessandria,0.0,59.0
enna,0.08058807,2.0
imperia,0.121454924,10.0
vercelli,0.026042897,7.0
foggia,0.13173616,27.0
lecce,0.7332403,142.0
lecco,0.32087612,129.0
padova,0.03898637,31.0
messina,0.0,15.0
lucca,0.24517113,58.0
palermo,0.11805017,4.0
livorno,0.0,3.0
benevento,0.0,3.0
catanzaro,0.08719693,4.0
bari,0.07365009,29.0
caltanissetta,0.04934684,9.0
isernia,0.052605547,0.0
biella,0.0,10.0
verona,0.392246,170.0
caserta,0.0,7.0
chieti,0.14978428,11.0
varese,0.42777753,21.0
teramo,0.048714567,24.0
macerata,0.0,23.0
cagliari,0.011042956,2.0
terni,0.19915643,18.0
nuoro,0.085337445,0.0
trento,0.27378982,11.0
salerno,0.0,140.0
pesaro_e_urbino,1.4066796,87.0
venezia,0.21190156,92.0
siena,0.07650451,5.0
vibo_valentia,0.06605907,0.0
matera,0.07033023,0.0
forli_cesena,0.0,19.0
parma,0.38581443,35.0
trieste,0.0,54.0
roma,0.6983991,138.0
ferrara,0.045491073,21.0
belluno,0.013320964,17.0
sassari,0.05521627,35.0
avellino,0.0,27.0
agrigento,0.045958355,5.0
como,0.5730819,72.0
cremona,5.6252117,341.0
catania,0.2966927,27.0
bologna,0.730887,58.0
pisa,0.14646952,31.0
viterbo,0.08293809,9.0
pescara,0.04675932,43.0
rimini,1.2171462,69.0
mantova,0.7714764,119.0
vicenza,0.29491597,54.0
verbano_cusio_ossola,0.052467547,7.0
modena,0.43326318,139.0
crotone,0.048608854,5.0
bergamo,6.2742424,715.0
