n,o,l
granada,44.49468,43.0
palencia,35.12187,16.0
segovia,49.272884,52.0
valencia,70.0963,55.0
tarragona,22.425138,4.0
cadiz,23.513617,9.0
huelva,37.3023,15.0
caceres,40.299675,17.0
alicante,45.81079,80.0
cordoba,32.4584,21.0
gipuzkoa,30.432716,0.0
cuenca,33.30042,55.0
sevilla,42.075123,24.0
guadalajara,59.000355,18.0
salamanca,57.67093,72.0
toledo,75.210464,29.0
ciudad_real,23.174047,89.0
badajoz,363.68887,4.0
barcelona,39.683258,356.0
avila,28.522558,45.0
lleida,56.86198,14.0
araba/alava,26.843073,0.0
albacete,38.38311,86.0
almeria,25.18532,13.0
zamora,102.52876,30.0
girona,106.31862,94.0
bizkaia,24.542915,0.0
soria,65.60442,28.0
burgos,35.906803,149.0
jaen,33.293144,46.0
valladolid,62.065174,24.0
malaga,70.89151,38.0
leon,33.867203,41.0
castellon,16.980888,23.0
