n,o,l
E10000013,15.952292,10.0
E08000001,11.769939,8.0
E06000032,5.9331417,1.0
E08000034,10.681375,4.0
E06000022,2.146306,0.0
E10000006,27.09252,25.0
E10000025,31.417599,22.0
E08000009,9.483641,6.0
E06000049,17.63906,27.0
E10000024,11.774485,10.0
E09000017,4.1262083,4.0
E08000027,13.004303,5.0
E06000021,15.150142,25.0
E10000019,9.608253,5.0
E08000008,9.484512,5.0
E09000026,8.086645,4.0
E06000001,4.908227,8.0
E06000050,10.614469,8.0
E08000017,11.363828,19.0
E06000055,8.428156,6.0
E06000040,2.5548239,2.0
E06000002,11.408788,5.0
E06000004,11.949379,10.0
E08000030,10.869297,4.0
E08000032,23.847103,27.0
E10000017,40.58039,34.0
E08000004,17.947859,13.0
E08000035,24.699087,24.0
E06000011,18.786669,15.0
E10000032,11.870507,4.0
E06000038,5.706874,7.0
E06000041,3.702999,1.0
E09000015,14.165854,32.0
E09000006,9.529551,4.0
E08000011,9.571759,7.0
E06000008,5.64071,8.0
E06000026,5.5919576,11.0
E06000059,3.408312,0.0
E06000034,2.5665307,2.0
E10000014,27.516226,17.0
E06000016,9.494429,17.0
E06000035,6.8344574,15.0
E08000014,6.126219,4.0
E06000056,5.9692435,6.0
E10000003,21.460247,19.0
E09000004,4.5891275,12.0
E10000018,13.666617,19.0
E08000012,10.202484,3.0
E06000012,1.1402947,0.0
E10000027,7.666581,1.0
E06000014,15.979718,9.0
E08000036,11.705816,5.0
E09000008,8.274566,6.0
E06000046,3.4764063,2.0
E06000030,4.1873317,3.0
E06000054,5.385623,4.0
E08000005,10.761957,7.0
E06000027,2.9460258,1.0
E10000016,65.42489,65.0
E10000030,23.597618,13.0
E08000013,4.3347135,5.0
E06000033,5.02903,2.0
E08000016,11.012348,17.0
E09000016,4.5796957,2.0
E06000051,12.040363,9.0
E08000037,19.28572,17.0
E06000052,6.2072678,2.0
E09000010,4.106147,2.0
E10000021,9.632854,17.0
E06000039,4.3755827,2.0
E08000024,18.413044,9.0
E09000027,3.2906792,0.0
E09000009,7.3769746,10.0
E10000020,40.50913,44.0
E10000023,28.665253,28.0
E10000029,23.900515,17.0
E06000045,7.804466,5.0
E08000018,11.705817,6.0
E10000034,15.160759,15.0
E06000018,8.779593,0.0
E08000019,24.331078,16.0
E06000017,2.068509,0.0
E08000010,23.433313,16.0
E09000003,6.5864153,6.0
E10000028,27.583652,29.0
E10000008,6.954892,10.0
E08000025,37.125256,26.0
E10000031,19.48352,13.0
E08000007,15.886613,7.0
E06000013,9.035056,8.0
E06000005,6.7188544,4.0
E08000015,12.387705,11.0
E06000042,5.4081726,4.0
E06000009,6.8323855,8.0
E10000007,18.079727,30.0
E09000001,1.9358512,0.0
E09000022,4.1851153,3.0
E06000047,38.01147,24.0
E06000037,3.44212,1.0
E08000026,11.696055,5.0
E09000002,3.121654,2.0
E09000018,6.4728737,3.0
E06000043,4.7229795,0.0
E06000020,6.252262,7.0
E06000057,10.809724,19.0
E06000006,3.1854362,1.0
E08000003,19.114063,26.0
E10000015,35.996655,36.0
E06000024,6.130678,14.0
E08000023,11.248532,11.0
E06000036,2.3292732,1.0
E10000011,9.760809,8.0
E06000031,6.410917,4.0
E08000021,11.890814,12.0
E10000002,5.8028345,7.0
E06000044,2.0832016,8.0
E08000031,13.11826,3.0
E09000020,2.1730206,1.0
E06000003,5.3443613,8.0
E08000002,6.610782,2.0
E10000012,36.859497,25.0
E09000005,6.312369,8.0
E06000007,6.77216,10.0
E09000023,5.1163287,0.0
E08000033,4.2376475,5.0
E09000021,3.9087248,3.0
E09000029,4.6053867,0.0
E08000022,6.963981,5.0
E06000015,3.8432057,2.0
