n,o,l
E10000013,25.951283,21.0
E08000001,26.850159,17.0
E06000032,16.751701,14.0
E08000034,9.790023,27.0
E06000022,5.428122,3.0
E10000006,30.710045,30.0
E10000025,29.873081,22.0
E08000009,13.624996,9.0
E06000049,20.170565,13.0
E10000024,16.8044,15.0
E09000017,11.89483,4.0
E08000027,13.85296,32.0
E06000021,13.573881,17.0
E10000019,19.645504,14.0
E08000008,7.8034234,13.0
E09000026,8.890828,4.0
E06000001,4.17615,4.0
E06000050,21.103216,20.0
E08000017,12.29307,31.0
E06000055,10.214191,2.0
E06000040,2.4256463,3.0
E06000002,18.234104,13.0
E06000004,11.1760435,18.0
E08000030,22.985367,23.0
E08000032,26.415203,29.0
E10000017,70.46093,50.0
E08000004,19.439573,24.0
E08000035,46.107697,28.0
E06000011,16.496298,19.0
E10000032,23.207163,13.0
E06000038,13.33592,5.0
E06000041,19.818014,9.0
E09000015,13.780952,5.0
E09000006,10.55684,8.0
E08000011,10.72201,7.0
E06000008,6.860552,7.0
E06000026,15.876955,8.0
E06000059,5.976503,11.0
E06000034,6.5596137,4.0
E10000014,59.69731,43.0
E06000016,18.256613,6.0
E06000035,13.317827,8.0
E08000014,15.330865,6.0
E06000056,15.154098,7.0
E10000003,24.321095,32.0
E09000004,11.794739,8.0
E10000018,22.997976,12.0
E08000012,22.503244,18.0
E06000012,5.1489296,1.0
E10000027,15.998976,9.0
E06000014,9.553478,3.0
E08000036,16.110199,10.0
E09000008,10.847995,8.0
E06000046,1.8861018,12.0
E06000030,10.735024,7.0
E06000054,8.25622,6.0
E08000005,15.333694,8.0
E06000027,8.0820675,1.0
E10000016,113.01043,53.0
E10000030,49.752335,25.0
E08000013,14.739102,12.0
E06000033,4.5688148,5.0
E08000016,16.964285,15.0
E09000016,7.9125247,17.0
E06000051,13.97053,6.0
E08000037,20.095932,18.0
E06000052,7.652208,3.0
E09000010,13.329184,4.0
E10000021,13.465391,11.0
E06000039,5.4439654,17.0
E08000024,26.009855,21.0
E09000027,3.3948882,3.0
E09000009,11.117608,12.0
E10000020,54.183395,38.0
E10000023,21.803076,22.0
E10000029,32.890423,50.0
E06000045,13.06176,7.0
E08000018,18.38973,11.0
E10000034,25.924105,13.0
E06000018,16.539104,13.0
E08000019,41.749382,17.0
E06000017,3.1940553,1.0
E08000010,22.416185,21.0
E09000003,11.262745,4.0
E10000028,46.68904,20.0
E10000008,12.845191,12.0
E08000025,58.395367,22.0
E10000031,27.248745,14.0
E08000007,17.342325,12.0
E06000013,13.592824,18.0
E06000005,7.483328,6.0
E08000015,23.866798,18.0
E06000042,8.087075,1.0
E06000009,17.860983,7.0
E10000007,22.512527,15.0
E09000001,2.6352966,0.0
E09000022,9.485939,10.0
E06000047,36.527077,44.0
E06000037,8.612888,2.0
E08000026,14.464599,20.0
E09000002,6.72412,5.0
E09000018,7.642322,8.0
E06000043,5.8744054,5.0
E06000020,11.139062,5.0
E06000057,18.199797,16.0
E06000006,5.0509744,3.0
E08000003,22.569931,15.0
E10000015,41.799976,49.0
E06000024,8.69945,7.0
E08000023,15.706008,11.0
E06000036,4.248076,0.0
E10000011,12.131003,5.0
E06000031,9.222683,10.0
E08000021,15.687914,5.0
E10000002,17.64813,9.0
E06000044,11.03824,7.0
E08000031,26.06795,26.0
E09000020,10.182657,4.0
E06000003,12.268295,6.0
E08000002,12.803755,5.0
E10000012,53.763824,57.0
E09000005,14.626124,16.0
E06000007,13.991097,6.0
E09000023,4.724013,6.0
E08000033,11.519804,5.0
E09000021,5.895968,6.0
E09000029,9.618872,3.0
E08000022,9.98478,10.0
E06000015,7.5548596,6.0
