n,o,l
siracusa,0.0644473,0.0
asti,0.0,28.0
oristano,0.22250728,3.0
grosseto,0.06689029,8.0
sondrio,0.0041605607,3.0
ascoli_piceno,0.04028203,5.0
savona,0.07565375,10.0
reggio_emilia,0.2669375,202.0
torino,0.08714606,209.0
rovigo,0.07969336,4.0
frosinone,0.23396261,4.0
campobasso,0.0,1.0
cosenza,0.16452816,5.0
trapani,0.013104536,10.0
pavia,1.1213983,138.0
cuneo,0.33329457,64.0
genova,0.5895463,12.0
treviso,1.7915075,64.0
barletta_andria_trani,0.04400128,10.0
udine,0.0,24.0
brescia,0.0,588.0
ravenna,0.32316715,33.0
latina,0.10111708,13.0
gorizia,0.068472184,11.0
pordenone,0.0,5.0
massa_carrara,0.2131853,8.0
la_aquila,0.14056166,2.0
prato,0.0,8.0
rieti,0.03300508,7.0
aosta,0.2219118,29.0
ragusa,0.074695334,0.0
fermo,0.09249125,20.0
milano,1.1095695,230.0
firenze,0.604244,34.0
arezzo,0.04514391,47.0
bolzano_bozen,0.782896,46.0
piacenza,0.0,120.0
ancona,0.6322272,26.0
napoli,0.0,39.0
reggio_calabria,0.13617136,6.0
novara,0.24710058,22.0
pistoia,0.16395593,14.0
lodi,0.48677206,45.0
la_spezia,0.09036371,11.0
brindisi,0.0,2.0
taranto,0.03683087,5.0
potenza,0.06596393,7.0
perugia,0.0,48.0
alessandria,0.0,57.0
enna,0.061546806,10.0
imperia,0.27316523,0.0
vercelli,0.01877771,21.0
foggia,0.2481146,14.0
lecce,1.6445261,62.0
lecco,0.89525324,94.0
padova,0.0,8.0
messina,0.12633301,29.0
lucca,0.25130206,7.0
palermo,0.21335725,17.0
livorno,0.04781442,0.0
benevento,0.116673335,10.0
catanzaro,0.07464547,1.0
bari,0.26052374,37.0
caltanissetta,0.058931634,2.0
isernia,0.050465558,0.0
biella,0.0,8.0
verona,1.0194339,53.0
caserta,0.0,10.0
chieti,0.26102746,27.0
varese,0.49021196,35.0
teramo,0.06898557,11.0
macerata,0.232546,33.0
cagliari,0.08022158,9.0
terni,0.21572687,6.0
nuoro,0.0,0.0
trento,0.9446554,69.0
salerno,0.022924569,22.0
pesaro_e_urbino,1.8684012,63.0
venezia,0.6868285,67.0
siena,0.14723152,16.0
vibo_valentia,0.026576756,3.0
matera,0.0760697,2.0
forli_cesena,0.2631955,51.0
parma,1.1981982,155.0
trieste,0.24123342,23.0
roma,0.3055241,122.0
ferrara,0.12949736,22.0
belluno,0.2679317,28.0
sassari,0.08281545,7.0
avellino,0.05712921,13.0
agrigento,0.13756832,4.0
como,0.0,69.0
cremona,5.302126,30.0
catania,0.0,40.0
bologna,0.09289786,159.0
pisa,0.2275478,32.0
viterbo,0.009992465,11.0
pescara,0.5951308,36.0
rimini,2.1074626,93.0
mantova,0.9921451,80.0
vicenza,0.85902965,60.0
verbano_cusio_ossola,0.1403831,31.0
modena,0.41954613,145.0
crotone,0.065434255,1.0
bergamo,10.699272,255.0
