n,o,l
charente_maritime,1.9336529,1.0
vienne,0.0,0.0
aude,5.634782,12.0
haute_loire,0.0,0.0
haute_savoie,22.827394,14.0
dordogne,0.0,0.0
correze,0.0,3.0
indre_et_loire,3.0267024,5.0
saone_et_loire,4.416411,14.0
loire_atlantique,0.37666425,0.0
haute_vienne,0.1387771,2.0
drome,3.2642543,0.0
cote_d'or,1.1270419,2.0
landes,150.60802,1.0
paris,0.0,125.0
charente,0.0,4.0
meurthe_et_moselle,5.245857,9.0
essonne,59.834915,101.0
marne,12.065649,16.0
seine_saint_denis,84.148796,73.0
moselle,13.221315,90.0
bas_rhin,21.913563,19.0
pas_de_calais,4.7272286,20.0
nord,10.775235,32.0
loiret,13.802358,21.0
nievre,0.23447421,8.0
alpes_maritimes,14.943697,4.0
pyrenees_atlantiques,2.9296353,3.0
val_d'oise,78.39088,45.0
meuse,0.0,6.0
mayenne,0.0,1.0
val_de_marne,56.752026,95.0
hautes_pyrenees,0.97824895,8.0
lot,0.0,1.0
isere,2.4943025,4.0
gironde,15.470896,12.0
yvelines,39.541237,50.0
yonne,0.0,1.0
haute_saone,6.653004,8.0
somme,8.513809,20.0
eure_et_loir,18.178858,33.0
manche,5.5808125,15.0
indre,2.5781953,4.0
haute_marne,0.0,1.0
haut_rhin,34.546524,67.0
maine_et_loire,0.0,0.0
jura,0.0,1.0
savoie,0.0,4.0
ardennes,0.02279193,3.0
haute_garonne,13.264993,6.0
rhone,2.4324944,12.0
ardeche,0.9354507,4.0
aisne,10.498609,21.0
vosges,19.515251,17.0
gers,1.2404505,5.0
oise,43.16177,69.0
hauts_de_seine,117.30547,102.0
territoire_de_belfort,2.2062836,9.0
lot_et_garonne,0.0,1.0
eure,7.8703685,27.0
tarn,0.0,2.0
cher,9.418086,31.0
aube,8.433748,28.0
vaucluse,7.3227744,8.0
pyrenees_orientales,0.0,2.0
var,16.78283,32.0
cantal,0.0,0.0
doubs,3.775734,13.0
seine_et_marne,40.110764,84.0
ain,1.9289587,11.0
calvados,7.915728,4.0
herault,58.331795,20.0
bouches_du_rhone,165.05675,166.0
puy_de_dome,3.482047,10.0
tarn_et_garonne,0.0,21.0
loire,0.0,0.0
gard,4.92513,6.0
loir_et_cher,0.0,1.0
alpes_de_haute_provence,0.19388002,0.0
orne,0.7658101,4.0
seine_maritime,14.050291,13.0
