n,o,l
granada,36.76573,0.0
palencia,25.565443,25.0
segovia,25.354824,39.0
valencia,53.07758,75.0
tarragona,11.321487,0.0
cadiz,4.354552,0.0
huelva,8.0873995,2.0
caceres,12.929073,80.0
alicante,28.1948,0.0
cordoba,10.606524,75.0
gipuzkoa,18.902657,0.0
cuenca,26.385256,0.0
sevilla,16.432487,58.0
guadalajara,29.01357,66.0
salamanca,45.4326,99.0
toledo,52.465576,88.0
ciudad_real,93.58462,4.0
badajoz,5.303331,0.0
barcelona,282.83875,35.0
avila,26.765503,0.0
lleida,12.134331,0.0
araba/alava,26.721691,0.0
albacete,38.077263,49.0
almeria,6.112681,17.0
zamora,6.5817,0.0
girona,59.538254,0.0
bizkaia,81.80076,51.0
soria,29.061,63.0
burgos,13.251149,16.0
jaen,54.473526,0.0
valladolid,10.383998,34.0
malaga,38.73548,0.0
leon,53.588085,0.0
castellon,36.934364,9.0
