n,o,l
siracusa,0.5299572,1.0
asti,3.6659455,0.0
oristano,0.055970103,3.0
grosseto,0.0022763982,42.0
sondrio,1.2196885,33.0
ascoli_piceno,0.27047104,1.0
savona,5.015321,57.0
reggio_emilia,9.19714,32.0
torino,54.79601,321.0
rovigo,0.19430633,3.0
frosinone,1.3991058,0.0
campobasso,0.4734873,5.0
cosenza,2.4808264,8.0
trapani,0.0,0.0
pavia,8.205271,45.0
cuneo,8.243443,100.0
genova,6.402025,45.0
treviso,8.639441,19.0
barletta_andria_trani,0.5861764,4.0
udine,0.057822153,2.0
brescia,25.164421,65.0
ravenna,1.1414764,6.0
latina,0.6676276,11.0
gorizia,0.0,6.0
pordenone,0.5927398,1.0
massa_carrara,1.7261575,11.0
la_aquila,0.088612884,0.0
prato,1.706811,9.0
rieti,0.0,1.0
aosta,2.0584676,0.0
ragusa,0.0,4.0
fermo,0.4703248,4.0
milano,40.97894,219.0
firenze,7.8257933,75.0
arezzo,1.931964,4.0
bolzano_bozen,5.7176857,20.0
piacenza,5.977585,60.0
ancona,2.1969287,4.0
napoli,4.2462406,19.0
reggio_calabria,0.012953244,0.0
novara,8.873521,31.0
pistoia,1.2410866,9.0
lodi,4.0338745,67.0
la_spezia,2.4525769,4.0
brindisi,1.9703726,7.0
taranto,0.16326883,0.0
potenza,0.0,0.0
perugia,0.26582435,3.0
alessandria,12.858956,66.0
enna,0.85075015,0.0
imperia,4.283597,19.0
vercelli,3.8422053,8.0
foggia,3.3489995,9.0
lecce,2.7354534,8.0
lecco,7.2178764,8.0
padova,0.9776379,5.0
messina,0.4130324,4.0
lucca,4.526106,14.0
palermo,0.32433692,12.0
livorno,0.16898373,2.0
benevento,2.6018867,2.0
catanzaro,0.08636818,0.0
bari,3.0864139,6.0
caltanissetta,0.0,0.0
isernia,0.0,0.0
biella,1.9657718,7.0
verona,11.7973995,75.0
caserta,0.0,15.0
chieti,3.1835167,19.0
varese,8.632068,31.0
teramo,0.3395619,1.0
macerata,2.107069,9.0
cagliari,0.28793204,1.0
terni,0.07879188,0.0
nuoro,0.0,2.0
trento,12.022401,2.0
salerno,1.3403286,62.0
pesaro_e_urbino,2.9749072,10.0
venezia,4.064275,2.0
siena,0.7179042,2.0
vibo_valentia,0.0,0.0
matera,0.4902702,1.0
forli_cesena,3.280259,15.0
parma,6.6663866,23.0
trieste,4.3058662,13.0
roma,12.906595,73.0
ferrara,4.398958,8.0
belluno,4.262227,5.0
sassari,0.8343648,11.0
avellino,0.59809893,2.0
agrigento,0.0,0.0
como,7.5604734,71.0
cremona,5.310999,39.0
catania,1.7862421,17.0
bologna,12.361697,69.0
pisa,1.1867757,9.0
viterbo,0.59038794,4.0
pescara,3.8491497,9.0
rimini,1.9845406,7.0
mantova,5.6184845,25.0
vicenza,5.2685843,53.0
verbano_cusio_ossola,1.1144017,19.0
modena,5.8727064,19.0
crotone,0.0,0.0
bergamo,7.7437143,45.0
