n,o,l
siracusa,0.52755076,5.0
asti,1.5729728,1.0
oristano,2.3663223,3.0
grosseto,0.05550313,71.0
sondrio,0.3608806,81.0
ascoli_piceno,0.25253305,3.0
savona,0.0,0.0
reggio_emilia,14.352685,127.0
torino,36.589005,288.0
rovigo,1.1519142,5.0
frosinone,1.8095505,3.0
campobasso,0.19372375,0.0
cosenza,0.41851717,18.0
trapani,0.2484702,0.0
pavia,7.6830163,88.0
cuneo,5.0773335,80.0
genova,17.487267,87.0
treviso,6.3403573,63.0
barletta_andria_trani,0.8074277,2.0
udine,0.63876486,9.0
brescia,27.711979,191.0
ravenna,1.4479883,11.0
latina,0.56870854,6.0
gorizia,0.0,0.0
pordenone,1.2417449,13.0
massa_carrara,2.6519997,6.0
la_aquila,0.31162852,0.0
prato,0.6847951,8.0
rieti,0.0,2.0
aosta,2.1463363,80.0
ragusa,0.02079479,0.0
fermo,1.0456227,2.0
milano,45.488323,269.0
firenze,8.478524,69.0
arezzo,0.51338315,7.0
bolzano_bozen,4.8068333,29.0
piacenza,2.3108208,25.0
ancona,3.1552107,16.0
napoli,4.29376,21.0
reggio_calabria,0.0,0.0
novara,17.39501,86.0
pistoia,2.169872,7.0
lodi,4.4703536,36.0
la_spezia,4.710605,16.0
brindisi,1.7515475,19.0
taranto,0.6707398,4.0
potenza,0.21663779,0.0
perugia,0.14866422,5.0
alessandria,0.297207,56.0
enna,6.113469,7.0
imperia,1.3798014,21.0
vercelli,3.9073935,29.0
foggia,2.5769498,15.0
lecce,0.791124,25.0
lecco,7.4148555,42.0
padova,1.204412,14.0
messina,3.0428724,9.0
lucca,2.7305164,7.0
palermo,1.4633065,8.0
livorno,1.0725688,3.0
benevento,1.4126886,5.0
catanzaro,0.3906573,2.0
bari,2.3218193,25.0
caltanissetta,0.22846921,0.0
isernia,0.0,0.0
biella,0.92027473,4.0
verona,13.2426195,75.0
caserta,1.8701925,20.0
chieti,2.936539,13.0
varese,2.4389493,85.0
teramo,7.022834,2.0
macerata,3.120799,11.0
cagliari,0.48482615,1.0
terni,0.33812094,3.0
nuoro,0.0,3.0
trento,1.5351268,3.0
salerno,15.859939,55.0
pesaro_e_urbino,3.8543813,16.0
venezia,11.581486,20.0
siena,0.2678743,7.0
vibo_valentia,0.0,0.0
matera,0.0031446628,2.0
forli_cesena,3.524331,16.0
parma,3.2622664,43.0
trieste,3.3478708,35.0
roma,11.139493,130.0
ferrara,1.8136661,15.0
belluno,1.3814709,28.0
sassari,2.882264,15.0
avellino,0.0,2.0
agrigento,0.08663149,0.0
como,9.9284115,154.0
cremona,8.382698,94.0
catania,1.1013547,13.0
bologna,11.20081,60.0
pisa,1.8310124,8.0
viterbo,0.9226339,3.0
pescara,3.1315513,29.0
rimini,1.6228138,14.0
mantova,7.028428,115.0
vicenza,7.0715194,96.0
verbano_cusio_ossola,7.395799,4.0
modena,7.205163,39.0
crotone,0.0,0.0
bergamo,9.638317,39.0
