n,o,l
charente_maritime,1.0805591,5.0
vienne,0.0,1.0
aude,3.8917985,1.0
haute_loire,0.0,1.0
haute_savoie,11.445283,4.0
dordogne,0.0,0.0
correze,0.0,0.0
indre_et_loire,0.9651094,1.0
saone_et_loire,4.1249857,7.0
loire_atlantique,0.09377213,0.0
haute_vienne,0.0,2.0
drome,0.6270628,3.0
cote_d'or,1.7651074,1.0
landes,108.776695,79.0
paris,0.0,0.0
charente,0.0,0.0
meurthe_et_moselle,3.28817,11.0
essonne,43.17966,58.0
marne,10.475665,8.0
seine_saint_denis,75.110435,82.0
moselle,20.379705,25.0
bas_rhin,13.399328,27.0
pas_de_calais,8.049008,16.0
nord,7.75495,13.0
loiret,12.281739,3.0
nievre,1.4453423,4.0
alpes_maritimes,6.733894,5.0
pyrenees_atlantiques,2.098272,5.0
val_d'oise,42.482136,30.0
meuse,0.19825447,1.0
mayenne,0.0,1.0
val_de_marne,56.08436,58.0
hautes_pyrenees,2.1827831,9.0
lot,0.0,0.0
isere,0.021368619,2.0
gironde,12.353767,2.0
yvelines,28.314777,49.0
yonne,0.0,4.0
haute_saone,1.8418404,10.0
somme,10.335093,9.0
eure_et_loir,14.492583,9.0
manche,6.9317956,18.0
indre,0.8557658,3.0
haute_marne,0.0,0.0
haut_rhin,38.09649,16.0
maine_et_loire,0.0,0.0
jura,0.17232701,4.0
savoie,0.0,0.0
ardennes,0.20722926,2.0
haute_garonne,4.639594,4.0
rhone,4.528666,5.0
ardeche,0.0,10.0
aisne,14.15868,8.0
vosges,14.932581,3.0
gers,0.8792431,3.0
oise,43.65338,11.0
hauts_de_seine,89.277664,43.0
territoire_de_belfort,1.3272474,1.0
lot_et_garonne,0.0,0.0
eure,7.989592,28.0
tarn,0.0,0.0
cher,4.8376784,4.0
aube,8.100959,8.0
vaucluse,3.2194023,4.0
pyrenees_orientales,0.0,2.0
var,11.096652,12.0
cantal,0.0,3.0
doubs,2.3766809,13.0
seine_et_marne,42.63069,95.0
ain,2.0294058,7.0
calvados,2.5967054,0.0
herault,32.90672,33.0
bouches_du_rhone,85.59967,56.0
puy_de_dome,5.0326767,0.0
tarn_et_garonne,0.0,0.0
loire,0.0,0.0
gard,7.609516,5.0
loir_et_cher,0.0,0.0
alpes_de_haute_provence,0.0,3.0
orne,0.0,2.0
seine_maritime,10.165181,3.0
