n,o,l
charente_maritime,3.057949,42.0
vienne,0.0,1.0
aude,7.0360746,4.0
haute_loire,0.06270051,1.0
haute_savoie,24.972563,30.0
dordogne,0.0,0.0
correze,0.0,0.0
indre_et_loire,3.737821,1.0
saone_et_loire,6.7819185,13.0
loire_atlantique,0.5521831,0.0
haute_vienne,0.41603523,2.0
drome,1.5406297,7.0
cote_d'or,2.1960056,5.0
landes,159.6567,79.0
paris,0.09345773,0.0
charente,0.0,0.0
meurthe_et_moselle,8.389474,7.0
essonne,64.96263,61.0
marne,15.736977,8.0
seine_saint_denis,107.469536,79.0
moselle,34.021217,52.0
bas_rhin,26.76588,37.0
pas_de_calais,11.23828,28.0
nord,7.4151397,20.0
loiret,19.048294,0.0
nievre,3.1698124,12.0
alpes_maritimes,16.432276,1.0
pyrenees_atlantiques,4.719426,0.0
val_d'oise,70.224976,41.0
meuse,0.80075526,3.0
mayenne,0.0,0.0
val_de_marne,78.09256,56.0
hautes_pyrenees,3.3228679,40.0
lot,0.0,0.0
isere,1.0456226,3.0
gironde,21.053167,14.0
yvelines,48.117386,41.0
yonne,0.0,3.0
haute_saone,4.2148805,23.0
somme,13.394038,18.0
eure_et_loir,23.242615,9.0
manche,11.993817,15.0
indre,2.6382802,16.0
haute_marne,0.33052933,3.0
haut_rhin,65.51848,67.0
maine_et_loire,0.0,0.0
jura,1.1053032,1.0
savoie,0.0,0.0
ardennes,0.7695555,5.0
haute_garonne,11.1549835,2.0
rhone,7.829579,11.0
ardeche,0.5934294,7.0
aisne,22.168135,14.0
vosges,23.174425,12.0
gers,1.8847696,6.0
oise,60.013252,32.0
hauts_de_seine,131.20798,93.0
territoire_de_belfort,2.6176014,2.0
lot_et_garonne,0.0,2.0
eure,10.262333,36.0
tarn,0.0,4.0
cher,10.309052,17.0
aube,13.39609,20.0
vaucluse,9.446089,5.0
pyrenees_orientales,0.0,0.0
var,17.487896,17.0
cantal,0.0,0.0
doubs,5.741024,12.0
seine_et_marne,59.76963,72.0
ain,3.774219,19.0
calvados,4.197974,4.0
herault,49.814083,16.0
bouches_du_rhone,164.10213,127.0
puy_de_dome,6.0980916,10.0
tarn_et_garonne,0.08139251,3.0
loire,0.0,1.0
gard,10.675011,10.0
loir_et_cher,0.0,0.0
alpes_de_haute_provence,0.7719986,4.0
orne,0.0,5.0
seine_maritime,13.90794,9.0
