n,o,l
E10000013,40.268314,26.0
E08000001,27.549414,26.0
E06000032,23.553936,24.0
E08000034,24.61235,11.0
E06000022,5.4316077,6.0
E10000006,57.639614,31.0
E10000025,61.927788,47.0
E08000009,26.883045,11.0
E06000049,24.203808,31.0
E10000024,41.898323,41.0
E09000017,29.881998,19.0
E08000027,30.04542,20.0
E06000021,7.595747,16.0
E10000019,30.41409,22.0
E08000008,20.040731,11.0
E09000026,29.860954,9.0
E06000001,6.793121,0.0
E06000050,33.214733,31.0
E08000017,17.618773,19.0
E06000055,15.2041025,16.0
E06000040,9.213022,7.0
E06000002,24.722296,17.0
E06000004,17.561007,2.0
E08000030,37.29202,34.0
E08000032,26.999922,32.0
E10000017,103.478424,82.0
E08000004,23.270247,20.0
E08000035,32.848904,50.0
E06000011,16.056269,13.0
E10000032,38.782112,41.0
E06000038,14.829005,19.0
E06000041,3.2704883,27.0
E09000015,31.857231,18.0
E09000006,43.001965,22.0
E08000011,24.580725,26.0
E06000008,13.751027,5.0
E06000026,14.562993,7.0
E06000059,14.526019,9.0
E06000034,11.539703,4.0
E10000014,89.5769,86.0
E06000016,24.324905,11.0
E06000035,25.390625,25.0
E08000014,37.414505,25.0
E06000056,19.745611,22.0
E10000003,24.639341,26.0
E09000004,26.518211,10.0
E10000018,30.212622,34.0
E08000012,56.974094,34.0
E06000012,5.8659506,9.0
E10000027,15.228528,34.0
E06000014,10.256993,12.0
E08000036,62.480732,12.0
E09000008,21.557037,19.0
E06000046,5.3911057,1.0
E06000030,12.679147,11.0
E06000054,15.150256,9.0
E08000005,19.365215,16.0
E06000027,2.698794,16.0
E10000016,91.500496,182.0
E10000030,83.890656,62.0
E08000013,32.055794,22.0
E06000033,19.96557,1.0
E08000016,21.584867,15.0
E09000016,30.368082,8.0
E06000051,15.363742,21.0
E08000037,31.27765,20.0
E06000052,21.916021,14.0
E09000010,29.206882,30.0
E10000021,56.300755,15.0
E06000039,46.89598,10.0
E08000024,13.339288,38.0
E09000027,16.01343,5.0
E09000009,37.63234,17.0
E10000020,35.406544,55.0
E10000023,32.315296,20.0
E10000029,18.647371,31.0
E06000045,29.577637,20.0
E08000018,24.207026,21.0
E10000034,37.167526,50.0
E06000018,20.63034,21.0
E08000019,68.60121,38.0
E06000017,1.5184058,0.0
E08000010,24.696953,38.0
E09000003,50.42354,14.0
E10000028,53.76983,47.0
E10000008,26.926622,31.0
E08000025,111.7451,93.0
E10000031,44.20178,26.0
E08000007,32.404385,20.0
E06000013,9.447032,19.0
E06000005,8.4047,7.0
E08000015,43.338596,30.0
E06000042,16.64812,13.0
E06000009,15.708295,20.0
E10000007,43.3538,38.0
E09000001,2.8738968,0.0
E09000022,47.377415,10.0
E06000047,38.56427,39.0
E06000037,13.362083,10.0
E08000026,27.943384,20.0
E09000002,17.993288,9.0
E09000018,29.473475,11.0
E06000043,14.197089,15.0
E06000020,9.466123,10.0
E06000057,26.937689,25.0
E06000006,17.49439,10.0
E08000003,38.52157,15.0
E10000015,86.224594,48.0
E06000024,9.665603,18.0
E08000023,18.02552,24.0
E06000036,9.722529,6.0
E10000011,23.295156,20.0
E06000031,8.5097885,11.0
E08000021,35.06642,17.0
E10000002,30.271355,29.0
E06000044,9.4273815,8.0
E08000031,23.112238,27.0
E09000020,19.398,8.0
E06000003,15.692472,6.0
E08000002,17.279264,31.0
E10000012,99.643845,45.0
E09000005,61.2662,28.0
E06000007,23.534784,13.0
E09000023,13.600121,8.0
E08000033,43.945557,27.0
E09000021,19.858932,9.0
E09000029,23.473564,15.0
E08000022,22.154205,12.0
E06000015,27.358688,11.0
