n,o,l
siracusa,0.78237814,0.0
asti,5.2641425,24.0
oristano,1.4116101,5.0
grosseto,0.0,0.0
sondrio,5.9867544,44.0
ascoli_piceno,0.16236475,1.0
savona,0.8259551,2.0
reggio_emilia,9.075445,45.0
torino,44.46592,217.0
rovigo,0.46841586,3.0
frosinone,0.6175882,2.0
campobasso,0.0,0.0
cosenza,2.525172,4.0
trapani,0.09659594,0.0
pavia,9.21339,76.0
cuneo,13.997958,27.0
genova,17.62948,94.0
treviso,6.5756807,9.0
barletta_andria_trani,1.5401669,2.0
udine,0.70891184,2.0
brescia,3.4996798,130.0
ravenna,19.656479,15.0
latina,0.52173245,3.0
gorizia,0.16826618,15.0
pordenone,1.1211275,8.0
massa_carrara,1.8582981,2.0
la_aquila,0.28619885,3.0
prato,2.0013611,7.0
rieti,0.0,9.0
aosta,1.7896527,1.0
ragusa,0.0,2.0
fermo,0.39807415,3.0
milano,46.081573,277.0
firenze,7.583601,35.0
arezzo,2.7733145,10.0
bolzano_bozen,7.2465777,19.0
piacenza,4.428179,53.0
ancona,3.1353004,4.0
napoli,8.187894,53.0
reggio_calabria,0.14292523,0.0
novara,9.305682,20.0
pistoia,1.3409417,9.0
lodi,4.101177,46.0
la_spezia,1.5112973,10.0
brindisi,2.3168952,15.0
taranto,0.29420513,2.0
potenza,0.0,0.0
perugia,0.10698182,0.0
alessandria,14.184029,26.0
enna,0.2763831,8.0
imperia,3.0979304,13.0
vercelli,4.473907,43.0
foggia,1.1796769,23.0
lecce,3.5292463,23.0
lecco,8.813849,18.0
padova,0.47032285,4.0
messina,0.008025583,5.0
lucca,4.4783792,4.0
palermo,0.8561827,6.0
livorno,0.026560381,1.0
benevento,2.8760867,1.0
catanzaro,0.0,4.0
bari,3.216485,59.0
caltanissetta,0.24249953,4.0
isernia,0.0,0.0
biella,1.4516946,27.0
verona,7.6329517,58.0
caserta,0.46672148,0.0
chieti,2.006188,29.0
varese,9.320545,38.0
teramo,0.41766,0.0
macerata,1.5598869,10.0
cagliari,0.18844923,0.0
terni,0.019885361,3.0
nuoro,0.0,0.0
trento,7.605186,81.0
salerno,1.5695798,0.0
pesaro_e_urbino,2.8049579,8.0
venezia,5.106566,29.0
siena,0.19904545,2.0
vibo_valentia,0.0,0.0
matera,0.3814636,2.0
forli_cesena,5.144209,17.0
parma,5.6836815,26.0
trieste,4.4656105,16.0
roma,15.981885,56.0
ferrara,4.097661,24.0
belluno,2.8273199,8.0
sassari,0.5501947,6.0
avellino,0.27779838,0.0
agrigento,0.07666319,0.0
como,12.396082,101.0
cremona,20.803648,83.0
catania,1.3556399,19.0
bologna,11.717115,54.0
pisa,3.4153342,5.0
viterbo,0.7259334,9.0
pescara,3.8758924,21.0
rimini,2.5857015,37.0
mantova,7.9972653,45.0
vicenza,3.324223,21.0
verbano_cusio_ossola,1.5677261,11.0
modena,7.0373926,18.0
crotone,0.0,0.0
bergamo,6.705929,98.0
