n,o,l
charente_maritime,0.0588132,0.0
vienne,0.0,0.0
aude,0.0068963394,0.0
haute_loire,0.0,0.0
haute_savoie,0.49468374,0.0
dordogne,0.0,0.0
correze,0.0,0.0
indre_et_loire,0.055513635,0.0
saone_et_loire,0.0,0.0
loire_atlantique,0.0,0.0
haute_vienne,0.0,0.0
drome,0.0,0.0
cote_d'or,0.0,0.0
landes,0.0,3.0
paris,4.331149,0.0
charente,0.0,0.0
meurthe_et_moselle,0.0,0.0
essonne,3.2164383,0.0
marne,0.0,0.0
seine_saint_denis,0.9140357,2.0
moselle,0.19344483,0.0
bas_rhin,0.43134552,0.0
pas_de_calais,2.078,0.0
nord,0.7838629,2.0
loiret,0.0,0.0
nievre,0.25567967,0.0
alpes_maritimes,0.0,0.0
pyrenees_atlantiques,0.0,0.0
val_d'oise,0.4474334,2.0
meuse,0.0,0.0
mayenne,0.0,0.0
val_de_marne,1.208152,1.0
hautes_pyrenees,0.09816353,0.0
lot,0.0,0.0
isere,0.0,0.0
gironde,0.0,0.0
yvelines,0.5631664,7.0
yonne,0.0,0.0
haute_saone,0.41571677,0.0
somme,1.2548264,1.0
eure_et_loir,0.34569806,0.0
manche,0.19409873,0.0
indre,0.0,0.0
haute_marne,0.0,0.0
haut_rhin,0.51571083,0.0
maine_et_loire,0.0,0.0
jura,0.0,0.0
savoie,0.0,0.0
ardennes,0.094829485,0.0
haute_garonne,0.37711293,3.0
rhone,0.09807533,0.0
ardeche,0.0044914186,0.0
aisne,0.30859792,0.0
vosges,0.0,0.0
gers,0.37067884,0.0
oise,1.7375133,0.0
hauts_de_seine,0.5964627,1.0
territoire_de_belfort,0.0,0.0
lot_et_garonne,0.0,0.0
eure,0.5750362,2.0
tarn,0.0,0.0
cher,0.24113144,0.0
aube,0.31510228,0.0
vaucluse,0.0,0.0
pyrenees_orientales,0.0,0.0
var,0.085184425,0.0
cantal,0.040693715,0.0
doubs,0.028564826,0.0
seine_et_marne,1.1175051,2.0
ain,0.005095184,0.0
calvados,0.0,0.0
herault,0.92839646,5.0
bouches_du_rhone,2.3329024,1.0
puy_de_dome,0.0,0.0
tarn_et_garonne,0.0,0.0
loire,0.0,1.0
gard,0.45930952,0.0
loir_et_cher,0.0,0.0
alpes_de_haute_provence,0.020791411,0.0
orne,0.16434808,0.0
seine_maritime,0.1290706,0.0
