n,o,l
siracusa,0.029864885,14.0
asti,2.0787172,70.0
oristano,0.1314654,3.0
grosseto,0.40226993,0.0
sondrio,1.576499,6.0
ascoli_piceno,0.0,0.0
savona,5.4989076,23.0
reggio_emilia,12.361263,17.0
torino,25.752731,332.0
rovigo,1.3322176,62.0
frosinone,1.4909513,8.0
campobasso,0.44105098,1.0
cosenza,1.2991649,9.0
trapani,0.25414118,0.0
pavia,6.982428,64.0
cuneo,8.590114,50.0
genova,16.74283,63.0
treviso,2.3235993,26.0
barletta_andria_trani,1.0556097,3.0
udine,1.9933821,6.0
brescia,16.301899,3.0
ravenna,0.97526854,74.0
latina,0.9968892,7.0
gorizia,0.0,5.0
pordenone,0.749723,3.0
massa_carrara,3.0107603,7.0
la_aquila,0.056486797,1.0
prato,0.24919671,1.0
rieti,2.1558824,0.0
aosta,2.4952054,5.0
ragusa,0.138482,1.0
fermo,0.11662734,4.0
milano,38.94321,408.0
firenze,6.313225,51.0
arezzo,0.5635674,13.0
bolzano_bozen,8.377993,16.0
piacenza,3.76062,67.0
ancona,3.6477108,23.0
napoli,4.1103163,46.0
reggio_calabria,0.27575064,0.0
novara,5.7962947,32.0
pistoia,0.6675024,7.0
lodi,3.2643642,11.0
la_spezia,2.630402,11.0
brindisi,0.880442,5.0
taranto,0.21219938,1.0
potenza,0.1573512,5.0
perugia,0.42616934,1.0
alessandria,9.847215,84.0
enna,0.1443169,0.0
imperia,7.6137376,0.0
vercelli,2.218398,5.0
foggia,4.362438,28.0
lecce,4.0112886,13.0
lecco,11.012823,28.0
padova,1.3284892,16.0
messina,0.5970079,0.0
lucca,2.4376798,2.0
palermo,1.1391252,2.0
livorno,0.6211751,0.0
benevento,0.52311295,1.0
catanzaro,0.24242309,0.0
bari,1.7137094,22.0
caltanissetta,0.30799174,0.0
isernia,0.06691025,0.0
biella,1.3179487,21.0
verona,12.455286,72.0
caserta,1.2558374,3.0
chieti,0.80055124,7.0
varese,9.978202,55.0
teramo,2.8214102,0.0
macerata,1.8947222,10.0
cagliari,0.28051782,8.0
terni,0.37505433,3.0
nuoro,0.0,0.0
trento,10.357384,24.0
salerno,0.9065379,11.0
pesaro_e_urbino,5.1659546,14.0
venezia,9.789924,14.0
siena,0.57120895,4.0
vibo_valentia,0.0,0.0
matera,0.23858847,3.0
forli_cesena,2.5999508,11.0
parma,5.0028243,22.0
trieste,4.42069,3.0
roma,8.841637,56.0
ferrara,1.9682337,18.0
belluno,1.8799759,63.0
sassari,1.8205352,0.0
avellino,0.0,1.0
agrigento,0.074535705,0.0
como,7.458316,150.0
cremona,5.8006716,42.0
catania,1.8623075,43.0
bologna,8.412679,43.0
pisa,1.9065113,7.0
viterbo,1.0425377,6.0
pescara,2.6939669,47.0
rimini,1.2997913,6.0
mantova,5.526863,20.0
vicenza,6.281566,11.0
verbano_cusio_ossola,3.876153,8.0
modena,7.0447993,38.0
crotone,0.0,0.0
bergamo,10.46023,50.0
