n,o,l
terni,0.0,0.0
pistoia,4.3180027,3.0
rieti,0.0,0.0
pesaro_e_urbino,18.179813,15.0
caserta,0.19314486,0.0
brescia,137.758,68.0
padova,45.681385,11.0
savona,2.0863595,43.0
cremona,101.70976,31.0
vicenza,34.119873,36.0
udine,1.4906665,2.0
livorno,10.393262,2.0
bergamo,43.437813,47.0
campobasso,0.0,2.0
cosenza,9.446202,3.0
torino,272.15643,213.0
lecce,0.0,2.0
lecco,21.216948,3.0
benevento,0.0,0.0
ferrara,19.917585,5.0
roma,101.14148,51.0
napoli,39.62403,20.0
salerno,5.4966416,1.0
chieti,12.465329,3.0
vercelli,19.348545,10.0
firenze,48.30387,36.0
ascoli_piceno,0.0,0.0
foggia,8.531234,6.0
enna,2.2199807,0.0
reggio_calabria,0.0,0.0
matera,0.0,1.0
cuneo,26.418953,33.0
venezia,80.34821,7.0
grosseto,3.5920067,1.0
massa_carrara,9.479028,11.0
caltanissetta,0.0,0.0
nuoro,0.0,0.0
biella,9.456872,4.0
mantova,55.384773,10.0
la_spezia,10.33386,6.0
palermo,2.3156488,9.0
gorizia,0.0,1.0
latina,2.4442768,3.0
fermo,0.119757995,3.0
piacenza,26.962687,53.0
trento,53.06583,16.0
lucca,16.811975,12.0
sassari,4.539532,13.0
genova,107.13464,70.0
isernia,0.0,0.0
oristano,0.0,1.0
vibo_valentia,0.0,0.0
aosta,58.78991,67.0
pavia,20.787071,5.0
reggio_emilia,56.211063,53.0
rimini,12.430383,4.0
milano,281.56415,364.0
treviso,41.071674,7.0
viterbo,1.1688495,1.0
crotone,0.0,0.0
siracusa,1.3019725,0.0
pescara,21.933073,15.0
teramo,0.0,0.0
sondrio,31.610603,1.0
siena,0.27501538,1.0
ravenna,15.74474,0.0
potenza,0.0,10.0
forli_cesena,27.527655,10.0
cagliari,0.02432207,4.0
trapani,0.0,0.0
imperia,28.416185,14.0
arezzo,14.186348,15.0
varese,16.341503,38.0
ancona,61.08,3.0
parma,29.729477,20.0
messina,3.6482294,10.0
bolzano_bozen,42.95188,10.0
prato,7.825543,7.0
frosinone,1.2510575,1.0
ragusa,0.0,1.0
verona,55.695618,43.0
catania,6.4141297,8.0
pordenone,3.5897481,10.0
alessandria,68.87064,74.0
novara,14.887724,42.0
pisa,49.076008,4.0
catanzaro,0.0,0.0
macerata,9.064062,7.0
bari,17.823332,3.0
verbano_cusio_ossola,4.4758453,17.0
avellino,0.12606883,2.0
rovigo,0.47823635,3.0
asti,38.620758,28.0
brindisi,12.58468,11.0
belluno,19.542364,4.0
trieste,26.326336,4.0
modena,38.573685,21.0
como,26.721823,27.0
lodi,6.0645294,28.0
barletta_andria_trani,77.44647,1.0
agrigento,0.0,0.0
la_aquila,0.0,0.0
perugia,0.0,0.0
taranto,0.0,3.0
bologna,70.773186,42.0
