n,o,l
siracusa,0.025409058,3.0
asti,7.527275,27.0
oristano,0.086237185,1.0
grosseto,0.19216037,0.0
sondrio,3.8415484,2.0
ascoli_piceno,0.0,2.0
savona,6.0386405,2.0
reggio_emilia,9.844238,20.0
torino,43.289116,275.0
rovigo,1.1491302,2.0
frosinone,0.8779417,9.0
campobasso,0.20795614,0.0
cosenza,1.0087255,0.0
trapani,0.0,0.0
pavia,10.023988,52.0
cuneo,7.8760695,42.0
genova,11.169724,78.0
treviso,4.214789,4.0
barletta_andria_trani,0.6943603,0.0
udine,0.5952593,2.0
brescia,16.520176,115.0
ravenna,0.6485157,3.0
latina,0.110480174,4.0
gorizia,0.19013697,1.0
pordenone,0.42503518,3.0
massa_carrara,0.9525424,6.0
la_aquila,0.0,0.0
prato,0.59670764,2.0
rieti,0.0,10.0
aosta,2.4288082,5.0
ragusa,0.0,0.0
fermo,0.3283105,4.0
milano,50.754253,284.0
firenze,7.076406,40.0
arezzo,0.8611816,1.0
bolzano_bozen,2.8252769,9.0
piacenza,7.2245984,75.0
ancona,1.4908625,5.0
napoli,3.687303,11.0
reggio_calabria,0.0,0.0
novara,6.901891,21.0
pistoia,0.7910685,3.0
lodi,3.4608777,12.0
la_spezia,1.4690527,2.0
brindisi,1.8543316,1.0
taranto,0.17839736,0.0
potenza,0.0,0.0
perugia,0.15250209,2.0
alessandria,7.6978745,28.0
enna,0.45023426,6.0
imperia,3.6551309,34.0
vercelli,2.0649314,4.0
foggia,3.4870672,28.0
lecce,2.7834861,17.0
lecco,3.9640794,0.0
padova,0.72772044,0.0
messina,0.6336722,4.0
lucca,1.4503963,4.0
palermo,0.401483,10.0
livorno,0.0,5.0
benevento,0.19461393,2.0
catanzaro,0.0,1.0
bari,3.9050622,16.0
caltanissetta,0.0,1.0
isernia,0.0,0.0
biella,2.6895194,2.0
verona,10.106682,71.0
caserta,0.081680566,3.0
chieti,3.4121597,6.0
varese,7.0736766,51.0
teramo,0.41610005,2.0
macerata,1.1567627,4.0
cagliari,0.035129413,2.0
terni,0.0,8.0
nuoro,0.031415902,0.0
trento,7.96018,44.0
salerno,0.832664,3.0
pesaro_e_urbino,2.365862,17.0
venezia,6.6257377,7.0
siena,0.18021967,0.0
vibo_valentia,0.0,2.0
matera,0.051789146,0.0
forli_cesena,1.8506726,7.0
parma,7.92848,22.0
trieste,2.221802,8.0
roma,10.090426,52.0
ferrara,2.2162545,9.0
belluno,3.5601015,23.0
sassari,0.70235515,3.0
avellino,0.0829065,3.0
agrigento,0.0,0.0
como,8.517701,53.0
cremona,10.979904,30.0
catania,3.734659,0.0
bologna,9.055592,89.0
pisa,1.4258264,2.0
viterbo,0.0,2.0
pescara,4.1951485,11.0
rimini,2.5188882,17.0
mantova,5.901449,25.0
vicenza,6.68737,20.0
verbano_cusio_ossola,0.5789351,6.0
modena,4.0774555,21.0
crotone,0.0,1.0
bergamo,7.4804497,95.0
