n,o,l
charente_maritime,0.0,5.0
vienne,0.0,0.0
aude,0.0,1.0
haute_loire,0.0,0.0
haute_savoie,2.4192472,3.0
dordogne,0.0,0.0
correze,0.0,1.0
indre_et_loire,0.0,2.0
saone_et_loire,0.15008125,0.0
loire_atlantique,0.0,0.0
haute_vienne,0.0,0.0
drome,0.0,1.0
cote_d'or,0.0,0.0
landes,12.823704,16.0
paris,0.0,1.0
charente,0.0,0.0
meurthe_et_moselle,0.0,1.0
essonne,18.716522,37.0
marne,0.0,0.0
seine_saint_denis,14.667934,8.0
moselle,3.640884,8.0
bas_rhin,0.50837183,2.0
pas_de_calais,2.6412396,39.0
nord,3.7158222,15.0
loiret,0.0,0.0
nievre,0.0,2.0
alpes_maritimes,0.0,1.0
pyrenees_atlantiques,2.2149806,3.0
val_d'oise,4.8199544,4.0
meuse,0.0,0.0
mayenne,0.0,0.0
val_de_marne,9.458853,11.0
hautes_pyrenees,0.0,1.0
lot,0.0,0.0
isere,0.0,0.0
gironde,0.29822686,1.0
yvelines,8.827847,7.0
yonne,0.0,0.0
haute_saone,0.0,15.0
somme,1.6277376,3.0
eure_et_loir,0.2377072,4.0
manche,3.8472762,2.0
indre,0.0,0.0
haute_marne,0.0,1.0
haut_rhin,0.9546907,16.0
maine_et_loire,0.0,0.0
jura,0.0,1.0
savoie,0.0,0.0
ardennes,0.0,0.0
haute_garonne,0.0,1.0
rhone,1.4831151,4.0
ardeche,0.0,1.0
aisne,1.6451626,7.0
vosges,0.0,0.0
gers,0.0,8.0
oise,5.0850763,16.0
hauts_de_seine,5.758481,9.0
territoire_de_belfort,0.0,0.0
lot_et_garonne,0.0,0.0
eure,1.8810852,10.0
tarn,0.0,1.0
cher,0.4011944,6.0
aube,0.8259925,4.0
vaucluse,0.0,2.0
pyrenees_orientales,0.0,2.0
var,0.017758273,5.0
cantal,0.0,0.0
doubs,0.32205155,0.0
seine_et_marne,10.164585,6.0
ain,1.0651687,2.0
calvados,0.0,0.0
herault,4.6572194,15.0
bouches_du_rhone,11.195329,26.0
puy_de_dome,0.0,0.0
tarn_et_garonne,0.0,0.0
loire,0.037619695,1.0
gard,1.0569321,15.0
loir_et_cher,0.0,1.0
alpes_de_haute_provence,0.0,1.0
orne,0.24749348,1.0
seine_maritime,0.36165196,5.0
