n,o,l
granada,29.074047,15.0
palencia,13.339947,3.0
segovia,53.23174,109.0
valencia,89.85861,97.0
tarragona,4.1732802,0.0
cadiz,11.925842,3.0
huelva,49.58262,28.0
caceres,56.0491,90.0
alicante,49.46694,55.0
cordoba,2.4689012,36.0
gipuzkoa,11.975046,39.0
cuenca,35.794262,69.0
sevilla,4.851827,64.0
guadalajara,44.569576,31.0
salamanca,8.126266,22.0
toledo,28.44905,95.0
ciudad_real,22.790396,154.0
badajoz,467.93848,29.0
barcelona,16.157742,1041.0
avila,24.53701,21.0
lleida,18.6294,62.0
araba/alava,3.359852,43.0
albacete,10.311019,32.0
almeria,7.996799,12.0
zamora,0.61327225,23.0
girona,105.79622,0.0
bizkaia,24.326416,203.0
soria,23.486305,42.0
burgos,25.090666,63.0
jaen,21.937872,164.0
valladolid,108.22869,12.0
malaga,20.559793,42.0
leon,2.247061,70.0
castellon,30.902843,59.0
