n,o,l
siracusa,0.4097195,5.0
asti,1.459721,27.0
oristano,0.04426158,6.0
grosseto,0.7979215,5.0
sondrio,1.2055132,14.0
ascoli_piceno,0.4739468,2.0
savona,0.9440965,2.0
reggio_emilia,12.403524,246.0
torino,23.729145,256.0
rovigo,1.0357815,4.0
frosinone,0.28933147,8.0
campobasso,0.20875463,15.0
cosenza,0.5727717,2.0
trapani,0.34843138,2.0
pavia,5.217033,47.0
cuneo,2.6140707,47.0
genova,6.310674,13.0
treviso,6.2880716,32.0
barletta_andria_trani,0.45913064,5.0
udine,2.8845973,40.0
brescia,17.967207,231.0
ravenna,1.2974951,25.0
latina,0.70647454,15.0
gorizia,0.0,8.0
pordenone,1.419348,14.0
massa_carrara,1.7957897,50.0
la_aquila,0.31274804,5.0
prato,1.1775278,32.0
rieti,0.0,61.0
aosta,2.779059,3.0
ragusa,0.05103339,1.0
fermo,1.7693876,4.0
milano,25.678957,611.0
firenze,4.2206655,71.0
arezzo,1.1168156,11.0
bolzano_bozen,4.9435377,47.0
piacenza,6.3505044,81.0
ancona,5.068132,58.0
napoli,3.2729185,108.0
reggio_calabria,0.30677524,6.0
novara,4.3299365,57.0
pistoia,2.168884,1.0
lodi,4.054791,41.0
la_spezia,0.34877262,0.0
brindisi,0.50166756,27.0
taranto,0.3923486,22.0
potenza,0.52783465,1.0
perugia,3.396349,9.0
alessandria,7.1479993,61.0
enna,0.4045751,21.0
imperia,1.482471,0.0
vercelli,2.2667968,15.0
foggia,1.5751394,33.0
lecce,4.58234,46.0
lecco,5.666151,104.0
padova,1.1866087,8.0
messina,0.5999209,18.0
lucca,1.2303843,42.0
palermo,0.9592392,14.0
livorno,0.07841432,5.0
benevento,0.6385521,15.0
catanzaro,0.44815326,1.0
bari,1.8288542,39.0
caltanissetta,0.23989674,6.0
isernia,0.07931611,0.0
biella,0.26109704,13.0
verona,4.9528456,175.0
caserta,2.8238065,17.0
chieti,0.8711146,12.0
varese,1.9194684,44.0
teramo,0.69840556,9.0
macerata,2.8474047,13.0
cagliari,0.3568932,5.0
terni,0.8129824,6.0
nuoro,0.04441504,2.0
trento,8.8961935,124.0
salerno,1.7498724,19.0
pesaro_e_urbino,5.4844637,58.0
venezia,4.726762,61.0
siena,0.8531403,11.0
vibo_valentia,0.0093305595,0.0
matera,0.20627499,10.0
forli_cesena,3.0070372,26.0
parma,7.567716,72.0
trieste,0.45551404,30.0
roma,7.0185165,74.0
ferrara,1.3314587,6.0
belluno,1.7127544,30.0
sassari,3.004145,11.0
avellino,0.4171002,32.0
agrigento,0.24604595,2.0
como,2.6727297,56.0
cremona,2.3902404,72.0
catania,1.7426758,12.0
bologna,4.373958,144.0
pisa,1.5900363,20.0
viterbo,0.6365001,12.0
pescara,2.24301,9.0
rimini,6.500439,38.0
mantova,4.1119523,48.0
vicenza,4.268966,85.0
verbano_cusio_ossola,1.3207653,17.0
modena,6.7482896,75.0
crotone,0.6758675,1.0
bergamo,19.241077,236.0
