n,o,l
E10000013,20.763693,44.0
E08000001,9.506146,22.0
E06000032,14.779992,14.0
E08000034,12.74638,14.0
E06000022,6.8965635,1.0
E10000006,28.145784,38.0
E10000025,52.247925,52.0
E08000009,15.2049885,16.0
E06000049,14.712449,19.0
E10000024,29.950462,27.0
E09000017,22.564505,27.0
E08000027,25.021477,17.0
E06000021,7.1681914,6.0
E10000019,20.368736,19.0
E08000008,9.6186905,15.0
E09000026,22.74297,24.0
E06000001,4.350581,6.0
E06000050,23.014668,31.0
E08000017,12.679014,7.0
E06000055,15.865719,6.0
E06000040,11.616875,9.0
E06000002,9.672345,21.0
E06000004,10.347637,11.0
E08000030,23.577152,26.0
E08000032,16.857283,21.0
E10000017,52.902687,90.0
E08000004,16.117514,13.0
E08000035,22.864899,17.0
E06000011,7.504791,14.0
E10000032,24.273249,33.0
E06000038,8.651218,14.0
E06000041,17.986494,9.0
E09000015,35.933506,24.0
E09000006,37.137157,33.0
E08000011,9.311219,16.0
E06000008,5.5142083,10.0
E06000026,4.0484457,10.0
E06000059,10.708391,7.0
E06000034,13.370495,8.0
E10000014,60.19836,74.0
E06000016,9.300283,15.0
E06000035,14.363483,24.0
E08000014,18.586641,33.0
E06000056,13.482867,11.0
E10000003,19.677624,19.0
E09000004,22.926416,22.0
E10000018,22.914005,20.0
E08000012,32.3668,47.0
E06000012,5.205898,3.0
E10000027,9.3422,6.0
E06000014,5.2804646,4.0
E08000036,48.414433,11.0
E09000008,13.629378,45.0
E06000046,0.8144082,3.0
E06000030,6.789651,12.0
E06000054,15.461813,9.0
E08000005,14.791392,17.0
E06000027,7.633593,4.0
E10000016,62.322124,67.0
E10000030,62.516438,69.0
E08000013,14.816694,28.0
E06000033,10.008975,14.0
E08000016,19.868992,12.0
E09000016,17.517036,21.0
E06000051,14.196301,8.0
E08000037,3.8280156,31.0
E06000052,14.728836,15.0
E09000010,25.53752,19.0
E10000021,28.57415,42.0
E06000039,14.040153,46.0
E08000024,14.394648,14.0
E09000027,21.73591,8.0
E09000009,39.59446,26.0
E10000020,23.097584,29.0
E10000023,17.201876,27.0
E10000029,19.409212,19.0
E06000045,14.626682,11.0
E08000018,16.139769,11.0
E10000034,25.35669,16.0
E06000018,15.037929,15.0
E08000019,54.553753,42.0
E06000017,3.0283372,0.0
E08000010,14.85382,14.0
E09000003,55.241882,38.0
E10000028,39.572407,42.0
E10000008,16.154743,33.0
E08000025,80.15052,82.0
E10000031,26.268644,35.0
E08000007,14.548082,26.0
E06000013,4.413004,4.0
E06000005,4.4754934,10.0
E08000015,14.621135,42.0
E06000042,12.676052,10.0
E06000009,4.09751,14.0
E10000007,31.848375,33.0
E09000001,3.033028,0.0
E09000022,44.80185,31.0
E06000047,17.06806,31.0
E06000037,7.3396635,13.0
E08000026,20.079828,18.0
E09000002,15.218463,6.0
E09000018,23.285698,16.0
E06000043,12.304024,13.0
E06000020,8.724469,7.0
E06000057,12.898574,25.0
E06000006,8.793099,12.0
E08000003,20.066477,40.0
E10000015,59.7734,54.0
E06000024,6.9083853,6.0
E08000023,6.217228,13.0
E06000036,3.7878094,7.0
E10000011,15.181057,20.0
E06000031,6.6134653,4.0
E08000021,23.514368,23.0
E10000002,20.647808,21.0
E06000044,12.49795,6.0
E08000031,20.921762,20.0
E09000020,21.090725,7.0
E06000003,14.662057,13.0
E08000002,14.400888,11.0
E10000012,72.59129,84.0
E09000005,53.99377,49.0
E06000007,11.807826,16.0
E09000023,7.3693824,8.0
E08000033,36.48539,28.0
E09000021,16.71226,11.0
E09000029,22.550217,7.0
E08000022,13.727126,24.0
E06000015,15.171761,18.0
