n,o,l
E10000013,44.096455,27.0
E08000001,32.40718,31.0
E06000032,22.80081,24.0
E08000034,19.736862,24.0
E06000022,10.271027,9.0
E10000006,50.328457,52.0
E10000025,49.031204,52.0
E08000009,21.223566,24.0
E06000049,30.12848,28.0
E10000024,30.579187,45.0
E09000017,19.171967,17.0
E08000027,22.01918,10.0
E06000021,15.377408,14.0
E10000019,24.059505,31.0
E08000008,8.394934,15.0
E09000026,23.954165,14.0
E06000001,6.3307686,8.0
E06000050,23.68407,22.0
E08000017,0.51940143,4.0
E06000055,15.728953,20.0
E06000040,7.726997,10.0
E06000002,15.853529,20.0
E06000004,13.104462,15.0
E08000030,20.937122,22.0
E08000032,26.211235,17.0
E10000017,90.100494,90.0
E08000004,36.241962,18.0
E08000035,42.824154,36.0
E06000011,15.241695,26.0
E10000032,36.022835,34.0
E06000038,11.858622,36.0
E06000041,8.096046,15.0
E09000015,23.68515,15.0
E09000006,30.404877,20.0
E08000011,19.116503,8.0
E06000008,12.917352,16.0
E06000026,1.2475008,16.0
E06000059,9.60496,8.0
E06000034,9.634156,4.0
E10000014,74.0918,64.0
E06000016,21.518114,13.0
E06000035,23.443216,13.0
E08000014,29.858816,30.0
E06000056,16.857042,16.0
E10000003,22.120699,20.0
E09000004,20.043901,23.0
E10000018,23.902117,22.0
E08000012,51.217525,31.0
E06000012,3.74732,6.0
E10000027,16.502052,17.0
E06000014,7.4776535,7.0
E08000036,15.052394,48.0
E09000008,35.249386,15.0
E06000046,2.426093,0.0
E06000030,16.694347,17.0
E06000054,12.32818,5.0
E08000005,22.852486,25.0
E06000027,0.14607766,3.0
E10000016,91.49906,67.0
E10000030,75.05788,86.0
E08000013,18.245657,9.0
E06000033,9.260914,7.0
E08000016,22.599073,27.0
E09000016,24.81237,14.0
E06000051,11.044325,15.0
E08000037,34.47981,25.0
E06000052,15.3042965,10.0
E09000010,26.684982,35.0
E10000021,31.81937,33.0
E06000039,46.029858,17.0
E08000024,13.194759,30.0
E09000027,8.934259,8.0
E09000009,33.165226,26.0
E10000020,49.310474,56.0
E10000023,26.491926,15.0
E10000029,11.992775,21.0
E06000045,29.180946,17.0
E08000018,17.241756,20.0
E10000034,36.896664,48.0
E06000018,16.153498,11.0
E08000019,48.738354,48.0
E06000017,0.0,0.0
E08000010,32.56801,30.0
E09000003,30.674925,20.0
E10000028,46.958546,51.0
E10000008,19.047216,25.0
E08000025,56.31362,82.0
E10000031,33.59836,20.0
E08000007,29.555569,20.0
E06000013,9.847964,16.0
E06000005,9.308212,7.0
E08000015,38.86794,46.0
E06000042,14.881258,16.0
E06000009,14.436687,8.0
E10000007,30.842468,31.0
E09000001,0.8547071,0.0
E09000022,37.420673,11.0
E06000047,55.517586,39.0
E06000037,8.371258,12.0
E08000026,17.924267,13.0
E09000002,10.95167,13.0
E09000018,17.522202,21.0
E06000043,11.579858,13.0
E06000020,0.0,5.0
E06000057,32.81306,31.0
E06000006,13.997373,10.0
E08000003,49.406822,49.0
E10000015,67.2733,61.0
E06000024,5.581533,5.0
E08000023,16.827932,27.0
E06000036,8.488411,10.0
E10000011,19.56983,13.0
E06000031,3.297918,4.0
E08000021,29.905903,31.0
E10000002,26.142904,21.0
E06000044,19.572605,11.0
E08000031,11.173677,17.0
E09000020,12.872331,6.0
E06000003,10.9502,5.0
E08000002,24.585304,10.0
E10000012,71.494026,50.0
E09000005,30.036983,34.0
E06000007,26.103413,29.0
E09000023,6.867569,8.0
E08000033,22.566166,15.0
E09000021,13.045564,17.0
E09000029,23.514545,25.0
E08000022,19.547604,11.0
E06000015,13.253334,5.0
