n,o,l
siracusa,0.27656737,10.0
asti,3.868304,28.0
oristano,1.7397019,2.0
grosseto,0.05931327,0.0
sondrio,5.0436964,0.0
ascoli_piceno,0.42530945,0.0
savona,1.3069159,6.0
reggio_emilia,8.369571,8.0
torino,41.752357,125.0
rovigo,0.17019734,5.0
frosinone,0.32812825,1.0
campobasso,0.09975321,0.0
cosenza,0.08699804,2.0
trapani,0.14374608,1.0
pavia,10.0848255,85.0
cuneo,12.494157,16.0
genova,6.008952,145.0
treviso,1.0428497,23.0
barletta_andria_trani,1.9699796,2.0
udine,1.0535218,6.0
brescia,25.06703,1.0
ravenna,2.0009155,35.0
latina,0.7478698,8.0
gorizia,0.08876873,4.0
pordenone,0.7510067,4.0
massa_carrara,2.2533948,4.0
la_aquila,0.041351717,1.0
prato,1.1711748,0.0
rieti,0.049565356,1.0
aosta,1.5813564,5.0
ragusa,0.035206344,0.0
fermo,0.4687202,0.0
milano,58.231094,188.0
firenze,7.8095064,8.0
arezzo,3.2346642,2.0
bolzano_bozen,8.246473,15.0
piacenza,5.5284123,75.0
ancona,3.5556061,3.0
napoli,5.842951,14.0
reggio_calabria,0.22098327,0.0
novara,11.294726,9.0
pistoia,0.9785328,3.0
lodi,4.569776,10.0
la_spezia,2.2931752,8.0
brindisi,2.4047124,2.0
taranto,0.37929603,0.0
potenza,0.0,0.0
perugia,0.0,2.0
alessandria,7.5828133,83.0
enna,0.30555165,5.0
imperia,2.5999715,1.0
vercelli,3.505081,3.0
foggia,0.435897,3.0
lecce,2.650227,53.0
lecco,6.2880435,9.0
padova,0.802196,0.0
messina,0.5938019,1.0
lucca,2.511594,9.0
palermo,0.7717224,5.0
livorno,0.0,0.0
benevento,1.319079,0.0
catanzaro,0.18006837,3.0
bari,3.3759813,3.0
caltanissetta,0.25379214,0.0
isernia,0.10597315,0.0
biella,2.014351,7.0
verona,12.558554,34.0
caserta,0.5456494,1.0
chieti,2.1885805,0.0
varese,6.620585,29.0
teramo,0.5494795,0.0
macerata,2.156324,1.0
cagliari,0.6337739,1.0
terni,0.18023099,0.0
nuoro,0.0,0.0
trento,12.708643,101.0
salerno,0.93735653,1.0
pesaro_e_urbino,4.30886,11.0
venezia,5.080456,19.0
siena,0.09497689,0.0
vibo_valentia,0.0,1.0
matera,0.09031844,0.0
forli_cesena,5.533378,18.0
parma,4.7226005,39.0
trieste,2.1482613,46.0
roma,15.065504,68.0
ferrara,2.0370502,4.0
belluno,2.121435,10.0
sassari,1.2980311,1.0
avellino,0.19454992,0.0
agrigento,0.08309253,1.0
como,11.998591,51.0
cremona,14.882736,5.0
catania,1.2359055,8.0
bologna,12.623502,35.0
pisa,2.747119,4.0
viterbo,0.4240883,5.0
pescara,3.8346503,14.0
rimini,2.4308515,16.0
mantova,7.677015,18.0
vicenza,5.1496944,17.0
verbano_cusio_ossola,2.542477,4.0
modena,7.3367586,16.0
crotone,0.038954288,0.0
bergamo,9.92319,37.0
