n,o,l
siracusa,0.56772614,2.0
asti,1.228636,36.0
oristano,0.69965166,34.0
grosseto,2.381321,1.0
sondrio,0.0,4.0
ascoli_piceno,0.0,4.0
savona,0.0,26.0
reggio_emilia,11.189022,84.0
torino,23.685331,334.0
rovigo,1.8842757,6.0
frosinone,2.287137,4.0
campobasso,0.06690827,4.0
cosenza,1.1774718,0.0
trapani,0.2508759,4.0
pavia,7.2737,84.0
cuneo,3.8906903,112.0
genova,26.222755,154.0
treviso,5.430926,10.0
barletta_andria_trani,3.1357017,36.0
udine,0.29343876,12.0
brescia,24.833807,269.0
ravenna,1.3944734,8.0
latina,0.6550008,11.0
gorizia,0.04169428,2.0
pordenone,0.755911,10.0
massa_carrara,2.7493134,41.0
la_aquila,0.7572072,2.0
prato,0.0,23.0
rieti,1.1684589,3.0
aosta,1.5055231,19.0
ragusa,0.111200556,2.0
fermo,0.7468032,7.0
milano,25.54832,412.0
firenze,7.2924223,105.0
arezzo,0.27593374,12.0
bolzano_bozen,5.8899,141.0
piacenza,2.7716532,37.0
ancona,2.8088164,43.0
napoli,5.8592405,62.0
reggio_calabria,0.39518556,3.0
novara,5.9771934,65.0
pistoia,1.7912537,16.0
lodi,3.979714,71.0
la_spezia,4.1471825,41.0
brindisi,1.4639468,24.0
taranto,0.37820858,3.0
potenza,0.20567712,1.0
perugia,0.33495682,4.0
alessandria,7.4206305,4.0
enna,0.610126,57.0
imperia,8.322012,0.0
vercelli,1.9256067,28.0
foggia,2.5147214,15.0
lecce,2.5319448,0.0
lecco,9.323937,60.0
padova,0.6941705,7.0
messina,0.5701375,21.0
lucca,2.3806643,14.0
palermo,0.8909127,13.0
livorno,0.6329678,4.0
benevento,0.7810487,19.0
catanzaro,0.2541719,1.0
bari,2.1130452,8.0
caltanissetta,0.02830179,6.0
isernia,0.0,6.0
biella,1.2935416,7.0
verona,13.730738,93.0
caserta,0.5862527,9.0
chieti,1.7694892,11.0
varese,5.8989244,7.0
teramo,1.5228856,30.0
macerata,4.182842,17.0
cagliari,0.5909384,6.0
terni,0.6443824,6.0
nuoro,0.0,0.0
trento,1.5825709,3.0
salerno,12.411479,83.0
pesaro_e_urbino,5.087185,19.0
venezia,6.015618,74.0
siena,0.3858388,2.0
vibo_valentia,0.012343142,0.0
matera,0.15033802,2.0
forli_cesena,2.1878638,48.0
parma,3.440096,19.0
trieste,3.5262384,18.0
roma,7.302588,96.0
ferrara,0.16727492,36.0
belluno,2.5221548,11.0
sassari,1.8050956,13.0
avellino,0.8649678,1.0
agrigento,0.09300291,3.0
como,7.726494,63.0
cremona,5.9388986,99.0
catania,1.3178082,11.0
bologna,9.269605,122.0
pisa,1.0783268,41.0
viterbo,1.2633076,3.0
pescara,1.9749408,20.0
rimini,2.1715317,29.0
mantova,6.8085165,75.0
vicenza,5.159867,46.0
verbano_cusio_ossola,4.567931,6.0
modena,6.7429,76.0
crotone,0.0,4.0
bergamo,6.879412,51.0
