n,o,l
terni,10.087052,5.0
pistoia,13.015209,11.0
rieti,0.7881906,14.0
pesaro_e_urbino,106.34094,70.0
caserta,1.3002309,11.0
brescia,464.5162,335.0
padova,87.61472,115.0
savona,11.691737,16.0
cremona,256.8814,157.0
vicenza,41.36096,68.0
udine,27.610378,6.0
livorno,6.601222,16.0
bergamo,520.57935,178.0
campobasso,0.7631587,11.0
cosenza,1.0990114,17.0
torino,73.10776,275.0
lecce,5.1279755,0.0
lecco,61.58019,65.0
benevento,0.5785984,0.0
ferrara,3.4740534,19.0
roma,62.264168,106.0
napoli,32.439285,71.0
salerno,7.118832,16.0
chieti,3.1349986,37.0
vercelli,21.510227,29.0
firenze,25.775494,102.0
ascoli_piceno,1.1841711,16.0
foggia,9.216344,22.0
enna,0.6461383,24.0
reggio_calabria,1.8167369,34.0
matera,0.6685278,8.0
cuneo,10.398207,48.0
venezia,41.64754,33.0
grosseto,5.343313,11.0
massa_carrara,17.831276,23.0
caltanissetta,0.65470695,11.0
nuoro,2.2931683,1.0
biella,8.25305,40.0
mantova,63.20388,66.0
la_spezia,8.991866,0.0
palermo,2.9456782,4.0
gorizia,3.5997105,6.0
latina,0.910623,24.0
fermo,5.4584923,5.0
piacenza,111.797966,85.0
trento,88.67412,89.0
lucca,10.492481,54.0
sassari,22.6349,8.0
genova,56.591316,147.0
isernia,0.53906167,0.0
oristano,0.78540844,0.0
vibo_valentia,2.1038663,0.0
aosta,9.435242,73.0
pavia,107.54453,97.0
reggio_emilia,26.46857,150.0
rimini,63.747566,34.0
milano,296.1896,546.0
treviso,62.029995,43.0
viterbo,1.0308937,35.0
crotone,2.0992942,3.0
siracusa,1.6590552,3.0
pescara,16.160095,64.0
teramo,0.743226,46.0
sondrio,8.298665,34.0
siena,6.096183,38.0
ravenna,18.076916,32.0
potenza,0.7570846,12.0
forli_cesena,12.050613,30.0
cagliari,0.77645147,5.0
trapani,0.8495713,9.0
imperia,13.709616,0.0
arezzo,5.5774026,12.0
varese,32.30793,75.0
ancona,45.837585,44.0
parma,80.774605,57.0
messina,0.7508838,10.0
bolzano_bozen,39.65123,105.0
prato,7.768875,4.0
frosinone,4.980497,20.0
ragusa,0.64010644,0.0
verona,56.025635,122.0
catania,16.556725,20.0
pordenone,11.110493,6.0
alessandria,34.48722,58.0
novara,11.975743,34.0
pisa,9.556578,37.0
catanzaro,0.6399646,5.0
macerata,20.131855,19.0
bari,9.111612,49.0
verbano_cusio_ossola,7.0468054,38.0
avellino,7.430722,15.0
rovigo,2.4195557,3.0
asti,5.497055,10.0
brindisi,8.695225,4.0
belluno,12.389313,29.0
trieste,31.55809,24.0
modena,57.947975,172.0
como,34.22014,2.0
lodi,101.83612,111.0
barletta_andria_trani,1.6897053,28.0
agrigento,1.5100721,20.0
la_aquila,1.0355082,13.0
perugia,18.772472,46.0
taranto,0.7937572,6.0
bologna,36.01391,157.0
