n,o,l
granada,79.33297,50.0
palencia,38.740665,24.0
segovia,65.234055,97.0
valencia,89.52402,61.0
tarragona,47.34266,4.0
cadiz,12.962256,20.0
huelva,147.2259,29.0
caceres,154.452,41.0
alicante,118.95164,14.0
cordoba,0.0388344,118.0
gipuzkoa,50.932564,0.0
cuenca,102.10166,44.0
sevilla,0.038832687,0.0
guadalajara,112.66549,88.0
salamanca,0.03883268,0.0
toledo,0.038832687,0.0
ciudad_real,57.646774,19.0
badajoz,1674.2429,1032.0
barcelona,49.334557,34.0
avila,77.23576,85.0
lleida,181.06085,62.0
araba/alava,24.139061,0.0
albacete,0.0388322,7.0
almeria,21.835512,2.0
zamora,69.37075,0.0
girona,327.0359,251.0
bizkaia,58.473232,13.0
soria,98.252686,29.0
burgos,70.85996,21.0
jaen,49.84613,157.0
valladolid,102.60599,17.0
malaga,99.01687,74.0
leon,72.48708,54.0
castellon,49.439713,7.0
