n,o,l
granada,102.14217,24.0
palencia,34.42067,20.0
segovia,64.391464,97.0
valencia,20.98791,146.0
tarragona,15.733284,16.0
cadiz,57.90394,9.0
huelva,164.59474,58.0
caceres,126.665695,68.0
alicante,120.53814,32.0
cordoba,0.05697134,0.0
gipuzkoa,55.529564,72.0
cuenca,122.74862,61.0
sevilla,0.057553865,0.0
guadalajara,122.51053,80.0
salamanca,0.057229612,0.0
toledo,0.057149585,0.0
ciudad_real,68.15487,10.0
badajoz,2084.0159,650.0
barcelona,56.193047,41.0
avila,102.05195,22.0
lleida,193.54189,36.0
araba/alava,25.248121,25.0
albacete,0.056740355,0.0
almeria,12.40339,16.0
zamora,126.09306,167.0
girona,345.6642,114.0
bizkaia,62.782272,34.0
soria,104.84065,57.0
burgos,77.93377,21.0
jaen,64.27915,20.0
valladolid,106.47215,51.0
malaga,111.92596,53.0
leon,71.27816,0.0
castellon,54.889194,65.0
