n,o,l
E10000013,15.293972,10.0
E08000001,11.7244215,8.0
E06000032,0.26178584,1.0
E08000034,7.3699565,4.0
E06000022,3.0105932,0.0
E10000006,38.565205,25.0
E10000025,19.015947,22.0
E08000009,8.262028,6.0
E06000049,19.069363,27.0
E10000024,17.72668,10.0
E09000017,3.8743854,4.0
E08000027,13.779758,5.0
E06000021,14.844745,25.0
E10000019,9.9777155,5.0
E08000008,5.743973,5.0
E09000026,7.748835,4.0
E06000001,4.8536124,8.0
E06000050,17.279762,8.0
E08000017,12.1297455,19.0
E06000055,9.859497,6.0
E06000040,3.4005966,2.0
E06000002,10.740064,5.0
E06000004,7.317562,10.0
E08000030,17.283476,4.0
E08000032,27.3787,27.0
E10000017,43.50811,34.0
E08000004,10.739155,13.0
E08000035,25.909328,24.0
E06000011,23.23757,15.0
E10000032,17.377394,4.0
E06000038,7.7684703,7.0
E06000041,5.2945824,1.0
E09000015,7.9124594,32.0
E09000006,11.28051,4.0
E08000011,9.612586,7.0
E06000008,5.5463753,8.0
E06000026,3.4621515,11.0
E06000059,3.6431434,0.0
E06000034,3.9578683,2.0
E10000014,39.305546,17.0
E06000016,12.421926,17.0
E06000035,5.7125645,15.0
E08000014,11.329729,4.0
E06000056,6.4999886,6.0
E10000003,18.647491,19.0
E09000004,6.8776407,12.0
E10000018,16.497873,19.0
E08000012,18.620556,3.0
E06000012,3.0830348,0.0
E10000027,10.889387,1.0
E06000014,10.375367,9.0
E08000036,10.4124975,5.0
E09000008,13.154475,6.0
E06000046,2.608174,2.0
E06000030,3.8519099,3.0
E06000054,6.8512917,4.0
E08000005,6.2349477,7.0
E06000027,0.0,1.0
E10000016,70.0093,65.0
E10000030,23.70752,13.0
E08000013,8.398652,5.0
E06000033,3.4499834,2.0
E08000016,12.302324,17.0
E09000016,3.6633332,2.0
E06000051,9.605261,9.0
E08000037,18.104544,17.0
E06000052,5.318942,2.0
E09000010,4.9123335,2.0
E10000021,9.7349615,17.0
E06000039,5.1166043,2.0
E08000024,18.274841,9.0
E09000027,5.036016,0.0
E09000009,8.655461,10.0
E10000020,42.50843,44.0
E10000023,27.018637,28.0
E10000029,20.974972,17.0
E06000045,8.626476,5.0
E08000018,15.094445,6.0
E10000034,13.306878,15.0
E06000018,2.9826071,0.0
E08000019,33.732407,16.0
E06000017,2.9950454,0.0
E08000010,13.215622,16.0
E09000003,7.89065,6.0
E10000028,27.780075,29.0
E10000008,6.4758525,10.0
E08000025,27.447104,26.0
E10000031,19.437393,13.0
E08000007,16.24003,7.0
E06000013,7.953719,8.0
E06000005,3.9635305,4.0
E08000015,10.633955,11.0
E06000042,7.5021744,4.0
E06000009,11.061176,8.0
E10000007,23.348192,30.0
E09000001,2.8890672,0.0
E09000022,5.3165345,3.0
E06000047,41.60387,24.0
E06000037,4.52132,1.0
E08000026,5.8074594,5.0
E09000002,3.0482836,2.0
E09000018,8.691612,3.0
E06000043,3.8101118,0.0
E06000020,5.9390206,7.0
E06000057,13.269484,19.0
E06000006,3.3315887,1.0
E08000003,13.296266,26.0
E10000015,36.83698,36.0
E06000024,6.801873,14.0
E08000023,16.700151,11.0
E06000036,3.1886232,1.0
E10000011,8.246817,8.0
E06000031,6.8380527,4.0
E08000021,18.087803,12.0
E10000002,8.941274,7.0
E06000044,3.1963186,8.0
E08000031,11.354622,3.0
E09000020,3.2275429,1.0
E06000003,5.5927277,8.0
E08000002,9.360447,2.0
E10000012,46.6986,25.0
E09000005,7.064727,8.0
E06000007,11.422718,10.0
E09000023,4.029942,0.0
E08000033,5.6780066,5.0
E09000021,6.044355,3.0
E09000029,3.0626974,0.0
E08000022,7.6402693,5.0
E06000015,3.2238913,2.0
