n,o,l
charente_maritime,2.900028,2.0
vienne,0.0,0.0
aude,2.0522587,3.0
haute_loire,0.0,0.0
haute_savoie,11.340808,8.0
dordogne,0.0,0.0
correze,0.0,1.0
indre_et_loire,0.6961731,0.0
saone_et_loire,8.472774,8.0
loire_atlantique,0.03235531,0.0
haute_vienne,0.0,1.0
drome,1.7614641,0.0
cote_d'or,2.4006255,1.0
landes,0.8590514,42.0
paris,100.915504,0.0
charente,0.0,0.0
meurthe_et_moselle,2.9794273,0.0
essonne,42.76726,83.0
marne,10.316137,7.0
seine_saint_denis,72.63244,56.0
moselle,19.00899,5.0
bas_rhin,12.757317,4.0
pas_de_calais,9.9384165,25.0
nord,8.495094,7.0
loiret,11.442027,0.0
nievre,2.007932,3.0
alpes_maritimes,4.342499,1.0
pyrenees_atlantiques,1.6344229,1.0
val_d'oise,33.72719,24.0
meuse,0.68736666,7.0
mayenne,0.0,0.0
val_de_marne,56.829136,17.0
hautes_pyrenees,3.534401,7.0
lot,0.0,0.0
isere,0.66913295,0.0
gironde,11.355899,1.0
yvelines,25.122763,11.0
yonne,0.0,3.0
haute_saone,3.5370305,4.0
somme,12.938083,18.0
eure_et_loir,19.969488,11.0
manche,9.574732,6.0
indre,0.89097464,0.0
haute_marne,0.0,2.0
haut_rhin,35.52489,3.0
maine_et_loire,0.0,1.0
jura,2.9211452,13.0
savoie,0.2595439,3.0
ardennes,0.25987017,4.0
haute_garonne,3.91221,13.0
rhone,12.137791,5.0
ardeche,0.0,4.0
aisne,16.05218,12.0
vosges,16.191164,0.0
gers,0.71060395,7.0
oise,39.238308,19.0
hauts_de_seine,79.59435,22.0
territoire_de_belfort,1.9563103,2.0
lot_et_garonne,0.0,0.0
eure,10.18366,19.0
tarn,0.0,1.0
cher,4.3392553,9.0
aube,8.1935215,9.0
vaucluse,3.4985964,2.0
pyrenees_orientales,0.0,1.0
var,12.688727,4.0
cantal,0.0,1.0
doubs,4.923526,2.0
seine_et_marne,41.81228,31.0
ain,1.89817,14.0
calvados,2.476611,1.0
herault,31.335527,8.0
bouches_du_rhone,80.18136,55.0
puy_de_dome,5.776098,4.0
tarn_et_garonne,0.0013446244,0.0
loire,0.0,0.0
gard,6.5138693,8.0
loir_et_cher,0.0,0.0
alpes_de_haute_provence,0.108906925,0.0
orne,0.06451717,1.0
seine_maritime,11.984471,10.0
