n,o,l
granada,53.191517,87.0
palencia,25.216608,44.0
segovia,41.582203,80.0
valencia,117.556046,148.0
tarragona,11.825736,37.0
cadiz,28.63509,42.0
huelva,50.781456,36.0
caceres,141.51917,125.0
alicante,47.76294,110.0
cordoba,44.224976,0.0
gipuzkoa,0.13771375,0.0
cuenca,59.15504,73.0
sevilla,0.13772044,0.0
guadalajara,63.523453,76.0
salamanca,0.13772221,0.0
toledo,0.13772264,0.0
ciudad_real,27.903532,20.0
badajoz,799.3493,1220.0
barcelona,23.456612,30.0
avila,37.922146,60.0
lleida,69.61434,92.0
araba/alava,0.13792238,0.0
albacete,15.648365,18.0
almeria,15.039504,18.0
zamora,28.382528,150.0
girona,131.55473,200.0
bizkaia,34.51673,66.0
soria,60.41348,59.0
burgos,29.835012,45.0
jaen,47.437084,102.0
valladolid,40.786083,53.0
malaga,51.082657,75.0
leon,50.533558,79.0
castellon,38.626003,43.0
