n,o,l
charente_maritime,2.205244,0.0
vienne,0.0,0.0
aude,5.4476433,4.0
haute_loire,0.097279064,1.0
haute_savoie,21.234491,2.0
dordogne,0.08540344,0.0
correze,0.0,0.0
indre_et_loire,1.7045714,1.0
saone_et_loire,5.7915435,0.0
loire_atlantique,0.60015255,0.0
haute_vienne,0.16902146,2.0
drome,2.556804,1.0
cote_d'or,3.2524006,0.0
landes,142.25368,0.0
paris,0.14928329,28.0
charente,0.08578934,0.0
meurthe_et_moselle,62.927776,14.0
essonne,6.4236307,1.0
marne,13.959577,0.0
seine_saint_denis,102.55079,24.0
moselle,28.442394,0.0
bas_rhin,21.880041,0.0
pas_de_calais,10.84548,7.0
nord,11.950994,3.0
loiret,16.489586,0.0
nievre,2.7903311,3.0
alpes_maritimes,14.418481,0.0
pyrenees_atlantiques,4.11891,1.0
val_d'oise,60.027035,13.0
meuse,0.8347452,0.0
mayenne,0.021191828,0.0
val_de_marne,71.84783,9.0
hautes_pyrenees,2.8832676,1.0
lot,0.0,0.0
isere,1.130993,0.0
gironde,16.394342,0.0
yvelines,39.42061,2.0
yonne,0.06889661,2.0
haute_saone,3.794181,0.0
somme,13.4382305,5.0
eure_et_loir,20.265802,0.0
manche,9.797544,10.0
indre,1.7955427,0.0
haute_marne,0.077702425,0.0
haut_rhin,57.90112,5.0
maine_et_loire,0.026258513,0.0
jura,0.7134907,0.0
savoie,0.1746565,0.0
ardennes,0.7454418,2.0
haute_garonne,7.8998394,1.0
rhone,6.7324843,1.0
ardeche,0.7488152,0.0
aisne,19.006065,1.0
vosges,20.215588,1.0
gers,1.3725783,0.0
oise,56.902245,9.0
hauts_de_seine,112.72332,13.0
territoire_de_belfort,2.4691904,0.0
lot_et_garonne,0.05689469,0.0
eure,11.760788,2.0
tarn,0.07818732,0.0
cher,8.22214,1.0
aube,11.016484,6.0
vaucluse,6.6279807,0.0
pyrenees_orientales,0.018091507,0.0
var,15.052141,1.0
cantal,0.021425366,0.0
doubs,4.0400653,0.0
seine_et_marne,58.086132,22.0
ain,3.3677747,7.0
calvados,4.005168,1.0
herault,44.00173,3.0
bouches_du_rhone,118.96184,23.0
puy_de_dome,6.447367,7.0
tarn_et_garonne,0.101484075,0.0
loire,0.013019785,0.0
gard,10.655973,1.0
loir_et_cher,0.026542574,0.0
alpes_de_haute_provence,0.41557497,0.0
orne,0.15088707,0.0
seine_maritime,13.803539,1.0
