n,o,l
charente_maritime,1.8044643,5.0
vienne,0.14777973,1.0
aude,6.0709467,1.0
haute_loire,0.0,1.0
haute_savoie,15.243565,4.0
dordogne,0.28191102,0.0
correze,0.14710818,0.0
indre_et_loire,1.5262508,1.0
saone_et_loire,8.153315,7.0
loire_atlantique,0.19977352,0.0
haute_vienne,0.3265997,2.0
drome,3.512635,3.0
cote_d'or,2.5743454,1.0
landes,0.21608454,79.0
paris,96.64335,0.0
charente,0.15611266,0.0
meurthe_et_moselle,3.6079636,11.0
essonne,48.941154,58.0
marne,11.3161335,8.0
seine_saint_denis,73.91692,82.0
moselle,16.373417,25.0
bas_rhin,14.144554,27.0
pas_de_calais,16.726934,16.0
nord,12.783177,13.0
loiret,14.135446,3.0
nievre,1.0946751,4.0
alpes_maritimes,7.969355,5.0
pyrenees_atlantiques,2.415341,5.0
val_d'oise,34.056488,30.0
meuse,0.53878057,1.0
mayenne,0.0,1.0
val_de_marne,55.308865,58.0
hautes_pyrenees,2.7104366,9.0
lot,0.13637818,0.0
isere,0.64857715,2.0
gironde,10.947279,2.0
yvelines,28.872723,49.0
yonne,0.79843307,4.0
haute_saone,2.85521,10.0
somme,13.248676,9.0
eure_et_loir,25.270052,9.0
manche,8.327619,18.0
indre,0.8933191,3.0
haute_marne,0.12957461,0.0
haut_rhin,39.898937,16.0
maine_et_loire,0.17152616,0.0
jura,2.1757717,4.0
savoie,0.11622454,0.0
ardennes,0.47739077,2.0
haute_garonne,4.35247,4.0
rhone,11.977302,5.0
ardeche,1.4308763,10.0
aisne,20.965382,8.0
vosges,18.559513,3.0
gers,0.7303856,3.0
oise,37.742157,11.0
hauts_de_seine,81.29855,43.0
territoire_de_belfort,3.4103243,1.0
lot_et_garonne,0.18237175,0.0
eure,28.630833,28.0
tarn,0.057899848,0.0
cher,7.1999974,4.0
aube,8.221995,8.0
vaucluse,4.8263326,4.0
pyrenees_orientales,0.37456816,2.0
var,12.818297,12.0
cantal,0.0,3.0
doubs,5.9710107,13.0
seine_et_marne,53.546078,95.0
ain,9.549693,7.0
calvados,2.6430392,0.0
herault,35.32796,33.0
bouches_du_rhone,80.412315,56.0
puy_de_dome,6.292123,0.0
tarn_et_garonne,0.1817662,0.0
loire,0.21577425,0.0
gard,8.232962,5.0
loir_et_cher,0.055266287,0.0
alpes_de_haute_provence,0.2547067,3.0
orne,0.16164753,2.0
seine_maritime,12.017934,3.0
