n,o,l
granada,29.816368,0.0
palencia,23.56906,12.0
segovia,16.090673,12.0
valencia,51.710545,25.0
tarragona,6.2409086,0.0
cadiz,2.7274933,0.0
huelva,5.1441,0.0
caceres,4.124631,0.0
alicante,29.599867,29.0
cordoba,4.360136,0.0
gipuzkoa,10.546241,0.0
cuenca,36.272625,116.0
sevilla,11.449381,0.0
guadalajara,19.586077,6.0
salamanca,37.30203,7.0
toledo,43.192833,21.0
ciudad_real,56.86791,34.0
badajoz,2.5680478,0.0
barcelona,215.33829,0.0
avila,26.899487,9.0
lleida,10.320919,0.0
araba/alava,32.11008,0.0
albacete,27.032993,5.0
almeria,3.8124714,0.0
zamora,2.883413,28.0
girona,39.251007,0.0
bizkaia,52.623356,0.0
soria,17.174833,12.0
burgos,19.103483,55.0
jaen,31.911978,42.0
valladolid,6.6945863,0.0
malaga,36.859432,0.0
leon,26.865065,2.0
castellon,13.291594,2.0
