n,o,l
charente_maritime,0.16937365,0.0
vienne,0.15997711,0.0
aude,1.1619201,0.0
haute_loire,1.5602986,0.0
haute_savoie,2.1636794,0.0
dordogne,1.7121159,0.0
correze,1.8724358,0.0
indre_et_loire,0.93366086,0.0
saone_et_loire,0.0,0.0
loire_atlantique,1.311241,0.0
haute_vienne,1.1783572,1.0
drome,0.5923253,0.0
cote_d'or,1.3024385,0.0
landes,27.838623,18.0
paris,0.8462983,0.0
charente,1.8250391,0.0
meurthe_et_moselle,0.0,3.0
essonne,30.570282,0.0
marne,0.0,0.0
seine_saint_denis,20.838955,17.0
moselle,0.0,0.0
bas_rhin,0.0,0.0
pas_de_calais,0.90142596,0.0
nord,0.0,0.0
loiret,0.0,0.0
nievre,1.3258308,0.0
alpes_maritimes,0.0,0.0
pyrenees_atlantiques,1.1993032,0.0
val_d'oise,14.898988,9.0
meuse,1.4437484,0.0
mayenne,1.6445242,0.0
val_de_marne,4.645375,18.0
hautes_pyrenees,0.0,1.0
lot,0.0,0.0
isere,0.0,0.0
gironde,1.2481713,0.0
yvelines,2.0939567,2.0
yonne,0.0,0.0
haute_saone,1.7422364,0.0
somme,1.393609,3.0
eure_et_loir,0.0,0.0
manche,0.0,0.0
indre,0.8638443,0.0
haute_marne,0.39414456,0.0
haut_rhin,0.17126423,1.0
maine_et_loire,2.148563,0.0
jura,1.8067732,0.0
savoie,0.39693287,0.0
ardennes,1.1253304,0.0
haute_garonne,0.0,0.0
rhone,0.0,0.0
ardeche,0.047972687,0.0
aisne,0.0,0.0
vosges,0.0,1.0
gers,1.3770938,0.0
oise,3.51822,3.0
hauts_de_seine,8.896388,30.0
territoire_de_belfort,0.28495756,0.0
lot_et_garonne,2.0688438,0.0
eure,0.0,1.0
tarn,0.514791,0.0
cher,1.6253698,0.0
aube,0.0,0.0
vaucluse,0.72184485,0.0
pyrenees_orientales,0.0,0.0
var,1.3511131,0.0
cantal,2.2837787,0.0
doubs,0.0,0.0
seine_et_marne,4.013253,3.0
ain,0.7878688,0.0
calvados,0.92039,0.0
herault,5.891297,4.0
bouches_du_rhone,0.0,4.0
puy_de_dome,1.9377874,0.0
tarn_et_garonne,1.8702443,0.0
loire,1.8643482,0.0
gard,0.32774013,0.0
loir_et_cher,1.1740797,0.0
alpes_de_haute_provence,0.9167685,0.0
orne,0.71615916,0.0
seine_maritime,1.4398035,1.0
