n,o,l
siracusa,0.47964045,0.0
asti,2.3335776,43.0
oristano,3.3502822,3.0
grosseto,0.0,0.0
sondrio,0.6185543,46.0
ascoli_piceno,0.0,2.0
savona,0.44187993,37.0
reggio_emilia,13.824521,68.0
torino,37.906498,414.0
rovigo,1.4153942,31.0
frosinone,1.6512111,9.0
campobasso,0.6740563,2.0
cosenza,0.7588226,9.0
trapani,0.2401886,0.0
pavia,8.967708,93.0
cuneo,7.495468,59.0
genova,22.086956,82.0
treviso,4.816318,35.0
barletta_andria_trani,2.795125,20.0
udine,30.738924,8.0
brescia,1.3955005,100.0
ravenna,0.7550589,4.0
latina,0.8977934,0.0
gorizia,0.017236479,6.0
pordenone,1.1926726,0.0
massa_carrara,2.6533446,1.0
la_aquila,0.6104037,0.0
prato,1.0914831,6.0
rieti,0.0,1.0
aosta,1.3745332,2.0
ragusa,0.098112345,2.0
fermo,0.6765474,4.0
milano,42.691254,480.0
firenze,11.894125,56.0
arezzo,0.42077646,7.0
bolzano_bozen,8.807377,6.0
piacenza,3.6915488,73.0
ancona,3.129489,4.0
napoli,5.8376784,36.0
reggio_calabria,0.30528077,0.0
novara,6.0327997,95.0
pistoia,1.68869,8.0
lodi,5.474855,36.0
la_spezia,4.55112,5.0
brindisi,2.219421,7.0
taranto,0.23807839,5.0
potenza,0.2797419,0.0
perugia,0.37265524,4.0
alessandria,0.7798923,109.0
enna,5.162993,1.0
imperia,6.673414,30.0
vercelli,1.8946801,24.0
foggia,2.4691596,37.0
lecce,3.4305487,16.0
lecco,7.8328624,30.0
padova,1.2894728,2.0
messina,0.28775233,9.0
lucca,1.7629558,6.0
palermo,1.125365,5.0
livorno,0.8630324,0.0
benevento,0.9051797,2.0
catanzaro,0.17141987,0.0
bari,1.3830372,28.0
caltanissetta,0.35547355,3.0
isernia,0.0,0.0
biella,0.8670121,25.0
verona,14.919392,94.0
caserta,1.0570128,1.0
chieti,1.4313985,35.0
varese,1.3928322,51.0
teramo,8.309016,6.0
macerata,3.4378324,14.0
cagliari,1.1108298,2.0
terni,0.3973422,0.0
nuoro,0.0,0.0
trento,0.94368404,32.0
salerno,11.458313,8.0
pesaro_e_urbino,3.7368765,19.0
venezia,8.278419,88.0
siena,0.0,1.0
vibo_valentia,0.030511625,0.0
matera,0.0,4.0
forli_cesena,3.174632,8.0
parma,3.250998,64.0
trieste,3.6191235,11.0
roma,11.606419,68.0
ferrara,2.342885,28.0
belluno,2.1526237,12.0
sassari,2.4696288,6.0
avellino,0.40563136,6.0
agrigento,0.17817427,0.0
como,8.487829,89.0
cremona,8.37374,65.0
catania,1.1586894,35.0
bologna,12.786471,52.0
pisa,2.063692,7.0
viterbo,1.2678341,2.0
pescara,2.991971,25.0
rimini,3.0012813,22.0
mantova,8.434731,44.0
vicenza,7.5820837,43.0
verbano_cusio_ossola,3.1294274,6.0
modena,7.036761,23.0
crotone,0.008290991,0.0
bergamo,9.286968,60.0
