n,o,l
E10000013,16.789413,0.0
E08000001,9.607943,9.0
E06000032,3.774635,0.0
E08000034,9.071173,7.0
E06000022,2.4686286,1.0
E10000006,33.173676,26.0
E10000025,18.283367,2.0
E08000009,6.287132,1.0
E06000049,17.269676,5.0
E10000024,19.295622,12.0
E09000017,2.8891785,3.0
E08000027,11.995379,0.0
E06000021,11.562585,7.0
E10000019,10.843771,11.0
E08000008,4.9435515,9.0
E09000026,2.6024115,2.0
E06000001,4.892113,6.0
E06000050,15.069684,4.0
E08000017,14.249076,12.0
E06000055,6.923888,3.0
E06000040,3.080254,0.0
E06000002,7.2438426,1.0
E06000004,5.254374,10.0
E08000030,18.45974,3.0
E08000032,26.746115,6.0
E10000017,39.893143,18.0
E08000004,8.577699,4.0
E08000035,31.074848,11.0
E06000011,20.797491,4.0
E10000032,16.42312,10.0
E06000038,7.284851,3.0
E06000041,3.0274246,2.0
E09000015,10.866056,1.0
E09000006,10.766391,8.0
E08000011,8.229965,1.0
E06000008,3.7341096,1.0
E06000026,2.281541,3.0
E06000059,2.6010015,0.0
E06000034,2.5198658,1.0
E10000014,34.73686,17.0
E06000016,10.947116,10.0
E06000035,5.213259,6.0
E08000014,8.704567,8.0
E06000056,5.793828,3.0
E10000003,14.687343,14.0
E09000004,4.2361994,2.0
E10000018,15.148122,6.0
E08000012,17.429981,3.0
E06000012,1.9772428,3.0
E10000027,8.59372,11.0
E06000014,8.534273,7.0
E08000036,9.584359,6.0
E09000008,7.0326943,1.0
E06000046,2.4879837,1.0
E06000030,2.2676568,7.0
E06000054,6.669443,2.0
E08000005,5.1747713,3.0
E06000027,0.0,0.0
E10000016,68.7607,25.0
E10000030,24.435343,11.0
E08000013,8.054102,2.0
E06000033,2.494612,2.0
E08000016,13.313059,9.0
E09000016,2.2484984,1.0
E06000051,10.422224,9.0
E08000037,16.274143,1.0
E06000052,6.129273,4.0
E09000010,5.195598,0.0
E10000021,8.801777,16.0
E06000039,3.018912,4.0
E08000024,13.921524,3.0
E09000027,2.5958045,0.0
E09000009,7.600873,0.0
E10000020,36.17133,13.0
E10000023,25.856031,5.0
E10000029,22.695671,7.0
E06000045,4.469051,3.0
E08000018,14.98408,3.0
E10000034,13.54263,5.0
E06000018,5.647379,0.0
E08000019,33.67172,13.0
E06000017,2.3545399,1.0
E08000010,15.98999,18.0
E09000003,5.963142,1.0
E10000028,28.859558,12.0
E10000008,12.364372,6.0
E08000025,28.981756,18.0
E10000031,20.43875,8.0
E08000007,12.301422,9.0
E06000013,8.7562895,3.0
E06000005,7.062454,3.0
E08000015,11.760181,8.0
E06000042,4.6078224,1.0
E06000009,10.710433,3.0
E10000007,33.505955,10.0
E09000001,2.2178144,0.0
E09000022,4.022678,1.0
E06000047,34.007805,20.0
E06000037,3.7933664,1.0
E08000026,5.7387285,5.0
E09000002,2.2900481,1.0
E09000018,2.904025,0.0
E06000043,2.1314666,2.0
E06000020,4.538911,1.0
E06000057,9.806141,2.0
E06000006,2.4425666,0.0
E08000003,13.985554,15.0
E10000015,33.198864,5.0
E06000024,3.8778431,8.0
E08000023,13.1226635,8.0
E06000036,2.489526,0.0
E10000011,9.59629,1.0
E06000031,6.335742,4.0
E08000021,10.415916,2.0
E10000002,9.991494,7.0
E06000044,2.2849772,2.0
E08000031,18.658978,2.0
E09000020,2.0260906,0.0
E06000003,3.9097762,7.0
E08000002,8.218714,1.0
E10000012,50.80286,11.0
E09000005,4.4165993,0.0
E06000007,8.557112,3.0
E09000023,2.4286666,1.0
E08000033,3.5851338,2.0
E09000021,2.7951505,1.0
E09000029,3.4946122,0.0
E08000022,3.0763457,3.0
E06000015,8.622957,4.0
