n,o,l
E10000013,24.685188,30.0
E08000001,11.996907,22.0
E06000032,16.642056,26.0
E08000034,14.281528,19.0
E06000022,6.426312,0.0
E10000006,29.64136,68.0
E10000025,48.699547,51.0
E08000009,16.685432,13.0
E06000049,14.421423,18.0
E10000024,29.557964,40.0
E09000017,25.042715,33.0
E08000027,25.337666,22.0
E06000021,7.7459207,3.0
E10000019,22.089485,26.0
E08000008,10.435833,18.0
E09000026,24.48553,26.0
E06000001,4.3047466,3.0
E06000050,13.5553255,18.0
E08000017,16.994766,14.0
E06000055,14.21411,11.0
E06000040,12.389897,7.0
E06000002,11.55197,15.0
E06000004,10.877425,8.0
E08000030,30.697416,30.0
E08000032,16.898916,20.0
E10000017,53.233242,86.0
E08000004,18.135813,13.0
E08000035,27.010614,24.0
E06000011,7.011745,15.0
E10000032,26.276106,31.0
E06000038,12.1861925,5.0
E06000041,7.040381,7.0
E09000015,36.28764,26.0
E09000006,42.395176,44.0
E08000011,12.170432,14.0
E06000008,6.2535467,8.0
E06000026,5.32018,2.0
E06000059,11.140465,5.0
E06000034,13.197171,10.0
E10000014,70.177864,79.0
E06000016,15.727439,27.0
E06000035,15.093154,17.0
E08000014,18.769407,32.0
E06000056,15.848017,18.0
E10000003,21.097206,20.0
E09000004,22.79616,20.0
E10000018,26.853737,44.0
E08000012,33.64312,41.0
E06000012,5.1626725,2.0
E10000027,9.440903,8.0
E06000014,6.6564956,5.0
E08000036,16.795116,46.0
E09000008,46.528564,16.0
E06000046,1.7264589,1.0
E06000030,4.6213956,4.0
E06000054,11.534083,10.0
E08000005,17.306713,19.0
E06000027,5.470265,7.0
E10000016,62.580536,93.0
E10000030,66.951744,65.0
E08000013,15.36307,18.0
E06000033,10.379935,15.0
E08000016,21.580439,33.0
E09000016,18.08992,26.0
E06000051,14.579803,9.0
E08000037,13.341307,19.0
E06000052,13.848262,20.0
E09000010,30.293388,26.0
E10000021,29.401192,48.0
E06000039,12.281367,6.0
E08000024,14.327471,46.0
E09000027,22.217346,16.0
E09000009,40.475456,39.0
E10000020,24.784296,25.0
E10000023,19.633362,19.0
E10000029,14.712847,26.0
E06000045,18.295715,19.0
E08000018,19.686996,29.0
E10000034,31.363977,38.0
E06000018,9.004371,14.0
E08000019,71.859955,110.0
E06000017,3.346359,2.0
E08000010,13.000965,24.0
E09000003,52.791653,45.0
E10000028,39.371044,41.0
E10000008,17.726717,15.0
E08000025,87.468185,131.0
E10000031,31.432352,20.0
E08000007,15.578423,18.0
E06000013,4.7002025,7.0
E06000005,4.656236,2.0
E08000015,16.640614,16.0
E06000042,5.8751326,17.0
E06000009,5.969242,12.0
E10000007,39.371002,51.0
E09000001,3.5550795,1.0
E09000022,45.809284,41.0
E06000047,20.400394,25.0
E06000037,11.365838,4.0
E08000026,22.991936,29.0
E09000002,18.060555,18.0
E09000018,23.106627,22.0
E06000043,12.585127,6.0
E06000020,9.606472,6.0
E06000057,14.911984,17.0
E06000006,9.042736,9.0
E08000003,26.153515,33.0
E10000015,64.139435,77.0
E06000024,1.583729,4.0
E08000023,3.4694536,13.0
E06000036,6.222096,9.0
E10000011,15.117677,27.0
E06000031,6.4430127,4.0
E08000021,24.77422,34.0
E10000002,22.474985,23.0
E06000044,11.916954,1.0
E08000031,23.030022,23.0
E09000020,19.662354,18.0
E06000003,11.440692,8.0
E08000002,12.881097,6.0
E10000012,71.95816,87.0
E09000005,53.68044,46.0
E06000007,9.920483,19.0
E09000023,8.122838,5.0
E08000033,34.305157,38.0
E09000021,15.154555,12.0
E09000029,25.212505,19.0
E08000022,14.583331,19.0
E06000015,25.003904,24.0
