n,o,l
E10000013,32.865353,54.0
E08000001,16.195883,24.0
E06000032,20.501587,30.0
E08000034,20.831017,26.0
E06000022,8.990529,7.0
E10000006,54.870262,72.0
E10000025,35.53429,72.0
E08000009,20.515669,19.0
E06000049,19.256054,28.0
E10000024,39.66361,36.0
E09000017,27.242695,27.0
E08000027,29.280594,19.0
E06000021,18.091858,11.0
E10000019,28.198256,29.0
E08000008,15.336644,10.0
E09000026,28.129791,47.0
E06000001,8.028105,11.0
E06000050,23.45458,30.0
E08000017,22.104805,8.0
E06000055,13.253275,16.0
E06000040,13.884617,10.0
E06000002,19.868093,25.0
E06000004,15.616994,19.0
E08000030,32.31235,33.0
E08000032,24.481289,33.0
E10000017,66.35931,106.0
E08000004,22.387579,42.0
E08000035,30.991861,64.0
E06000011,16.027998,20.0
E10000032,30.960888,55.0
E06000038,16.65783,13.0
E06000041,18.882523,10.0
E09000015,40.95869,29.0
E09000006,42.854847,36.0
E08000011,21.659689,15.0
E06000008,11.677168,14.0
E06000026,6.2413907,8.0
E06000059,14.132355,9.0
E06000034,14.494456,14.0
E10000014,78.333275,115.0
E06000016,0.0,22.0
E06000035,14.8267565,37.0
E08000014,23.629517,38.0
E06000056,16.305313,19.0
E10000003,23.835363,26.0
E09000004,23.930773,40.0
E10000018,15.776749,20.0
E08000012,43.70766,67.0
E06000012,6.2436867,3.0
E10000027,12.41652,10.0
E06000014,5.5205708,13.0
E08000036,48.66904,44.0
E09000008,18.440826,23.0
E06000046,6.1447177,2.0
E06000030,7.7145286,17.0
E06000054,16.427904,10.0
E08000005,18.373878,27.0
E06000027,7.7086368,6.0
E10000016,71.45339,120.0
E10000030,80.54325,117.0
E08000013,23.916832,31.0
E06000033,15.466073,18.0
E08000016,22.258064,21.0
E09000016,14.501575,33.0
E06000051,17.361065,9.0
E08000037,20.44818,44.0
E06000052,16.796196,14.0
E09000010,27.50499,32.0
E10000021,44.07939,24.0
E06000039,14.058495,18.0
E08000024,17.333004,49.0
E09000027,22.717411,14.0
E09000009,40.45318,44.0
E10000020,30.372498,51.0
E10000023,26.507414,32.0
E10000029,23.748512,27.0
E06000045,18.151173,15.0
E08000018,26.716726,21.0
E10000034,39.531815,43.0
E06000018,11.6071,22.0
E08000019,75.23089,49.0
E06000017,1.1275506,0.0
E08000010,19.438011,33.0
E09000003,56.710766,44.0
E10000028,47.74131,56.0
E10000008,19.58677,25.0
E08000025,112.2177,84.0
E10000031,35.873295,37.0
E08000007,20.755415,28.0
E06000013,8.034423,5.0
E06000005,8.330416,11.0
E08000015,23.043953,47.0
E06000042,19.171665,20.0
E06000009,8.894258,10.0
E10000007,39.760414,36.0
E09000001,4.386752,0.0
E09000022,50.95268,39.0
E06000047,23.821232,63.0
E06000037,14.029368,11.0
E08000026,27.490381,22.0
E09000002,19.325125,22.0
E09000018,26.463102,22.0
E06000043,14.689044,16.0
E06000020,12.193623,12.0
E06000057,14.301423,30.0
E06000006,13.556234,12.0
E08000003,29.456741,59.0
E10000015,77.0872,78.0
E06000024,12.618971,4.0
E08000023,13.166606,19.0
E06000036,8.042321,11.0
E10000011,19.803234,28.0
E06000031,9.050707,9.0
E08000021,29.959854,40.0
E10000002,30.351559,37.0
E06000044,6.1767235,8.0
E08000031,27.420597,15.0
E09000020,22.384247,19.0
E06000003,13.586324,12.0
E08000002,17.41392,28.0
E10000012,81.23061,90.0
E09000005,61.788967,28.0
E06000007,18.29036,31.0
E09000023,15.119124,7.0
E08000033,35.790337,29.0
E09000021,17.921013,18.0
E09000029,26.42101,29.0
E08000022,13.113989,26.0
E06000015,26.815159,14.0
