n,o,l
siracusa,0.5165436,14.0
asti,7.6991267,70.0
oristano,0.32767862,3.0
grosseto,0.11281706,0.0
sondrio,2.2000122,6.0
ascoli_piceno,0.12094936,0.0
savona,0.21981663,23.0
reggio_emilia,8.631111,17.0
torino,38.107864,332.0
rovigo,0.25014737,62.0
frosinone,0.4570655,8.0
campobasso,0.0,1.0
cosenza,1.5943427,9.0
trapani,0.0,0.0
pavia,8.979148,64.0
cuneo,6.6659055,50.0
genova,6.553988,63.0
treviso,7.446673,26.0
barletta_andria_trani,0.37194166,3.0
udine,0.44109696,6.0
brescia,0.9183386,3.0
ravenna,20.789843,74.0
latina,0.2923702,7.0
gorizia,0.0,5.0
pordenone,0.92424077,3.0
massa_carrara,1.5580434,7.0
la_aquila,0.0,1.0
prato,1.2283642,1.0
rieti,0.0,0.0
aosta,3.4512348,5.0
ragusa,0.0,1.0
fermo,0.3303705,4.0
milano,39.812,408.0
firenze,7.2500176,51.0
arezzo,0.95695615,13.0
bolzano_bozen,3.1485128,16.0
piacenza,3.0125277,67.0
ancona,2.1538622,23.0
napoli,3.2322428,46.0
reggio_calabria,0.0,0.0
novara,7.6305594,32.0
pistoia,1.2011902,7.0
lodi,4.1788745,11.0
la_spezia,1.4318067,11.0
brindisi,1.647837,5.0
taranto,0.10136727,1.0
potenza,0.0,5.0
perugia,0.22068754,1.0
alessandria,10.021448,84.0
enna,0.78887296,0.0
imperia,2.9248917,0.0
vercelli,3.4387617,5.0
foggia,2.4415324,28.0
lecce,1.5692638,13.0
lecco,5.700299,28.0
padova,1.063897,16.0
messina,0.50342846,0.0
lucca,2.5773115,2.0
palermo,0.43179956,2.0
livorno,0.17582396,0.0
benevento,1.3696266,1.0
catanzaro,0.024610672,0.0
bari,2.9359963,22.0
caltanissetta,0.0,0.0
isernia,0.0,0.0
biella,0.9697119,21.0
verona,7.8522153,72.0
caserta,0.14824349,3.0
chieti,4.131791,7.0
varese,7.938464,55.0
teramo,0.33840778,0.0
macerata,1.7517052,10.0
cagliari,0.0,8.0
terni,0.066297464,3.0
nuoro,0.0,0.0
trento,8.821785,24.0
salerno,1.1939353,11.0
pesaro_e_urbino,2.5564477,14.0
venezia,4.611331,14.0
siena,0.5293644,4.0
vibo_valentia,0.0,0.0
matera,0.16003443,3.0
forli_cesena,2.4440794,11.0
parma,7.217024,22.0
trieste,4.247852,3.0
roma,12.349407,56.0
ferrara,3.2085998,18.0
belluno,5.50681,63.0
sassari,0.7058477,0.0
avellino,0.21261904,1.0
agrigento,0.0,0.0
como,8.863889,150.0
cremona,11.2609625,42.0
catania,1.8808867,43.0
bologna,12.282045,43.0
pisa,1.8424928,7.0
viterbo,0.33865264,6.0
pescara,5.1078787,47.0
rimini,2.6017382,6.0
mantova,6.5174236,20.0
vicenza,6.638917,11.0
verbano_cusio_ossola,0.19333595,8.0
modena,4.129732,38.0
crotone,0.0,0.0
bergamo,6.8639464,50.0
