n,o,l
charente_maritime,1.5584172,6.0
vienne,0.0,0.0
aude,6.0650067,0.0
haute_loire,0.0,5.0
haute_savoie,16.379028,9.0
dordogne,0.0,0.0
correze,0.0,0.0
indre_et_loire,0.66150326,0.0
saone_et_loire,13.378589,7.0
loire_atlantique,0.0,0.0
haute_vienne,0.0,1.0
drome,0.4908758,2.0
cote_d'or,0.2983283,1.0
landes,0.22728617,92.0
paris,146.23264,0.0
charente,0.0,1.0
meurthe_et_moselle,97.24641,4.0
essonne,7.77226,92.0
marne,11.898731,42.0
seine_saint_denis,94.072495,68.0
moselle,37.470848,50.0
bas_rhin,11.574027,27.0
pas_de_calais,22.909288,23.0
nord,19.033998,11.0
loiret,15.042148,1.0
nievre,11.565046,4.0
alpes_maritimes,11.6222725,10.0
pyrenees_atlantiques,1.2255734,15.0
val_d'oise,38.991272,36.0
meuse,0.2889334,7.0
mayenne,0.0,0.0
val_de_marne,79.09984,40.0
hautes_pyrenees,3.4621677,7.0
lot,0.0,1.0
isere,1.3563715,1.0
gironde,9.467891,5.0
yvelines,37.290215,15.0
yonne,0.0,2.0
haute_saone,4.767447,1.0
somme,16.391363,12.0
eure_et_loir,46.868584,16.0
manche,12.537063,8.0
indre,2.746626,6.0
haute_marne,0.0,0.0
haut_rhin,27.294176,14.0
maine_et_loire,0.0,1.0
jura,6.000734,6.0
savoie,0.0,0.0
ardennes,1.2587986,3.0
haute_garonne,7.2792487,5.0
rhone,11.344886,9.0
ardeche,0.3512779,5.0
aisne,20.912106,11.0
vosges,15.059802,8.0
gers,1.9913067,6.0
oise,50.82559,18.0
hauts_de_seine,92.640335,77.0
territoire_de_belfort,2.1521795,1.0
lot_et_garonne,0.0,0.0
eure,29.226845,23.0
tarn,0.0,1.0
cher,9.282959,6.0
aube,17.055202,7.0
vaucluse,6.008131,10.0
pyrenees_orientales,0.0,0.0
var,13.661891,10.0
cantal,0.0,1.0
doubs,6.546946,5.0
seine_et_marne,83.57685,66.0
ain,6.752138,33.0
calvados,1.8691267,6.0
herault,24.253399,27.0
bouches_du_rhone,118.32092,59.0
puy_de_dome,6.433758,2.0
tarn_et_garonne,0.6121602,2.0
loire,0.0,1.0
gard,8.742266,4.0
loir_et_cher,0.0,0.0
alpes_de_haute_provence,0.0,5.0
orne,0.0,1.0
seine_maritime,18.969725,20.0
