n,o,l
terni,0.0,2.0
pistoia,2.9939609,0.0
rieti,1.7616981,0.0
pesaro_e_urbino,10.430977,17.0
caserta,0.0,0.0
brescia,68.73565,44.0
padova,13.610427,4.0
savona,23.602474,17.0
cremona,54.200783,6.0
vicenza,22.579718,16.0
udine,0.5522765,0.0
livorno,0.0,0.0
bergamo,49.116924,24.0
campobasso,0.0,23.0
cosenza,1.933779,2.0
torino,255.1176,66.0
lecce,0.2930712,1.0
lecco,16.62808,4.0
benevento,0.0,0.0
ferrara,11.477495,3.0
roma,53.174953,27.0
napoli,22.225595,4.0
salerno,0.9989412,2.0
chieti,11.9955,3.0
vercelli,10.621453,6.0
firenze,45.69013,11.0
ascoli_piceno,0.0,0.0
foggia,11.739808,3.0
enna,0.46528867,0.0
reggio_calabria,0.0,0.0
matera,0.0,2.0
cuneo,40.50538,16.0
venezia,22.268934,7.0
grosseto,0.0,4.0
massa_carrara,1.1355984,6.0
caltanissetta,0.0,0.0
nuoro,0.0,0.0
biella,18.207214,8.0
mantova,23.417679,1.0
la_spezia,2.0183406,3.0
palermo,2.22038,8.0
gorizia,1.4913751,0.0
latina,2.0113087,1.0
fermo,1.0573703,0.0
piacenza,51.61911,15.0
trento,49.165474,3.0
lucca,1.0874472,3.0
sassari,3.8839355,4.0
genova,82.13595,9.0
isernia,0.0,0.0
oristano,0.0,1.0
vibo_valentia,0.0,1.0
aosta,0.118631475,35.0
pavia,55.800476,5.0
reggio_emilia,27.217163,11.0
rimini,9.496067,1.0
milano,306.69116,104.0
treviso,16.381603,0.0
viterbo,0.70164907,2.0
crotone,0.0,0.0
siracusa,1.7062427,0.0
pescara,12.331372,14.0
teramo,0.0,0.0
sondrio,18.923437,7.0
siena,0.0,0.0
ravenna,1.1547085,2.0
potenza,0.0,0.0
forli_cesena,10.938044,2.0
cagliari,0.0,1.0
trapani,0.0,0.0
imperia,9.03557,14.0
arezzo,3.020412,2.0
varese,36.233215,18.0
ancona,4.155052,7.0
parma,27.320494,13.0
messina,1.3031121,4.0
bolzano_bozen,9.2310095,2.0
prato,2.4324377,2.0
frosinone,0.9551157,2.0
ragusa,0.12038219,0.0
verona,63.249702,10.0
catania,15.660167,2.0
pordenone,0.51156914,1.0
alessandria,53.654724,7.0
novara,26.379131,7.0
pisa,1.2343678,0.0
catanzaro,0.0,0.0
macerata,6.6154017,11.0
bari,14.054453,22.0
verbano_cusio_ossola,4.1527095,6.0
avellino,0.0,9.0
rovigo,10.157528,1.0
asti,36.929344,8.0
brindisi,3.4535224,1.0
belluno,14.846551,2.0
trieste,10.954736,5.0
modena,17.848192,8.0
como,64.74433,16.0
lodi,23.66886,7.0
barletta_andria_trani,1.5352662,0.0
agrigento,0.0,0.0
la_aquila,0.0,0.0
perugia,0.0,0.0
taranto,0.0,0.0
bologna,44.77494,22.0
