n,o,l
granada,86.768875,47.0
palencia,37.625137,13.0
segovia,64.24541,88.0
valencia,160.55615,159.0
tarragona,17.537783,10.0
cadiz,44.71662,28.0
huelva,88.304474,56.0
caceres,208.25444,31.0
alicante,72.56969,81.0
cordoba,79.03936,0.0
gipuzkoa,0.25338098,17.0
cuenca,98.270615,87.0
sevilla,0.2535244,0.0
guadalajara,100.43858,64.0
salamanca,0.25356254,0.0
toledo,0.25357065,0.0
ciudad_real,47.047764,38.0
badajoz,1391.0493,776.0
barcelona,39.133144,38.0
avila,66.73887,27.0
lleida,123.43342,19.0
araba/alava,0.25409645,6.0
albacete,24.669413,0.0
almeria,21.523325,2.0
zamora,62.35175,0.0
girona,234.52068,147.0
bizkaia,57.17362,29.0
soria,95.8873,25.0
burgos,52.03884,44.0
jaen,79.238785,39.0
valladolid,63.622723,138.0
malaga,89.77935,60.0
leon,76.74003,0.0
castellon,57.89105,57.0
