n,o,l
granada,31.130316,60.0
palencia,12.988988,15.0
segovia,56.292995,85.0
valencia,73.71059,88.0
tarragona,6.1979556,3.0
cadiz,15.497069,19.0
huelva,25.85935,55.0
caceres,46.67465,140.0
alicante,34.09169,96.0
cordoba,21.34243,10.0
gipuzkoa,0.12952206,16.0
cuenca,37.07178,32.0
sevilla,0.12903823,21.0
guadalajara,45.147724,78.0
salamanca,0.1293613,36.0
toledo,0.12961955,129.0
ciudad_real,9.441431,23.0
badajoz,540.5767,647.0
barcelona,28.565998,20.0
avila,20.32694,27.0
lleida,40.251667,15.0
araba/alava,0.12906414,4.0
albacete,9.337168,46.0
almeria,9.297511,6.0
zamora,69.13739,0.0
girona,109.66691,135.0
bizkaia,19.09615,63.0
soria,37.015995,37.0
burgos,14.949698,37.0
jaen,35.213955,33.0
valladolid,19.661303,234.0
malaga,28.040009,14.0
leon,43.989563,0.0
castellon,25.20378,35.0
