n,o,l
charente_maritime,1.8543015,5.0
vienne,0.4260457,2.0
aude,7.887303,9.0
haute_loire,0.0,0.0
haute_savoie,33.916782,19.0
dordogne,0.5409486,0.0
correze,0.0,1.0
indre_et_loire,4.564033,3.0
saone_et_loire,2.7407422,10.0
loire_atlantique,0.004076004,1.0
haute_vienne,0.4567147,3.0
drome,10.939071,2.0
cote_d'or,4.318925,6.0
landes,159.82417,138.0
paris,0.0,3.0
charente,0.0,0.0
meurthe_et_moselle,5.3426704,4.0
essonne,63.266933,54.0
marne,8.365194,17.0
seine_saint_denis,82.73251,133.0
moselle,9.0770035,50.0
bas_rhin,4.431263,17.0
pas_de_calais,4.203764,16.0
nord,6.7766633,8.0
loiret,9.262115,19.0
nievre,0.0,10.0
alpes_maritimes,5.55058,7.0
pyrenees_atlantiques,5.7153764,2.0
val_d'oise,105.848404,57.0
meuse,1.0446775,6.0
mayenne,0.0,0.0
val_de_marne,33.712997,86.0
hautes_pyrenees,0.0,6.0
lot,0.0,2.0
isere,13.7184305,1.0
gironde,18.360952,21.0
yvelines,35.96726,46.0
yonne,1.1689519,0.0
haute_saone,13.984835,7.0
somme,8.769214,24.0
eure_et_loir,11.915108,28.0
manche,3.8468795,18.0
indre,4.114669,2.0
haute_marne,0.1626714,3.0
haut_rhin,15.844913,59.0
maine_et_loire,0.0,0.0
jura,1.0565362,6.0
savoie,0.5457676,0.0
ardennes,0.0,2.0
haute_garonne,9.3547,8.0
rhone,6.909344,18.0
ardeche,0.0,0.0
aisne,3.9664798,22.0
vosges,15.255007,29.0
gers,0.0,6.0
oise,33.012653,74.0
hauts_de_seine,104.35652,131.0
territoire_de_belfort,1.6908321,6.0
lot_et_garonne,0.0,0.0
eure,3.1558726,10.0
tarn,0.0,1.0
cher,8.818655,12.0
aube,4.0858293,24.0
vaucluse,9.764009,4.0
pyrenees_orientales,0.0,0.0
var,18.334532,20.0
cantal,0.0,2.0
doubs,2.8494556,7.0
seine_et_marne,29.0439,64.0
ain,0.0,4.0
calvados,11.947762,6.0
herault,66.652794,41.0
bouches_du_rhone,147.5709,114.0
puy_de_dome,2.6170855,10.0
tarn_et_garonne,0.86278546,3.0
loire,0.0,1.0
gard,3.3440645,19.0
loir_et_cher,3.839787,2.0
alpes_de_haute_provence,0.0,2.0
orne,1.5471249,1.0
seine_maritime,15.591418,15.0
