n,o,l
granada,77.84465,39.0
palencia,38.151,47.0
segovia,64.27698,101.0
valencia,103.71098,179.0
tarragona,46.851128,8.0
cadiz,11.741452,14.0
huelva,143.13232,152.0
caceres,151.86156,112.0
alicante,115.90984,71.0
cordoba,0.0,0.0
gipuzkoa,50.087837,20.0
cuenca,98.77287,60.0
sevilla,0.0,0.0
guadalajara,111.40791,95.0
salamanca,0.0,0.0
toledo,0.0,0.0
ciudad_real,55.23329,61.0
badajoz,1629.4705,895.0
barcelona,47.174385,34.0
avila,72.78915,53.0
lleida,172.83165,82.0
araba/alava,23.349028,3.0
albacete,0.0,0.0
almeria,23.228796,38.0
zamora,78.958664,0.0
girona,316.0323,259.0
bizkaia,55.15161,26.0
soria,95.95729,58.0
burgos,68.04697,46.0
jaen,47.77538,42.0
valladolid,100.31066,139.0
malaga,101.23876,16.0
leon,73.23335,0.0
castellon,48.647793,76.0
