n,o,l
siracusa,0.2377283,5.0
asti,0.0,26.0
oristano,0.042580683,60.0
grosseto,1.1947708,15.0
sondrio,0.025299612,0.0
ascoli_piceno,0.349071,45.0
savona,0.7683062,0.0
reggio_emilia,5.3779035,135.0
torino,25.036554,297.0
rovigo,0.28288004,0.0
frosinone,0.35087875,41.0
campobasso,0.098531604,6.0
cosenza,0.23733196,26.0
trapani,0.007274803,1.0
pavia,2.8885887,165.0
cuneo,3.0552704,40.0
genova,0.0,62.0
treviso,3.8445237,49.0
barletta_andria_trani,0.0,4.0
udine,0.0,43.0
brescia,15.490968,373.0
ravenna,0.7333013,33.0
latina,0.9259355,3.0
gorizia,0.0,6.0
pordenone,0.6809337,30.0
massa_carrara,1.2181371,136.0
la_aquila,0.03816743,13.0
prato,0.5509258,28.0
rieti,0.0,19.0
aosta,1.8946666,59.0
ragusa,0.014379177,0.0
fermo,0.0,8.0
milano,15.573888,314.0
firenze,2.50681,91.0
arezzo,0.83842236,23.0
bolzano_bozen,4.69692,106.0
piacenza,3.4494498,114.0
ancona,1.8630959,39.0
napoli,0.086156785,93.0
reggio_calabria,0.3420384,15.0
novara,4.347232,48.0
pistoia,0.7776885,34.0
lodi,0.0,23.0
la_spezia,0.047714848,21.0
brindisi,0.33174288,23.0
taranto,0.37826905,15.0
potenza,0.57039255,8.0
perugia,0.4562599,71.0
alessandria,6.9556327,13.0
enna,0.0,91.0
imperia,0.4169352,22.0
vercelli,1.8820238,39.0
foggia,0.0,30.0
lecce,3.254368,106.0
lecco,4.0726995,118.0
padova,0.46999812,52.0
messina,0.30679992,24.0
lucca,0.6732478,137.0
palermo,0.2959551,14.0
livorno,0.0,6.0
benevento,0.9320696,16.0
catanzaro,0.34101498,3.0
bari,0.95907295,25.0
caltanissetta,0.08874417,2.0
isernia,0.0,4.0
biella,0.0,7.0
verona,5.483277,109.0
caserta,2.5905728,32.0
chieti,0.0,40.0
varese,0.6758994,27.0
teramo,0.29140392,57.0
macerata,1.1591555,46.0
cagliari,0.11085133,14.0
terni,0.11858833,18.0
nuoro,0.022967458,4.0
trento,0.0,63.0
salerno,0.9560983,114.0
pesaro_e_urbino,2.1631165,32.0
venezia,2.73024,64.0
siena,1.1713558,19.0
vibo_valentia,0.0,10.0
matera,0.007837046,23.0
forli_cesena,1.0427337,32.0
parma,1.0422759,62.0
trieste,0.10224575,41.0
roma,3.0175207,136.0
ferrara,0.8496208,37.0
belluno,1.939108,38.0
sassari,0.49523062,71.0
avellino,0.0,11.0
agrigento,0.084530294,0.0
como,1.0840033,87.0
cremona,0.0,109.0
catania,0.13753378,22.0
bologna,3.3552754,173.0
pisa,1.3712429,48.0
viterbo,0.4753092,20.0
pescara,0.9330958,36.0
rimini,3.506295,59.0
mantova,0.96593857,86.0
vicenza,3.791148,70.0
verbano_cusio_ossola,1.6515964,20.0
modena,4.470341,150.0
crotone,0.0,7.0
bergamo,8.372251,289.0
