n,o,l
granada,59.20912,47.0
palencia,22.302885,21.0
segovia,60.01166,91.0
valencia,110.33466,238.0
tarragona,38.170788,2.0
cadiz,13.182814,14.0
huelva,44.71207,60.0
caceres,86.794975,47.0
alicante,38.99759,47.0
cordoba,0.21609974,0.0
gipuzkoa,52.757847,32.0
cuenca,58.95051,62.0
sevilla,0.21610579,0.0
guadalajara,63.575188,41.0
salamanca,0.21610576,0.0
toledo,0.21610832,0.0
ciudad_real,18.545263,29.0
badajoz,851.7393,1315.0
barcelona,29.199898,32.0
avila,37.422657,97.0
lleida,71.86097,40.0
araba/alava,14.357324,5.0
albacete,0.2161096,0.0
almeria,18.451654,8.0
zamora,115.742714,0.0
girona,243.64432,210.0
bizkaia,27.876354,23.0
soria,43.537518,57.0
burgos,28.049252,27.0
jaen,32.01069,34.0
valladolid,59.658237,160.0
malaga,58.93544,53.0
leon,44.412685,0.0
castellon,28.536816,22.0
