n,o,l
granada,39.488216,0.0
palencia,25.554401,2.0
segovia,35.431683,78.0
valencia,44.66004,68.0
tarragona,18.582201,0.0
cadiz,21.65812,0.0
huelva,24.297525,3.0
caceres,19.032671,68.0
alicante,52.81439,0.0
cordoba,24.745298,0.0
gipuzkoa,16.440823,108.0
cuenca,53.039715,0.0
sevilla,31.007607,18.0
guadalajara,29.95632,154.0
salamanca,53.424446,73.0
toledo,42.66232,86.0
ciudad_real,52.64663,2.0
badajoz,16.127684,0.0
barcelona,223.77043,26.0
avila,37.520035,0.0
lleida,24.37004,0.0
araba/alava,16.598812,100.0
albacete,47.016636,0.0
almeria,21.871058,14.0
zamora,23.81254,0.0
girona,53.009827,0.0
bizkaia,29.482697,55.0
soria,33.317688,91.0
burgos,59.997837,23.0
jaen,36.990433,63.0
valladolid,22.93889,0.0
malaga,41.256786,0.0
leon,36.69528,0.0
castellon,19.162851,33.0
