n,o,l
siracusa,0.556948,10.0
asti,7.6457605,2.0
oristano,0.14940956,52.0
grosseto,0.0,0.0
sondrio,3.399508,2.0
ascoli_piceno,0.0,3.0
savona,4.2663136,13.0
reggio_emilia,9.627707,25.0
torino,47.64843,263.0
rovigo,2.5760484,1.0
frosinone,0.94060695,7.0
campobasso,0.35487798,2.0
cosenza,1.8059705,0.0
trapani,0.0,1.0
pavia,8.699599,8.0
cuneo,9.14128,12.0
genova,9.338785,156.0
treviso,6.1858416,14.0
barletta_andria_trani,0.045255393,1.0
udine,0.49158144,24.0
brescia,20.68999,0.0
ravenna,0.43993598,1.0
latina,0.6184979,9.0
gorizia,0.0,1.0
pordenone,0.3566758,8.0
massa_carrara,1.3350838,2.0
la_aquila,0.022783361,0.0
prato,0.68591875,11.0
rieti,0.0,0.0
aosta,3.9621158,6.0
ragusa,0.0,2.0
fermo,0.106004186,7.0
milano,46.202274,463.0
firenze,7.1984735,79.0
arezzo,1.0198221,7.0
bolzano_bozen,4.1543965,5.0
piacenza,6.766255,56.0
ancona,2.387168,7.0
napoli,4.5225086,22.0
reggio_calabria,0.0,0.0
novara,6.4574995,6.0
pistoia,0.5758456,8.0
lodi,2.8351648,23.0
la_spezia,1.760914,2.0
brindisi,1.8684624,10.0
taranto,0.04451663,2.0
potenza,0.0,3.0
perugia,0.18915677,2.0
alessandria,10.1473,0.0
enna,0.6543758,8.0
imperia,1.6759542,12.0
vercelli,1.9833244,15.0
foggia,3.275872,8.0
lecce,3.1251936,20.0
lecco,5.19471,16.0
padova,1.4780787,3.0
messina,0.6044363,5.0
lucca,2.1960073,12.0
palermo,0.39309308,9.0
livorno,0.19987753,0.0
benevento,0.8928527,7.0
catanzaro,0.0,1.0
bari,3.3873715,8.0
caltanissetta,0.0,0.0
isernia,0.0,2.0
biella,2.8594773,1.0
verona,10.760684,19.0
caserta,0.0,30.0
chieti,1.7880366,17.0
varese,8.50782,2.0
teramo,0.026852868,60.0
macerata,1.4488311,13.0
cagliari,0.3724875,1.0
terni,0.21975714,0.0
nuoro,0.11550893,0.0
trento,8.135373,6.0
salerno,0.8140804,56.0
pesaro_e_urbino,2.123945,17.0
venezia,3.5068798,5.0
siena,0.5522903,3.0
vibo_valentia,0.0,0.0
matera,0.069768324,2.0
forli_cesena,2.2097824,24.0
parma,4.4547424,39.0
trieste,2.5599847,4.0
roma,11.358507,67.0
ferrara,2.6579545,16.0
belluno,5.59325,3.0
sassari,0.7089784,6.0
avellino,0.14515367,4.0
agrigento,0.0,0.0
como,9.982804,83.0
cremona,11.278602,60.0
catania,3.5581288,10.0
bologna,8.956449,54.0
pisa,0.82011014,3.0
viterbo,0.3326027,2.0
pescara,4.6721377,7.0
rimini,1.321904,3.0
mantova,7.40553,23.0
vicenza,5.7409,18.0
verbano_cusio_ossola,0.9019621,3.0
modena,5.507395,24.0
crotone,0.0,0.0
bergamo,7.201479,66.0
