n,o,l
siracusa,0.23784564,13.0
asti,0.0,21.0
oristano,0.042310562,27.0
grosseto,1.2883364,0.0
sondrio,0.018515777,41.0
ascoli_piceno,0.35814035,31.0
savona,0.78068364,0.0
reggio_emilia,5.4055686,112.0
torino,25.583055,295.0
rovigo,0.27316913,23.0
frosinone,0.37835947,50.0
campobasso,0.10157169,25.0
cosenza,0.22999075,8.0
trapani,0.0047676377,1.0
pavia,2.965966,107.0
cuneo,3.1240652,46.0
genova,0.0,0.0
treviso,3.8895254,77.0
barletta_andria_trani,0.0,20.0
udine,0.0,29.0
brescia,15.984655,334.0
ravenna,0.72324514,64.0
latina,1.0543785,8.0
gorizia,0.0,10.0
pordenone,0.67487824,18.0
massa_carrara,1.2164277,4.0
la_aquila,0.034023758,4.0
prato,0.5506546,11.0
rieti,0.0,2.0
aosta,1.9582099,7.0
ragusa,0.008533493,6.0
fermo,0.0,44.0
milano,15.8765545,848.0
firenze,2.494477,55.0
arezzo,0.939824,20.0
bolzano_bozen,4.725548,48.0
piacenza,3.5467985,91.0
ancona,1.8793596,49.0
napoli,0.10645062,39.0
reggio_calabria,0.3698864,18.0
novara,4.45719,60.0
pistoia,0.77817917,10.0
lodi,0.0,84.0
la_spezia,0.070755795,12.0
brindisi,0.33288622,6.0
taranto,0.38010383,18.0
potenza,0.5681465,14.0
perugia,0.51241165,77.0
alessandria,7.243622,34.0
enna,0.0,43.0
imperia,0.39384356,25.0
vercelli,1.9175357,28.0
foggia,0.0,28.0
lecce,3.3306837,83.0
lecco,4.1115437,141.0
padova,0.504495,47.0
messina,0.37566063,13.0
lucca,0.6948323,45.0
palermo,0.2976023,12.0
livorno,0.0,0.0
benevento,1.0055811,25.0
catanzaro,0.33626005,2.0
bari,0.9913881,51.0
caltanissetta,0.08500405,5.0
isernia,0.0,5.0
biella,0.0,9.0
verona,5.5477934,98.0
caserta,2.6888428,12.0
chieti,0.0,29.0
varese,0.67405856,34.0
teramo,0.32035798,67.0
macerata,1.176387,10.0
cagliari,0.11848588,9.0
terni,0.11157185,15.0
nuoro,0.017835625,26.0
trento,0.0,75.0
salerno,0.8499203,24.0
pesaro_e_urbino,2.177318,42.0
venezia,2.7454255,46.0
siena,1.2430164,23.0
vibo_valentia,0.0,5.0
matera,0.004916396,12.0
forli_cesena,1.0834192,59.0
parma,1.2190398,86.0
trieste,0.098664865,30.0
roma,3.0271516,139.0
ferrara,0.8579314,8.0
belluno,1.9554117,15.0
sassari,0.5076872,13.0
avellino,0.0,8.0
agrigento,0.08249666,5.0
como,1.1197777,56.0
cremona,0.0,214.0
catania,0.13438714,38.0
bologna,3.4260864,146.0
pisa,1.3805197,33.0
viterbo,0.49074358,0.0
pescara,0.94847125,33.0
rimini,3.562696,53.0
mantova,0.9990318,74.0
vicenza,3.8694685,75.0
verbano_cusio_ossola,1.7197456,8.0
modena,4.5190353,143.0
crotone,0.0,9.0
bergamo,8.537798,386.0
