n,o,l
siracusa,0.24450786,0.0
asti,1.6407734,6.0
oristano,4.918793,0.0
grosseto,0.0,0.0
sondrio,0.0,1.0
ascoli_piceno,0.0,1.0
savona,3.6315858,3.0
reggio_emilia,4.978275,3.0
torino,53.670135,66.0
rovigo,0.0,1.0
frosinone,0.241324,1.0
campobasso,0.0,13.0
cosenza,0.0,1.0
trapani,0.0,0.0
pavia,11.590305,24.0
cuneo,5.3128104,5.0
genova,18.175669,30.0
treviso,2.60762,2.0
barletta_andria_trani,0.007931158,0.0
udine,15.429983,2.0
brescia,0.11465038,2.0
ravenna,0.0,70.0
latina,0.44959033,0.0
gorizia,0.09428279,0.0
pordenone,0.17485291,0.0
massa_carrara,0.42353266,1.0
la_aquila,0.0,0.0
prato,0.17717475,1.0
rieti,0.23489125,2.0
aosta,0.4624903,1.0
ragusa,0.0,0.0
fermo,0.72704476,0.0
milano,53.220047,114.0
firenze,7.255429,6.0
arezzo,0.4714716,3.0
bolzano_bozen,1.1183846,3.0
piacenza,13.735499,14.0
ancona,0.22716162,0.0
napoli,1.822614,11.0
reggio_calabria,0.0,0.0
novara,5.086963,6.0
pistoia,0.52742225,0.0
lodi,2.5958045,6.0
la_spezia,0.44486448,2.0
brindisi,0.56453884,0.0
taranto,0.0,1.0
potenza,0.0,0.0
perugia,0.0,0.0
alessandria,0.13955297,2.0
enna,10.925237,0.0
imperia,4.289441,12.0
vercelli,1.7137269,15.0
foggia,2.836571,5.0
lecce,2.9148989,50.0
lecco,1.1604731,5.0
padova,0.07014462,0.0
messina,0.36964715,1.0
lucca,0.55258524,1.0
palermo,1.2973071,3.0
livorno,0.013519291,1.0
benevento,0.1468595,0.0
catanzaro,0.0,1.0
bari,1.2320695,7.0
caltanissetta,0.019093893,0.0
isernia,0.0,0.0
biella,0.0,0.0
verona,10.192576,2.0
caserta,0.8562979,1.0
chieti,1.0899165,0.0
varese,0.0,14.0
teramo,7.5049105,0.0
macerata,0.55283576,1.0
cagliari,0.0,1.0
terni,0.2934506,1.0
nuoro,0.0,0.0
trento,0.07075016,2.0
salerno,8.854555,0.0
pesaro_e_urbino,2.8102837,8.0
venezia,3.409361,3.0
siena,0.0,0.0
vibo_valentia,0.0,0.0
matera,0.0,1.0
forli_cesena,1.8580964,3.0
parma,3.367238,17.0
trieste,2.1269164,6.0
roma,11.518449,21.0
ferrara,0.66101277,2.0
belluno,2.7009366,0.0
sassari,0.14991966,0.0
avellino,0.4057696,0.0
agrigento,0.0,0.0
como,8.062707,8.0
cremona,4.095158,2.0
catania,0.6540631,9.0
bologna,12.533333,11.0
pisa,0.12550935,1.0
viterbo,0.18848029,1.0
pescara,1.1278569,4.0
rimini,2.4710057,5.0
mantova,2.6624656,0.0
vicenza,4.4063487,1.0
verbano_cusio_ossola,1.1650791,12.0
modena,4.6451745,23.0
crotone,0.0,0.0
bergamo,9.4999275,50.0
