n,o,l
charente_maritime,1.7589335,1.0
vienne,0.0,0.0
aude,3.5615485,12.0
haute_loire,0.0,0.0
haute_savoie,13.461943,14.0
dordogne,0.0,0.0
correze,0.0,3.0
indre_et_loire,0.9967637,5.0
saone_et_loire,4.030752,14.0
loire_atlantique,0.22788216,0.0
haute_vienne,0.0,2.0
drome,1.0423372,0.0
cote_d'or,1.7561527,2.0
landes,84.82729,1.0
paris,0.048315603,125.0
charente,0.0,4.0
meurthe_et_moselle,3.9858286,9.0
essonne,36.21047,101.0
marne,9.345347,16.0
seine_saint_denis,62.37143,73.0
moselle,20.582188,90.0
bas_rhin,13.229726,19.0
pas_de_calais,7.405312,20.0
nord,6.916004,32.0
loiret,10.380604,21.0
nievre,2.004153,8.0
alpes_maritimes,7.691131,4.0
pyrenees_atlantiques,2.286639,3.0
val_d'oise,36.173325,45.0
meuse,0.8125471,6.0
mayenne,0.0,1.0
val_de_marne,46.24374,95.0
hautes_pyrenees,2.0050738,8.0
lot,0.0,1.0
isere,0.6846869,4.0
gironde,10.811552,12.0
yvelines,24.60213,50.0
yonne,0.0,1.0
haute_saone,2.1645901,8.0
somme,9.262763,20.0
eure_et_loir,13.237591,33.0
manche,6.8693876,15.0
indre,1.0065303,4.0
haute_marne,0.0,1.0
haut_rhin,35.951145,67.0
maine_et_loire,0.0,0.0
jura,0.73260576,1.0
savoie,0.0,4.0
ardennes,0.53515255,3.0
haute_garonne,4.251089,6.0
rhone,5.097736,12.0
ardeche,0.3388467,4.0
aisne,12.908505,21.0
vosges,12.825286,17.0
gers,0.9717437,5.0
oise,36.96074,69.0
hauts_de_seine,70.91584,102.0
territoire_de_belfort,1.8065915,9.0
lot_et_garonne,0.0,1.0
eure,7.2052555,27.0
tarn,0.0,2.0
cher,4.873125,31.0
aube,8.152316,28.0
vaucluse,3.787824,8.0
pyrenees_orientales,0.0,2.0
var,10.386649,32.0
cantal,0.0,0.0
doubs,3.025984,13.0
seine_et_marne,34.843597,84.0
ain,2.3246105,11.0
calvados,2.6064322,4.0
herault,25.676594,20.0
bouches_du_rhone,71.85767,166.0
puy_de_dome,4.111366,10.0
tarn_et_garonne,0.0,21.0
loire,0.0,0.0
gard,7.089953,6.0
loir_et_cher,0.0,1.0
alpes_de_haute_provence,0.21168573,0.0
orne,0.0,4.0
seine_maritime,8.880512,13.0
