n,o,l
E10000013,44.943867,40.0
E08000001,27.322544,35.0
E06000032,24.31567,15.0
E08000034,23.042809,19.0
E06000022,3.2685084,6.0
E10000006,84.33093,52.0
E10000025,67.30067,52.0
E08000009,23.462034,11.0
E06000049,27.653051,31.0
E10000024,37.31745,27.0
E09000017,26.584265,16.0
E08000027,21.514143,17.0
E06000021,8.201267,15.0
E10000019,31.23488,22.0
E08000008,15.961679,20.0
E09000026,30.90117,19.0
E06000001,3.968877,4.0
E06000050,34.16236,15.0
E08000017,7.515309,10.0
E06000055,12.58376,16.0
E06000040,3.5963116,2.0
E06000002,22.371319,19.0
E06000004,13.260471,9.0
E08000030,34.84141,22.0
E08000032,29.307648,13.0
E10000017,124.29678,83.0
E08000004,28.51488,16.0
E08000035,47.735725,28.0
E06000011,13.44065,17.0
E10000032,48.576298,31.0
E06000038,8.925658,27.0
E06000041,6.8041973,17.0
E09000015,27.684958,23.0
E09000006,38.748154,31.0
E08000011,21.17862,16.0
E06000008,9.77815,11.0
E06000026,6.4005837,12.0
E06000059,9.249025,4.0
E06000034,9.03245,8.0
E10000014,110.84599,79.0
E06000016,25.639233,9.0
E06000035,28.713972,11.0
E08000014,39.91122,32.0
E06000056,17.08732,9.0
E10000003,21.424335,13.0
E09000004,28.566246,10.0
E10000018,29.973179,13.0
E08000012,65.35676,36.0
E06000012,1.5859078,4.0
E10000027,10.325299,14.0
E06000014,7.9683948,12.0
E08000036,55.97353,15.0
E09000008,21.854187,26.0
E06000046,1.6143674,1.0
E06000030,9.506846,15.0
E06000054,10.346154,17.0
E08000005,17.938705,20.0
E06000027,1.6136259,3.0
E10000016,126.17614,116.0
E10000030,104.03695,95.0
E08000013,30.039495,9.0
E06000033,15.941106,10.0
E08000016,14.5329275,32.0
E09000016,29.797182,17.0
E06000051,9.286129,17.0
E08000037,36.14747,20.0
E06000052,16.33849,21.0
E09000010,27.589037,14.0
E10000021,48.525105,18.0
E06000039,9.745885,34.0
E08000024,56.28061,14.0
E09000027,10.273699,5.0
E09000009,34.6506,33.0
E10000020,44.864326,53.0
E10000023,31.778162,26.0
E10000029,29.179142,11.0
E06000045,12.206529,18.0
E08000018,15.729144,35.0
E10000034,37.36794,25.0
E06000018,18.160824,13.0
E08000019,62.092575,71.0
E06000017,1.3241094,1.0
E08000010,24.689396,25.0
E09000003,46.294395,22.0
E10000028,55.570686,40.0
E10000008,24.314157,24.0
E08000025,100.7767,45.0
E10000031,40.50826,27.0
E08000007,34.289524,38.0
E06000013,3.8065093,7.0
E06000005,7.582251,5.0
E08000015,48.21085,35.0
E06000042,15.317505,15.0
E06000009,4.8693438,15.0
E10000007,36.02596,29.0
E09000001,1.3627467,0.0
E09000022,42.72397,16.0
E06000047,60.977486,45.0
E06000037,7.853809,12.0
E08000026,22.422098,18.0
E09000002,16.670412,17.0
E09000018,25.109812,9.0
E06000043,12.491528,9.0
E06000020,4.6213512,3.0
E06000057,30.188547,31.0
E06000006,14.221592,8.0
E08000003,54.808094,40.0
E10000015,93.52136,57.0
E06000024,3.2182415,5.0
E08000023,16.072079,16.0
E06000036,5.548532,15.0
E10000011,19.828707,13.0
E06000031,4.7612057,7.0
E08000021,38.13707,20.0
E10000002,28.00684,21.0
E06000044,6.39348,4.0
E08000031,16.408045,28.0
E09000020,13.6377,7.0
E06000003,10.011947,14.0
E08000002,19.222338,21.0
E10000012,110.36348,81.0
E09000005,49.748585,25.0
E06000007,24.412867,16.0
E09000023,6.049552,6.0
E08000033,41.838966,28.0
E09000021,13.884234,11.0
E09000029,25.204762,54.0
E08000022,26.175392,14.0
E06000015,15.491832,4.0
