n,o,l
siracusa,0.25035927,2.0
asti,1.6626707,13.0
oristano,0.0,7.0
grosseto,0.17984447,3.0
sondrio,1.9492357,23.0
ascoli_piceno,0.035332497,0.0
savona,11.421295,0.0
reggio_emilia,13.77043,101.0
torino,19.62019,195.0
rovigo,0.9960521,17.0
frosinone,0.51736367,5.0
campobasso,0.70402235,0.0
cosenza,1.1215729,13.0
trapani,0.032529987,6.0
pavia,6.034974,81.0
cuneo,5.5931635,64.0
genova,17.706417,78.0
treviso,2.7713368,14.0
barletta_andria_trani,0.5032458,39.0
udine,4.2830615,7.0
brescia,16.110117,137.0
ravenna,1.9600852,20.0
latina,1.4500557,13.0
gorizia,0.07974158,3.0
pordenone,0.77754164,7.0
massa_carrara,0.5684007,31.0
la_aquila,0.9656956,4.0
prato,1.5740008,4.0
rieti,0.7608355,73.0
aosta,3.0229533,23.0
ragusa,0.0,6.0
fermo,0.99323374,4.0
milano,38.872383,308.0
firenze,13.116484,54.0
arezzo,0.0,9.0
bolzano_bozen,4.3447766,78.0
piacenza,4.605619,44.0
ancona,4.7914915,45.0
napoli,8.012392,36.0
reggio_calabria,0.9482471,6.0
novara,2.1865215,22.0
pistoia,1.0792946,6.0
lodi,1.8268918,23.0
la_spezia,4.955307,5.0
brindisi,1.2223529,11.0
taranto,0.8035244,8.0
potenza,0.39187065,2.0
perugia,1.986684,4.0
alessandria,9.275143,141.0
enna,1.1174606,3.0
imperia,7.767512,6.0
vercelli,2.4412863,42.0
foggia,1.7386712,41.0
lecce,3.459646,34.0
lecco,8.838411,119.0
padova,0.6428297,9.0
messina,0.29219246,10.0
lucca,2.474849,16.0
palermo,0.36625767,2.0
livorno,0.36189362,0.0
benevento,0.14166544,1.0
catanzaro,0.2051127,1.0
bari,2.5314617,17.0
caltanissetta,0.35491738,2.0
isernia,0.0,0.0
biella,0.88760865,12.0
verona,10.462454,67.0
caserta,1.2833657,8.0
chieti,0.7019566,2.0
varese,4.9441175,102.0
teramo,1.737508,11.0
macerata,1.8980737,25.0
cagliari,0.39075702,0.0
terni,0.8579266,9.0
nuoro,0.1001345,0.0
trento,8.217514,63.0
salerno,1.3031954,25.0
pesaro_e_urbino,2.5123785,66.0
venezia,4.3074455,62.0
siena,0.15361182,10.0
vibo_valentia,0.24552765,0.0
matera,0.62934494,7.0
forli_cesena,4.204055,38.0
parma,3.5767052,42.0
trieste,1.9028118,38.0
roma,7.9606886,55.0
ferrara,0.47699,22.0
belluno,1.4315513,20.0
sassari,0.74182224,9.0
avellino,2.3239505,18.0
agrigento,0.01431952,2.0
como,7.372193,27.0
cremona,4.754785,89.0
catania,1.1346223,20.0
bologna,9.416476,96.0
pisa,1.0055645,16.0
viterbo,1.146097,0.0
pescara,1.4309163,1.0
rimini,3.1735983,22.0
mantova,5.252777,40.0
vicenza,5.478502,57.0
verbano_cusio_ossola,2.958528,63.0
modena,6.732376,82.0
crotone,0.20879522,2.0
bergamo,11.839236,103.0
