n,o,l
siracusa,0.34570953,0.0
asti,7.9155226,12.0
oristano,0.1275211,1.0
grosseto,0.0,0.0
sondrio,4.7167606,7.0
ascoli_piceno,0.0,0.0
savona,4.055641,21.0
reggio_emilia,6.2280183,11.0
torino,52.23385,98.0
rovigo,2.1906965,0.0
frosinone,0.5474767,0.0
campobasso,0.0,2.0
cosenza,0.5159508,0.0
trapani,0.0,0.0
pavia,10.790623,70.0
cuneo,6.986637,28.0
genova,17.605534,45.0
treviso,3.0404885,3.0
barletta_andria_trani,0.40824908,1.0
udine,0.31020555,1.0
brescia,0.816456,99.0
ravenna,16.095581,4.0
latina,0.23051596,2.0
gorizia,0.69439757,1.0
pordenone,0.62774515,1.0
massa_carrara,0.29805875,0.0
la_aquila,0.0,0.0
prato,1.0033069,2.0
rieti,1.0044931,1.0
aosta,0.2285462,3.0
ragusa,0.3689506,0.0
fermo,0.68789035,1.0
milano,69.35443,313.0
firenze,9.94242,15.0
arezzo,1.0099527,2.0
bolzano_bozen,1.9011214,1.0
piacenza,9.491447,9.0
ancona,1.3095973,2.0
napoli,4.960226,15.0
reggio_calabria,0.0,0.0
novara,5.0494027,5.0
pistoia,0.913239,0.0
lodi,4.1990347,41.0
la_spezia,0.5378924,3.0
brindisi,1.3174692,7.0
taranto,0.12633975,3.0
potenza,0.0,1.0
perugia,0.0,1.0
alessandria,8.715832,16.0
enna,0.5645851,3.0
imperia,2.265151,6.0
vercelli,3.3017528,3.0
foggia,2.6525917,11.0
lecce,2.864759,10.0
lecco,3.311318,3.0
padova,0.411332,1.0
messina,0.32280666,2.0
lucca,0.90785176,4.0
palermo,0.56092954,1.0
livorno,0.0,0.0
benevento,0.2538681,0.0
catanzaro,0.009238623,1.0
bari,4.149086,5.0
caltanissetta,0.17101961,0.0
isernia,0.0,1.0
biella,4.829099,4.0
verona,13.255081,29.0
caserta,0.0,1.0
chieti,3.073305,0.0
varese,7.7609057,127.0
teramo,0.06282784,0.0
macerata,1.9751425,5.0
cagliari,0.0,0.0
terni,0.0,2.0
nuoro,0.0,0.0
trento,9.575771,19.0
salerno,0.4675521,2.0
pesaro_e_urbino,2.6714547,18.0
venezia,4.970663,31.0
siena,0.0022537485,0.0
vibo_valentia,0.0,0.0
matera,0.079274535,2.0
forli_cesena,2.575186,19.0
parma,4.694593,14.0
trieste,1.3635105,6.0
roma,10.107259,75.0
ferrara,3.0348666,11.0
belluno,3.794724,1.0
sassari,0.41167256,1.0
avellino,0.017194726,5.0
agrigento,0.0,0.0
como,15.142086,37.0
cremona,12.272877,21.0
catania,3.0921688,9.0
bologna,9.420667,27.0
pisa,0.32940206,2.0
viterbo,0.54808307,2.0
pescara,2.3177814,25.0
rimini,2.5539246,1.0
mantova,5.5005274,2.0
vicenza,4.2714534,10.0
verbano_cusio_ossola,0.9078058,1.0
modena,3.6835065,8.0
crotone,0.0,0.0
bergamo,11.725301,37.0
