n,o,l
charente_maritime,2.8116164,2.0
vienne,0.9792962,0.0
aude,10.281773,0.0
haute_loire,1.4495052,6.0
haute_savoie,16.943964,7.0
dordogne,1.4510711,0.0
correze,1.0905709,0.0
indre_et_loire,3.0396216,4.0
saone_et_loire,15.579973,11.0
loire_atlantique,1.4065038,0.0
haute_vienne,1.6441413,0.0
drome,2.544314,3.0
cote_d'or,2.1629748,1.0
landes,120.28404,115.0
paris,2.2087684,1.0
charente,0.9873941,0.0
meurthe_et_moselle,100.75672,2.0
essonne,10.999796,41.0
marne,13.783103,15.0
seine_saint_denis,72.86794,77.0
moselle,66.585846,7.0
bas_rhin,16.396778,25.0
pas_de_calais,20.225372,21.0
nord,22.515257,17.0
loiret,16.756704,1.0
nievre,7.2849307,8.0
alpes_maritimes,11.118886,0.0
pyrenees_atlantiques,2.8188639,1.0
val_d'oise,33.904655,34.0
meuse,0.578724,0.0
mayenne,0.8284954,1.0
val_de_marne,73.221634,62.0
hautes_pyrenees,6.618042,10.0
lot,1.7075193,1.0
isere,3.859516,3.0
gironde,11.524912,7.0
yvelines,42.23637,52.0
yonne,1.7230762,4.0
haute_saone,7.3691688,24.0
somme,17.040134,23.0
eure_et_loir,48.965294,19.0
manche,17.967249,13.0
indre,4.4766097,8.0
haute_marne,1.51798,0.0
haut_rhin,44.719807,18.0
maine_et_loire,1.1936764,0.0
jura,1.5911449,2.0
savoie,1.9702326,0.0
ardennes,4.5222926,1.0
haute_garonne,8.317931,5.0
rhone,14.051773,6.0
ardeche,3.052221,4.0
aisne,20.222424,17.0
vosges,16.230986,9.0
gers,4.538457,12.0
oise,51.73386,41.0
hauts_de_seine,74.96068,83.0
territoire_de_belfort,5.8921843,2.0
lot_et_garonne,1.5808203,0.0
eure,25.843454,31.0
tarn,0.11864777,1.0
cher,12.124664,10.0
aube,22.617874,21.0
vaucluse,5.498972,7.0
pyrenees_orientales,21.824013,1.0
var,1.7220293,11.0
cantal,0.73092663,1.0
doubs,10.031089,7.0
seine_et_marne,80.15382,99.0
ain,9.735407,12.0
calvados,3.9258356,3.0
herault,20.931887,14.0
bouches_du_rhone,117.70577,112.0
puy_de_dome,8.565815,18.0
tarn_et_garonne,0.0,0.0
loire,1.3192714,10.0
gard,7.742298,10.0
loir_et_cher,1.5397238,0.0
alpes_de_haute_provence,1.0969653,2.0
orne,1.5102198,3.0
seine_maritime,17.488823,12.0
