n,o,l
siracusa,0.82276106,1.0
asti,4.9808416,78.0
oristano,0.09710014,3.0
grosseto,7.025768,10.0
sondrio,0.0,4.0
ascoli_piceno,0.3394519,0.0
savona,0.0,11.0
reggio_emilia,10.535932,34.0
torino,46.72487,134.0
rovigo,0.4446147,1.0
frosinone,0.7885986,4.0
campobasso,0.0,1.0
cosenza,2.5095582,1.0
trapani,0.0,0.0
pavia,10.126325,59.0
cuneo,9.004321,22.0
genova,13.493327,86.0
treviso,7.6365366,10.0
barletta_andria_trani,0.4961617,0.0
udine,2.6189604,5.0
brescia,0.48737818,58.0
ravenna,18.170265,8.0
latina,0.3905487,2.0
gorizia,0.003011711,6.0
pordenone,1.1456501,5.0
massa_carrara,0.7173961,16.0
la_aquila,0.12664351,0.0
prato,1.5163759,6.0
rieti,0.0,1.0
aosta,4.696248,0.0
ragusa,0.0,0.0
fermo,0.3815559,7.0
milano,36.942146,287.0
firenze,8.438573,44.0
arezzo,2.1526465,9.0
bolzano_bozen,4.1711917,14.0
piacenza,4.3105917,24.0
ancona,2.020723,19.0
napoli,5.1882153,22.0
reggio_calabria,0.18719167,0.0
novara,10.992823,9.0
pistoia,0.9855232,11.0
lodi,3.6416647,16.0
la_spezia,1.9495475,10.0
brindisi,1.9296765,15.0
taranto,0.25894076,1.0
potenza,0.0,0.0
perugia,0.18251225,1.0
alessandria,0.36420053,32.0
enna,11.046228,5.0
imperia,4.7772303,34.0
vercelli,3.8058293,9.0
foggia,1.9746578,16.0
lecce,2.6678362,8.0
lecco,7.342918,26.0
padova,1.0168076,8.0
messina,0.10889636,1.0
lucca,2.7716,16.0
palermo,0.50002956,3.0
livorno,0.0,0.0
benevento,2.0002515,2.0
catanzaro,0.26095942,0.0
bari,2.8190606,28.0
caltanissetta,0.0,0.0
isernia,0.0,1.0
biella,0.2541287,4.0
verona,9.451898,24.0
caserta,1.6429913,3.0
chieti,1.6360631,35.0
varese,0.2162183,38.0
teramo,10.969166,7.0
macerata,1.5133882,8.0
cagliari,0.025745902,1.0
terni,0.0,0.0
nuoro,0.0,0.0
trento,1.355589,58.0
salerno,8.17891,15.0
pesaro_e_urbino,2.6520288,21.0
venezia,2.4228268,34.0
siena,0.44249725,2.0
vibo_valentia,0.0,0.0
matera,0.29894835,0.0
forli_cesena,3.201085,20.0
parma,6.105283,74.0
trieste,4.5519385,14.0
roma,16.030241,51.0
ferrara,3.4072185,16.0
belluno,3.5597365,48.0
sassari,0.9460419,2.0
avellino,0.44781876,0.0
agrigento,0.0,0.0
como,14.882682,62.0
cremona,13.345125,74.0
catania,1.2089927,25.0
bologna,9.203239,82.0
pisa,1.7495205,26.0
viterbo,0.5118759,0.0
pescara,3.5308716,49.0
rimini,1.8818923,28.0
mantova,8.339423,8.0
vicenza,7.179615,40.0
verbano_cusio_ossola,0.8600723,2.0
modena,5.293883,21.0
crotone,0.0,0.0
bergamo,5.511753,49.0
