n,o,l
charente_maritime,2.192912,3.0
vienne,0.0,1.0
aude,7.340421,9.0
haute_loire,0.6276367,6.0
haute_savoie,28.101318,22.0
dordogne,0.68378055,2.0
correze,0.20131949,0.0
indre_et_loire,4.999783,4.0
saone_et_loire,4.433051,9.0
loire_atlantique,2.3483467,5.0
haute_vienne,1.5848573,0.0
drome,5.2949038,9.0
cote_d'or,0.89060163,8.0
landes,192.44434,121.0
paris,0.38505125,3.0
charente,0.21432364,0.0
meurthe_et_moselle,77.36185,11.0
essonne,7.0641146,41.0
marne,14.577017,19.0
seine_saint_denis,104.26906,98.0
moselle,15.3028145,27.0
bas_rhin,19.163254,20.0
pas_de_calais,3.8907063,15.0
nord,12.7854395,11.0
loiret,14.71552,23.0
nievre,2.093392,4.0
alpes_maritimes,9.720932,15.0
pyrenees_atlantiques,3.7071278,9.0
val_d'oise,94.57144,43.0
meuse,0.0,2.0
mayenne,0.26608735,0.0
val_de_marne,64.03744,69.0
hautes_pyrenees,1.2915624,4.0
lot,0.08281274,1.0
isere,4.6485243,3.0
gironde,17.921556,19.0
yvelines,46.751495,48.0
yonne,0.6541083,0.0
haute_saone,15.837474,3.0
somme,13.482054,13.0
eure_et_loir,20.127893,27.0
manche,9.094041,13.0
indre,2.0798013,2.0
haute_marne,0.93334025,1.0
haut_rhin,32.325844,84.0
maine_et_loire,0.23509595,0.0
jura,0.3430053,3.0
savoie,0.66486794,0.0
ardennes,1.3418726,2.0
haute_garonne,12.565002,8.0
rhone,0.8376857,7.0
ardeche,1.5991739,1.0
aisne,5.4152446,22.0
vosges,17.19012,28.0
gers,2.7722414,4.0
oise,36.280506,51.0
hauts_de_seine,132.67802,115.0
territoire_de_belfort,1.9163972,8.0
lot_et_garonne,0.10131516,1.0
eure,9.411186,13.0
tarn,0.9839455,0.0
cher,13.012936,11.0
aube,9.092709,12.0
vaucluse,8.557989,14.0
pyrenees_orientales,20.461771,2.0
var,0.12241127,16.0
cantal,0.2766956,0.0
doubs,4.9563885,10.0
seine_et_marne,40.610794,73.0
ain,4.789457,4.0
calvados,10.882124,6.0
herault,71.49788,66.0
bouches_du_rhone,160.40115,106.0
puy_de_dome,6.056782,11.0
tarn_et_garonne,1.7716101,2.0
loire,0.26387364,1.0
gard,5.4105563,18.0
loir_et_cher,1.7040392,0.0
alpes_de_haute_provence,0.9070615,5.0
orne,3.1748765,0.0
seine_maritime,14.243903,17.0
