n,o,l
granada,63.884197,54.0
palencia,35.34459,14.0
segovia,75.39097,33.0
valencia,131.75984,160.0
tarragona,64.66461,19.0
cadiz,26.348267,17.0
huelva,48.26106,23.0
caceres,55.212112,32.0
alicante,105.19532,35.0
cordoba,56.09681,107.0
gipuzkoa,53.60979,5.0
cuenca,15.610919,30.0
sevilla,79.40227,33.0
guadalajara,15.367415,77.0
salamanca,83.21398,80.0
toledo,15.415077,96.0
ciudad_real,15.394818,38.0
badajoz,34.456646,771.0
barcelona,882.5753,15.0
avila,47.48875,38.0
lleida,52.588524,37.0
araba/alava,83.53164,14.0
albacete,15.392226,36.0
almeria,24.460823,23.0
zamora,29.361317,0.0
girona,108.763054,142.0
bizkaia,261.41342,52.0
soria,42.59073,73.0
burgos,44.562252,72.0
jaen,75.86208,23.0
valladolid,43.822227,31.0
malaga,70.00981,59.0
leon,57.02439,26.0
castellon,42.37253,56.0
