n,o,l
charente_maritime,6.0985794,2.0
vienne,0.0,0.0
aude,1.1642176,3.0
haute_loire,0.25273848,1.0
haute_savoie,6.326952,5.0
dordogne,0.0,0.0
correze,0.0,0.0
indre_et_loire,0.1544685,0.0
saone_et_loire,3.1775823,3.0
loire_atlantique,0.0,0.0
haute_vienne,0.0,6.0
drome,0.5831124,0.0
cote_d'or,0.0,1.0
landes,41.493565,35.0
paris,0.0,0.0
charente,0.0,0.0
meurthe_et_moselle,2.1903942,4.0
essonne,28.49528,64.0
marne,3.2266707,4.0
seine_saint_denis,30.01578,82.0
moselle,14.56146,25.0
bas_rhin,7.501443,9.0
pas_de_calais,7.6914997,17.0
nord,6.052321,16.0
loiret,1.8508826,2.0
nievre,5.1571136,7.0
alpes_maritimes,2.7514179,5.0
pyrenees_atlantiques,0.0,18.0
val_d'oise,11.690499,28.0
meuse,0.0,3.0
mayenne,0.0,2.0
val_de_marne,23.252151,38.0
hautes_pyrenees,6.469637,1.0
lot,0.0,0.0
isere,0.59227717,0.0
gironde,2.6061528,9.0
yvelines,14.346152,18.0
yonne,0.095592186,1.0
haute_saone,5.07763,5.0
somme,5.235222,14.0
eure_et_loir,12.704424,7.0
manche,4.308713,17.0
indre,2.5410132,0.0
haute_marne,0.0,1.0
haut_rhin,13.44714,8.0
maine_et_loire,0.0,0.0
jura,2.8669841,5.0
savoie,0.0,0.0
ardennes,1.0362388,4.0
haute_garonne,1.4162556,1.0
rhone,1.4674963,10.0
ardeche,0.68480265,0.0
aisne,3.9987388,15.0
vosges,2.3344433,0.0
gers,1.5730252,4.0
oise,14.413806,11.0
hauts_de_seine,29.760626,21.0
territoire_de_belfort,0.0124414,3.0
lot_et_garonne,0.0,0.0
eure,9.573161,8.0
tarn,0.0,1.0
cher,2.905213,7.0
aube,6.4328985,10.0
vaucluse,2.7539313,0.0
pyrenees_orientales,0.0,3.0
var,3.4027328,5.0
cantal,0.0,2.0
doubs,1.9405975,9.0
seine_et_marne,30.691694,38.0
ain,4.368844,5.0
calvados,1.4781498,0.0
herault,4.0883126,21.0
bouches_du_rhone,39.14344,34.0
puy_de_dome,3.2398503,2.0
tarn_et_garonne,0.0,1.0
loire,0.81588364,0.0
gard,3.8419213,5.0
loir_et_cher,0.0,0.0
alpes_de_haute_provence,0.0,2.0
orne,0.061983913,1.0
seine_maritime,4.820627,7.0
