n,o,l
granada,29.89574,39.0
palencia,12.034691,47.0
segovia,69.688126,101.0
valencia,57.243164,179.0
tarragona,5.3419313,8.0
cadiz,12.002613,14.0
huelva,20.930857,152.0
caceres,41.376297,112.0
alicante,47.261322,71.0
cordoba,0.14390257,0.0
gipuzkoa,18.031929,20.0
cuenca,35.405594,60.0
sevilla,0.14399317,0.0
guadalajara,55.513397,95.0
salamanca,0.14390796,0.0
toledo,0.14405794,0.0
ciudad_real,11.385872,61.0
badajoz,616.0257,895.0
barcelona,22.988077,34.0
avila,39.254307,53.0
lleida,39.312897,82.0
araba/alava,8.1790285,3.0
albacete,0.14409864,0.0
almeria,6.0141625,38.0
zamora,27.120373,0.0
girona,120.91945,259.0
bizkaia,11.60634,26.0
soria,30.947561,58.0
burgos,14.659375,46.0
jaen,17.884691,42.0
valladolid,58.72624,139.0
malaga,36.325066,16.0
leon,26.82046,0.0
castellon,15.320266,76.0
