n,o,l
granada,33.72988,51.0
palencia,20.797976,24.0
segovia,79.87653,85.0
valencia,118.16498,74.0
tarragona,5.0706253,46.0
cadiz,12.5965,5.0
huelva,57.354973,43.0
caceres,57.507698,43.0
alicante,50.442295,38.0
cordoba,0.2797283,42.0
gipuzkoa,20.159307,43.0
cuenca,45.80543,13.0
sevilla,0.27973178,49.0
guadalajara,61.11315,33.0
salamanca,0.2797318,66.0
toledo,0.27973178,71.0
ciudad_real,26.13157,115.0
badajoz,803.6237,7.0
barcelona,27.18527,760.0
avila,53.08009,58.0
lleida,47.971775,35.0
araba/alava,6.5206394,44.0
albacete,0.27981254,44.0
almeria,13.673532,19.0
zamora,18.905651,9.0
girona,165.78973,209.0
bizkaia,16.514927,305.0
soria,41.436417,120.0
burgos,23.791128,14.0
jaen,25.87669,92.0
valladolid,93.817986,23.0
malaga,34.576477,84.0
leon,16.080624,112.0
castellon,29.778587,60.0
