n,o,l
E10000013,37.914864,31.0
E08000001,22.279533,15.0
E06000032,24.803318,27.0
E08000034,25.3882,12.0
E06000022,5.7129626,5.0
E10000006,71.094124,49.0
E10000025,56.11377,79.0
E08000009,26.355986,19.0
E06000049,27.184809,27.0
E10000024,47.4949,20.0
E09000017,29.167349,20.0
E08000027,33.02458,16.0
E06000021,13.36345,7.0
E10000019,31.082048,21.0
E08000008,19.969799,14.0
E09000026,32.59528,22.0
E06000001,4.4989495,3.0
E06000050,29.462214,31.0
E08000017,21.734806,0.0
E06000055,12.923651,5.0
E06000040,8.1685505,4.0
E06000002,21.630033,21.0
E06000004,17.601896,12.0
E08000030,45.622585,17.0
E08000032,28.560328,28.0
E10000017,94.58188,94.0
E08000004,24.94522,13.0
E08000035,36.97204,36.0
E06000011,11.684108,10.0
E10000032,32.520428,27.0
E06000038,15.310237,8.0
E06000041,13.935839,8.0
E09000015,41.91382,26.0
E09000006,49.02474,26.0
E08000011,24.219296,15.0
E06000008,13.035847,8.0
E06000026,10.235028,1.0
E06000059,14.773492,6.0
E06000034,17.872057,9.0
E10000014,100.80331,74.0
E06000016,24.179132,20.0
E06000035,24.617762,19.0
E08000014,31.502607,27.0
E06000056,22.180885,16.0
E10000003,26.90293,26.0
E09000004,25.94557,17.0
E10000018,30.46368,31.0
E08000012,54.678783,46.0
E06000012,3.4331071,2.0
E10000027,16.553192,9.0
E06000014,9.395348,4.0
E08000036,67.913895,36.0
E09000008,20.832163,21.0
E06000046,1.0280885,2.0
E06000030,10.010211,10.0
E06000054,15.765748,18.0
E08000005,18.23168,11.0
E06000027,5.073913,3.0
E10000016,95.625946,72.0
E10000030,92.914795,66.0
E08000013,29.593288,19.0
E06000033,18.430012,8.0
E08000016,26.414047,2.0
E09000016,27.292776,20.0
E06000051,16.555042,7.0
E08000037,27.69298,20.0
E06000052,22.47793,11.0
E09000010,31.507145,12.0
E10000021,52.58986,34.0
E06000039,9.120379,49.0
E08000024,36.382416,5.0
E09000027,17.286116,7.0
E09000009,43.851906,14.0
E10000020,34.945473,35.0
E10000023,30.249578,22.0
E10000029,29.639133,12.0
E06000045,22.057096,31.0
E08000018,29.194344,9.0
E10000034,46.22016,24.0
E06000018,19.066809,11.0
E08000019,80.24752,66.0
E06000017,4.1905956,1.0
E08000010,25.080994,22.0
E09000003,64.052444,40.0
E10000028,57.929382,32.0
E10000008,24.130733,20.0
E08000025,130.47818,70.0
E10000031,47.939007,24.0
E08000007,28.477282,26.0
E06000013,6.74224,0.0
E06000005,3.612094,2.0
E08000015,38.16489,43.0
E06000042,19.079178,21.0
E06000009,14.464675,3.0
E10000007,48.871677,8.0
E09000001,3.35313,0.0
E09000022,55.884712,17.0
E06000047,37.577938,26.0
E06000037,11.061806,6.0
E08000026,30.120228,10.0
E09000002,23.56318,16.0
E09000018,33.719425,19.0
E06000043,12.395183,11.0
E06000020,10.933556,9.0
E06000057,18.944778,23.0
E06000006,15.668911,15.0
E08000003,38.903725,36.0
E10000015,98.19351,62.0
E06000024,8.72835,4.0
E08000023,14.463207,15.0
E06000036,7.5990005,4.0
E10000011,23.640684,12.0
E06000031,7.6196585,6.0
E08000021,37.478527,25.0
E10000002,34.629364,12.0
E06000044,7.2112117,10.0
E08000031,28.765633,10.0
E09000020,24.815878,6.0
E06000003,12.584532,8.0
E08000002,16.412447,17.0
E10000012,103.82648,54.0
E09000005,67.63167,37.0
E06000007,24.029116,23.0
E09000023,13.519828,3.0
E08000033,47.72702,28.0
E09000021,20.269627,9.0
E09000029,33.057903,10.0
E08000022,16.929646,20.0
E06000015,29.71509,2.0
