n,o,l
charente_maritime,0.15016079,0.0
vienne,0.0,0.0
aude,7.0271206,0.0
haute_loire,0.0,0.0
haute_savoie,15.070037,0.0
dordogne,0.0,0.0
correze,0.0,1.0
indre_et_loire,0.58398837,0.0
saone_et_loire,7.5464354,2.0
loire_atlantique,0.0,0.0
haute_vienne,0.50708467,0.0
drome,0.10412373,0.0
cote_d'or,0.0,0.0
landes,0.0,4.0
paris,116.659874,0.0
charente,0.0,0.0
meurthe_et_moselle,87.03165,1.0
essonne,7.8108606,0.0
marne,9.689038,0.0
seine_saint_denis,72.097565,5.0
moselle,36.36159,0.0
bas_rhin,7.661373,0.0
pas_de_calais,16.580229,1.0
nord,16.611013,0.0
loiret,11.291019,0.0
nievre,10.689657,0.0
alpes_maritimes,7.953078,0.0
pyrenees_atlantiques,1.0059682,0.0
val_d'oise,29.660028,6.0
meuse,1.5848604,0.0
mayenne,0.0,0.0
val_de_marne,62.525284,0.0
hautes_pyrenees,2.2070506,0.0
lot,0.0,0.0
isere,2.5870743,0.0
gironde,6.6681657,0.0
yvelines,33.350952,0.0
yonne,0.0,0.0
haute_saone,4.097284,0.0
somme,12.114318,0.0
eure_et_loir,41.745655,0.0
manche,8.250001,0.0
indre,1.8875616,0.0
haute_marne,0.0,0.0
haut_rhin,28.68403,0.0
maine_et_loire,0.0,0.0
jura,17.114475,0.0
savoie,0.0,0.0
ardennes,1.6129129,0.0
haute_garonne,4.5704265,0.0
rhone,4.34135,0.0
ardeche,0.18700454,0.0
aisne,12.933015,0.0
vosges,8.346328,0.0
gers,1.7964523,0.0
oise,41.830776,1.0
hauts_de_seine,73.11514,1.0
territoire_de_belfort,2.1253498,0.0
lot_et_garonne,0.0,0.0
eure,21.714067,2.0
tarn,1.5983073,0.0
cher,12.52854,1.0
aube,15.598984,0.0
vaucluse,15.363233,0.0
pyrenees_orientales,0.0,0.0
var,11.25517,0.0
cantal,0.0,0.0
doubs,5.139554,0.0
seine_et_marne,69.35907,4.0
ain,5.3974276,0.0
calvados,0.8760537,0.0
herault,15.960077,3.0
bouches_du_rhone,90.53008,0.0
puy_de_dome,5.460077,0.0
tarn_et_garonne,3.607294,0.0
loire,0.0,0.0
gard,14.719629,0.0
loir_et_cher,0.0,0.0
alpes_de_haute_provence,0.0,0.0
orne,0.0,0.0
seine_maritime,13.497131,0.0
