n,o,l
E10000013,27.198673,13.0
E08000001,23.619965,10.0
E06000032,12.863694,19.0
E08000034,10.17448,7.0
E06000022,5.8326206,0.0
E10000006,29.687513,24.0
E10000025,31.893322,29.0
E08000009,12.693696,8.0
E06000049,21.649841,27.0
E10000024,16.928474,6.0
E09000017,12.497348,21.0
E08000027,14.744012,2.0
E06000021,13.148952,12.0
E10000019,20.824657,13.0
E08000008,8.1432705,5.0
E09000026,8.793028,5.0
E06000001,6.1210704,3.0
E06000050,17.86532,16.0
E08000017,13.040121,6.0
E06000055,9.011999,5.0
E06000040,4.350389,4.0
E06000002,16.607243,13.0
E06000004,10.053811,3.0
E08000030,20.273085,22.0
E08000032,22.217712,28.0
E10000017,71.08261,40.0
E08000004,20.887259,8.0
E08000035,43.76423,25.0
E06000011,17.146385,22.0
E10000032,24.279007,18.0
E06000038,12.596163,9.0
E06000041,14.308339,8.0
E09000015,13.821526,10.0
E09000006,11.439191,6.0
E08000011,10.635999,8.0
E06000008,7.0122633,6.0
E06000026,11.219118,3.0
E06000059,6.4904866,6.0
E06000034,5.015993,2.0
E10000014,63.696312,40.0
E06000016,18.15599,13.0
E06000035,14.11498,5.0
E08000014,15.483098,12.0
E06000056,9.26829,15.0
E10000003,20.489092,11.0
E09000004,11.903977,9.0
E10000018,23.830051,18.0
E08000012,23.763214,23.0
E06000012,4.799886,2.0
E10000027,16.599876,9.0
E06000014,8.282263,8.0
E08000036,16.561691,8.0
E09000008,11.022202,6.0
E06000046,4.2754707,1.0
E06000030,11.179566,4.0
E06000054,9.107254,3.0
E08000005,14.861164,4.0
E06000027,8.818543,17.0
E10000016,115.970505,77.0
E10000030,51.442444,28.0
E08000013,8.991438,10.0
E06000033,4.4397655,4.0
E08000016,16.345139,21.0
E09000016,9.021432,5.0
E06000051,11.086588,11.0
E08000037,18.692286,7.0
E06000052,8.271155,6.0
E09000010,11.766559,18.0
E10000021,15.25353,1.0
E06000039,6.353023,16.0
E08000024,25.352558,4.0
E09000027,5.2650876,2.0
E09000009,12.199346,8.0
E10000020,48.591534,31.0
E10000023,21.29489,18.0
E10000029,35.17285,33.0
E06000045,12.835204,4.0
E08000018,18.81322,13.0
E10000034,26.92013,13.0
E06000018,14.031123,1.0
E08000019,44.377304,54.0
E06000017,4.879747,0.0
E08000010,24.00346,12.0
E09000003,10.590588,7.0
E10000028,47.093433,27.0
E10000008,11.990219,7.0
E08000025,60.05022,37.0
E10000031,29.897665,30.0
E08000007,18.422098,15.0
E06000013,13.393109,5.0
E06000005,6.920029,5.0
E08000015,22.589708,12.0
E06000042,7.59833,4.0
E06000009,18.59467,11.0
E10000007,22.296167,51.0
E09000001,3.6781256,0.0
E09000022,10.806944,4.0
E06000047,37.28294,33.0
E06000037,9.259177,7.0
E08000026,13.3808975,15.0
E09000002,7.5930185,3.0
E09000018,8.761899,7.0
E06000043,6.9350533,4.0
E06000020,10.478595,8.0
E06000057,19.015162,13.0
E06000006,6.271675,1.0
E08000003,22.155529,14.0
E10000015,42.135628,25.0
E06000024,6.308199,3.0
E08000023,16.321321,12.0
E06000036,4.585299,1.0
E10000011,12.390227,9.0
E06000031,6.2068744,5.0
E08000021,16.62171,11.0
E10000002,17.564253,19.0
E06000044,6.334068,2.0
E08000031,21.954918,18.0
E09000020,7.708485,4.0
E06000003,8.908263,5.0
E08000002,10.770612,8.0
E10000012,50.61735,76.0
E09000005,15.707699,6.0
E06000007,13.430802,10.0
E09000023,4.685811,4.0
E08000033,7.9438763,5.0
E09000021,6.1994715,4.0
E09000029,8.941823,2.0
E08000022,10.03248,2.0
E06000015,6.4549994,8.0
