n,o,l
siracusa,0.43069947,9.0
asti,0.8242207,14.0
oristano,0.0,0.0
grosseto,0.0026135035,1.0
sondrio,2.4007442,16.0
ascoli_piceno,0.9282016,1.0
savona,0.8692453,0.0
reggio_emilia,8.541207,137.0
torino,16.233917,220.0
rovigo,1.0350981,14.0
frosinone,2.1912737,24.0
campobasso,0.8281878,0.0
cosenza,0.8608527,12.0
trapani,0.5411331,5.0
pavia,2.3663726,88.0
cuneo,1.2580551,40.0
genova,5.0967774,628.0
treviso,2.9295013,125.0
barletta_andria_trani,0.53770584,35.0
udine,0.78344357,17.0
brescia,14.042139,8.0
ravenna,2.5338182,315.0
latina,0.90199775,8.0
gorizia,0.3383624,2.0
pordenone,1.9474905,17.0
massa_carrara,0.0,35.0
la_aquila,0.62730473,8.0
prato,0.0,1.0
rieti,0.19187601,1.0
aosta,2.9060519,15.0
ragusa,0.32447696,2.0
fermo,1.7590857,20.0
milano,45.00428,252.0
firenze,2.4378216,66.0
arezzo,0.0,2.0
bolzano_bozen,5.810274,24.0
piacenza,3.6871185,27.0
ancona,3.986165,26.0
napoli,3.6001818,25.0
reggio_calabria,1.8026052,5.0
novara,2.2489712,73.0
pistoia,0.0,46.0
lodi,2.5125332,26.0
la_spezia,1.4720174,142.0
brindisi,0.03742787,22.0
taranto,0.39436498,9.0
potenza,0.80185866,5.0
perugia,3.2491233,8.0
alessandria,3.2039163,70.0
enna,2.0149095,7.0
imperia,0.08936863,132.0
vercelli,1.2751473,13.0
foggia,1.1518617,17.0
lecce,2.7875376,24.0
lecco,7.944769,91.0
padova,0.9399797,6.0
messina,0.6904345,5.0
lucca,0.32221428,34.0
palermo,0.542462,12.0
livorno,0.0,22.0
benevento,0.4838116,13.0
catanzaro,0.5204407,7.0
bari,3.3907564,27.0
caltanissetta,0.4694999,2.0
isernia,0.068733856,0.0
biella,2.1340423,9.0
verona,9.731324,64.0
caserta,0.37368545,18.0
chieti,1.6372892,18.0
varese,5.5393324,22.0
teramo,3.1434176,19.0
macerata,0.032390993,50.0
cagliari,0.13479094,3.0
terni,0.44283828,15.0
nuoro,0.49618006,2.0
trento,5.175482,126.0
salerno,0.4938672,21.0
pesaro_e_urbino,1.5000476,45.0
venezia,1.7094538,87.0
siena,1.238427,1.0
vibo_valentia,0.0,1.0
matera,0.29359907,1.0
forli_cesena,2.4039197,24.0
parma,3.0313659,30.0
trieste,1.5773897,30.0
roma,6.9803057,80.0
ferrara,0.95232093,16.0
belluno,0.8746882,25.0
sassari,0.0,34.0
avellino,0.39071894,3.0
agrigento,0.7392851,3.0
como,4.831954,17.0
cremona,11.49565,99.0
catania,1.3138871,16.0
bologna,8.788149,102.0
pisa,0.77568877,8.0
viterbo,0.22408412,1.0
pescara,3.486464,15.0
rimini,2.3229868,12.0
mantova,5.572875,74.0
vicenza,4.318953,48.0
verbano_cusio_ossola,1.5349061,89.0
modena,7.330965,53.0
crotone,0.1393043,1.0
bergamo,24.292784,63.0
