n,o,l
granada,50.55796,15.0
palencia,30.344465,3.0
segovia,73.31251,109.0
valencia,134.82852,97.0
tarragona,23.554281,0.0
cadiz,43.622646,3.0
huelva,45.258823,28.0
caceres,100.67749,90.0
alicante,48.78297,55.0
cordoba,57.341476,36.0
gipuzkoa,6.645834,39.0
cuenca,81.10048,69.0
sevilla,6.250067,64.0
guadalajara,79.990135,31.0
salamanca,6.3517737,22.0
toledo,6.4701734,95.0
ciudad_real,29.828619,154.0
badajoz,928.5031,29.0
barcelona,44.340397,1041.0
avila,50.091587,21.0
lleida,76.14847,62.0
araba/alava,6.319317,43.0
albacete,23.612768,32.0
almeria,23.992657,12.0
zamora,113.2817,23.0
girona,565.4293,0.0
bizkaia,49.567482,203.0
soria,51.983395,42.0
burgos,41.097744,63.0
jaen,71.182846,164.0
valladolid,38.80717,12.0
malaga,89.47005,42.0
leon,70.22562,70.0
castellon,40.92049,59.0
