n,o,l
E10000013,27.96749,10.0
E08000001,21.926483,8.0
E06000032,8.401414,1.0
E08000034,11.840999,4.0
E06000022,2.675618,0.0
E10000006,34.140938,25.0
E10000025,35.020027,22.0
E08000009,11.532363,6.0
E06000049,24.037613,27.0
E10000024,20.759537,10.0
E09000017,12.744084,4.0
E08000027,7.961614,5.0
E06000021,16.510992,25.0
E10000019,18.652308,5.0
E08000008,5.8325257,5.0
E09000026,5.923142,4.0
E06000001,8.354751,8.0
E06000050,18.969282,8.0
E08000017,17.817038,19.0
E06000055,13.700325,6.0
E06000040,2.31878,2.0
E06000002,13.36101,5.0
E06000004,8.626138,10.0
E08000030,25.462585,4.0
E08000032,27.256376,27.0
E10000017,72.750694,34.0
E08000004,17.214695,13.0
E08000035,50.929264,24.0
E06000011,19.044271,15.0
E10000032,24.214327,4.0
E06000038,11.061488,7.0
E06000041,9.870694,1.0
E09000015,11.812534,32.0
E09000006,13.739355,4.0
E08000011,11.548781,7.0
E06000008,6.8605895,8.0
E06000026,6.887337,11.0
E06000059,5.341503,0.0
E06000034,3.34323,2.0
E10000014,61.189346,17.0
E06000016,16.744999,17.0
E06000035,11.904886,15.0
E08000014,10.820036,4.0
E06000056,11.256821,6.0
E10000003,21.226545,19.0
E09000004,6.576461,12.0
E10000018,19.468344,19.0
E08000012,22.47627,3.0
E06000012,3.0474746,0.0
E10000027,13.11527,1.0
E06000014,7.5855913,9.0
E08000036,17.466967,5.0
E09000008,8.243683,6.0
E06000046,3.9175024,2.0
E06000030,7.526682,3.0
E06000054,7.807065,4.0
E08000005,13.034233,7.0
E06000027,1.4090986,1.0
E10000016,105.72613,65.0
E10000030,51.52458,13.0
E08000013,17.273737,5.0
E06000033,2.7848153,2.0
E08000016,13.834044,17.0
E09000016,5.966528,2.0
E06000051,14.6079445,9.0
E08000037,25.604912,17.0
E06000052,6.1588225,2.0
E09000010,13.142814,2.0
E10000021,8.624177,17.0
E06000039,20.70058,2.0
E08000024,4.011955,9.0
E09000027,1.9508727,0.0
E09000009,9.797588,10.0
E10000020,50.131344,44.0
E10000023,28.074846,28.0
E10000029,36.764236,17.0
E06000045,11.650462,5.0
E08000018,19.23827,6.0
E10000034,20.627308,15.0
E06000018,14.828623,0.0
E08000019,37.63918,16.0
E06000017,2.2772062,0.0
E08000010,24.361515,16.0
E09000003,8.053755,6.0
E10000028,50.490017,29.0
E10000008,14.211302,10.0
E08000025,54.09156,26.0
E10000031,27.178446,13.0
E08000007,17.615309,7.0
E06000013,16.46211,8.0
E06000005,5.885316,4.0
E08000015,21.73951,11.0
E06000042,4.881109,4.0
E06000009,18.448027,8.0
E10000007,25.0511,30.0
E09000001,2.2059824,0.0
E09000022,10.392521,3.0
E06000047,41.95432,24.0
E06000037,4.988137,1.0
E08000026,12.820351,5.0
E09000002,2.903559,2.0
E09000018,4.8930125,3.0
E06000043,2.338584,0.0
E06000020,7.0188084,7.0
E06000057,15.299033,19.0
E06000006,2.9891129,1.0
E08000003,23.779232,26.0
E10000015,40.828125,36.0
E06000024,4.265232,14.0
E08000023,18.088219,11.0
E06000036,3.0120058,1.0
E10000011,6.890172,8.0
E06000031,6.615275,4.0
E08000021,14.383496,12.0
E10000002,14.920178,7.0
E06000044,5.0437956,8.0
E08000031,23.66143,3.0
E09000020,5.275165,1.0
E06000003,9.088374,8.0
E08000002,13.184611,2.0
E10000012,65.46273,25.0
E09000005,11.116475,8.0
E06000007,13.0936985,10.0
E09000023,3.292066,0.0
E08000033,4.844552,5.0
E09000021,3.7960851,3.0
E09000029,7.5456634,0.0
E08000022,7.564526,5.0
E06000015,4.9621673,2.0
