n,o,l
granada,24.709223,43.0
palencia,12.370716,16.0
segovia,40.796234,52.0
valencia,76.80527,55.0
tarragona,18.626938,4.0
cadiz,13.632649,9.0
huelva,39.955097,15.0
caceres,38.414955,17.0
alicante,28.10426,80.0
cordoba,56.434456,21.0
gipuzkoa,13.070026,0.0
cuenca,25.630667,55.0
sevilla,30.56607,24.0
guadalajara,38.460194,18.0
salamanca,103.51971,72.0
toledo,82.62336,29.0
ciudad_real,21.752241,89.0
badajoz,555.8294,4.0
barcelona,24.711761,356.0
avila,31.06766,45.0
lleida,27.64524,14.0
araba/alava,13.49984,0.0
albacete,32.02908,86.0
almeria,24.664452,13.0
zamora,8.365374,30.0
girona,99.60119,94.0
bizkaia,31.724388,0.0
soria,59.06526,28.0
burgos,38.918743,149.0
jaen,23.08316,46.0
valladolid,63.072224,24.0
malaga,36.022606,38.0
leon,20.115334,41.0
castellon,30.08433,23.0
