n,o,l
E10000013,33.14842,30.0
E08000001,14.133346,35.0
E06000032,20.364927,18.0
E08000034,21.249714,21.0
E06000022,8.758202,4.0
E10000006,60.410225,43.0
E10000025,37.16459,67.0
E08000009,19.606842,26.0
E06000049,18.816965,14.0
E10000024,40.026985,40.0
E09000017,27.734617,44.0
E08000027,31.09726,16.0
E06000021,17.154251,11.0
E10000019,27.644196,37.0
E08000008,14.726843,13.0
E09000026,28.047997,20.0
E06000001,5.701371,6.0
E06000050,22.406252,36.0
E08000017,21.924152,16.0
E06000055,11.2480755,19.0
E06000040,10.84044,4.0
E06000002,18.311031,26.0
E06000004,12.936165,16.0
E08000030,32.961597,27.0
E08000032,24.706236,24.0
E10000017,80.73063,112.0
E08000004,21.396753,20.0
E08000035,31.011305,37.0
E06000011,14.445538,12.0
E10000032,33.586937,52.0
E06000038,14.356085,9.0
E06000041,16.00025,10.0
E09000015,40.832203,23.0
E09000006,43.240784,30.0
E08000011,20.14367,22.0
E06000008,10.86274,9.0
E06000026,9.575054,14.0
E06000059,12.378016,15.0
E06000034,12.699438,5.0
E10000014,80.3365,89.0
E06000016,1.9571465,26.0
E06000035,16.788733,15.0
E08000014,23.089302,45.0
E06000056,14.6281395,14.0
E10000003,27.207315,17.0
E09000004,23.66456,25.0
E10000018,19.833296,26.0
E08000012,46.475117,60.0
E06000012,7.7047377,10.0
E10000027,11.090369,15.0
E06000014,4.689752,8.0
E08000036,57.294178,48.0
E09000008,17.075487,28.0
E06000046,3.7717483,1.0
E06000030,8.85771,7.0
E06000054,13.3137245,15.0
E08000005,16.313753,16.0
E06000027,5.5264497,0.0
E10000016,75.28022,92.0
E10000030,87.87922,64.0
E08000013,25.73054,29.0
E06000033,14.824144,18.0
E08000016,22.225283,9.0
E09000016,20.570131,32.0
E06000051,16.01937,19.0
E08000037,20.565899,19.0
E06000052,15.348824,18.0
E09000010,29.347994,26.0
E10000021,46.795635,56.0
E06000039,13.804453,10.0
E08000024,26.911955,48.0
E09000027,22.448555,15.0
E09000009,43.292027,30.0
E10000020,30.117798,42.0
E10000023,27.194952,32.0
E10000029,24.72056,30.0
E06000045,16.715916,10.0
E08000018,28.79713,18.0
E10000034,41.724285,36.0
E06000018,15.274238,16.0
E08000019,81.25233,43.0
E06000017,2.1368837,1.0
E08000010,20.152071,24.0
E09000003,58.114723,37.0
E10000028,52.569798,47.0
E10000008,17.870848,19.0
E08000025,122.524185,81.0
E10000031,38.381813,39.0
E08000007,22.292347,31.0
E06000013,6.340383,13.0
E06000005,7.703887,6.0
E08000015,23.512152,44.0
E06000042,18.888098,10.0
E06000009,7.4881763,8.0
E10000007,41.47324,35.0
E09000001,4.2501082,0.0
E09000022,51.69715,38.0
E06000047,23.116034,37.0
E06000037,11.847508,10.0
E08000026,28.095505,23.0
E09000002,18.434996,15.0
E09000018,28.31444,24.0
E06000043,13.599968,11.0
E06000020,11.521458,7.0
E06000057,13.349915,23.0
E06000006,11.52886,18.0
E08000003,29.915089,30.0
E10000015,86.59814,78.0
E06000024,10.9838505,8.0
E08000023,13.734035,17.0
E06000036,6.9193325,10.0
E10000011,19.19061,12.0
E06000031,7.534455,10.0
E08000021,30.58235,32.0
E10000002,28.470682,24.0
E06000044,10.543208,10.0
E08000031,26.6282,11.0
E09000020,22.893824,14.0
E06000003,11.873822,17.0
E08000002,16.115007,18.0
E10000012,84.32248,93.0
E09000005,66.32585,55.0
E06000007,15.824258,16.0
E09000023,13.448665,12.0
E08000033,36.233852,46.0
E09000021,23.19417,20.0
E09000029,25.615643,20.0
E08000022,8.806851,13.0
E06000015,28.078577,22.0
