n,o,l
siracusa,0.034877658,0.0
asti,7.6064224,63.0
oristano,0.08657274,2.0
grosseto,0.2052733,0.0
sondrio,3.8368075,9.0
ascoli_piceno,0.0,0.0
savona,5.6055527,39.0
reggio_emilia,9.928124,8.0
torino,43.096165,240.0
rovigo,1.1138593,2.0
frosinone,0.8921459,1.0
campobasso,0.20627029,1.0
cosenza,1.0212271,1.0
trapani,0.0,2.0
pavia,10.0586195,99.0
cuneo,7.8543324,10.0
genova,11.258975,55.0
treviso,4.0990744,7.0
barletta_andria_trani,0.7100153,3.0
udine,0.6247839,5.0
brescia,16.332638,92.0
ravenna,0.6684259,8.0
latina,0.12419538,2.0
gorizia,0.2126327,2.0
pordenone,0.4494443,2.0
massa_carrara,0.9484098,4.0
la_aquila,0.0,2.0
prato,0.603626,2.0
rieti,0.0,0.0
aosta,2.4228895,8.0
ragusa,0.0,0.0
fermo,0.34469968,4.0
milano,50.861523,278.0
firenze,7.1044846,28.0
arezzo,0.8905883,1.0
bolzano_bozen,2.80177,2.0
piacenza,7.2824388,92.0
ancona,1.504353,1.0
napoli,3.7066214,16.0
reggio_calabria,0.0,0.0
novara,6.9684076,26.0
pistoia,0.80225635,3.0
lodi,3.472382,11.0
la_spezia,1.4942937,0.0
brindisi,1.8833715,0.0
taranto,0.19403793,0.0
potenza,0.0,0.0
perugia,0.15821972,0.0
alessandria,7.6833186,47.0
enna,0.44199368,2.0
imperia,3.66189,37.0
vercelli,2.070593,2.0
foggia,3.536787,15.0
lecce,2.7756813,18.0
lecco,3.960661,9.0
padova,0.7591733,0.0
messina,0.63883793,4.0
lucca,1.3948171,4.0
palermo,0.4201547,9.0
livorno,0.0,0.0
benevento,0.13958967,3.0
catanzaro,0.0,0.0
bari,3.958308,0.0
caltanissetta,0.0,10.0
isernia,0.0,0.0
biella,2.715942,9.0
verona,10.121144,30.0
caserta,0.09275849,1.0
chieti,3.3907623,28.0
varese,7.085933,72.0
teramo,0.42534423,0.0
macerata,1.1644349,7.0
cagliari,0.06058037,0.0
terni,0.0,7.0
nuoro,0.03445734,0.0
trento,7.912237,30.0
salerno,0.8505484,4.0
pesaro_e_urbino,2.3915472,34.0
venezia,6.5867786,52.0
siena,0.1914032,1.0
vibo_valentia,0.0,0.0
matera,0.059871912,0.0
forli_cesena,1.8520242,7.0
parma,8.010612,10.0
trieste,2.1711009,10.0
roma,10.091604,73.0
ferrara,2.20641,4.0
belluno,3.5603044,1.0
sassari,0.7094953,1.0
avellino,0.0863095,11.0
agrigento,0.0,2.0
como,8.500689,78.0
cremona,11.041523,22.0
catania,3.7842531,10.0
bologna,8.9842615,72.0
pisa,1.4636511,4.0
viterbo,0.0,0.0
pescara,4.237369,0.0
rimini,2.551664,20.0
mantova,5.8865123,8.0
vicenza,6.741803,25.0
verbano_cusio_ossola,0.60518396,3.0
modena,4.08066,31.0
crotone,0.0,0.0
bergamo,7.5292745,46.0
