n,o,l
charente_maritime,0.14647058,0.0
vienne,0.0,0.0
aude,0.0,2.0
haute_loire,0.0,0.0
haute_savoie,4.045844,18.0
dordogne,0.0,0.0
correze,0.0,0.0
indre_et_loire,0.0,1.0
saone_et_loire,0.8157862,0.0
loire_atlantique,0.0,0.0
haute_vienne,0.10586767,0.0
drome,0.0,1.0
cote_d'or,0.030540913,2.0
landes,14.607575,33.0
paris,0.0,0.0
charente,0.0,0.0
meurthe_et_moselle,0.12318772,0.0
essonne,21.866474,36.0
marne,0.11196536,1.0
seine_saint_denis,16.36937,8.0
moselle,3.6375291,2.0
bas_rhin,0.8359534,2.0
pas_de_calais,4.345348,20.0
nord,3.2192538,7.0
loiret,0.0,0.0
nievre,0.30151203,0.0
alpes_maritimes,0.05014412,0.0
pyrenees_atlantiques,3.1144168,1.0
val_d'oise,5.746686,5.0
meuse,0.06453482,0.0
mayenne,0.0,0.0
val_de_marne,11.220769,15.0
hautes_pyrenees,0.0,6.0
lot,0.0,0.0
isere,0.0,0.0
gironde,0.5501912,0.0
yvelines,8.513411,10.0
yonne,0.0,1.0
haute_saone,0.1680371,0.0
somme,3.2537458,36.0
eure_et_loir,1.0044024,6.0
manche,5.903318,8.0
indre,0.0,0.0
haute_marne,0.0,0.0
haut_rhin,0.91151834,3.0
maine_et_loire,0.0,0.0
jura,0.75997853,1.0
savoie,0.0,0.0
ardennes,0.0318409,2.0
haute_garonne,1.0239525,3.0
rhone,2.525448,3.0
ardeche,0.0,4.0
aisne,2.9851856,5.0
vosges,0.0,0.0
gers,0.24094725,3.0
oise,5.781507,9.0
hauts_de_seine,6.428068,3.0
territoire_de_belfort,0.02256123,0.0
lot_et_garonne,0.0,1.0
eure,3.431356,9.0
tarn,0.0,0.0
cher,0.84663695,0.0
aube,1.4275136,6.0
vaucluse,0.0,0.0
pyrenees_orientales,0.0,0.0
var,0.6576464,1.0
cantal,0.0,0.0
doubs,0.4016186,6.0
seine_et_marne,12.526504,15.0
ain,2.5579958,4.0
calvados,0.0,0.0
herault,5.8478346,3.0
bouches_du_rhone,13.767827,22.0
puy_de_dome,0.0636058,1.0
tarn_et_garonne,0.0,2.0
loire,0.5505173,1.0
gard,1.0512018,1.0
loir_et_cher,0.0,0.0
alpes_de_haute_provence,0.0,2.0
orne,0.5740142,0.0
seine_maritime,1.1967683,3.0
