n,o,l
siracusa,0.12579225,3.0
asti,6.1500616,0.0
oristano,6.6270075,0.0
grosseto,0.2628514,0.0
sondrio,0.0,7.0
ascoli_piceno,0.0,1.0
savona,5.394734,11.0
reggio_emilia,6.9400854,20.0
torino,55.653286,292.0
rovigo,2.6164305,0.0
frosinone,0.28542253,0.0
campobasso,0.07397175,0.0
cosenza,0.8710683,0.0
trapani,0.0,0.0
pavia,12.116203,40.0
cuneo,10.659173,33.0
genova,11.542981,146.0
treviso,3.3383946,21.0
barletta_andria_trani,1.015514,3.0
udine,16.429464,1.0
brescia,0.8760068,70.0
ravenna,0.31174403,1.0
latina,0.5769731,8.0
gorizia,1.0147693,2.0
pordenone,0.2676145,0.0
massa_carrara,0.69375217,7.0
la_aquila,0.0,0.0
prato,0.71836185,2.0
rieti,0.304957,0.0
aosta,0.058200598,3.0
ragusa,0.04844731,0.0
fermo,0.2894649,11.0
milano,57.239517,249.0
firenze,9.425681,37.0
arezzo,1.0018486,9.0
bolzano_bozen,2.347958,7.0
piacenza,10.31862,60.0
ancona,1.1947134,1.0
napoli,5.624136,11.0
reggio_calabria,0.0,0.0
novara,7.296869,32.0
pistoia,1.0381391,7.0
lodi,7.409237,23.0
la_spezia,0.90199065,10.0
brindisi,1.1745417,4.0
taranto,0.07941812,2.0
potenza,0.0,0.0
perugia,0.037317984,0.0
alessandria,0.23653877,68.0
enna,11.61106,1.0
imperia,2.7164843,17.0
vercelli,3.121644,23.0
foggia,3.3453422,16.0
lecce,2.2044601,13.0
lecco,2.8935225,5.0
padova,0.7666885,1.0
messina,0.5193946,6.0
lucca,0.9109345,6.0
palermo,0.77032053,5.0
livorno,0.0,0.0
benevento,0.0,6.0
catanzaro,0.0,0.0
bari,4.199714,3.0
caltanissetta,0.07425268,0.0
isernia,0.0,0.0
biella,0.0635367,0.0
verona,13.584113,62.0
caserta,3.5560179,8.0
chieti,3.7505322,4.0
varese,0.0,10.0
teramo,6.6522465,3.0
macerata,1.5299588,2.0
cagliari,0.087216474,1.0
terni,0.046277557,1.0
nuoro,0.0,1.0
trento,0.4522295,0.0
salerno,8.803352,49.0
pesaro_e_urbino,1.8054605,8.0
venezia,5.499018,16.0
siena,0.1011443,1.0
vibo_valentia,0.0,0.0
matera,0.12470786,2.0
forli_cesena,1.9201524,9.0
parma,5.529407,22.0
trieste,1.6635334,15.0
roma,10.795415,56.0
ferrara,2.832321,6.0
belluno,3.099517,13.0
sassari,0.7121253,0.0
avellino,0.13798347,4.0
agrigento,0.0,0.0
como,13.090515,22.0
cremona,13.222962,20.0
catania,3.961174,9.0
bologna,9.682686,49.0
pisa,1.0323787,5.0
viterbo,0.48544383,4.0
pescara,3.773963,9.0
rimini,2.789416,13.0
mantova,5.579822,9.0
vicenza,5.823437,21.0
verbano_cusio_ossola,1.6384658,21.0
modena,3.484205,26.0
crotone,0.0,0.0
bergamo,10.429276,34.0
