n,o,l
granada,38.380146,64.0
palencia,18.819473,13.0
segovia,70.930984,78.0
valencia,89.99838,58.0
tarragona,10.2165575,49.0
cadiz,19.382225,1.0
huelva,43.95605,15.0
caceres,53.841896,23.0
alicante,58.66929,29.0
cordoba,7.810028,9.0
gipuzkoa,16.4809,19.0
cuenca,45.611546,30.0
sevilla,9.854566,26.0
guadalajara,57.291576,31.0
salamanca,12.858472,18.0
toledo,31.794474,30.0
ciudad_real,26.944344,58.0
badajoz,625.96686,3.0
barcelona,28.824999,893.0
avila,37.198223,41.0
lleida,35.333218,24.0
araba/alava,9.099805,53.0
albacete,14.852023,22.0
almeria,9.011607,5.0
zamora,5.07733,13.0
girona,128.24806,88.0
bizkaia,27.341574,110.0
soria,32.570377,6.0
burgos,29.76045,17.0
jaen,28.796972,26.0
valladolid,104.232956,8.0
malaga,32.150406,6.0
leon,21.413864,24.0
castellon,31.375502,2.0
