n,o,l
siracusa,0.22657838,6.0
asti,0.0,15.0
oristano,0.0,0.0
grosseto,0.064998604,14.0
sondrio,0.0,26.0
ascoli_piceno,0.08637029,6.0
savona,0.28027755,2.0
reggio_emilia,0.80134153,190.0
torino,4.1631503,309.0
rovigo,0.0,8.0
frosinone,0.53508663,19.0
campobasso,0.07963619,4.0
cosenza,0.0041127987,13.0
trapani,0.19882393,5.0
pavia,1.9173737,112.0
cuneo,0.7498139,38.0
genova,1.1536796,116.0
treviso,2.7436326,129.0
barletta_andria_trani,0.18838371,17.0
udine,1.6995573,289.0
brescia,15.040757,22.0
ravenna,0.7945849,23.0
latina,0.027511045,10.0
gorizia,0.3863257,6.0
pordenone,0.19776054,21.0
massa_carrara,0.6490563,25.0
la_aquila,0.012443233,7.0
prato,0.29982606,18.0
rieti,0.09433018,0.0
aosta,0.27878335,51.0
ragusa,0.075239584,1.0
fermo,0.45232818,31.0
milano,11.075324,424.0
firenze,0.9031983,63.0
arezzo,0.142718,12.0
bolzano_bozen,1.0045774,57.0
piacenza,2.152375,72.0
ancona,1.4538574,112.0
napoli,1.0606116,41.0
reggio_calabria,0.21077083,4.0
novara,0.9748176,68.0
pistoia,0.57113135,34.0
lodi,0.06383209,79.0
la_spezia,0.47365445,5.0
brindisi,0.4882534,6.0
taranto,0.16422333,6.0
potenza,0.076296456,7.0
perugia,1.3091701,47.0
alessandria,0.7496805,7.0
enna,0.033759817,106.0
imperia,0.4343254,13.0
vercelli,0.88000166,32.0
foggia,0.09995559,22.0
lecce,2.8690767,17.0
lecco,3.637623,122.0
padova,0.14719896,42.0
messina,0.45898294,54.0
lucca,1.5500727,49.0
palermo,0.3422127,29.0
livorno,0.027309619,2.0
benevento,0.29176015,10.0
catanzaro,0.023493167,7.0
bari,0.7298826,37.0
caltanissetta,0.1035154,0.0
isernia,0.027575731,0.0
biella,0.36028624,10.0
verona,2.6705549,61.0
caserta,0.07809396,92.0
chieti,0.29213956,11.0
varese,1.4433066,8.0
teramo,0.15893792,27.0
macerata,1.5736166,55.0
cagliari,0.0,7.0
terni,0.43992794,13.0
nuoro,0.026291069,0.0
trento,4.8732743,31.0
salerno,0.22652042,172.0
pesaro_e_urbino,4.830244,63.0
venezia,2.2851067,66.0
siena,0.0,11.0
vibo_valentia,0.0,0.0
matera,0.06405633,7.0
forli_cesena,0.7983452,60.0
parma,4.886404,195.0
trieste,0.13596182,27.0
roma,3.1696715,156.0
ferrara,0.37689546,27.0
belluno,0.42840418,14.0
sassari,0.4372963,2.0
avellino,0.51664925,8.0
agrigento,0.15578462,5.0
como,1.3812737,162.0
cremona,6.000518,60.0
catania,0.58954114,45.0
bologna,1.5080785,64.0
pisa,0.372269,23.0
viterbo,0.089618616,10.0
pescara,0.25738934,32.0
rimini,1.3761296,116.0
mantova,1.4620132,63.0
vicenza,2.4689062,59.0
verbano_cusio_ossola,0.6324529,10.0
modena,3.0592496,104.0
crotone,0.39164257,11.0
bergamo,17.478851,347.0
