n,o,l
siracusa,0.1356906,0.0
asti,6.003691,28.0
oristano,6.600873,1.0
grosseto,0.25725648,1.0
sondrio,0.0,1.0
ascoli_piceno,0.0,0.0
savona,5.160811,43.0
reggio_emilia,6.7534504,53.0
torino,54.883263,213.0
rovigo,2.686181,3.0
frosinone,0.25862145,1.0
campobasso,0.06178933,2.0
cosenza,0.81741816,3.0
trapani,0.0,0.0
pavia,11.991832,67.0
cuneo,10.457531,7.0
genova,11.374268,70.0
treviso,3.281498,7.0
barletta_andria_trani,0.994343,1.0
udine,16.08532,2.0
brescia,0.8650218,68.0
ravenna,0.30288708,0.0
latina,0.5305968,3.0
gorizia,1.001961,1.0
pordenone,0.2562303,10.0
massa_carrara,0.64980966,11.0
la_aquila,0.0022715926,0.0
prato,0.67971176,7.0
rieti,0.30151942,0.0
aosta,0.044281512,5.0
ragusa,0.04291495,1.0
fermo,0.26980907,3.0
milano,56.60982,364.0
firenze,9.287525,36.0
arezzo,0.97758865,15.0
bolzano_bozen,2.2393446,10.0
piacenza,10.14308,53.0
ancona,1.1960052,3.0
napoli,5.523477,20.0
reggio_calabria,0.0,0.0
novara,7.179176,42.0
pistoia,1.0128862,3.0
lodi,7.247855,28.0
la_spezia,0.8560733,6.0
brindisi,1.1282526,11.0
taranto,0.07616862,3.0
potenza,0.0,10.0
perugia,0.030071542,0.0
alessandria,0.22543335,74.0
enna,11.509735,0.0
imperia,2.7131171,14.0
vercelli,3.0759463,10.0
foggia,3.2791533,6.0
lecce,2.10523,3.0
lecco,2.8257024,11.0
padova,0.7444626,10.0
messina,0.50372815,2.0
lucca,0.8569107,13.0
palermo,0.734773,9.0
livorno,0.0,0.0
benevento,0.0,2.0
catanzaro,0.0,0.0
bari,4.1377196,3.0
caltanissetta,0.0655092,0.0
isernia,0.0,0.0
biella,0.040527258,0.0
verona,13.379805,43.0
caserta,3.4654112,4.0
chieti,3.7443829,3.0
varese,0.0,38.0
teramo,6.554819,0.0
macerata,1.4967085,7.0
cagliari,0.07649303,4.0
terni,0.043264024,0.0
nuoro,0.0,0.0
trento,0.43726477,16.0
salerno,8.589765,1.0
pesaro_e_urbino,1.7705647,15.0
venezia,5.5256248,33.0
siena,0.089829415,1.0
vibo_valentia,0.0,0.0
matera,0.12489888,1.0
forli_cesena,1.8785301,10.0
parma,5.526673,20.0
trieste,1.6302545,4.0
roma,10.621048,51.0
ferrara,2.786055,5.0
belluno,3.1516938,4.0
sassari,0.6937211,12.0
avellino,0.13094315,2.0
agrigento,0.0,0.0
como,12.935211,31.0
cremona,13.169218,27.0
catania,3.894494,8.0
bologna,9.516116,42.0
pisa,1.0327791,4.0
viterbo,0.47184184,1.0
pescara,3.7266986,15.0
rimini,2.7592254,4.0
mantova,5.4606314,10.0
vicenza,5.7191944,36.0
verbano_cusio_ossola,1.5854435,17.0
modena,3.4040256,21.0
crotone,0.0,0.0
bergamo,10.2449875,47.0
