n,o,l
E10000013,36.70718,63.0
E08000001,24.33351,29.0
E06000032,25.344902,22.0
E08000034,26.015917,12.0
E06000022,9.709763,16.0
E10000006,74.39018,70.0
E10000025,57.482517,34.0
E08000009,28.944754,23.0
E06000049,32.326725,29.0
E10000024,44.797947,18.0
E09000017,29.267067,27.0
E08000027,31.503883,20.0
E06000021,19.836714,24.0
E10000019,29.714785,29.0
E08000008,21.15877,10.0
E09000026,31.206795,10.0
E06000001,6.580302,4.0
E06000050,31.592743,25.0
E08000017,21.867193,4.0
E06000055,17.920473,17.0
E06000040,10.50432,2.0
E06000002,22.2528,17.0
E06000004,16.839916,6.0
E08000030,45.65037,21.0
E08000032,28.244537,18.0
E10000017,90.83356,73.0
E08000004,25.469446,48.0
E08000035,35.446392,47.0
E06000011,15.112107,22.0
E10000032,31.56583,26.0
E06000038,16.125248,14.0
E06000041,18.430328,16.0
E09000015,36.49693,27.0
E09000006,47.863995,23.0
E08000011,23.857346,12.0
E06000008,14.941356,12.0
E06000026,14.250356,13.0
E06000059,15.693604,12.0
E06000034,18.719595,4.0
E10000014,91.38506,83.0
E06000016,29.74257,20.0
E06000035,32.427143,23.0
E08000014,33.52529,14.0
E06000056,23.647469,18.0
E10000003,25.22095,24.0
E09000004,27.10286,14.0
E10000018,35.071293,27.0
E08000012,54.29218,34.0
E06000012,7.006907,4.0
E10000027,18.23925,16.0
E06000014,16.02334,6.0
E08000036,68.068855,14.0
E09000008,21.917427,25.0
E06000046,2.864848,5.0
E06000030,13.772189,14.0
E06000054,17.376995,5.0
E08000005,19.534525,18.0
E06000027,7.938514,5.0
E10000016,95.842026,125.0
E10000030,85.44618,82.0
E08000013,30.277414,12.0
E06000033,19.457497,10.0
E08000016,28.231411,25.0
E09000016,32.32928,26.0
E06000051,16.51873,6.0
E08000037,28.062067,33.0
E06000052,23.882532,12.0
E09000010,30.580343,24.0
E10000021,52.978718,27.0
E06000039,14.366422,37.0
E08000024,43.361706,14.0
E09000027,21.564648,8.0
E09000009,41.672985,45.0
E10000020,32.423725,48.0
E10000023,29.405529,24.0
E10000029,29.739206,33.0
E06000045,22.055561,9.0
E08000018,29.18721,22.0
E10000034,43.434296,31.0
E06000018,21.108955,13.0
E08000019,80.46042,57.0
E06000017,4.432907,1.0
E08000010,24.780462,24.0
E09000003,57.66162,21.0
E10000028,59.14416,60.0
E10000008,27.543137,28.0
E08000025,125.08519,64.0
E10000031,46.243076,30.0
E08000007,31.527626,32.0
E06000013,9.031902,3.0
E06000005,8.170589,4.0
E08000015,42.037525,30.0
E06000042,19.816742,17.0
E06000009,17.090233,17.0
E10000007,47.505253,26.0
E09000001,5.0496902,0.0
E09000022,51.865685,16.0
E06000047,48.677845,56.0
E06000037,12.287759,13.0
E08000026,29.849518,15.0
E09000002,24.95006,10.0
E09000018,35.12639,16.0
E06000043,19.955406,11.0
E06000020,13.237897,7.0
E06000057,34.85291,24.0
E06000006,16.299484,12.0
E08000003,38.71379,37.0
E10000015,95.94971,76.0
E06000024,11.805472,4.0
E08000023,16.218065,18.0
E06000036,10.577804,4.0
E10000011,24.94966,18.0
E06000031,9.279269,4.0
E08000021,38.657402,29.0
E10000002,31.282911,26.0
E06000044,9.070561,9.0
E08000031,27.077389,25.0
E09000020,24.21021,10.0
E06000003,14.4928255,9.0
E08000002,16.100363,20.0
E10000012,103.322014,57.0
E09000005,65.98478,39.0
E06000007,24.487177,28.0
E09000023,15.561868,12.0
E08000033,47.7005,8.0
E09000021,21.046755,10.0
E09000029,35.299797,14.0
E08000022,29.903908,8.0
E06000015,29.859415,12.0
