n,o,l
E10000013,13.481504,0.0
E08000001,13.172326,9.0
E06000032,2.8149347,0.0
E08000034,14.674594,7.0
E06000022,1.1059835,1.0
E10000006,18.418192,26.0
E10000025,31.739737,2.0
E08000009,6.642252,1.0
E06000049,15.091488,5.0
E10000024,15.096709,12.0
E09000017,17.460875,3.0
E08000027,2.5744185,0.0
E06000021,14.369363,7.0
E10000019,10.395536,11.0
E08000008,6.011145,9.0
E09000026,0.9119712,2.0
E06000001,3.5879858,6.0
E06000050,17.156153,4.0
E08000017,18.30457,12.0
E06000055,6.332187,3.0
E06000040,2.339152,0.0
E06000002,5.298705,1.0
E06000004,12.21062,10.0
E08000030,17.90941,3.0
E08000032,24.771225,6.0
E10000017,41.76676,18.0
E08000004,13.151846,4.0
E08000035,26.225798,11.0
E06000011,20.09884,4.0
E10000032,16.21728,10.0
E06000038,4.615076,3.0
E06000041,4.954258,2.0
E09000015,6.59216,1.0
E09000006,9.90497,8.0
E08000011,7.394325,1.0
E06000008,4.2021036,1.0
E06000026,3.9400566,3.0
E06000059,4.456571,0.0
E06000034,2.37564,1.0
E10000014,36.27411,17.0
E06000016,3.5459769,10.0
E06000035,5.741185,6.0
E08000014,8.126141,8.0
E06000056,3.6756067,3.0
E10000003,21.887068,14.0
E09000004,5.2603245,2.0
E10000018,13.014457,6.0
E08000012,16.112543,3.0
E06000012,0.5041312,3.0
E10000027,8.403953,11.0
E06000014,6.7485886,7.0
E08000036,9.386873,6.0
E09000008,10.767528,1.0
E06000046,2.1505218,1.0
E06000030,3.5672357,7.0
E06000054,6.24651,2.0
E08000005,5.3337145,3.0
E06000027,0.35685378,0.0
E10000016,62.053265,25.0
E10000030,21.688625,11.0
E08000013,5.1483884,2.0
E06000033,1.8362876,2.0
E08000016,11.940763,9.0
E09000016,7.1498156,1.0
E06000051,8.697973,9.0
E08000037,16.481092,1.0
E06000052,2.6043413,4.0
E09000010,1.9373103,0.0
E10000021,9.4951515,16.0
E06000039,16.425817,4.0
E08000024,9.0914955,3.0
E09000027,2.79338,0.0
E09000009,8.138791,0.0
E10000020,37.867146,13.0
E10000023,24.48485,5.0
E10000029,29.573648,7.0
E06000045,6.7044683,3.0
E08000018,12.058804,3.0
E10000034,12.153253,5.0
E06000018,4.7123084,0.0
E08000019,25.888624,13.0
E06000017,0.49087846,1.0
E08000010,17.000399,18.0
E09000003,5.609503,1.0
E10000028,24.770977,12.0
E10000008,8.362326,6.0
E08000025,23.91574,18.0
E10000031,15.77701,8.0
E08000007,13.470333,9.0
E06000013,13.276498,3.0
E06000005,3.2802184,3.0
E08000015,11.774066,8.0
E06000042,3.8966513,1.0
E06000009,8.751379,3.0
E10000007,21.36013,10.0
E09000001,0.5971789,0.0
E09000022,4.8123837,1.0
E06000047,37.577637,20.0
E06000037,1.9935726,1.0
E08000026,8.121363,5.0
E09000002,1.2925333,1.0
E09000018,6.2590694,0.0
E06000043,3.2862067,2.0
E06000020,4.024755,1.0
E06000057,11.637814,2.0
E06000006,1.7752599,0.0
E08000003,13.815156,15.0
E10000015,37.529705,5.0
E06000024,4.6617575,8.0
E08000023,10.38762,8.0
E06000036,0.9780182,0.0
E10000011,8.940195,1.0
E06000031,8.323165,4.0
E08000021,9.760239,2.0
E10000002,8.313582,7.0
E06000044,3.0459335,2.0
E08000031,15.533126,2.0
E09000020,1.4642118,0.0
E06000003,3.4520235,7.0
E08000002,4.3068085,1.0
E10000012,45.056095,11.0
E09000005,8.279663,0.0
E06000007,8.321118,3.0
E09000023,3.2677217,1.0
E08000033,4.336217,2.0
E09000021,4.2792025,1.0
E09000029,1.7107357,0.0
E08000022,6.0668674,3.0
E06000015,4.174523,4.0
