n,o,l
granada,90.32896,87.0
palencia,28.889347,44.0
segovia,51.252438,80.0
valencia,21.407377,148.0
tarragona,63.83705,37.0
cadiz,14.306089,42.0
huelva,48.099743,36.0
caceres,109.73423,125.0
alicante,128.69354,110.0
cordoba,44.15775,0.0
gipuzkoa,101.375336,0.0
cuenca,0.2980355,73.0
sevilla,103.46909,0.0
guadalajara,0.29416087,76.0
salamanca,92.49723,0.0
toledo,0.29454935,0.0
ciudad_real,0.2955187,20.0
badajoz,57.17588,1220.0
barcelona,2031.3763,30.0
avila,41.906746,60.0
lleida,90.37866,92.0
araba/alava,151.19798,0.0
albacete,0.29552108,18.0
almeria,18.789207,18.0
zamora,10.235758,150.0
girona,145.54048,200.0
bizkaia,282.2669,66.0
soria,65.651054,59.0
burgos,69.78095,45.0
jaen,95.005745,102.0
valladolid,60.393887,53.0
malaga,120.23154,75.0
leon,81.75571,79.0
castellon,47.366127,43.0
