n,o,l
siracusa,0.006538011,0.0
asti,7.484852,24.0
oristano,0.06744994,5.0
grosseto,0.1922406,0.0
sondrio,3.7404037,44.0
ascoli_piceno,0.0,1.0
savona,5.880106,2.0
reggio_emilia,9.70404,45.0
torino,42.91999,217.0
rovigo,1.1126482,3.0
frosinone,0.8606105,2.0
campobasso,0.19711809,0.0
cosenza,0.97646236,4.0
trapani,0.0,0.0
pavia,9.9084425,76.0
cuneo,7.746,27.0
genova,11.091313,94.0
treviso,4.0564857,9.0
barletta_andria_trani,0.67702544,2.0
udine,0.58949244,2.0
brescia,16.148735,130.0
ravenna,0.6210023,15.0
latina,0.099825606,3.0
gorizia,0.1820989,15.0
pordenone,0.40134326,8.0
massa_carrara,0.91182077,2.0
la_aquila,0.0,3.0
prato,0.5777546,7.0
rieti,0.0,9.0
aosta,2.3321297,1.0
ragusa,0.0,2.0
fermo,0.3062313,3.0
milano,50.42186,277.0
firenze,6.9682584,35.0
arezzo,0.85587275,10.0
bolzano_bozen,2.7549074,19.0
piacenza,7.2211246,53.0
ancona,1.460581,4.0
napoli,3.6475036,53.0
reggio_calabria,0.0,0.0
novara,6.838745,20.0
pistoia,0.76830053,9.0
lodi,3.3875232,46.0
la_spezia,1.4463879,10.0
brindisi,1.8245152,15.0
taranto,0.1561751,2.0
potenza,0.0,0.0
perugia,0.12915665,0.0
alessandria,7.5353193,26.0
enna,0.40850297,8.0
imperia,3.5871727,13.0
vercelli,2.02713,43.0
foggia,3.47197,23.0
lecce,2.7379038,23.0
lecco,3.8902736,18.0
padova,0.70188355,4.0
messina,0.6092775,5.0
lucca,1.3769308,4.0
palermo,0.37736624,6.0
livorno,0.0,1.0
benevento,0.12333122,1.0
catanzaro,0.0,4.0
bari,3.8747203,59.0
caltanissetta,0.0,4.0
isernia,0.0,0.0
biella,2.6836054,27.0
verona,10.033534,58.0
caserta,0.07052795,0.0
chieti,3.3343563,29.0
varese,6.92919,38.0
teramo,0.3915924,0.0
macerata,1.1218104,10.0
cagliari,0.037428975,0.0
terni,0.0,3.0
nuoro,0.024710722,0.0
trento,7.8301125,81.0
salerno,0.81772935,0.0
pesaro_e_urbino,2.3318741,8.0
venezia,6.5127935,29.0
siena,0.16701978,2.0
vibo_valentia,0.0,0.0
matera,0.044055805,2.0
forli_cesena,1.8000636,17.0
parma,7.8442535,26.0
trieste,2.1307228,16.0
roma,9.846417,56.0
ferrara,2.1676128,24.0
belluno,3.490621,8.0
sassari,0.6728381,6.0
avellino,0.066484764,0.0
agrigento,0.0,0.0
como,8.423672,101.0
cremona,10.785332,83.0
catania,3.7273881,19.0
bologna,8.858648,54.0
pisa,1.4149942,5.0
viterbo,0.0,9.0
pescara,4.1547065,21.0
rimini,2.4824374,37.0
mantova,5.7243056,45.0
vicenza,6.563926,21.0
verbano_cusio_ossola,0.5808121,11.0
modena,4.0053263,18.0
crotone,0.0,0.0
bergamo,7.4162517,98.0
