n,o,l
charente_maritime,0.0,0.0
vienne,0.0,0.0
aude,0.0,0.0
haute_loire,0.0,0.0
haute_savoie,0.0,0.0
dordogne,0.0,0.0
correze,0.0,0.0
indre_et_loire,0.0,0.0
saone_et_loire,0.61321306,0.0
loire_atlantique,0.0,0.0
haute_vienne,0.21845838,0.0
drome,0.0,0.0
cote_d'or,0.0,0.0
landes,14.669248,3.0
paris,0.0,0.0
charente,0.0,0.0
meurthe_et_moselle,0.03492899,0.0
essonne,21.10369,0.0
marne,0.6099796,0.0
seine_saint_denis,19.639278,2.0
moselle,4.2733803,0.0
bas_rhin,0.8391991,0.0
pas_de_calais,4.706309,0.0
nord,4.3324223,2.0
loiret,0.0,0.0
nievre,0.31099057,0.0
alpes_maritimes,0.0551919,0.0
pyrenees_atlantiques,1.6450745,0.0
val_d'oise,7.218441,2.0
meuse,0.1586212,0.0
mayenne,0.0,0.0
val_de_marne,10.997915,1.0
hautes_pyrenees,0.006359406,0.0
lot,0.0,0.0
isere,0.0,0.0
gironde,0.4532015,0.0
yvelines,8.115941,7.0
yonne,0.0,0.0
haute_saone,0.2803977,0.0
somme,3.1301825,1.0
eure_et_loir,1.2513901,0.0
manche,3.8236408,0.0
indre,0.0,0.0
haute_marne,0.0,0.0
haut_rhin,1.4501492,0.0
maine_et_loire,0.0,0.0
jura,0.8446184,0.0
savoie,0.0,0.0
ardennes,0.20740333,0.0
haute_garonne,1.046003,3.0
rhone,0.80749196,0.0
ardeche,0.0,0.0
aisne,2.398506,0.0
vosges,0.0,0.0
gers,0.19952773,0.0
oise,5.070675,0.0
hauts_de_seine,6.847433,1.0
territoire_de_belfort,0.0357445,0.0
lot_et_garonne,0.0,0.0
eure,2.6723058,2.0
tarn,0.0,0.0
cher,1.0784247,0.0
aube,1.3328542,0.0
vaucluse,0.0,0.0
pyrenees_orientales,0.0032989793,0.0
var,0.27946207,0.0
cantal,0.0,0.0
doubs,0.87371564,0.0
seine_et_marne,13.312084,2.0
ain,1.7004552,0.0
calvados,0.0,0.0
herault,5.863466,5.0
bouches_du_rhone,13.144127,1.0
puy_de_dome,0.29819685,0.0
tarn_et_garonne,0.0,0.0
loire,0.0,1.0
gard,1.3860686,0.0
loir_et_cher,0.0,0.0
alpes_de_haute_provence,0.0,0.0
orne,0.38986382,0.0
seine_maritime,1.3057985,0.0
