n,o,l
siracusa,0.48061192,10.0
asti,3.7183974,28.0
oristano,0.059843354,2.0
grosseto,0.0014212355,0.0
sondrio,1.2889034,0.0
ascoli_piceno,0.24905103,0.0
savona,5.33175,6.0
reggio_emilia,9.455705,8.0
torino,55.831932,125.0
rovigo,0.18800804,5.0
frosinone,1.3934085,1.0
campobasso,0.48375463,0.0
cosenza,2.4770238,2.0
trapani,0.0,1.0
pavia,8.403567,85.0
cuneo,8.512196,16.0
genova,6.731531,145.0
treviso,8.633585,23.0
barletta_andria_trani,0.5590716,2.0
udine,0.06637162,6.0
brescia,25.704662,1.0
ravenna,1.1451445,35.0
latina,0.67831093,8.0
gorizia,0.0,4.0
pordenone,0.57746285,4.0
massa_carrara,1.7524197,4.0
la_aquila,0.087892026,1.0
prato,1.670801,0.0
rieti,0.0,1.0
aosta,2.0923972,5.0
ragusa,0.0,0.0
fermo,0.44219995,0.0
milano,42.00055,188.0
firenze,7.988625,8.0
arezzo,1.9498087,2.0
bolzano_bozen,5.843804,15.0
piacenza,6.0981474,75.0
ancona,2.255484,3.0
napoli,4.3291965,14.0
reggio_calabria,0.013672888,0.0
novara,8.932734,9.0
pistoia,1.2057072,3.0
lodi,4.081995,10.0
la_spezia,2.4557865,8.0
brindisi,2.0431514,2.0
taranto,0.15117179,0.0
potenza,0.0,0.0
perugia,0.2531888,2.0
alessandria,12.926754,83.0
enna,0.85336465,5.0
imperia,4.300361,1.0
vercelli,3.6956692,3.0
foggia,3.383873,3.0
lecce,2.8207004,53.0
lecco,7.3387294,9.0
padova,0.99154615,0.0
messina,0.41071457,1.0
lucca,4.5247593,9.0
palermo,0.33316725,5.0
livorno,0.15135977,0.0
benevento,2.4658442,0.0
catanzaro,0.07533837,3.0
bari,3.1922545,3.0
caltanissetta,0.0,0.0
isernia,0.0,0.0
biella,2.0382106,7.0
verona,12.027607,34.0
caserta,0.0,1.0
chieti,3.2010837,0.0
varese,8.856836,29.0
teramo,0.3356301,0.0
macerata,2.1292772,1.0
cagliari,0.29107592,1.0
terni,0.069547236,0.0
nuoro,0.0,0.0
trento,12.254732,101.0
salerno,1.3386636,1.0
pesaro_e_urbino,3.0407636,11.0
venezia,4.1410913,19.0
siena,0.7163114,0.0
vibo_valentia,0.0,1.0
matera,0.43548962,0.0
forli_cesena,3.3553553,18.0
parma,6.7425046,39.0
trieste,4.3669677,46.0
roma,13.27119,68.0
ferrara,4.3436923,4.0
belluno,4.338154,10.0
sassari,0.8368478,1.0
avellino,0.5861571,0.0
agrigento,0.0,1.0
como,7.7639346,51.0
cremona,5.3333893,5.0
catania,1.835228,8.0
bologna,12.575068,35.0
pisa,1.2102795,4.0
viterbo,0.57178074,5.0
pescara,3.9326708,14.0
rimini,2.0205529,16.0
mantova,5.8271804,18.0
vicenza,5.3722177,17.0
verbano_cusio_ossola,1.1368204,4.0
modena,6.0058427,16.0
crotone,0.0,0.0
bergamo,7.9176536,37.0
