n,o,l
charente_maritime,0.0,0.0
vienne,0.0,0.0
aude,0.0,0.0
haute_loire,0.0,0.0
haute_savoie,0.9918014,6.0
dordogne,0.0,0.0
correze,0.0,0.0
indre_et_loire,0.0,1.0
saone_et_loire,0.0,0.0
loire_atlantique,0.0,0.0
haute_vienne,0.0,5.0
drome,0.0,4.0
cote_d'or,0.0,0.0
landes,0.0,0.0
paris,5.5950356,8.0
charente,0.0,0.0
meurthe_et_moselle,0.0,1.0
essonne,3.9304447,6.0
marne,0.0,0.0
seine_saint_denis,1.0057077,4.0
moselle,0.13382025,0.0
bas_rhin,0.3204912,5.0
pas_de_calais,2.9987543,3.0
nord,1.0367996,9.0
loiret,0.0,1.0
nievre,0.021052666,0.0
alpes_maritimes,0.0,0.0
pyrenees_atlantiques,0.0,2.0
val_d'oise,0.45764166,8.0
meuse,0.0,0.0
mayenne,0.0,1.0
val_de_marne,1.5272673,4.0
hautes_pyrenees,0.07044333,0.0
lot,0.0,0.0
isere,0.0,0.0
gironde,0.0,1.0
yvelines,0.5796956,8.0
yonne,0.0,0.0
haute_saone,0.55711854,0.0
somme,2.183596,11.0
eure_et_loir,0.32012755,7.0
manche,0.25370714,3.0
indre,0.0,1.0
haute_marne,0.0,0.0
haut_rhin,0.759526,0.0
maine_et_loire,0.0,0.0
jura,0.0,10.0
savoie,0.0,0.0
ardennes,0.0,2.0
haute_garonne,0.35102573,3.0
rhone,0.06360552,1.0
ardeche,0.0,0.0
aisne,0.17750108,1.0
vosges,0.0,7.0
gers,0.25964314,3.0
oise,2.3108733,25.0
hauts_de_seine,0.69007695,3.0
territoire_de_belfort,0.0,0.0
lot_et_garonne,0.0,1.0
eure,0.6058006,4.0
tarn,0.0,0.0
cher,0.27636042,5.0
aube,0.21792197,2.0
vaucluse,0.0,1.0
pyrenees_orientales,0.0,0.0
var,0.0,12.0
cantal,0.0,0.0
doubs,0.097849466,1.0
seine_et_marne,1.1484591,8.0
ain,0.0,3.0
calvados,0.0,0.0
herault,1.4921132,14.0
bouches_du_rhone,2.9753792,51.0
puy_de_dome,0.0,1.0
tarn_et_garonne,0.0,0.0
loire,0.0,0.0
gard,0.60344994,17.0
loir_et_cher,0.0,0.0
alpes_de_haute_provence,0.0,0.0
orne,0.0063285828,1.0
seine_maritime,0.008386958,1.0
