n,o,l
siracusa,0.75131613,3.0
asti,5.8108563,26.0
oristano,0.01705122,1.0
grosseto,0.0,0.0
sondrio,1.6391995,37.0
ascoli_piceno,0.0,0.0
savona,2.5878348,34.0
reggio_emilia,2.87863,47.0
torino,41.2389,259.0
rovigo,0.21436414,1.0
frosinone,0.41410634,1.0
campobasso,0.0,0.0
cosenza,0.18659666,4.0
trapani,0.0,0.0
pavia,8.547176,69.0
cuneo,6.468993,27.0
genova,17.871763,45.0
treviso,2.0002863,24.0
barletta_andria_trani,0.0,2.0
udine,0.15286335,0.0
brescia,11.139212,55.0
ravenna,0.18595421,1.0
latina,0.833151,3.0
gorizia,0.20521864,4.0
pordenone,0.30737522,4.0
massa_carrara,0.5373848,1.0
la_aquila,0.0,0.0
prato,0.31813365,3.0
rieti,0.40343872,0.0
aosta,0.37663418,4.0
ragusa,0.0,2.0
fermo,0.18434706,4.0
milano,50.82691,216.0
firenze,7.422232,41.0
arezzo,0.1580768,3.0
bolzano_bozen,1.7919748,11.0
piacenza,11.564834,69.0
ancona,0.5038532,5.0
napoli,2.0956292,7.0
reggio_calabria,0.0,0.0
novara,2.3569658,26.0
pistoia,0.44108674,6.0
lodi,3.1669655,7.0
la_spezia,0.38514036,4.0
brindisi,0.30087042,11.0
taranto,0.0,3.0
potenza,0.0,0.0
perugia,0.06838816,1.0
alessandria,7.370561,71.0
enna,0.27844304,1.0
imperia,2.465304,21.0
vercelli,0.65352416,8.0
foggia,1.794141,12.0
lecce,3.7739344,9.0
lecco,0.9389196,15.0
padova,0.0,5.0
messina,0.21563375,3.0
lucca,1.0435991,3.0
palermo,1.0692675,13.0
livorno,0.0,0.0
benevento,0.098119915,0.0
catanzaro,0.0,1.0
bari,1.1506014,12.0
caltanissetta,0.0,0.0
isernia,0.0,1.0
biella,1.67716,3.0
verona,9.521632,39.0
caserta,0.08177656,0.0
chieti,1.1605494,0.0
varese,7.582069,48.0
teramo,0.0,1.0
macerata,0.60659105,7.0
cagliari,0.0,1.0
terni,0.038459867,0.0
nuoro,0.0,1.0
trento,10.2107525,47.0
salerno,0.16058132,2.0
pesaro_e_urbino,2.2050912,16.0
venezia,1.6660457,13.0
siena,0.0,1.0
vibo_valentia,0.0,0.0
matera,0.0,1.0
forli_cesena,2.0697765,20.0
parma,4.6412654,13.0
trieste,2.5190542,7.0
roma,10.465304,62.0
ferrara,1.0606374,3.0
belluno,1.9564047,23.0
sassari,0.35411638,3.0
avellino,0.0,2.0
agrigento,0.0,0.0
como,10.47312,37.0
cremona,4.529293,14.0
catania,1.0160723,2.0
bologna,10.579941,64.0
pisa,0.3228414,1.0
viterbo,0.24853021,5.0
pescara,1.3302307,7.0
rimini,1.6200259,15.0
mantova,3.3826663,19.0
vicenza,3.6960242,28.0
verbano_cusio_ossola,0.89641154,0.0
modena,3.1471028,27.0
crotone,0.0,0.0
bergamo,10.5139,22.0
