n,o,l
siracusa,0.044221938,2.0
asti,1.6752775,21.0
oristano,0.57062715,0.0
grosseto,0.027098943,2.0
sondrio,0.62863237,37.0
ascoli_piceno,0.56451255,7.0
savona,0.7799953,13.0
reggio_emilia,12.429254,163.0
torino,4.028508,253.0
rovigo,0.3528766,12.0
frosinone,0.0,35.0
campobasso,0.3246221,6.0
cosenza,0.09663963,21.0
trapani,0.31858885,12.0
pavia,5.064927,27.0
cuneo,3.2259707,31.0
genova,1.075113,35.0
treviso,2.5476975,56.0
barletta_andria_trani,0.06182254,7.0
udine,2.5425274,27.0
brescia,26.743874,37.0
ravenna,3.0174823,374.0
latina,2.5712166,6.0
gorizia,0.320504,4.0
pordenone,0.9905537,37.0
massa_carrara,0.46087858,0.0
la_aquila,0.10781978,11.0
prato,0.8647543,0.0
rieti,0.3975872,2.0
aosta,2.163726,44.0
ragusa,0.009139482,4.0
fermo,0.29138064,29.0
milano,32.203228,547.0
firenze,1.6728597,0.0
arezzo,0.0,0.0
bolzano_bozen,3.3926148,97.0
piacenza,6.1088,63.0
ancona,1.308656,36.0
napoli,3.2341702,69.0
reggio_calabria,0.44653174,17.0
novara,1.270045,32.0
pistoia,0.40611434,0.0
lodi,3.9525535,38.0
la_spezia,0.3042596,64.0
brindisi,0.22771192,3.0
taranto,0.23486613,4.0
potenza,0.64462453,12.0
perugia,3.0735452,58.0
alessandria,4.1485953,126.0
enna,0.4033268,22.0
imperia,0.46108106,3.0
vercelli,0.89947546,22.0
foggia,1.4228022,20.0
lecce,7.4375615,51.0
lecco,4.885834,114.0
padova,0.9759031,6.0
messina,1.1018851,38.0
lucca,1.1049724,0.0
palermo,0.08960731,13.0
livorno,0.06551481,1.0
benevento,1.0595533,0.0
catanzaro,0.01816408,62.0
bari,1.5940964,57.0
caltanissetta,0.41264305,5.0
isernia,0.037250444,0.0
biella,0.009784579,31.0
verona,4.9528728,243.0
caserta,0.44968912,2.0
chieti,1.295125,14.0
varese,1.5856884,209.0
teramo,1.187686,15.0
macerata,1.0152485,6.0
cagliari,0.22991788,0.0
terni,0.66883993,17.0
nuoro,0.04909926,0.0
trento,6.069522,94.0
salerno,1.2954199,0.0
pesaro_e_urbino,3.9100807,1.0
venezia,5.157756,35.0
siena,1.1043243,0.0
vibo_valentia,0.0071828477,1.0
matera,0.0,5.0
forli_cesena,1.3152757,67.0
parma,5.057245,79.0
trieste,2.0117962,26.0
roma,5.5780063,136.0
ferrara,1.2862637,32.0
belluno,1.5516405,16.0
sassari,2.913144,5.0
avellino,1.267556,2.0
agrigento,0.26141274,3.0
como,8.513069,54.0
cremona,3.9034486,126.0
catania,1.2808053,19.0
bologna,7.071013,160.0
pisa,1.8399227,0.0
viterbo,0.64628637,2.0
pescara,2.5173216,31.0
rimini,3.433772,75.0
mantova,5.9457617,148.0
vicenza,3.3064983,67.0
verbano_cusio_ossola,1.3644354,33.0
modena,8.185703,96.0
crotone,0.14393933,0.0
bergamo,28.164885,602.0
