n,o,l
granada,22.007088,47.0
palencia,9.424812,13.0
segovia,43.247505,88.0
valencia,53.04389,159.0
tarragona,4.4140596,10.0
cadiz,9.887568,28.0
huelva,18.749321,56.0
caceres,32.11381,31.0
alicante,25.603842,81.0
cordoba,14.610072,0.0
gipuzkoa,0.12141611,17.0
cuenca,26.390556,87.0
sevilla,0.12127724,0.0
guadalajara,33.03282,64.0
salamanca,0.12140624,0.0
toledo,0.12139679,0.0
ciudad_real,6.4379215,38.0
badajoz,392.15936,776.0
barcelona,22.064943,38.0
avila,13.95217,27.0
lleida,28.74979,19.0
araba/alava,0.12121931,6.0
albacete,6.9288926,0.0
almeria,6.5733614,2.0
zamora,50.1616,0.0
girona,75.744316,147.0
bizkaia,13.992767,29.0
soria,28.337048,25.0
burgos,10.468648,44.0
jaen,25.541605,39.0
valladolid,13.962077,138.0
malaga,18.821615,60.0
leon,34.286823,0.0
castellon,19.199047,57.0
