n,o,l
granada,25.94954,57.0
palencia,10.114268,41.0
segovia,31.479338,43.0
valencia,77.99925,147.0
tarragona,13.790915,9.0
cadiz,7.6480603,5.0
huelva,9.948758,12.0
caceres,36.26759,0.0
alicante,25.353237,91.0
cordoba,5.7135205,10.0
gipuzkoa,17.344255,0.0
cuenca,49.375275,86.0
sevilla,17.938093,30.0
guadalajara,27.028692,18.0
salamanca,43.36342,85.0
toledo,101.14216,49.0
ciudad_real,73.303566,42.0
badajoz,15.664918,0.0
barcelona,539.2619,520.0
avila,16.868135,46.0
lleida,19.99394,23.0
araba/alava,17.95899,0.0
albacete,21.724443,37.0
almeria,5.634352,9.0
zamora,12.985071,0.0
girona,0.2510598,67.0
bizkaia,77.83364,0.0
soria,20.759342,18.0
burgos,33.92902,43.0
jaen,38.3522,35.0
valladolid,15.347771,11.0
malaga,25.562258,117.0
leon,58.58874,33.0
castellon,21.023504,8.0
