n,o,l
terni,5.9049983,1.0
pistoia,8.557737,20.0
rieti,17.86656,0.0
pesaro_e_urbino,32.991695,19.0
caserta,7.16056,3.0
brescia,226.2582,168.0
padova,89.69789,87.0
savona,3.1331353,0.0
cremona,74.70228,71.0
vicenza,68.26791,34.0
udine,24.607994,4.0
livorno,10.301836,50.0
bergamo,234.78242,46.0
campobasso,3.7601795,0.0
cosenza,8.257465,39.0
torino,244.47694,460.0
lecce,23.091679,1.0
lecco,46.500103,4.0
benevento,10.931094,0.0
ferrara,14.320008,60.0
roma,106.74846,102.0
napoli,76.98065,46.0
salerno,15.713123,23.0
chieti,12.049513,30.0
vercelli,21.493792,65.0
firenze,90.56442,71.0
ascoli_piceno,12.709864,7.0
foggia,24.244116,24.0
enna,10.586363,1.0
reggio_calabria,8.496354,0.0
matera,5.5699778,14.0
cuneo,44.263042,23.0
venezia,46.39716,23.0
grosseto,9.633887,0.0
massa_carrara,37.20664,12.0
caltanissetta,1.1543688,1.0
nuoro,0.0,0.0
biella,21.511316,2.0
mantova,68.63613,36.0
la_spezia,14.476844,24.0
palermo,6.7530704,6.0
gorizia,1.2151964,2.0
latina,6.559157,2.0
fermo,9.728989,11.0
piacenza,69.91099,26.0
trento,88.93131,74.0
lucca,24.877846,1.0
sassari,36.981403,61.0
genova,46.524433,35.0
isernia,0.0,0.0
oristano,0.0,1.0
vibo_valentia,0.58753264,2.0
aosta,77.16987,13.0
pavia,33.059536,74.0
reggio_emilia,121.89174,71.0
rimini,31.973616,25.0
milano,397.51788,277.0
treviso,45.395092,102.0
viterbo,10.378843,12.0
crotone,0.0,0.0
siracusa,0.17461169,16.0
pescara,24.013819,34.0
teramo,17.14706,5.0
sondrio,23.112236,5.0
siena,13.183367,9.0
ravenna,19.763342,15.0
potenza,2.412183,2.0
forli_cesena,34.913795,23.0
cagliari,2.593927,1.0
trapani,1.6291276,1.0
imperia,2.7306495,12.0
arezzo,11.79754,8.0
varese,73.028534,69.0
ancona,41.901237,17.0
parma,54.911182,82.0
messina,11.1424265,7.0
bolzano_bozen,70.30121,43.0
prato,10.840994,29.0
frosinone,21.173035,18.0
ragusa,0.37133563,1.0
verona,131.73857,81.0
catania,25.58068,10.0
pordenone,17.468042,16.0
alessandria,57.044052,173.0
novara,40.610664,117.0
pisa,18.916162,17.0
catanzaro,14.013863,4.0
macerata,14.383169,25.0
bari,38.78147,16.0
verbano_cusio_ossola,22.503273,6.0
avellino,11.652547,9.0
rovigo,3.1542063,6.0
asti,28.977732,28.0
brindisi,8.125682,11.0
belluno,18.752937,32.0
trieste,26.127981,50.0
modena,93.10924,45.0
como,52.849087,79.0
lodi,26.798939,39.0
barletta_andria_trani,2.2577844,15.0
agrigento,3.2180512,1.0
la_aquila,6.6897087,3.0
perugia,29.131361,5.0
taranto,8.537633,7.0
bologna,120.43781,110.0
