n,o,l
siracusa,0.082544416,3.0
asti,0.13112637,34.0
oristano,0.058723018,10.0
grosseto,0.35067046,0.0
sondrio,0.78015435,11.0
ascoli_piceno,0.25751492,16.0
savona,0.65966856,16.0
reggio_emilia,1.7609626,150.0
torino,3.628051,275.0
rovigo,0.17099944,3.0
frosinone,0.18027112,20.0
campobasso,0.023365978,11.0
cosenza,0.40163967,17.0
trapani,0.08400704,9.0
pavia,3.712829,97.0
cuneo,0.71124375,33.0
genova,3.4325566,147.0
treviso,1.4347335,43.0
barletta_andria_trani,0.28504246,2.0
udine,0.5934382,335.0
brescia,6.4017086,32.0
ravenna,0.8655819,6.0
latina,0.2299965,24.0
gorizia,0.1809793,6.0
pordenone,0.0,6.0
massa_carrara,1.4593395,23.0
la_aquila,0.118408814,13.0
prato,0.18676586,4.0
rieti,0.0,14.0
aosta,0.3072993,73.0
ragusa,0.0334663,0.0
fermo,0.3175724,5.0
milano,6.233015,546.0
firenze,1.452957,102.0
arezzo,1.2106106,12.0
bolzano_bozen,1.6944283,105.0
piacenza,7.895988,85.0
ancona,1.4406978,75.0
napoli,1.2345881,71.0
reggio_calabria,0.64090616,34.0
novara,1.1994761,37.0
pistoia,0.434583,11.0
lodi,0.86322165,28.0
la_spezia,0.48040548,0.0
brindisi,0.5824419,4.0
taranto,0.21973613,6.0
potenza,0.18620329,12.0
perugia,1.2533168,46.0
alessandria,0.69898665,24.0
enna,0.03153655,58.0
imperia,0.60187817,0.0
vercelli,0.9307496,29.0
foggia,1.1782562,22.0
lecce,1.7408279,0.0
lecco,1.8289376,115.0
padova,0.08707768,10.0
messina,0.8249318,65.0
lucca,2.1732266,54.0
palermo,0.052152116,4.0
livorno,0.037361335,0.0
benevento,0.5705341,16.0
catanzaro,0.24055181,5.0
bari,1.3866612,49.0
caltanissetta,0.0,11.0
isernia,0.03629253,0.0
biella,0.3417367,11.0
verona,2.3845587,122.0
caserta,0.030529696,40.0
chieti,0.0,37.0
varese,1.382662,46.0
teramo,0.035939362,44.0
macerata,0.9335939,19.0
cagliari,0.036197625,5.0
terni,0.12526707,5.0
nuoro,0.0,1.0
trento,2.4661036,16.0
salerno,0.68351465,89.0
pesaro_e_urbino,5.258593,70.0
venezia,1.4060758,48.0
siena,0.17927662,38.0
vibo_valentia,0.17499107,0.0
matera,0.04080482,8.0
forli_cesena,1.3296484,30.0
parma,4.532058,57.0
trieste,0.0,24.0
roma,3.3707051,106.0
ferrara,0.4168604,19.0
belluno,0.0,29.0
sassari,0.44463843,8.0
avellino,0.47095415,15.0
agrigento,0.0,20.0
como,1.2690917,157.0
cremona,7.970174,111.0
catania,0.42301494,20.0
bologna,1.6529166,157.0
pisa,0.9724061,34.0
viterbo,0.0051553138,35.0
pescara,0.8844765,64.0
rimini,0.0,34.0
mantova,4.0419164,66.0
vicenza,1.8068873,68.0
verbano_cusio_ossola,0.885499,38.0
modena,1.4820887,172.0
crotone,0.15158129,3.0
bergamo,13.089458,178.0
