n,o,l
granada,33.983437,47.0
palencia,13.703766,13.0
segovia,57.771935,88.0
valencia,61.34673,159.0
tarragona,39.06681,10.0
cadiz,5.6760464,28.0
huelva,15.766927,56.0
caceres,24.267448,31.0
alicante,40.59582,81.0
cordoba,28.582813,0.0
gipuzkoa,35.743214,17.0
cuenca,0.48147002,87.0
sevilla,31.99743,0.0
guadalajara,0.4829342,64.0
salamanca,46.339767,0.0
toledo,0.48207343,0.0
ciudad_real,0.48256668,38.0
badajoz,10.182994,776.0
barcelona,553.4846,38.0
avila,25.546011,27.0
lleida,29.470093,19.0
araba/alava,40.21629,6.0
albacete,0.48248163,0.0
almeria,7.963162,2.0
zamora,8.401223,0.0
girona,50.773323,147.0
bizkaia,107.5678,29.0
soria,14.50215,25.0
burgos,13.715695,44.0
jaen,50.719048,39.0
valladolid,18.028854,138.0
malaga,30.366999,60.0
leon,31.910013,0.0
castellon,19.204563,57.0
