n,o,l
E10000013,35.81134,21.0
E08000001,24.700985,20.0
E06000032,22.337753,9.0
E08000034,19.62188,7.0
E06000022,1.4997253,1.0
E10000006,80.4851,37.0
E10000025,58.855274,35.0
E08000009,20.638702,16.0
E06000049,25.034592,22.0
E10000024,33.756207,24.0
E09000017,24.33389,21.0
E08000027,21.029589,17.0
E06000021,5.027351,16.0
E10000019,28.09809,26.0
E08000008,16.708105,8.0
E09000026,23.251394,14.0
E06000001,1.1769911,7.0
E06000050,30.288832,18.0
E08000017,6.038097,14.0
E06000055,8.974157,7.0
E06000040,1.5122485,6.0
E06000002,18.54438,16.0
E06000004,8.728851,15.0
E08000030,31.719828,35.0
E08000032,25.299994,21.0
E10000017,113.37669,74.0
E08000004,20.04478,21.0
E08000035,34.915726,43.0
E06000011,10.621034,27.0
E10000032,38.99115,25.0
E06000038,5.522339,17.0
E06000041,4.997331,8.0
E09000015,25.57812,13.0
E09000006,37.32565,14.0
E08000011,20.105753,19.0
E06000008,6.9096403,8.0
E06000026,3.1165507,9.0
E06000059,6.922653,7.0
E06000034,5.900051,6.0
E10000014,95.97095,83.0
E06000016,23.750376,28.0
E06000035,22.9157,19.0
E08000014,35.64154,15.0
E06000056,15.1865635,11.0
E10000003,19.106836,22.0
E09000004,20.777258,11.0
E10000018,31.393011,30.0
E08000012,55.360374,30.0
E06000012,0.53952175,4.0
E10000027,9.537672,22.0
E06000014,4.070393,8.0
E08000036,53.835617,12.0
E09000008,18.28764,25.0
E06000046,0.0,0.0
E06000030,5.66873,17.0
E06000054,10.080064,10.0
E08000005,12.924613,26.0
E06000027,0.0,10.0
E10000016,111.28982,116.0
E10000030,82.59644,63.0
E08000013,24.842403,14.0
E06000033,12.910157,7.0
E08000016,13.970245,17.0
E09000016,24.5303,11.0
E06000051,7.4966593,10.0
E08000037,29.1191,14.0
E06000052,15.217215,8.0
E09000010,23.838446,25.0
E10000021,49.956646,15.0
E06000039,5.1223807,7.0
E08000024,52.783848,56.0
E09000027,8.391163,4.0
E09000009,29.542984,19.0
E10000020,37.05072,40.0
E10000023,26.675901,39.0
E10000029,27.078316,58.0
E06000045,10.270395,17.0
E08000018,13.024142,19.0
E10000034,31.560877,31.0
E06000018,14.626087,18.0
E08000019,69.503044,64.0
E06000017,0.0,0.0
E08000010,20.8942,30.0
E09000003,43.8225,10.0
E10000028,47.4599,51.0
E10000008,20.13052,18.0
E08000025,98.11214,54.0
E10000031,36.177418,27.0
E08000007,31.972622,21.0
E06000013,2.583829,17.0
E06000005,6.5209413,13.0
E08000015,43.551556,15.0
E06000042,13.771301,5.0
E06000009,6.2805405,21.0
E10000007,35.11032,23.0
E09000001,0.0,2.0
E09000022,39.697754,15.0
E06000047,52.213696,50.0
E06000037,5.0995607,16.0
E08000026,20.783215,25.0
E09000002,11.520107,7.0
E09000018,21.177826,12.0
E06000043,8.853715,8.0
E06000020,1.9779232,10.0
E06000057,26.282694,23.0
E06000006,13.433743,7.0
E08000003,47.783722,31.0
E10000015,88.51143,47.0
E06000024,1.8816128,4.0
E08000023,14.079761,25.0
E06000036,3.1140633,5.0
E10000011,16.742977,10.0
E06000031,2.285035,10.0
E08000021,33.31257,18.0
E10000002,22.152157,11.0
E06000044,4.6741724,1.0
E08000031,16.670105,22.0
E09000020,9.553986,7.0
E06000003,7.5001745,8.0
E08000002,13.635842,22.0
E10000012,101.83741,70.0
E09000005,49.271873,15.0
E06000007,21.310762,20.0
E09000023,4.473885,4.0
E08000033,42.03038,14.0
E09000021,10.394455,9.0
E09000029,18.35574,10.0
E08000022,23.793455,7.0
E06000015,14.171228,9.0
