n,o,l
granada,54.64689,57.0
palencia,39.320827,41.0
segovia,54.61428,43.0
valencia,65.24818,147.0
tarragona,39.374878,9.0
cadiz,30.986362,5.0
huelva,38.022144,12.0
caceres,31.030518,0.0
alicante,33.78068,91.0
cordoba,39.868534,10.0
gipuzkoa,49.260952,0.0
cuenca,30.932646,86.0
sevilla,44.727768,30.0
guadalajara,36.24778,18.0
salamanca,67.82812,85.0
toledo,34.33567,49.0
ciudad_real,69.487114,42.0
badajoz,30.675613,0.0
barcelona,322.3764,520.0
avila,41.416626,46.0
lleida,39.60027,23.0
araba/alava,49.53756,0.0
albacete,31.37887,37.0
almeria,36.006752,9.0
zamora,25.421469,0.0
girona,99.32339,67.0
bizkaia,121.467735,0.0
soria,57.564266,18.0
burgos,43.175804,43.0
jaen,51.749683,35.0
valladolid,33.932236,11.0
malaga,69.123856,117.0
leon,63.329533,33.0
castellon,35.500336,8.0
