n,o,l
charente_maritime,1.4413729,1.0
vienne,0.0,0.0
aude,6.0998883,0.0
haute_loire,0.0,0.0
haute_savoie,18.969355,0.0
dordogne,0.0,0.0
correze,0.0,0.0
indre_et_loire,3.1841047,0.0
saone_et_loire,5.7826276,6.0
loire_atlantique,0.63694453,0.0
haute_vienne,0.30727893,0.0
drome,1.8428309,0.0
cote_d'or,2.6801288,0.0
landes,139.34248,35.0
paris,0.27555284,0.0
charente,0.0,0.0
meurthe_et_moselle,4.48173,17.0
essonne,59.22561,0.0
marne,13.490731,2.0
seine_saint_denis,105.33836,7.0
moselle,29.411959,1.0
bas_rhin,20.536243,0.0
pas_de_calais,9.913515,0.0
nord,6.9242363,0.0
loiret,16.588203,0.0
nievre,3.2795055,0.0
alpes_maritimes,13.032699,1.0
pyrenees_atlantiques,4.089511,0.0
val_d'oise,57.79503,25.0
meuse,0.5743713,0.0
mayenne,0.0,0.0
val_de_marne,67.626366,6.0
hautes_pyrenees,2.3244457,0.0
lot,0.0,0.0
isere,0.578957,0.0
gironde,16.830894,0.0
yvelines,41.366295,3.0
yonne,0.0,0.0
haute_saone,3.892316,0.0
somme,13.346465,0.0
eure_et_loir,20.177404,1.0
manche,10.815324,0.0
indre,2.7636602,0.0
haute_marne,0.48624676,0.0
haut_rhin,55.40743,0.0
maine_et_loire,0.0,0.0
jura,0.75763565,0.0
savoie,0.0,0.0
ardennes,0.48803458,0.0
haute_garonne,9.465685,2.0
rhone,7.458843,2.0
ardeche,0.5866656,0.0
aisne,17.058771,0.0
vosges,21.72379,0.0
gers,1.7422678,0.0
oise,52.392162,0.0
hauts_de_seine,110.54714,4.0
territoire_de_belfort,2.2098823,0.0
lot_et_garonne,0.0,0.0
eure,7.647188,0.0
tarn,0.0,0.0
cher,9.017962,0.0
aube,12.54111,0.0
vaucluse,6.4845824,0.0
pyrenees_orientales,0.0,0.0
var,14.119143,0.0
cantal,0.0,2.0
doubs,3.4912934,0.0
seine_et_marne,55.710773,5.0
ain,2.4732008,68.0
calvados,3.7270348,0.0
herault,45.078175,5.0
bouches_du_rhone,128.38182,9.0
puy_de_dome,6.2164273,2.0
tarn_et_garonne,0.11382499,0.0
loire,0.0,0.0
gard,11.5303955,1.0
loir_et_cher,0.0,0.0
alpes_de_haute_provence,0.3754486,0.0
orne,0.1332027,0.0
seine_maritime,11.672625,1.0
