n,o,l
granada,38.10127,57.0
palencia,27.126633,41.0
segovia,22.360413,43.0
valencia,54.840134,147.0
tarragona,9.4686,9.0
cadiz,3.9106266,5.0
huelva,7.9852815,12.0
caceres,11.710815,0.0
alicante,29.490343,91.0
cordoba,10.560526,10.0
gipuzkoa,19.964548,0.0
cuenca,30.021889,86.0
sevilla,16.534225,30.0
guadalajara,31.146862,18.0
salamanca,46.848217,85.0
toledo,57.58915,49.0
ciudad_real,99.78743,42.0
badajoz,5.042731,0.0
barcelona,268.03174,520.0
avila,26.80802,46.0
lleida,10.274431,23.0
araba/alava,28.239895,0.0
albacete,42.670822,37.0
almeria,5.263302,9.0
zamora,5.8867993,0.0
girona,57.00102,67.0
bizkaia,81.84372,0.0
soria,27.080357,18.0
burgos,12.377305,43.0
jaen,56.105244,35.0
valladolid,9.893446,11.0
malaga,42.491745,117.0
leon,57.171803,33.0
castellon,40.865562,8.0
