n,o,l
granada,43.00409,39.0
palencia,17.439428,14.0
segovia,77.460945,131.0
valencia,80.09348,99.0
tarragona,54.837536,0.0
cadiz,5.848458,12.0
huelva,20.146278,14.0
caceres,29.374954,45.0
alicante,52.413944,89.0
cordoba,30.688084,15.0
gipuzkoa,52.772644,78.0
cuenca,0.0,0.0
sevilla,43.09568,68.0
guadalajara,0.0,0.0
salamanca,63.049385,108.0
toledo,0.0,0.0
ciudad_real,0.0,0.0
badajoz,13.812079,23.0
barcelona,777.5379,1058.0
avila,33.223152,27.0
lleida,43.10153,75.0
araba/alava,53.88557,62.0
albacete,0.0,0.0
almeria,8.164777,17.0
zamora,8.485327,18.0
girona,56.489677,0.0
bizkaia,162.97983,214.0
soria,18.049597,12.0
burgos,18.296051,29.0
jaen,73.89949,84.0
valladolid,22.409773,31.0
malaga,43.263805,68.0
leon,38.971443,54.0
castellon,21.430311,23.0
