n,o,l
charente_maritime,0.113564685,0.0
vienne,0.14377,0.0
aude,0.280241,0.0
haute_loire,0.1838018,0.0
haute_savoie,0.9422824,0.0
dordogne,0.18306795,0.0
correze,0.2134446,0.0
indre_et_loire,0.27065104,4.0
saone_et_loire,0.14831825,0.0
loire_atlantique,0.1826157,0.0
haute_vienne,0.17976087,0.0
drome,0.22147502,0.0
cote_d'or,0.23555791,0.0
landes,0.1705402,0.0
paris,13.661423,0.0
charente,0.18258975,0.0
meurthe_et_moselle,0.15776014,0.0
essonne,7.231126,1.0
marne,0.22654241,0.0
seine_saint_denis,1.9576395,0.0
moselle,0.05600436,0.0
bas_rhin,0.82435995,0.0
pas_de_calais,4.2598968,0.0
nord,1.8264573,0.0
loiret,0.18084711,0.0
nievre,0.36090004,0.0
alpes_maritimes,0.15916166,0.0
pyrenees_atlantiques,0.16008908,0.0
val_d'oise,1.0146284,0.0
meuse,0.2156268,0.0
mayenne,0.1826875,0.0
val_de_marne,2.4959097,0.0
hautes_pyrenees,0.25797445,0.0
lot,0.18301699,0.0
isere,0.18466412,0.0
gironde,0.21312201,0.0
yvelines,0.9548015,0.0
yonne,0.21355894,0.0
haute_saone,0.4845767,0.0
somme,3.398063,0.0
eure_et_loir,0.823323,0.0
manche,0.28073254,0.0
indre,0.2001161,0.0
haute_marne,0.15938862,0.0
haut_rhin,0.3482852,0.0
maine_et_loire,0.17996839,0.0
jura,0.2372965,0.0
savoie,0.18388662,0.0
ardennes,0.35583654,0.0
haute_garonne,1.1799035,0.0
rhone,0.5073272,0.0
ardeche,0.23636864,0.0
aisne,0.3630278,0.0
vosges,0.20041433,0.0
gers,0.48994848,0.0
oise,5.95,0.0
hauts_de_seine,1.289489,2.0
territoire_de_belfort,0.18400593,0.0
lot_et_garonne,0.1839836,0.0
eure,0.91362965,1.0
tarn,0.16109246,0.0
cher,0.91698194,0.0
aube,0.42960864,0.0
vaucluse,0.14670107,0.0
pyrenees_orientales,0.17817351,0.0
var,0.30849925,1.0
cantal,0.6037268,1.0
doubs,0.24085478,0.0
seine_et_marne,2.5304208,0.0
ain,0.20546874,0.0
calvados,0.1810316,0.0
herault,4.6825514,3.0
bouches_du_rhone,5.941357,2.0
puy_de_dome,0.22153577,0.0
tarn_et_garonne,0.23251586,0.0
loire,0.19032213,0.0
gard,0.57901543,0.0
loir_et_cher,0.1599763,0.0
alpes_de_haute_provence,0.2752638,0.0
orne,0.3889966,0.0
seine_maritime,0.3106164,0.0
