n,o,l
terni,0.0,0.0
pistoia,3.8923252,3.0
rieti,0.0,0.0
pesaro_e_urbino,15.110575,31.0
caserta,0.0,0.0
brescia,121.61766,94.0
padova,39.265057,4.0
savona,21.808641,3.0
cremona,64.177055,3.0
vicenza,33.743862,6.0
udine,0.17633614,0.0
livorno,8.192841,3.0
bergamo,41.402332,85.0
campobasso,0.004860714,0.0
cosenza,11.553997,0.0
torino,271.02304,122.0
lecce,0.29892778,0.0
lecco,18.999445,16.0
benevento,0.0,3.0
ferrara,18.604473,4.0
roma,82.39035,37.0
napoli,28.597273,5.0
salerno,6.65311,0.0
chieti,15.428312,1.0
vercelli,16.87872,2.0
firenze,43.8583,14.0
ascoli_piceno,0.0,2.0
foggia,13.505028,2.0
enna,2.7063057,0.0
reggio_calabria,0.0,0.0
matera,0.0,0.0
cuneo,56.20965,18.0
venezia,22.457096,11.0
grosseto,0.0,4.0
massa_carrara,7.0912285,3.0
caltanissetta,0.0,3.0
nuoro,0.0,0.0
biella,10.577697,12.0
mantova,40.076916,2.0
la_spezia,9.973086,11.0
palermo,0.54849386,5.0
gorizia,0.0,0.0
latina,1.4343163,0.0
fermo,0.26641572,1.0
piacenza,29.092766,37.0
trento,56.97652,11.0
lucca,2.98096,0.0
sassari,17.328228,4.0
genova,88.32678,38.0
isernia,0.0,0.0
oristano,0.0,0.0
vibo_valentia,0.0,0.0
aosta,17.656326,1.0
pavia,51.57089,32.0
reggio_emilia,56.56774,13.0
rimini,11.601581,9.0
milano,241.74294,186.0
treviso,41.56727,6.0
viterbo,0.46764886,1.0
crotone,0.0,0.0
siracusa,0.807678,0.0
pescara,23.57227,4.0
teramo,0.0,0.0
sondrio,16.6165,29.0
siena,0.95168304,1.0
ravenna,9.778022,0.0
potenza,0.0,0.0
forli_cesena,20.507904,23.0
cagliari,0.0,1.0
trapani,0.0,0.0
imperia,27.8593,1.0
arezzo,10.375386,3.0
varese,55.907055,55.0
ancona,12.838593,2.0
parma,37.730705,23.0
messina,3.7812493,0.0
bolzano_bozen,27.623556,5.0
prato,6.443272,2.0
frosinone,3.413808,0.0
ragusa,0.0,0.0
verona,54.373623,21.0
catania,9.987475,7.0
pordenone,2.5385475,1.0
alessandria,61.860485,9.0
novara,45.22663,6.0
pisa,10.411599,1.0
catanzaro,0.0,1.0
macerata,7.7847605,3.0
bari,18.62836,6.0
verbano_cusio_ossola,4.3073716,12.0
avellino,0.094715826,0.0
rovigo,0.0,0.0
asti,39.731087,4.0
brindisi,11.686259,0.0
belluno,24.440845,6.0
trieste,22.789215,3.0
modena,31.643602,10.0
como,62.26176,19.0
lodi,19.800632,15.0
barletta_andria_trani,0.8611672,0.0
agrigento,0.0,0.0
la_aquila,0.0,0.0
perugia,0.0,0.0
taranto,0.0,2.0
bologna,65.35378,40.0
