n,o,l
charente_maritime,7.3333516,5.0
vienne,4.7159452,0.0
aude,11.75674,8.0
haute_loire,1.9975779,2.0
haute_savoie,42.744045,13.0
dordogne,2.8689957,2.0
correze,0.8422,0.0
indre_et_loire,9.597457,9.0
saone_et_loire,7.364668,8.0
loire_atlantique,3.7767205,2.0
haute_vienne,4.6824713,5.0
drome,17.598513,2.0
cote_d'or,10.121483,4.0
landes,188.4202,187.0
paris,0.91215473,1.0
charente,0.21479988,1.0
meurthe_et_moselle,5.5682635,16.0
essonne,78.79096,77.0
marne,13.818372,22.0
seine_saint_denis,104.89866,110.0
moselle,12.578259,37.0
bas_rhin,8.721191,25.0
pas_de_calais,8.787582,3.0
nord,13.499426,10.0
loiret,14.134903,19.0
nievre,1.5758722,2.0
alpes_maritimes,9.32591,9.0
pyrenees_atlantiques,10.0204315,2.0
val_d'oise,132.57208,69.0
meuse,3.22792,1.0
mayenne,0.2016799,0.0
val_de_marne,41.59251,74.0
hautes_pyrenees,0.6811659,5.0
lot,0.19371796,1.0
isere,22.116573,3.0
gironde,22.396952,24.0
yvelines,44.493313,58.0
yonne,5.1046934,1.0
haute_saone,17.49343,10.0
somme,14.5039625,10.0
eure_et_loir,16.689325,23.0
manche,9.191409,16.0
indre,9.133628,6.0
haute_marne,1.7851937,5.0
haut_rhin,23.404081,45.0
maine_et_loire,0.8597154,0.0
jura,3.9210315,1.0
savoie,3.8879936,2.0
ardennes,1.272236,4.0
haute_garonne,16.25421,13.0
rhone,22.8992,2.0
ardeche,7.6720777,2.0
aisne,8.972088,8.0
vosges,22.166744,19.0
gers,3.8022306,5.0
oise,35.876186,34.0
hauts_de_seine,126.40113,140.0
territoire_de_belfort,4.031559,3.0
lot_et_garonne,0.19545488,0.0
eure,8.50337,16.0
tarn,2.0376973,5.0
cher,14.4944315,11.0
aube,11.214314,12.0
vaucluse,15.313952,16.0
pyrenees_orientales,0.489002,0.0
var,25.804234,18.0
cantal,0.08515717,0.0
doubs,8.1874,9.0
seine_et_marne,36.37296,51.0
ain,10.270006,5.0
calvados,17.206087,5.0
herault,82.73689,52.0
bouches_du_rhone,146.8564,192.0
puy_de_dome,10.713249,6.0
tarn_et_garonne,5.4546,2.0
loire,0.22673202,0.0
gard,8.075758,8.0
loir_et_cher,9.008855,0.0
alpes_de_haute_provence,1.8838289,4.0
orne,6.044884,0.0
seine_maritime,20.568083,9.0
