n,o,l
E10000013,31.385275,34.0
E08000001,13.984067,25.0
E06000032,19.161575,17.0
E08000034,18.936483,24.0
E06000022,6.8667274,5.0
E10000006,59.86131,74.0
E10000025,38.71971,41.0
E08000009,18.83086,28.0
E06000049,16.666492,31.0
E10000024,40.045883,34.0
E09000017,26.687206,21.0
E08000027,29.819695,18.0
E06000021,15.134254,17.0
E10000019,27.374987,33.0
E08000008,13.106448,14.0
E09000026,26.05595,22.0
E06000001,3.8031328,3.0
E06000050,21.036001,29.0
E08000017,19.639807,17.0
E06000055,11.322194,14.0
E06000040,9.175822,9.0
E06000002,15.922097,23.0
E06000004,13.1346,13.0
E08000030,31.766985,36.0
E08000032,23.797201,21.0
E10000017,82.978836,91.0
E08000004,19.978455,22.0
E08000035,30.19395,31.0
E06000011,11.851098,9.0
E10000032,33.32975,25.0
E06000038,12.42963,14.0
E06000041,13.842438,14.0
E09000015,39.768528,23.0
E09000006,42.993996,49.0
E08000011,18.609762,18.0
E06000008,9.190302,8.0
E06000026,8.820383,8.0
E06000059,11.751078,15.0
E06000034,11.556427,10.0
E10000014,81.43038,71.0
E06000016,9.105932,33.0
E06000035,14.697269,33.0
E08000014,20.92666,28.0
E06000056,13.462425,16.0
E10000003,26.071636,13.0
E09000004,21.342,29.0
E10000018,18.871157,45.0
E08000012,45.19518,46.0
E06000012,5.0710545,5.0
E10000027,9.521623,8.0
E06000014,4.731402,12.0
E08000036,56.641167,55.0
E09000008,15.554627,17.0
E06000046,1.8213733,7.0
E06000030,7.3978243,8.0
E06000054,14.715223,10.0
E08000005,15.484763,16.0
E06000027,4.7526407,3.0
E10000016,73.52519,111.0
E10000030,89.17165,92.0
E08000013,23.675749,29.0
E06000033,13.465811,16.0
E08000016,21.653383,26.0
E09000016,18.983023,29.0
E06000051,15.539357,13.0
E08000037,21.071255,33.0
E06000052,14.908226,21.0
E09000010,28.161543,26.0
E10000021,45.72287,54.0
E06000039,12.802089,11.0
E08000024,26.609612,44.0
E09000027,21.007843,15.0
E09000009,40.316395,27.0
E10000020,29.688673,22.0
E10000023,26.636726,32.0
E10000029,24.0182,29.0
E06000045,16.199009,14.0
E08000018,27.065151,22.0
E10000034,40.332054,34.0
E06000018,14.198848,16.0
E08000019,78.69014,63.0
E06000017,1.3475419,0.0
E08000010,18.98846,13.0
E09000003,57.580307,37.0
E10000028,49.65821,54.0
E10000008,16.436594,25.0
E08000025,122.051796,108.0
E10000031,37.586655,29.0
E08000007,21.451254,33.0
E06000013,5.004817,8.0
E06000005,7.4952097,4.0
E08000015,21.664818,18.0
E06000042,17.650667,14.0
E06000009,6.0480185,5.0
E10000007,40.63078,51.0
E09000001,2.7271166,0.0
E09000022,52.219746,49.0
E06000047,21.461391,52.0
E06000037,10.2123375,14.0
E08000026,26.847858,28.0
E09000002,16.416115,21.0
E09000018,26.862463,32.0
E06000043,12.889284,19.0
E06000020,10.426902,4.0
E06000057,12.056989,40.0
E06000006,10.894578,8.0
E08000003,28.901384,28.0
E10000015,85.31393,84.0
E06000024,7.8459682,8.0
E08000023,10.426828,9.0
E06000036,5.100188,10.0
E10000011,17.559383,21.0
E06000031,6.218581,6.0
E08000021,30.562832,41.0
E10000002,27.187607,19.0
E06000044,3.6690803,6.0
E08000031,28.145533,19.0
E09000020,22.127657,16.0
E06000003,11.714773,11.0
E08000002,15.927019,16.0
E10000012,83.488144,108.0
E09000005,62.977207,56.0
E06000007,14.712409,17.0
E09000023,11.311011,6.0
E08000033,34.72728,35.0
E09000021,22.438326,9.0
E09000029,25.417513,37.0
E08000022,13.249628,35.0
E06000015,25.463375,30.0
