n,o,l
terni,0.26617742,0.0
pistoia,7.3858376,6.0
rieti,0.16099373,0.0
pesaro_e_urbino,20.641186,16.0
caserta,1.1911055,0.0
brescia,153.29767,55.0
padova,48.193737,15.0
savona,7.882456,34.0
cremona,91.04041,14.0
vicenza,29.964397,28.0
udine,3.4616644,0.0
livorno,14.197377,0.0
bergamo,53.38403,22.0
campobasso,0.2300748,0.0
cosenza,8.153257,4.0
torino,294.77283,259.0
lecce,1.003884,3.0
lecco,18.731644,9.0
benevento,0.20360488,0.0
ferrara,22.458439,3.0
roma,95.81261,62.0
napoli,40.74013,7.0
salerno,7.931145,2.0
chieti,18.909723,0.0
vercelli,29.021673,8.0
firenze,53.941513,41.0
ascoli_piceno,1.1370041,0.0
foggia,9.055711,12.0
enna,2.2352037,1.0
reggio_calabria,0.28338647,0.0
matera,1.1269294,1.0
cuneo,39.254757,27.0
venezia,70.32351,13.0
grosseto,5.762668,1.0
massa_carrara,12.574822,1.0
caltanissetta,0.4046011,0.0
nuoro,0.04456696,1.0
biella,9.22137,3.0
mantova,47.429058,19.0
la_spezia,11.186126,4.0
palermo,3.3863611,13.0
gorizia,0.20488916,4.0
latina,2.572231,3.0
fermo,1.9730392,4.0
piacenza,27.03867,69.0
trento,69.8669,47.0
lucca,5.2711053,3.0
sassari,20.428467,3.0
genova,84.850784,45.0
isernia,0.09642787,1.0
oristano,0.153557,0.0
vibo_valentia,0.16351035,0.0
aosta,60.23988,4.0
pavia,11.976272,69.0
reggio_emilia,56.921303,47.0
rimini,15.272265,15.0
milano,317.4398,216.0
treviso,38.64439,24.0
viterbo,2.2718816,5.0
crotone,0.08447263,0.0
siracusa,2.7794774,3.0
pescara,23.540958,7.0
teramo,2.6077156,1.0
sondrio,23.739006,37.0
siena,1.0370678,1.0
ravenna,14.439217,1.0
potenza,0.1464532,0.0
forli_cesena,33.098732,20.0
cagliari,0.7466767,1.0
trapani,0.28866187,0.0
imperia,22.161219,21.0
arezzo,14.463761,3.0
varese,52.998756,48.0
ancona,21.300676,5.0
parma,31.574757,13.0
messina,3.4788513,5.0
bolzano_bozen,44.03897,11.0
prato,9.516773,3.0
frosinone,2.5696023,1.0
ragusa,0.17298324,2.0
verona,68.62899,39.0
catania,5.8511314,2.0
pordenone,3.9398186,4.0
alessandria,74.2768,71.0
novara,78.19816,26.0
pisa,17.033878,1.0
catanzaro,0.32635504,1.0
macerata,12.446222,7.0
bari,17.546377,12.0
verbano_cusio_ossola,14.897649,0.0
avellino,0.7235377,2.0
rovigo,0.88605535,1.0
asti,30.198982,26.0
brindisi,12.492103,11.0
belluno,18.433609,23.0
trieste,25.290901,7.0
modena,45.360523,27.0
como,73.71357,37.0
lodi,32.868176,7.0
barletta_andria_trani,9.188015,2.0
agrigento,0.25480673,0.0
la_aquila,0.42965096,0.0
perugia,0.3104455,1.0
taranto,0.9228296,3.0
bologna,84.17621,64.0
