n,o,l
siracusa,0.24114619,9.0
asti,1.8983516,14.0
oristano,0.0,0.0
grosseto,1.6011773,1.0
sondrio,0.07590429,16.0
ascoli_piceno,0.27286404,1.0
savona,0.89636165,0.0
reggio_emilia,9.093679,137.0
torino,16.600046,220.0
rovigo,0.033787493,14.0
frosinone,0.4529736,24.0
campobasso,0.0,0.0
cosenza,1.1681204,12.0
trapani,0.5612295,5.0
pavia,3.0993626,88.0
cuneo,1.8595043,40.0
genova,1.8498925,628.0
treviso,2.8923862,125.0
barletta_andria_trani,0.0,35.0
udine,1.0349591,17.0
brescia,22.718517,8.0
ravenna,0.59854984,315.0
latina,0.6477804,8.0
gorizia,0.34174153,2.0
pordenone,2.9551046,17.0
massa_carrara,0.06355578,35.0
la_aquila,0.69994164,8.0
prato,0.47169223,1.0
rieti,0.2573803,1.0
aosta,0.5946383,15.0
ragusa,0.31185606,2.0
fermo,0.6888778,20.0
milano,9.745242,252.0
firenze,2.484185,66.0
arezzo,0.71711946,2.0
bolzano_bozen,4.6813054,24.0
piacenza,5.560109,27.0
ancona,1.9432095,26.0
napoli,3.1614645,25.0
reggio_calabria,0.5044247,5.0
novara,1.3472158,73.0
pistoia,0.211892,46.0
lodi,0.0,26.0
la_spezia,2.3483818,142.0
brindisi,0.2632818,22.0
taranto,0.039024923,9.0
potenza,0.0,5.0
perugia,2.8104663,8.0
alessandria,1.4010838,70.0
enna,4.3540416,7.0
imperia,0.0,132.0
vercelli,1.0873376,13.0
foggia,1.0165219,17.0
lecce,1.8619765,24.0
lecco,6.6152015,91.0
padova,0.17751066,6.0
messina,1.1618629,5.0
lucca,0.0,34.0
palermo,1.8760039,12.0
livorno,0.0,22.0
benevento,0.7430487,13.0
catanzaro,1.2269592,7.0
bari,2.586142,27.0
caltanissetta,0.37751666,2.0
isernia,0.0,0.0
biella,0.70576084,9.0
verona,8.150141,64.0
caserta,1.9985029,18.0
chieti,0.6836062,18.0
varese,1.5454503,22.0
teramo,6.0690885,19.0
macerata,1.07087,50.0
cagliari,0.2736867,3.0
terni,0.65558255,15.0
nuoro,0.0,2.0
trento,0.9693209,126.0
salerno,4.106492,21.0
pesaro_e_urbino,1.455378,45.0
venezia,1.4273443,87.0
siena,0.57939875,1.0
vibo_valentia,0.038453683,1.0
matera,0.42329863,1.0
forli_cesena,2.5500515,24.0
parma,5.8863606,30.0
trieste,0.83304113,30.0
roma,6.7252154,80.0
ferrara,1.2817847,16.0
belluno,1.3502342,25.0
sassari,0.73253155,34.0
avellino,0.3397539,3.0
agrigento,0.100556366,3.0
como,3.2480206,17.0
cremona,0.0,99.0
catania,1.0843321,16.0
bologna,10.817903,102.0
pisa,0.7653388,8.0
viterbo,0.2997044,1.0
pescara,1.8324629,15.0
rimini,3.8110783,12.0
mantova,7.073868,74.0
vicenza,3.8873935,48.0
verbano_cusio_ossola,2.2867563,89.0
modena,8.589391,53.0
crotone,0.0,1.0
bergamo,15.888275,63.0
