n,o,l
E10000013,22.346891,17.0
E08000001,15.931694,15.0
E06000032,6.7630987,1.0
E08000034,10.33993,11.0
E06000022,1.6545898,1.0
E10000006,29.426634,76.0
E10000025,24.029652,12.0
E08000009,6.9814224,11.0
E06000049,20.119362,19.0
E10000024,19.926266,34.0
E09000017,3.6894336,5.0
E08000027,9.800526,25.0
E06000021,15.686017,12.0
E10000019,14.19349,14.0
E08000008,3.4431586,10.0
E09000026,3.6926913,4.0
E06000001,5.170018,10.0
E06000050,19.866032,14.0
E08000017,12.033632,29.0
E06000055,6.857303,14.0
E06000040,2.494675,4.0
E06000002,14.591978,3.0
E06000004,9.017857,6.0
E08000030,23.44061,10.0
E08000032,27.678728,50.0
E10000017,53.62053,43.0
E08000004,10.1109705,20.0
E08000035,39.37061,35.0
E06000011,20.330347,34.0
E10000032,19.20541,25.0
E06000038,8.4598255,13.0
E06000041,4.1206717,7.0
E09000015,7.804115,28.0
E09000006,8.143592,30.0
E08000011,9.436711,15.0
E06000008,3.368662,10.0
E06000026,4.321781,4.0
E06000059,2.2906451,5.0
E06000034,1.9835413,5.0
E10000014,44.532204,39.0
E06000016,15.504653,13.0
E06000035,6.304845,9.0
E08000014,9.258432,15.0
E06000056,7.3704376,7.0
E10000003,19.118616,23.0
E09000004,5.3909197,5.0
E10000018,17.600815,21.0
E08000012,19.6892,23.0
E06000012,1.2824222,0.0
E10000027,8.7563715,21.0
E06000014,7.6615863,19.0
E08000036,14.369398,9.0
E09000008,9.167566,6.0
E06000046,3.0057168,8.0
E06000030,4.581279,5.0
E06000054,5.488276,16.0
E08000005,8.723914,7.0
E06000027,2.0710914,0.0
E10000016,87.41419,88.0
E10000030,32.063713,28.0
E08000013,12.030496,5.0
E06000033,1.670908,4.0
E08000016,15.737782,14.0
E09000016,2.7295694,2.0
E06000051,12.826698,13.0
E08000037,16.585344,36.0
E06000052,3.7664258,13.0
E09000010,5.518093,6.0
E10000021,8.883384,15.0
E06000039,3.3409219,4.0
E08000024,14.9207115,26.0
E09000027,1.6802386,10.0
E09000009,7.115388,18.0
E10000020,48.040684,46.0
E10000023,27.899342,36.0
E10000029,27.637772,19.0
E06000045,6.2921267,10.0
E08000018,17.626307,20.0
E10000034,17.004251,17.0
E06000018,8.832303,6.0
E08000019,35.46452,39.0
E06000017,1.431455,0.0
E08000010,21.692081,13.0
E09000003,6.125484,12.0
E10000028,38.571526,32.0
E10000008,10.060523,23.0
E08000025,33.747242,44.0
E10000031,24.388079,23.0
E08000007,14.575592,21.0
E06000013,11.977769,7.0
E06000005,6.446866,11.0
E08000015,16.605902,14.0
E06000042,2.4703329,15.0
E06000009,13.983583,12.0
E10000007,35.377464,22.0
E09000001,1.4152254,0.0
E09000022,5.0534286,7.0
E06000047,35.963844,64.0
E06000037,2.2420955,11.0
E08000026,3.534801,12.0
E09000002,1.715107,2.0
E09000018,2.2009122,8.0
E06000043,2.5718331,5.0
E06000020,5.249825,9.0
E06000057,10.156444,18.0
E06000006,2.0365894,7.0
E08000003,18.123732,17.0
E10000015,37.730564,62.0
E06000024,5.2009563,8.0
E08000023,17.351171,13.0
E06000036,2.2338295,3.0
E10000011,8.227791,13.0
E06000031,7.4774094,7.0
E08000021,14.097788,12.0
E10000002,14.98667,5.0
E06000044,3.4357,0.0
E08000031,20.19502,36.0
E09000020,2.51664,0.0
E06000003,5.728011,7.0
E08000002,11.3724165,7.0
E10000012,58.34511,48.0
E09000005,5.0730095,9.0
E06000007,11.137169,11.0
E09000023,2.430299,1.0
E08000033,4.585845,4.0
E09000021,2.291379,6.0
E09000029,2.3968172,10.0
E08000022,4.1176763,7.0
E06000015,6.69526,9.0
