n,o,l
granada,66.41684,87.0
palencia,35.162468,44.0
segovia,56.08216,80.0
valencia,134.48293,148.0
tarragona,17.693573,37.0
cadiz,41.318745,42.0
huelva,88.96273,36.0
caceres,215.49008,125.0
alicante,54.837128,110.0
cordoba,80.61032,0.0
gipuzkoa,0.2652651,0.0
cuenca,92.63458,73.0
sevilla,0.26470572,0.0
guadalajara,103.87346,76.0
salamanca,0.26470572,0.0
toledo,0.26470572,0.0
ciudad_real,38.600693,20.0
badajoz,1079.2162,1220.0
barcelona,36.858894,30.0
avila,54.81747,60.0
lleida,128.7977,92.0
araba/alava,0.26470572,0.0
albacete,20.032318,18.0
almeria,20.875595,18.0
zamora,41.61487,150.0
girona,222.78893,200.0
bizkaia,58.770725,66.0
soria,80.911064,59.0
burgos,51.272606,45.0
jaen,53.252876,102.0
valladolid,80.16414,53.0
malaga,92.18333,75.0
leon,61.7174,79.0
castellon,54.822594,43.0
