n,o,l
granada,34.151997,42.0
palencia,15.103065,4.0
segovia,32.77917,58.0
valencia,41.97685,0.0
tarragona,21.085646,0.0
cadiz,3.1586375,8.0
huelva,5.033757,23.0
caceres,20.586128,12.0
alicante,16.100245,0.0
cordoba,4.4151163,12.0
gipuzkoa,12.962263,60.0
cuenca,25.400383,0.0
sevilla,16.623276,22.0
guadalajara,18.848152,10.0
salamanca,28.133295,58.0
toledo,35.05526,12.0
ciudad_real,64.16239,30.0
badajoz,5.8762,1.0
barcelona,439.1269,0.0
avila,22.324272,25.0
lleida,22.200895,0.0
araba/alava,19.21474,0.0
albacete,14.296461,33.0
almeria,3.7904196,7.0
zamora,7.2013083,4.0
girona,51.111496,0.0
bizkaia,71.41156,0.0
soria,27.0411,39.0
burgos,18.621754,69.0
jaen,20.534096,51.0
valladolid,7.5878773,28.0
malaga,29.168196,103.0
leon,26.565096,32.0
castellon,5.9054184,0.0
