n,o,l
E10000013,38.4163,29.0
E08000001,28.531704,23.0
E06000032,14.243008,1.0
E08000034,16.300781,11.0
E06000022,6.1046996,10.0
E10000006,46.325325,29.0
E10000025,38.34768,19.0
E08000009,14.316802,8.0
E06000049,30.444126,21.0
E10000024,34.249523,11.0
E09000017,21.749584,12.0
E08000027,17.257133,10.0
E06000021,14.243069,11.0
E10000019,26.376125,27.0
E08000008,14.685286,6.0
E09000026,12.539428,6.0
E06000001,3.9079914,3.0
E06000050,22.815338,18.0
E08000017,15.446992,7.0
E06000055,15.979108,3.0
E06000040,8.1651535,4.0
E06000002,15.92497,10.0
E06000004,8.098694,9.0
E08000030,24.722294,10.0
E08000032,24.789192,7.0
E10000017,84.25336,49.0
E08000004,22.563372,24.0
E08000035,44.060402,33.0
E06000011,17.926168,21.0
E10000032,37.810955,18.0
E06000038,24.446255,6.0
E06000041,18.517754,8.0
E09000015,17.875425,13.0
E09000006,24.324373,9.0
E08000011,20.521568,7.0
E06000008,9.979399,5.0
E06000026,6.4874773,13.0
E06000059,6.187759,6.0
E06000034,5.437741,1.0
E10000014,80.22833,50.0
E06000016,11.352452,23.0
E06000035,18.112625,12.0
E08000014,26.378563,12.0
E06000056,13.755899,2.0
E10000003,21.343561,16.0
E09000004,14.371893,18.0
E10000018,28.828638,20.0
E08000012,37.15541,21.0
E06000012,2.9430122,1.0
E10000027,24.98131,8.0
E06000014,9.975706,6.0
E08000036,14.224561,7.0
E09000008,28.92946,7.0
E06000046,1.6052535,1.0
E06000030,13.894842,14.0
E06000054,13.071562,10.0
E08000005,17.574783,14.0
E06000027,2.4516387,22.0
E10000016,152.0316,68.0
E10000030,77.43773,39.0
E08000013,18.328701,3.0
E06000033,3.7297096,5.0
E08000016,18.673828,23.0
E09000016,15.034242,10.0
E06000051,16.792913,12.0
E08000037,20.192911,16.0
E06000052,16.519516,6.0
E09000010,22.06444,7.0
E10000021,24.22703,31.0
E06000039,36.319782,28.0
E08000024,12.087242,6.0
E09000027,6.4748216,9.0
E09000009,24.598518,11.0
E10000020,52.128826,54.0
E10000023,24.466944,14.0
E10000029,32.243423,5.0
E06000045,15.044065,31.0
E08000018,21.295898,18.0
E10000034,39.274544,15.0
E06000018,15.94172,10.0
E08000019,52.253666,42.0
E06000017,2.2095776,0.0
E08000010,32.607143,19.0
E09000003,17.73224,9.0
E10000028,46.66392,42.0
E10000008,25.942087,7.0
E08000025,74.126495,49.0
E10000031,29.514408,31.0
E08000007,24.4436,15.0
E06000013,14.285555,7.0
E06000005,6.3421826,5.0
E08000015,33.25367,26.0
E06000042,14.044923,7.0
E06000009,16.474566,21.0
E10000007,31.463415,27.0
E09000001,2.008738,0.0
E09000022,11.705959,11.0
E06000047,41.591255,27.0
E06000037,11.611224,6.0
E08000026,18.673872,5.0
E09000002,10.5527,11.0
E09000018,12.032533,11.0
E06000043,12.531664,8.0
E06000020,6.202035,4.0
E06000057,26.05814,20.0
E06000006,9.64847,9.0
E08000003,28.983683,19.0
E10000015,53.72339,33.0
E06000024,10.083763,2.0
E08000023,22.315918,7.0
E06000036,7.7515373,2.0
E10000011,16.166796,13.0
E06000031,8.133101,4.0
E08000021,20.586157,18.0
E10000002,24.803303,16.0
E06000044,8.281855,1.0
E08000031,23.626642,12.0
E09000020,6.719618,0.0
E06000003,7.5092807,8.0
E08000002,23.78252,8.0
E10000012,57.99397,27.0
E09000005,28.642479,14.0
E06000007,18.232021,7.0
E09000023,7.2584834,2.0
E08000033,22.275856,7.0
E09000021,12.34924,2.0
E09000029,2.9701326,7.0
E08000022,12.020528,4.0
E06000015,7.379294,4.0
