n,o,l
E10000013,27.605686,34.0
E08000001,12.65506,25.0
E06000032,16.499271,17.0
E08000034,15.400089,24.0
E06000022,6.999715,5.0
E10000006,29.686861,74.0
E10000025,48.400295,41.0
E08000009,18.279858,28.0
E06000049,16.186544,31.0
E10000024,32.078312,34.0
E09000017,25.226017,21.0
E08000027,26.383232,18.0
E06000021,8.099456,17.0
E10000019,23.80585,33.0
E08000008,11.8109255,14.0
E09000026,26.546144,22.0
E06000001,4.7998295,3.0
E06000050,16.630943,29.0
E08000017,18.285639,17.0
E06000055,15.9627905,14.0
E06000040,10.977926,9.0
E06000002,14.197622,23.0
E06000004,14.073312,13.0
E08000030,31.593588,36.0
E08000032,18.975178,21.0
E10000017,51.17748,91.0
E08000004,18.208672,22.0
E08000035,27.807539,31.0
E06000011,5.6147223,9.0
E10000032,26.404245,25.0
E06000038,13.498002,14.0
E06000041,12.233289,14.0
E09000015,38.110615,23.0
E09000006,43.61215,49.0
E08000011,13.618058,18.0
E06000008,6.594017,8.0
E06000026,6.381946,8.0
E06000059,13.454773,15.0
E06000034,15.466494,10.0
E10000014,75.16166,71.0
E06000016,16.384893,33.0
E06000035,15.978566,33.0
E08000014,21.51131,28.0
E06000056,17.343512,16.0
E10000003,21.100658,13.0
E09000004,23.686,29.0
E10000018,27.099524,45.0
E08000012,33.739784,46.0
E06000012,4.8058877,5.0
E10000027,10.877564,8.0
E06000014,10.610345,12.0
E08000036,17.828915,55.0
E09000008,48.524357,17.0
E06000046,0.9254705,7.0
E06000030,4.1352706,8.0
E06000054,16.19096,10.0
E08000005,18.140541,16.0
E06000027,7.32752,3.0
E10000016,63.806755,111.0
E10000030,70.33118,92.0
E08000013,15.774701,29.0
E06000033,12.29652,16.0
E08000016,21.262257,26.0
E09000016,17.660227,29.0
E06000051,15.762797,13.0
E08000037,15.548849,33.0
E06000052,16.703852,21.0
E09000010,30.320969,26.0
E10000021,30.58245,54.0
E06000039,12.34519,11.0
E08000024,16.065723,44.0
E09000027,23.27393,15.0
E09000009,40.416397,27.0
E10000020,25.581968,22.0
E10000023,20.67538,32.0
E10000029,17.547363,29.0
E06000045,20.612293,14.0
E08000018,20.108206,22.0
E10000034,32.47912,34.0
E06000018,9.424456,16.0
E08000019,69.1099,63.0
E06000017,1.587737,0.0
E08000010,14.76876,13.0
E09000003,54.74284,37.0
E10000028,40.728554,54.0
E10000008,20.008839,25.0
E08000025,83.635635,108.0
E10000031,30.422787,29.0
E08000007,16.335789,33.0
E06000013,4.6520667,8.0
E06000005,4.50925,4.0
E08000015,17.808971,18.0
E06000042,17.84048,14.0
E06000009,7.7089195,5.0
E10000007,40.888885,51.0
E09000001,3.185254,0.0
E09000022,49.559715,49.0
E06000047,22.413958,52.0
E06000037,11.879645,14.0
E08000026,22.148573,28.0
E09000002,18.763891,21.0
E09000018,24.28796,32.0
E06000043,13.778572,19.0
E06000020,11.585651,4.0
E06000057,15.076855,40.0
E06000006,11.929104,8.0
E08000003,29.273527,28.0
E10000015,62.126423,84.0
E06000024,3.8041625,8.0
E08000023,0.91335094,9.0
E06000036,7.235986,10.0
E10000011,16.074158,21.0
E06000031,9.60851,6.0
E08000021,24.376451,41.0
E10000002,26.95099,19.0
E06000044,1.2791082,6.0
E08000031,22.278046,19.0
E09000020,22.19714,16.0
E06000003,14.84808,11.0
E08000002,14.827447,16.0
E10000012,75.38033,108.0
E09000005,56.29949,56.0
E06000007,12.375995,17.0
E09000023,10.3221035,6.0
E08000033,37.565437,35.0
E09000021,15.9441805,9.0
E09000029,27.06432,37.0
E08000022,18.763086,35.0
E06000015,24.134058,30.0
