n,o,l
charente_maritime,5.9061704,2.0
vienne,0.0,1.0
aude,2.045312,1.0
haute_loire,0.0036424287,2.0
haute_savoie,7.392649,6.0
dordogne,0.0,0.0
correze,0.0,0.0
indre_et_loire,0.08754806,0.0
saone_et_loire,3.723029,6.0
loire_atlantique,0.0,0.0
haute_vienne,0.13792242,1.0
drome,0.27070445,0.0
cote_d'or,0.08619949,1.0
landes,49.55836,58.0
paris,0.0,1.0
charente,0.0,0.0
meurthe_et_moselle,2.6754482,3.0
essonne,38.516457,79.0
marne,3.3104844,0.0
seine_saint_denis,32.97977,37.0
moselle,19.068,9.0
bas_rhin,5.6210294,1.0
pas_de_calais,7.7432733,10.0
nord,6.9719214,6.0
loiret,3.2366552,0.0
nievre,4.730303,2.0
alpes_maritimes,3.4458687,1.0
pyrenees_atlantiques,0.097854726,14.0
val_d'oise,15.30078,14.0
meuse,0.4185983,2.0
mayenne,0.0,1.0
val_de_marne,28.37529,32.0
hautes_pyrenees,5.5636845,1.0
lot,0.0,0.0
isere,0.65587664,0.0
gironde,2.6458337,2.0
yvelines,15.980464,48.0
yonne,0.07915428,0.0
haute_saone,3.1920176,0.0
somme,4.8571515,7.0
eure_et_loir,14.808417,0.0
manche,4.119353,15.0
indre,1.8351932,0.0
haute_marne,0.043268606,1.0
haut_rhin,15.034982,7.0
maine_et_loire,0.0,2.0
jura,2.2039576,3.0
savoie,0.0,0.0
ardennes,0.8059246,0.0
haute_garonne,1.5617447,1.0
rhone,2.1210349,3.0
ardeche,0.24502954,0.0
aisne,4.1719117,7.0
vosges,2.756756,0.0
gers,0.6200456,1.0
oise,17.69114,30.0
hauts_de_seine,32.991467,17.0
territoire_de_belfort,0.51262087,5.0
lot_et_garonne,0.0,0.0
eure,9.3698635,16.0
tarn,0.11434843,1.0
cher,4.482401,6.0
aube,7.0591097,6.0
vaucluse,2.6560068,1.0
pyrenees_orientales,0.042812057,2.0
var,4.85656,5.0
cantal,0.0,1.0
doubs,2.2048922,0.0
seine_et_marne,32.39682,16.0
ain,8.333081,12.0
calvados,1.2830416,1.0
herault,5.104158,15.0
bouches_du_rhone,46.604404,47.0
puy_de_dome,2.081085,4.0
tarn_et_garonne,0.99761695,1.0
loire,0.0,6.0
gard,3.9098773,9.0
loir_et_cher,0.0,0.0
alpes_de_haute_provence,0.045164436,1.0
orne,0.150041,8.0
seine_maritime,5.5166636,2.0
