n,o,l
E10000013,23.558882,63.0
E08000001,7.424049,29.0
E06000032,12.24118,22.0
E08000034,14.569534,12.0
E06000022,5.982622,16.0
E10000006,53.41637,70.0
E10000025,24.815105,34.0
E08000009,12.14776,23.0
E06000049,14.603898,29.0
E10000024,32.59425,18.0
E09000017,22.236574,27.0
E08000027,23.731705,20.0
E06000021,11.759125,24.0
E10000019,19.738691,29.0
E08000008,11.3098,10.0
E09000026,21.01759,10.0
E06000001,1.7306648,4.0
E06000050,17.766438,25.0
E08000017,14.840733,4.0
E06000055,8.446342,17.0
E06000040,3.5912583,2.0
E06000002,12.981017,17.0
E06000004,7.483837,6.0
E08000030,25.329021,21.0
E08000032,18.523058,18.0
E10000017,45.22759,73.0
E08000004,13.924505,48.0
E08000035,23.150059,47.0
E06000011,8.475421,22.0
E10000032,19.913866,26.0
E06000038,11.04136,14.0
E06000041,10.86919,16.0
E09000015,32.05724,27.0
E09000006,29.420202,23.0
E08000011,12.46687,12.0
E06000008,6.5530825,12.0
E06000026,5.4169493,13.0
E06000059,8.408595,12.0
E06000034,10.473642,4.0
E10000014,60.90323,83.0
E06000016,5.5636163,20.0
E06000035,10.126759,23.0
E08000014,17.292782,14.0
E06000056,8.46891,18.0
E10000003,15.331355,24.0
E09000004,17.372564,14.0
E10000018,9.96045,27.0
E08000012,34.8536,34.0
E06000012,3.392544,4.0
E10000027,6.569949,16.0
E06000014,2.3309257,6.0
E08000036,38.521133,14.0
E09000008,13.756825,25.0
E06000046,1.3370557,5.0
E06000030,4.5711427,14.0
E06000054,8.919819,5.0
E08000005,11.941533,18.0
E06000027,3.12878,5.0
E10000016,62.728123,125.0
E10000030,59.08971,82.0
E08000013,17.575348,12.0
E06000033,9.904473,10.0
E08000016,15.762136,25.0
E09000016,10.136203,26.0
E06000051,13.564977,6.0
E08000037,9.160057,33.0
E06000052,12.907464,12.0
E09000010,13.098838,24.0
E10000021,26.131016,27.0
E06000039,8.904629,37.0
E08000024,10.538166,14.0
E09000027,17.940361,8.0
E09000009,32.127037,45.0
E10000020,23.312529,48.0
E10000023,16.952318,24.0
E10000029,20.144814,33.0
E06000045,12.948783,9.0
E08000018,21.355455,22.0
E10000034,30.999575,31.0
E06000018,9.093797,13.0
E08000019,63.021088,57.0
E06000017,1.0746924,1.0
E08000010,14.070267,24.0
E09000003,44.440292,21.0
E10000028,44.67436,60.0
E10000008,15.252594,28.0
E08000025,94.54937,64.0
E10000031,27.541368,30.0
E08000007,13.433963,32.0
E06000013,5.172552,3.0
E06000005,2.0913146,4.0
E08000015,18.239079,30.0
E06000042,8.570168,17.0
E06000009,4.079024,17.0
E10000007,30.934528,26.0
E09000001,1.508571,0.0
E09000022,37.26094,16.0
E06000047,17.647558,56.0
E06000037,3.7702909,13.0
E08000026,19.961807,15.0
E09000002,12.999833,10.0
E09000018,20.399405,16.0
E06000043,10.949886,11.0
E06000020,9.634373,7.0
E06000057,8.990447,24.0
E06000006,5.362296,12.0
E08000003,25.395523,37.0
E10000015,62.890057,76.0
E06000024,6.0439377,4.0
E08000023,5.949597,18.0
E06000036,4.4079185,4.0
E10000011,14.597172,18.0
E06000031,3.7887096,4.0
E08000021,26.753937,29.0
E10000002,15.5778475,26.0
E06000044,4.716101,9.0
E08000031,18.80084,25.0
E09000020,17.104624,10.0
E06000003,9.539777,9.0
E08000002,9.925308,20.0
E10000012,70.16533,57.0
E09000005,55.063004,39.0
E06000007,8.900509,28.0
E09000023,8.604332,12.0
E08000033,31.90841,8.0
E09000021,12.826171,10.0
E09000029,15.417646,14.0
E08000022,11.433528,8.0
E06000015,19.525242,12.0
