n,o,l
E10000013,40.350758,57.0
E08000001,29.378187,23.0
E06000032,16.788866,4.0
E08000034,12.180671,19.0
E06000022,5.0706515,4.0
E10000006,42.781315,37.0
E10000025,50.529873,48.0
E08000009,14.629195,18.0
E06000049,26.367659,33.0
E10000024,29.257425,35.0
E09000017,15.207724,14.0
E08000027,13.253208,36.0
E06000021,11.609956,11.0
E10000019,21.55207,35.0
E08000008,11.747225,16.0
E09000026,14.484681,13.0
E06000001,1.8523718,5.0
E06000050,18.258635,19.0
E08000017,4.280608,21.0
E06000055,12.170874,18.0
E06000040,2.5448825,14.0
E06000002,13.11804,11.0
E06000004,7.775495,8.0
E08000030,16.681786,23.0
E08000032,15.941799,16.0
E10000017,83.22599,88.0
E08000004,26.212908,26.0
E08000035,34.34359,51.0
E06000011,13.588239,21.0
E10000032,27.489468,49.0
E06000038,18.060696,28.0
E06000041,8.186075,17.0
E09000015,18.015095,16.0
E09000006,21.606586,25.0
E08000011,10.702618,20.0
E06000008,9.228021,11.0
E06000026,6.181416,4.0
E06000059,4.442161,4.0
E06000034,2.3036408,9.0
E10000014,70.78246,76.0
E06000016,15.2415695,10.0
E06000035,12.272331,16.0
E08000014,23.048141,18.0
E06000056,11.442006,7.0
E10000003,15.734161,30.0
E09000004,9.845179,21.0
E10000018,18.08949,46.0
E08000012,39.076744,44.0
E06000012,0.6538894,1.0
E10000027,10.838942,31.0
E06000014,3.4959779,10.0
E08000036,28.789637,31.0
E09000008,11.157427,11.0
E06000046,0.16197798,8.0
E06000030,11.15549,16.0
E06000054,8.670186,14.0
E08000005,17.238798,12.0
E06000027,2.0200238,1.0
E10000016,104.05294,166.0
E10000030,75.15001,71.0
E08000013,8.861178,23.0
E06000033,3.4854038,3.0
E08000016,20.986168,9.0
E09000016,16.56757,19.0
E06000051,8.686451,15.0
E08000037,23.978718,14.0
E06000052,12.238899,24.0
E09000010,20.517689,18.0
E10000021,23.86836,27.0
E06000039,8.234995,8.0
E08000024,34.603207,24.0
E09000027,2.6736042,10.0
E09000009,27.811916,15.0
E10000020,47.89491,47.0
E10000023,20.707186,24.0
E10000029,22.69549,52.0
E06000045,9.380012,14.0
E08000018,19.913284,14.0
E10000034,30.632504,35.0
E06000018,8.126824,15.0
E08000019,52.51228,47.0
E06000017,0.0,1.0
E08000010,25.947275,33.0
E09000003,18.961527,13.0
E10000028,44.63532,53.0
E10000008,21.18644,20.0
E08000025,56.058853,81.0
E10000031,25.931688,38.0
E08000007,25.877413,20.0
E06000013,6.5008492,12.0
E06000005,3.6397579,6.0
E08000015,32.76687,26.0
E06000042,9.616868,16.0
E06000009,9.506384,16.0
E10000007,25.338535,28.0
E09000001,0.036733653,0.0
E09000022,10.653679,19.0
E06000047,44.74074,38.0
E06000037,5.3592806,17.0
E08000026,14.474317,16.0
E09000002,8.621067,10.0
E09000018,11.692569,11.0
E06000043,6.3620453,11.0
E06000020,0.60297954,6.0
E06000057,29.271402,17.0
E06000006,6.2630663,10.0
E08000003,41.96011,15.0
E10000015,62.064068,57.0
E06000024,0.92825687,3.0
E08000023,12.442502,30.0
E06000036,4.8066607,5.0
E10000011,12.144611,14.0
E06000031,0.72731674,12.0
E08000021,22.872328,21.0
E10000002,17.24155,27.0
E06000044,5.4255395,6.0
E08000031,17.165678,26.0
E09000020,4.4591746,9.0
E06000003,6.540903,6.0
E08000002,16.44761,15.0
E10000012,62.080574,53.0
E09000005,26.123594,34.0
E06000007,17.766605,26.0
E09000023,3.331437,5.0
E08000033,16.060373,15.0
E09000021,7.787517,19.0
E09000029,23.369461,19.0
E08000022,8.575356,10.0
E06000015,5.002056,4.0
