n,o,l
charente_maritime,1.2389395,2.0
vienne,0.010532677,0.0
aude,2.8534803,0.0
haute_loire,0.18271098,6.0
haute_savoie,8.946516,7.0
dordogne,0.0882511,0.0
correze,0.0,0.0
indre_et_loire,0.59087646,4.0
saone_et_loire,5.6476893,11.0
loire_atlantique,0.13282155,0.0
haute_vienne,0.06512337,0.0
drome,1.7264769,3.0
cote_d'or,1.5711645,1.0
landes,0.05135177,115.0
paris,73.017296,1.0
charente,0.0,0.0
meurthe_et_moselle,1.4816394,2.0
essonne,38.52423,41.0
marne,7.5647745,15.0
seine_saint_denis,57.281727,77.0
moselle,13.68873,7.0
bas_rhin,9.625347,25.0
pas_de_calais,11.048069,21.0
nord,9.252582,17.0
loiret,8.984544,1.0
nievre,1.0275471,8.0
alpes_maritimes,3.6186814,0.0
pyrenees_atlantiques,1.1120139,1.0
val_d'oise,24.450262,34.0
meuse,0.16938728,0.0
mayenne,0.0,1.0
val_de_marne,43.492924,62.0
hautes_pyrenees,2.1939237,10.0
lot,0.006513059,1.0
isere,0.3207733,3.0
gironde,7.5749674,7.0
yvelines,19.52603,52.0
yonne,0.19678214,4.0
haute_saone,2.6327035,24.0
somme,10.215852,23.0
eure_et_loir,18.285866,19.0
manche,5.940286,13.0
indre,0.7895528,8.0
haute_marne,0.0,0.0
haut_rhin,24.064108,18.0
maine_et_loire,0.0,0.0
jura,1.2720492,2.0
savoie,0.14477749,0.0
ardennes,0.28295222,1.0
haute_garonne,2.1301181,5.0
rhone,9.406509,6.0
ardeche,0.4538021,4.0
aisne,14.276457,17.0
vosges,12.046619,9.0
gers,0.4038968,12.0
oise,29.479565,41.0
hauts_de_seine,59.742836,83.0
territoire_de_belfort,1.6981884,2.0
lot_et_garonne,0.0,0.0
eure,17.366667,31.0
tarn,0.0,1.0
cher,3.210504,10.0
aube,5.8883686,21.0
vaucluse,2.1136756,7.0
pyrenees_orientales,0.22402118,1.0
var,9.91971,11.0
cantal,0.0,1.0
doubs,3.155862,7.0
seine_et_marne,37.916668,99.0
ain,4.6550784,12.0
calvados,1.8616714,3.0
herault,22.581278,14.0
bouches_du_rhone,57.732586,112.0
puy_de_dome,3.9603205,18.0
tarn_et_garonne,0.0,0.0
loire,0.01693815,10.0
gard,5.1319866,10.0
loir_et_cher,0.0,0.0
alpes_de_haute_provence,0.1503617,2.0
orne,0.0,3.0
seine_maritime,8.803269,12.0
