n,o,l
charente_maritime,7.3938236,11.0
vienne,3.2872,0.0
aude,25.312662,8.0
haute_loire,4.8009872,1.0
haute_savoie,77.2566,41.0
dordogne,5.5612197,1.0
correze,3.1223354,1.0
indre_et_loire,19.755472,5.0
saone_et_loire,12.264642,8.0
loire_atlantique,8.453292,3.0
haute_vienne,7.5753965,3.0
drome,16.353325,2.0
cote_d'or,10.100525,2.0
landes,277.74493,188.0
paris,1.3861887,1.0
charente,0.191264,2.0
meurthe_et_moselle,113.6872,15.0
essonne,23.676847,66.0
marne,31.647377,23.0
seine_saint_denis,167.74016,92.0
moselle,42.32663,45.0
bas_rhin,48.734974,31.0
pas_de_calais,15.115817,16.0
nord,27.404444,11.0
loiret,33.126076,23.0
nievre,5.9994993,5.0
alpes_maritimes,27.275642,25.0
pyrenees_atlantiques,8.053358,10.0
val_d'oise,156.10149,79.0
meuse,1.8256106,4.0
mayenne,0.15831557,1.0
val_de_marne,105.280556,94.0
hautes_pyrenees,13.065437,8.0
lot,3.1069012,0.0
isere,23.528137,8.0
gironde,52.951366,23.0
yvelines,92.41738,52.0
yonne,4.585281,3.0
haute_saone,27.250708,7.0
somme,27.083014,16.0
eure_et_loir,42.715977,19.0
manche,20.646812,19.0
indre,13.613887,4.0
haute_marne,6.898731,0.0
haut_rhin,52.211903,90.0
maine_et_loire,0.23183987,1.0
jura,4.4131584,5.0
savoie,10.0174885,3.0
ardennes,8.926315,5.0
haute_garonne,22.374603,10.0
rhone,14.967192,8.0
ardeche,11.159904,3.0
aisne,14.28708,34.0
vosges,34.72781,22.0
gers,8.355067,4.0
oise,86.077126,67.0
hauts_de_seine,256.29242,149.0
territoire_de_belfort,12.56434,7.0
lot_et_garonne,0.23011062,1.0
eure,20.234934,13.0
tarn,5.17814,2.0
cher,23.051443,21.0
aube,30.51005,18.0
vaucluse,26.933678,12.0
pyrenees_orientales,0.81997657,2.0
var,2.3668845,22.0
cantal,49.51052,0.0
doubs,29.035091,14.0
seine_et_marne,87.63789,49.0
ain,16.290903,10.0
calvados,24.779388,6.0
herault,160.23146,49.0
bouches_du_rhone,368.1181,133.0
puy_de_dome,17.278437,8.0
tarn_et_garonne,11.8396435,3.0
loire,1.0284295,0.0
gard,13.13235,11.0
loir_et_cher,11.942278,3.0
alpes_de_haute_provence,7.3601604,3.0
orne,11.259659,2.0
seine_maritime,51.200024,18.0
