n,o,l
siracusa,0.4609943,5.0
asti,2.2758822,1.0
oristano,3.2748384,3.0
grosseto,0.0,71.0
sondrio,0.5999985,81.0
ascoli_piceno,0.0,3.0
savona,0.41956478,0.0
reggio_emilia,13.588903,127.0
torino,37.35049,288.0
rovigo,1.3869114,5.0
frosinone,1.6345506,3.0
campobasso,0.664015,0.0
cosenza,0.7411277,18.0
trapani,0.23468204,0.0
pavia,8.823008,88.0
cuneo,7.368974,80.0
genova,22.380215,87.0
treviso,4.835484,63.0
barletta_andria_trani,2.7421765,2.0
udine,30.236656,9.0
brescia,1.3515229,191.0
ravenna,0.7286593,11.0
latina,0.87048286,6.0
gorizia,0.00019102544,0.0
pordenone,1.1614983,13.0
massa_carrara,2.5907435,6.0
la_aquila,0.59446937,0.0
prato,1.0672879,8.0
rieti,0.0,2.0
aosta,1.3335488,80.0
ragusa,0.08121538,0.0
fermo,0.65394247,2.0
milano,41.91441,269.0
firenze,11.662732,69.0
arezzo,0.40614724,7.0
bolzano_bozen,8.674516,29.0
piacenza,3.6127057,25.0
ancona,3.0594614,16.0
napoli,5.7497587,21.0
reggio_calabria,0.2878124,0.0
novara,5.9246016,86.0
pistoia,1.6713521,7.0
lodi,5.3809705,36.0
la_spezia,4.6142373,16.0
brindisi,2.163155,19.0
taranto,0.22576922,4.0
potenza,0.2656504,0.0
perugia,0.36922848,5.0
alessandria,0.7551961,56.0
enna,5.033482,7.0
imperia,6.74491,21.0
vercelli,1.8091266,29.0
foggia,2.45668,15.0
lecce,3.3644633,25.0
lecco,7.716926,42.0
padova,1.2455087,14.0
messina,0.2666936,9.0
lucca,1.7344592,7.0
palermo,1.0988953,8.0
livorno,0.8727626,3.0
benevento,0.86736405,5.0
catanzaro,0.16622946,2.0
bari,1.3609457,25.0
caltanissetta,0.3452856,0.0
isernia,0.0,0.0
biella,0.8541499,4.0
verona,14.673698,75.0
caserta,1.0069094,20.0
chieti,1.4027271,13.0
varese,1.3581328,85.0
teramo,8.147419,2.0
macerata,3.3820755,11.0
cagliari,1.0814059,1.0
terni,0.3770321,3.0
nuoro,0.0,3.0
trento,0.9168734,3.0
salerno,11.212919,55.0
pesaro_e_urbino,3.6683738,16.0
venezia,8.107223,20.0
siena,0.0,7.0
vibo_valentia,0.012035705,0.0
matera,0.0,2.0
forli_cesena,3.0823646,16.0
parma,3.1867409,43.0
trieste,3.561811,35.0
roma,11.414924,130.0
ferrara,2.2865849,15.0
belluno,2.116063,28.0
sassari,2.4242287,15.0
avellino,0.36506093,2.0
agrigento,0.15999714,0.0
como,8.32661,154.0
cremona,8.170722,94.0
catania,1.1367486,13.0
bologna,12.57087,60.0
pisa,2.0098193,8.0
viterbo,1.2372868,3.0
pescara,2.9347944,29.0
rimini,2.9302447,14.0
mantova,8.286774,115.0
vicenza,7.4608583,96.0
verbano_cusio_ossola,3.0305505,4.0
modena,6.9149647,39.0
crotone,0.0,0.0
bergamo,9.138521,39.0
