n,o,l
siracusa,0.12670994,2.0
asti,1.9687059,13.0
oristano,2.9252846,7.0
grosseto,0.20769721,3.0
sondrio,0.26767504,23.0
ascoli_piceno,0.47201467,0.0
savona,0.0,0.0
reggio_emilia,11.853275,101.0
torino,31.652233,195.0
rovigo,0.29294524,17.0
frosinone,0.8757868,5.0
campobasso,0.3751669,0.0
cosenza,0.0,13.0
trapani,0.5442468,6.0
pavia,10.095894,81.0
cuneo,5.9539175,64.0
genova,4.4375234,78.0
treviso,3.5449836,14.0
barletta_andria_trani,0.41565043,39.0
udine,1.9114925,7.0
brescia,5.3123617,137.0
ravenna,10.792514,20.0
latina,0.35418764,13.0
gorizia,0.38075465,3.0
pordenone,1.3533946,7.0
massa_carrara,2.1852653,31.0
la_aquila,0.39305675,4.0
prato,0.33677477,4.0
rieti,0.91836566,73.0
aosta,1.8078488,23.0
ragusa,0.12716654,6.0
fermo,0.92736846,4.0
milano,37.62319,308.0
firenze,10.891574,54.0
arezzo,1.270497,9.0
bolzano_bozen,2.2993257,78.0
piacenza,4.3081455,44.0
ancona,2.5233765,45.0
napoli,7.1220884,36.0
reggio_calabria,0.0,6.0
novara,3.9395783,22.0
pistoia,0.6996484,6.0
lodi,2.3852682,23.0
la_spezia,0.0,5.0
brindisi,1.4291365,11.0
taranto,0.6688253,8.0
potenza,0.0,2.0
perugia,1.0981116,4.0
alessandria,1.5132109,141.0
enna,6.2651973,3.0
imperia,0.0,6.0
vercelli,1.4787786,42.0
foggia,1.8002298,41.0
lecce,1.0378143,34.0
lecco,7.8352966,119.0
padova,0.13263339,9.0
messina,2.1872141,10.0
lucca,1.1590353,16.0
palermo,0.45451498,2.0
livorno,0.0,0.0
benevento,0.43043527,1.0
catanzaro,0.1967639,1.0
bari,1.831081,17.0
caltanissetta,0.3565585,2.0
isernia,0.5289056,0.0
biella,1.3341427,12.0
verona,8.480817,67.0
caserta,1.0141573,8.0
chieti,0.0,2.0
varese,1.2356992,102.0
teramo,4.30036,11.0
macerata,2.4186502,25.0
cagliari,0.7023632,0.0
terni,0.41796103,9.0
nuoro,0.0153028965,0.0
trento,1.7810614,63.0
salerno,9.956426,25.0
pesaro_e_urbino,2.228584,66.0
venezia,4.4488683,62.0
siena,0.5827017,10.0
vibo_valentia,0.0,0.0
matera,0.26472667,7.0
forli_cesena,3.2227302,38.0
parma,7.4157996,42.0
trieste,2.314403,38.0
roma,9.362384,55.0
ferrara,3.8845246,22.0
belluno,1.7426128,20.0
sassari,2.6301534,9.0
avellino,1.6864017,18.0
agrigento,0.0,2.0
como,2.8060544,27.0
cremona,3.3151665,89.0
catania,2.4095585,20.0
bologna,8.385134,96.0
pisa,1.3079993,16.0
viterbo,0.7272313,0.0
pescara,1.0904068,1.0
rimini,0.7815414,22.0
mantova,5.1438065,40.0
vicenza,8.183314,57.0
verbano_cusio_ossola,1.6406494,63.0
modena,5.810877,82.0
crotone,0.0,2.0
bergamo,18.619757,103.0
