n,o,l
siracusa,0.4808662,3.0
asti,2.3529534,64.0
oristano,3.3865666,3.0
grosseto,0.0,0.0
sondrio,0.61468273,32.0
ascoli_piceno,0.0,1.0
savona,0.455532,54.0
reggio_emilia,13.952596,38.0
torino,38.42587,374.0
rovigo,1.4360595,10.0
frosinone,1.6802847,3.0
campobasso,0.6545758,1.0
cosenza,0.76753795,9.0
trapani,0.24077164,0.0
pavia,9.093127,117.0
cuneo,7.613598,68.0
genova,22.690655,61.0
treviso,4.9175706,25.0
barletta_andria_trani,2.8160691,1.0
udine,31.111063,4.0
brescia,1.4014225,167.0
ravenna,0.7601347,7.0
latina,0.89918834,0.0
gorizia,0.0,4.0
pordenone,1.1920702,5.0
massa_carrara,2.6884227,7.0
la_aquila,0.6133346,0.0
prato,1.0831733,7.0
rieti,0.0,21.0
aosta,1.3875492,4.0
ragusa,0.08275471,9.0
fermo,0.67000854,10.0
milano,43.1315,412.0
firenze,11.993111,54.0
arezzo,0.42169723,9.0
bolzano_bozen,9.098794,21.0
piacenza,3.7389374,49.0
ancona,3.1711113,17.0
napoli,5.9544296,18.0
reggio_calabria,0.29397383,0.0
novara,6.4010806,29.0
pistoia,1.7271409,6.0
lodi,5.5444317,3.0
la_spezia,4.6471305,6.0
brindisi,2.2232113,8.0
taranto,0.23040938,2.0
potenza,0.2711325,2.0
perugia,0.3713144,1.0
alessandria,0.7803386,80.0
enna,5.3001795,11.0
imperia,6.8636312,15.0
vercelli,1.907476,11.0
foggia,2.5783103,13.0
lecce,3.4683557,17.0
lecco,8.021004,25.0
padova,1.2834139,6.0
messina,0.27842,0.0
lucca,1.7881186,5.0
palermo,1.1286077,2.0
livorno,0.87137973,4.0
benevento,0.9158363,4.0
catanzaro,0.16588658,0.0
bari,1.4072225,21.0
caltanissetta,0.3452325,3.0
isernia,0.0,2.0
biella,0.883305,40.0
verona,15.082833,176.0
caserta,1.0446103,3.0
chieti,1.5032437,10.0
varese,1.401031,36.0
teramo,8.466636,0.0
macerata,3.492105,20.0
cagliari,1.1050262,1.0
terni,0.3817116,0.0
nuoro,0.0,0.0
trento,0.9522574,49.0
salerno,11.644133,2.0
pesaro_e_urbino,3.7962358,27.0
venezia,8.355978,32.0
siena,0.0,1.0
vibo_valentia,0.013475139,1.0
matera,0.0,2.0
forli_cesena,3.195146,14.0
parma,3.2972515,12.0
trieste,3.678792,12.0
roma,11.729823,48.0
ferrara,2.3644195,20.0
belluno,2.1722097,55.0
sassari,2.488268,1.0
avellino,0.41329578,0.0
agrigento,0.16809754,0.0
como,8.598722,60.0
cremona,8.509999,107.0
catania,1.1750565,21.0
bologna,12.950557,62.0
pisa,2.0836704,1.0
viterbo,1.2985001,6.0
pescara,3.001403,8.0
rimini,3.0179543,16.0
mantova,8.519752,35.0
vicenza,7.669001,29.0
verbano_cusio_ossola,3.1794713,8.0
modena,7.1479187,29.0
crotone,0.0,0.0
bergamo,9.429642,56.0
