n,o,l
E10000013,35.814503,30.0
E08000001,20.574156,35.0
E06000032,22.576546,18.0
E08000034,23.331383,21.0
E06000022,5.0754433,4.0
E10000006,70.34691,43.0
E10000025,52.996574,67.0
E08000009,23.740677,26.0
E06000049,25.225607,14.0
E10000024,45.419273,40.0
E09000017,25.293833,44.0
E08000027,29.123177,16.0
E06000021,13.726083,11.0
E10000019,29.119566,37.0
E08000008,17.914486,13.0
E09000026,30.25211,20.0
E06000001,3.8537211,6.0
E06000050,26.919014,36.0
E08000017,18.987566,16.0
E06000055,12.459522,19.0
E06000040,8.13713,4.0
E06000002,19.278908,26.0
E06000004,14.7509775,16.0
E08000030,41.693203,27.0
E08000032,26.36803,24.0
E10000017,91.4419,112.0
E08000004,22.11091,20.0
E08000035,34.551075,37.0
E06000011,11.518489,12.0
E10000032,30.439358,52.0
E06000038,12.474671,9.0
E06000041,13.277848,10.0
E09000015,37.82592,23.0
E09000006,47.471157,30.0
E08000011,21.134542,22.0
E06000008,10.783407,9.0
E06000026,8.847792,14.0
E06000059,12.574699,15.0
E06000034,15.01955,5.0
E10000014,93.96015,89.0
E06000016,23.779982,26.0
E06000035,22.802532,15.0
E08000014,29.7559,45.0
E06000056,20.343405,14.0
E10000003,23.45934,17.0
E09000004,24.412851,25.0
E10000018,30.596207,26.0
E08000012,52.050514,60.0
E06000012,3.5616624,10.0
E10000027,14.135492,15.0
E06000014,9.92859,8.0
E08000036,63.616966,48.0
E09000008,18.516726,28.0
E06000046,2.7203064,1.0
E06000030,8.4828825,7.0
E06000054,13.380227,15.0
E08000005,16.941343,16.0
E06000027,4.909504,0.0
E10000016,95.00706,92.0
E10000030,89.978836,64.0
E08000013,27.251364,29.0
E06000033,16.374863,18.0
E08000016,24.020643,9.0
E09000016,25.774689,32.0
E06000051,14.548803,19.0
E08000037,25.494175,19.0
E06000052,20.967285,18.0
E09000010,29.13853,26.0
E10000021,50.80835,56.0
E06000039,9.503765,10.0
E08000024,35.29755,48.0
E09000027,16.018162,15.0
E09000009,41.564976,30.0
E10000020,31.615187,42.0
E10000023,28.399538,32.0
E10000029,27.864573,30.0
E06000045,19.571873,10.0
E08000018,26.780605,18.0
E10000034,42.67996,36.0
E06000018,16.80949,16.0
E08000019,79.84854,43.0
E06000017,0.0,1.0
E08000010,22.678394,24.0
E09000003,58.95783,37.0
E10000028,55.487865,47.0
E10000008,22.26439,19.0
E08000025,128.55397,81.0
E10000031,40.779053,39.0
E08000007,26.452547,31.0
E06000013,6.014706,13.0
E06000005,5.758758,6.0
E08000015,32.085205,44.0
E06000042,17.01694,10.0
E06000009,12.169003,8.0
E10000007,47.301918,35.0
E09000001,2.2304025,0.0
E09000022,53.319004,38.0
E06000047,35.87386,37.0
E06000037,8.875297,10.0
E08000026,28.171549,23.0
E09000002,21.554377,15.0
E09000018,31.316242,24.0
E06000043,12.47687,11.0
E06000020,8.927435,7.0
E06000057,22.846622,23.0
E06000006,13.233185,18.0
E08000003,35.787754,30.0
E10000015,94.745636,78.0
E06000024,7.4556704,8.0
E08000023,12.458322,17.0
E06000036,7.0638585,10.0
E10000011,21.751444,12.0
E06000031,6.76773,10.0
E08000021,35.63096,32.0
E10000002,30.447075,24.0
E06000044,5.5158873,10.0
E08000031,26.526781,11.0
E09000020,22.33465,14.0
E06000003,11.987222,17.0
E08000002,14.17645,18.0
E10000012,103.73509,93.0
E09000005,64.7849,55.0
E06000007,21.559843,16.0
E09000023,10.93354,12.0
E08000033,45.028835,46.0
E09000021,16.828653,20.0
E09000029,30.625008,20.0
E08000022,20.830936,13.0
E06000015,27.27404,22.0
