n,o,l
granada,59.985184,46.0
palencia,54.069275,11.0
segovia,62.268932,69.0
valencia,56.899567,63.0
tarragona,56.520855,20.0
cadiz,45.547882,20.0
huelva,46.615288,12.0
caceres,54.347702,61.0
alicante,48.879906,0.0
cordoba,49.410027,130.0
gipuzkoa,64.79111,15.0
cuenca,55.747475,13.0
sevilla,50.775944,51.0
guadalajara,58.25366,37.0
salamanca,72.48088,109.0
toledo,68.983574,67.0
ciudad_real,88.374535,1.0
badajoz,44.24593,253.0
barcelona,373.5671,38.0
avila,58.982464,6.0
lleida,50.53309,0.0
araba/alava,74.4494,13.0
albacete,47.01274,88.0
almeria,50.64906,13.0
zamora,47.194107,0.0
girona,127.36845,0.0
bizkaia,116.762184,26.0
soria,48.08556,37.0
burgos,57.351585,168.0
jaen,71.72796,30.0
valladolid,49.279247,28.0
malaga,77.11916,92.0
leon,65.52032,0.0
castellon,43.633762,27.0
