n,o,l
terni,3.422944,3.0
pistoia,5.7420588,7.0
rieti,13.650913,0.0
pesaro_e_urbino,32.894016,14.0
caserta,10.888652,3.0
brescia,150.13257,74.0
padova,85.77026,28.0
savona,107.516556,23.0
cremona,57.63885,150.0
vicenza,57.219933,11.0
udine,32.45624,6.0
livorno,3.2495983,1.0
bergamo,124.79915,50.0
campobasso,1.4632359,1.0
cosenza,6.3164496,9.0
torino,237.27563,332.0
lecce,6.540733,0.0
lecco,29.731754,13.0
benevento,2.436683,0.0
ferrara,26.41557,18.0
roma,78.75339,56.0
napoli,73.46967,46.0
salerno,11.619304,11.0
chieti,4.5743423,7.0
vercelli,21.996475,5.0
firenze,90.96643,51.0
ascoli_piceno,0.0,0.0
foggia,19.45944,28.0
enna,6.7785916,0.0
reggio_calabria,2.334128,0.0
matera,1.2534733,3.0
cuneo,57.15605,50.0
venezia,44.28217,14.0
grosseto,0.55443203,3.0
massa_carrara,18.889093,7.0
caltanissetta,0.7823547,0.0
nuoro,0.0,0.0
biella,8.903867,21.0
mantova,55.540836,20.0
la_spezia,30.711222,11.0
palermo,3.6387873,2.0
gorizia,0.0,5.0
latina,8.9145155,7.0
fermo,3.385882,4.0
piacenza,35.796803,67.0
trento,91.227,24.0
lucca,13.833682,0.0
sassari,21.935318,2.0
genova,172.97958,63.0
isernia,2.2796886,0.0
oristano,0.0,0.0
vibo_valentia,0.0,0.0
aosta,74.12644,5.0
pavia,25.091341,64.0
reggio_emilia,106.97503,17.0
rimini,20.393045,6.0
milano,346.58115,408.0
treviso,24.629803,26.0
viterbo,7.525304,6.0
crotone,0.18060118,0.0
siracusa,0.0,14.0
pescara,14.798638,47.0
teramo,15.359867,0.0
sondrio,15.023744,6.0
siena,3.9535298,4.0
ravenna,15.969723,3.0
potenza,0.09401967,5.0
forli_cesena,36.445007,11.0
cagliari,1.0151432,8.0
trapani,0.9019669,0.0
imperia,89.31466,0.0
arezzo,3.8459623,13.0
varese,51.787785,55.0
ancona,37.001053,23.0
parma,51.450848,22.0
messina,3.6763785,16.0
bolzano_bozen,56.13837,16.0
prato,7.9281044,1.0
frosinone,8.2670555,8.0
ragusa,0.0,1.0
verona,91.59993,72.0
catania,13.626951,43.0
pordenone,5.3977656,3.0
alessandria,77.923004,84.0
novara,33.37779,32.0
pisa,11.28037,7.0
catanzaro,0.01061739,0.0
macerata,18.792233,10.0
bari,25.138842,22.0
verbano_cusio_ossola,27.964125,8.0
avellino,15.780585,1.0
rovigo,7.779985,62.0
asti,21.814001,70.0
brindisi,7.756042,5.0
belluno,14.396391,63.0
trieste,20.452812,3.0
modena,65.31612,38.0
como,50.27583,42.0
lodi,23.776894,11.0
barletta_andria_trani,5.1155295,3.0
agrigento,0.0,0.0
la_aquila,5.107054,1.0
perugia,12.354155,1.0
taranto,4.3716435,1.0
bologna,83.8757,43.0
