n,o,l
siracusa,0.48911157,5.0
asti,3.0216086,22.0
oristano,1.6641165,0.0
grosseto,0.058889054,1.0
sondrio,1.9224459,20.0
ascoli_piceno,2.2588198,5.0
savona,0.08866255,13.0
reggio_emilia,8.333853,135.0
torino,19.02363,304.0
rovigo,0.56005895,28.0
frosinone,3.5728543,20.0
campobasso,0.5504268,7.0
cosenza,1.3441105,9.0
trapani,0.09726691,1.0
pavia,8.166441,46.0
cuneo,3.8391066,24.0
genova,1.443998,27.0
treviso,3.9213922,51.0
barletta_andria_trani,0.5721533,3.0
udine,1.928833,40.0
brescia,21.968817,257.0
ravenna,2.5776145,29.0
latina,0.18204966,24.0
gorizia,0.27184555,1.0
pordenone,1.3093518,11.0
massa_carrara,4.1592183,0.0
la_aquila,0.8467013,26.0
prato,1.7123654,32.0
rieti,1.3995645,0.0
aosta,2.8881009,51.0
ragusa,0.15293935,1.0
fermo,1.1421841,14.0
milano,35.95979,387.0
firenze,4.5699863,124.0
arezzo,1.6892782,1.0
bolzano_bozen,8.5950365,80.0
piacenza,5.3576803,46.0
ancona,2.2966492,52.0
napoli,7.441599,149.0
reggio_calabria,0.7770932,11.0
novara,3.4197814,28.0
pistoia,1.4067196,15.0
lodi,2.7676349,25.0
la_spezia,2.0484333,73.0
brindisi,0.9902605,10.0
taranto,1.3678625,15.0
potenza,0.67149776,9.0
perugia,3.9354331,40.0
alessandria,5.7334385,63.0
enna,1.1139715,19.0
imperia,1.107013,0.0
vercelli,2.180959,45.0
foggia,2.106564,25.0
lecce,5.853665,42.0
lecco,7.236894,64.0
padova,2.9896958,14.0
messina,3.4246752,6.0
lucca,5.428323,41.0
palermo,0.059281126,8.0
livorno,1.3926905,0.0
benevento,1.6493827,6.0
catanzaro,1.5556586,4.0
bari,4.77883,41.0
caltanissetta,0.0,3.0
isernia,0.1282813,2.0
biella,1.8459834,19.0
verona,11.33247,83.0
caserta,0.28533757,9.0
chieti,1.726983,11.0
varese,7.8814936,83.0
teramo,2.2301133,6.0
macerata,0.9044455,28.0
cagliari,0.4840363,8.0
terni,0.9768319,11.0
nuoro,0.36221778,2.0
trento,7.339333,106.0
salerno,2.365566,15.0
pesaro_e_urbino,2.6856449,30.0
venezia,3.7183735,28.0
siena,1.0125792,3.0
vibo_valentia,0.464309,6.0
matera,1.0288764,6.0
forli_cesena,3.7670717,77.0
parma,4.5749955,34.0
trieste,2.3339808,31.0
roma,10.391313,110.0
ferrara,1.7514058,27.0
belluno,2.013012,12.0
sassari,2.8231514,19.0
avellino,0.60621303,50.0
agrigento,0.09654061,2.0
como,4.450631,51.0
cremona,7.3946705,123.0
catania,2.6564007,15.0
bologna,11.854204,114.0
pisa,2.1304953,4.0
viterbo,0.2811825,7.0
pescara,2.0298254,23.0
rimini,3.641185,55.0
mantova,6.9589086,102.0
vicenza,5.248826,80.0
verbano_cusio_ossola,1.6140336,61.0
modena,5.736976,82.0
crotone,0.40361008,12.0
bergamo,24.478184,144.0
