n,o,l
granada,25.971296,71.0
palencia,6.131895,30.0
segovia,73.17337,25.0
valencia,81.38867,57.0
tarragona,0.13583472,7.0
cadiz,4.000843,12.0
huelva,26.217707,7.0
caceres,65.19424,42.0
alicante,50.672356,40.0
cordoba,17.99772,70.0
gipuzkoa,46.816452,15.0
cuenca,25.881643,29.0
sevilla,45.57958,69.0
guadalajara,29.165552,95.0
salamanca,41.49727,116.0
toledo,73.94393,158.0
ciudad_real,148.35963,0.0
badajoz,16.788857,441.0
barcelona,794.1316,37.0
avila,21.420088,7.0
lleida,40.390713,39.0
araba/alava,24.904505,9.0
albacete,28.598692,59.0
almeria,5.6935,11.0
zamora,22.556273,47.0
girona,0.13559447,104.0
bizkaia,152.38911,41.0
soria,32.09324,126.0
burgos,46.480038,15.0
jaen,123.38854,5.0
valladolid,16.308529,103.0
malaga,44.722305,51.0
leon,108.26057,9.0
castellon,28.262999,118.0
