n,o,l
E10000013,25.218931,33.0
E08000001,18.333284,8.0
E06000032,10.4559765,19.0
E08000034,6.894456,18.0
E06000022,0.0,2.0
E10000006,25.37564,39.0
E10000025,27.144972,21.0
E08000009,9.641658,10.0
E06000049,17.901594,24.0
E10000024,13.667196,35.0
E09000017,8.617514,7.0
E08000027,13.551286,4.0
E06000021,9.455497,17.0
E10000019,15.876822,11.0
E08000008,4.563323,5.0
E09000026,4.021244,7.0
E06000001,2.0671003,6.0
E06000050,16.614342,24.0
E08000017,9.479157,8.0
E06000055,6.866695,10.0
E06000040,0.0,1.0
E06000002,12.436777,22.0
E06000004,5.132783,6.0
E08000030,17.323128,26.0
E08000032,16.636242,32.0
E10000017,63.926495,46.0
E08000004,16.78861,10.0
E08000035,38.30798,44.0
E06000011,13.393597,27.0
E10000032,21.474945,10.0
E06000038,9.39968,13.0
E06000041,8.284629,3.0
E09000015,10.185391,14.0
E09000006,7.7858677,12.0
E08000011,6.2838054,13.0
E06000008,4.6827006,5.0
E06000026,5.0856853,3.0
E06000059,1.4561448,4.0
E06000034,0.9308439,5.0
E10000014,55.369007,45.0
E06000016,13.5184965,21.0
E06000035,10.381413,5.0
E08000014,10.918656,10.0
E06000056,8.615632,16.0
E10000003,15.382662,15.0
E09000004,6.3867497,7.0
E10000018,19.852787,23.0
E08000012,20.05499,24.0
E06000012,0.0,3.0
E10000027,13.199126,14.0
E06000014,3.2796588,13.0
E08000036,14.134702,15.0
E09000008,6.4976463,18.0
E06000046,0.0,4.0
E06000030,5.686106,2.0
E06000054,5.3752856,5.0
E08000005,10.639315,10.0
E06000027,2.245266,1.0
E10000016,102.19027,75.0
E10000030,45.802967,27.0
E08000013,10.871646,15.0
E06000033,0.0,2.0
E08000016,10.505879,17.0
E09000016,4.9618664,8.0
E06000051,10.098049,12.0
E08000037,15.280005,20.0
E06000052,4.968453,11.0
E09000010,8.673469,4.0
E10000021,13.757442,15.0
E06000039,1.6534156,6.0
E08000024,21.972847,16.0
E09000027,0.0,2.0
E09000009,8.344801,9.0
E10000020,40.976707,52.0
E10000023,17.791351,35.0
E10000029,32.59413,25.0
E06000045,9.362807,9.0
E08000018,14.54008,29.0
E10000034,22.811945,18.0
E06000018,8.255855,18.0
E08000019,40.33003,48.0
E06000017,0.0,0.0
E08000010,19.919909,24.0
E09000003,7.753652,7.0
E10000028,41.495953,36.0
E10000008,9.9002695,25.0
E08000025,52.326084,20.0
E10000031,26.163261,29.0
E08000007,14.39983,14.0
E06000013,8.619151,9.0
E06000005,2.9193187,21.0
E08000015,17.46687,17.0
E06000042,3.374813,6.0
E06000009,14.704943,17.0
E10000007,17.236193,39.0
E09000001,0.0,0.0
E09000022,6.8403463,7.0
E06000047,33.24239,29.0
E06000037,6.15627,4.0
E08000026,10.516499,4.0
E09000002,2.9748876,4.0
E09000018,4.894322,5.0
E06000043,3.099466,1.0
E06000020,5.6604953,6.0
E06000057,15.458398,11.0
E06000006,1.282565,6.0
E08000003,18.931328,13.0
E10000015,37.013706,42.0
E06000024,2.272912,9.0
E08000023,12.416801,26.0
E06000036,0.0,5.0
E10000011,9.176774,3.0
E06000031,3.2907445,8.0
E08000021,12.7392645,13.0
E10000002,13.486429,15.0
E06000044,2.0169969,7.0
E08000031,17.129614,24.0
E09000020,2.6310186,3.0
E06000003,4.41329,9.0
E08000002,8.682451,16.0
E10000012,44.42086,73.0
E09000005,13.104182,5.0
E06000007,10.145217,14.0
E09000023,0.08767534,3.0
E08000033,8.768968,8.0
E09000021,2.9019823,7.0
E09000029,4.0677576,2.0
E08000022,6.015497,8.0
E06000015,0.9540593,6.0
