n,o,l
granada,30.789728,0.0
palencia,24.177633,25.0
segovia,12.981085,39.0
valencia,40.86759,75.0
tarragona,6.2348,0.0
cadiz,2.4146903,0.0
huelva,4.9537535,2.0
caceres,5.051358,80.0
alicante,21.689444,0.0
cordoba,4.507329,75.0
gipuzkoa,14.802852,0.0
cuenca,28.966951,0.0
sevilla,8.56982,58.0
guadalajara,26.291105,66.0
salamanca,34.446938,99.0
toledo,55.267933,88.0
ciudad_real,75.34121,4.0
badajoz,3.2996588,0.0
barcelona,179.38342,35.0
avila,27.680384,0.0
lleida,6.6319184,0.0
araba/alava,45.96915,0.0
albacete,33.341267,49.0
almeria,3.066689,17.0
zamora,4.1052723,0.0
girona,37.85328,0.0
bizkaia,74.489105,51.0
soria,18.973991,63.0
burgos,14.45272,16.0
jaen,42.029037,0.0
valladolid,6.9088993,34.0
malaga,21.309843,0.0
leon,36.787354,0.0
castellon,23.687828,9.0
