n,o,l
terni,0.0,1.0
pistoia,3.3086762,7.0
rieti,0.0,0.0
pesaro_e_urbino,17.23211,8.0
caserta,0.0,0.0
brescia,143.15855,70.0
padova,42.41683,5.0
savona,21.62902,11.0
cremona,87.46835,20.0
vicenza,37.120525,21.0
udine,1.6427099,1.0
livorno,8.273206,6.0
bergamo,45.199482,34.0
campobasso,0.0,0.0
cosenza,12.21638,0.0
torino,289.2052,292.0
lecce,1.3930486,6.0
lecco,22.69233,13.0
benevento,0.0,0.0
ferrara,17.578247,6.0
roma,97.323166,56.0
napoli,33.93345,11.0
salerno,5.433701,0.0
chieti,14.354307,4.0
vercelli,18.268238,23.0
firenze,44.068058,37.0
ascoli_piceno,0.0,1.0
foggia,12.246321,16.0
enna,3.264755,1.0
reggio_calabria,0.0,0.0
matera,0.25414753,2.0
cuneo,74.929054,16.0
venezia,23.128565,33.0
grosseto,4.6471376,0.0
massa_carrara,6.5410233,7.0
caltanissetta,0.0,0.0
nuoro,0.0,1.0
biella,12.621291,8.0
mantova,55.695827,9.0
la_spezia,9.05903,10.0
palermo,1.9169436,5.0
gorizia,0.0,2.0
latina,1.9700798,8.0
fermo,0.11193566,11.0
piacenza,30.753632,60.0
trento,58.861015,49.0
lucca,4.1142836,0.0
sassari,18.458258,6.0
genova,90.897804,146.0
isernia,0.0,0.0
oristano,0.0,0.0
vibo_valentia,0.0,0.0
aosta,23.859707,40.0
pavia,55.349678,3.0
reggio_emilia,63.305748,20.0
rimini,10.713418,13.0
milano,267.0148,249.0
treviso,46.409157,21.0
viterbo,1.4040208,4.0
crotone,0.0,0.0
siracusa,1.439427,3.0
pescara,22.75365,9.0
teramo,0.0,3.0
sondrio,30.202415,0.0
siena,1.2677026,1.0
ravenna,12.882736,1.0
potenza,0.0,0.0
forli_cesena,23.146093,9.0
cagliari,0.01845954,1.0
trapani,0.0,0.0
imperia,26.274675,17.0
arezzo,11.641325,9.0
varese,62.70144,10.0
ancona,13.030417,1.0
parma,32.69689,22.0
messina,4.279419,1.0
bolzano_bozen,32.053288,7.0
prato,5.930707,2.0
frosinone,2.8365285,0.0
ragusa,0.0,0.0
verona,60.14229,62.0
catania,8.659704,9.0
pordenone,3.4329782,0.0
alessandria,67.24589,68.0
novara,48.0728,32.0
pisa,9.900533,5.0
catanzaro,0.0,0.0
macerata,8.847455,2.0
bari,20.45962,3.0
verbano_cusio_ossola,5.1869226,21.0
avellino,0.4658779,4.0
rovigo,0.43147406,0.0
asti,38.23754,7.0
brindisi,12.874386,4.0
belluno,22.406664,13.0
trieste,26.460949,15.0
modena,35.688915,26.0
como,74.687225,22.0
lodi,21.924107,23.0
barletta_andria_trani,1.3913356,3.0
agrigento,0.0,0.0
la_aquila,0.0,0.0
perugia,0.0,0.0
taranto,0.0,2.0
bologna,67.677826,49.0
