n,o,l
E10000013,39.01151,38.0
E08000001,22.93327,25.0
E06000032,23.269754,23.0
E08000034,19.008343,6.0
E06000022,2.2614896,2.0
E10000006,71.67941,38.0
E10000025,58.095844,34.0
E08000009,24.516104,12.0
E06000049,27.143894,19.0
E10000024,34.083973,28.0
E09000017,22.62526,12.0
E08000027,26.397455,11.0
E06000021,6.4986095,10.0
E10000019,25.717937,24.0
E08000008,16.096766,18.0
E09000026,26.535307,24.0
E06000001,2.964108,6.0
E06000050,34.932575,25.0
E08000017,0.0,8.0
E06000055,9.611636,10.0
E06000040,2.8845913,6.0
E06000002,24.138845,14.0
E06000004,14.865948,10.0
E08000030,31.303284,13.0
E08000032,27.354414,22.0
E10000017,108.53889,63.0
E08000004,18.769615,22.0
E08000035,34.782158,38.0
E06000011,10.711095,16.0
E10000032,33.99999,29.0
E06000038,11.572152,25.0
E06000041,6.2876506,11.0
E09000015,29.233969,13.0
E09000006,37.09304,11.0
E08000011,20.967249,8.0
E06000008,9.393679,11.0
E06000026,8.145569,7.0
E06000059,9.879584,5.0
E06000034,9.403038,5.0
E10000014,88.98076,71.0
E06000016,24.090288,22.0
E06000035,24.75984,13.0
E08000014,35.4515,21.0
E06000056,16.84663,18.0
E10000003,25.152597,13.0
E09000004,22.379843,6.0
E10000018,30.05265,12.0
E08000012,55.832397,35.0
E06000012,2.094247,2.0
E10000027,11.151855,11.0
E06000014,6.151553,5.0
E08000036,21.599215,18.0
E09000008,56.22744,26.0
E06000046,0.0,2.0
E06000030,12.027524,10.0
E06000054,16.425056,11.0
E08000005,13.2345,16.0
E06000027,1.6913488,2.0
E10000016,89.16955,117.0
E10000030,83.61218,54.0
E08000013,28.205276,15.0
E06000033,13.175529,8.0
E08000016,2.071111,21.0
E09000016,27.68943,19.0
E06000051,10.012017,16.0
E08000037,28.821249,20.0
E06000052,15.595406,20.0
E09000010,22.505669,22.0
E10000021,51.17805,18.0
E06000039,6.0730243,29.0
E08000024,50.093563,9.0
E09000027,8.6607065,7.0
E09000009,28.61909,21.0
E10000020,36.773167,40.0
E10000023,30.032484,27.0
E10000029,30.207012,10.0
E06000045,13.954165,27.0
E08000018,13.923833,26.0
E10000034,30.767181,22.0
E06000018,15.802759,11.0
E08000019,62.438915,35.0
E06000017,0.7129515,1.0
E08000010,23.067392,23.0
E09000003,47.554016,17.0
E10000028,48.875534,35.0
E10000008,27.78159,31.0
E08000025,97.8259,50.0
E10000031,38.96914,22.0
E08000007,31.41963,14.0
E06000013,1.6186363,8.0
E06000005,1.4345249,15.0
E08000015,50.76142,27.0
E06000042,17.536112,6.0
E06000009,9.463206,11.0
E10000007,27.455744,21.0
E09000001,1.4053389,0.0
E09000022,37.394257,16.0
E06000047,37.976223,29.0
E06000037,8.691864,7.0
E08000026,18.889362,21.0
E09000002,16.41173,15.0
E09000018,25.82322,10.0
E06000043,14.649156,11.0
E06000020,7.922105,3.0
E06000057,30.601976,37.0
E06000006,16.359562,4.0
E08000003,38.65364,37.0
E10000015,82.88502,50.0
E06000024,5.234565,1.0
E08000023,16.307291,9.0
E06000036,2.396463,7.0
E10000011,15.96209,12.0
E06000031,5.6259685,2.0
E08000021,31.448223,17.0
E10000002,24.115974,7.0
E06000044,10.654922,9.0
E08000031,16.164265,7.0
E09000020,12.09702,3.0
E06000003,10.665924,8.0
E08000002,18.357254,16.0
E10000012,90.80888,46.0
E09000005,55.89537,26.0
E06000007,22.320251,7.0
E09000023,7.683642,8.0
E08000033,40.496773,12.0
E09000021,14.367846,9.0
E09000029,20.043201,5.0
E08000022,25.170454,7.0
E06000015,15.231639,9.0
