n,o,l
siracusa,0.64406013,14.0
asti,1.3079863,70.0
oristano,0.74779904,3.0
grosseto,2.497463,0.0
sondrio,0.0,6.0
ascoli_piceno,0.0,0.0
savona,0.0,23.0
reggio_emilia,11.798805,17.0
torino,25.13271,332.0
rovigo,2.007821,62.0
frosinone,2.445538,8.0
campobasso,0.07129634,1.0
cosenza,1.2632539,9.0
trapani,0.27892902,0.0
pavia,7.5586853,64.0
cuneo,3.9582944,50.0
genova,27.0513,63.0
treviso,5.7018957,26.0
barletta_andria_trani,3.2360635,3.0
udine,0.23087864,6.0
brescia,26.10867,3.0
ravenna,1.4424418,74.0
latina,0.7170891,7.0
gorizia,0.0648385,5.0
pordenone,0.82774186,3.0
massa_carrara,2.909768,7.0
la_aquila,0.8231504,1.0
prato,0.0103861615,1.0
rieti,1.1783348,0.0
aosta,1.6309721,5.0
ragusa,0.1517103,1.0
fermo,0.8162071,4.0
milano,27.314442,408.0
firenze,7.773048,51.0
arezzo,0.29609126,13.0
bolzano_bozen,6.2698393,16.0
piacenza,2.9608333,67.0
ancona,2.9915922,23.0
napoli,6.160991,46.0
reggio_calabria,0.4210488,0.0
novara,6.3212624,32.0
pistoia,1.9039754,7.0
lodi,4.209343,11.0
la_spezia,4.270193,11.0
brindisi,1.5644078,5.0
taranto,0.43392286,1.0
potenza,0.25351918,5.0
perugia,0.3410141,1.0
alessandria,7.6539516,84.0
enna,0.63409555,0.0
imperia,8.209027,0.0
vercelli,2.0440311,5.0
foggia,2.7091486,28.0
lecce,2.6984801,13.0
lecco,9.948299,28.0
padova,0.7807778,16.0
messina,0.63786674,0.0
lucca,2.5446894,2.0
palermo,0.9881157,2.0
livorno,0.70364714,0.0
benevento,0.8517583,1.0
catanzaro,0.29177564,0.0
bari,2.2589126,22.0
caltanissetta,0.042831317,0.0
isernia,0.0,0.0
biella,1.379773,21.0
verona,14.551574,72.0
caserta,0.6578812,3.0
chieti,1.9071369,7.0
varese,6.2472444,55.0
teramo,1.6805453,0.0
macerata,4.429087,10.0
cagliari,0.6382266,8.0
terni,0.70761895,3.0
nuoro,0.0,0.0
trento,1.6758817,24.0
salerno,13.114561,11.0
pesaro_e_urbino,5.403544,14.0
venezia,6.41996,14.0
siena,0.4287849,4.0
vibo_valentia,0.035609223,0.0
matera,0.16425957,3.0
forli_cesena,2.2327614,11.0
parma,3.4975882,22.0
trieste,3.7598279,3.0
roma,7.81388,56.0
ferrara,0.087124325,18.0
belluno,2.7023296,63.0
sassari,1.9373735,0.0
avellino,0.9083546,1.0
agrigento,0.13052708,0.0
como,8.1742935,150.0
cremona,6.241331,42.0
catania,1.4372004,43.0
bologna,9.772012,43.0
pisa,1.1821196,7.0
viterbo,1.3539826,6.0
pescara,2.1444247,47.0
rimini,2.3145785,6.0
mantova,7.2353764,20.0
vicenza,5.4993215,11.0
verbano_cusio_ossola,4.839946,8.0
modena,7.180162,38.0
crotone,0.014367249,0.0
bergamo,6.932442,50.0
