n,o,l
granada,20.172977,30.0
palencia,8.314362,6.0
segovia,36.37234,88.0
valencia,61.28872,142.0
tarragona,0.2193743,0.0
cadiz,2.8015637,5.0
huelva,7.7053647,38.0
caceres,25.049444,117.0
alicante,43.413174,23.0
cordoba,9.1219015,12.0
gipuzkoa,8.4874,40.0
cuenca,28.024574,36.0
sevilla,18.80271,55.0
guadalajara,14.205446,19.0
salamanca,31.31379,88.0
toledo,11.676331,142.0
ciudad_real,53.150196,245.0
badajoz,10.91105,21.0
barcelona,318.0396,1089.0
avila,14.009708,36.0
lleida,15.135492,50.0
araba/alava,10.86723,38.0
albacete,17.818056,25.0
almeria,1.4998136,8.0
zamora,10.087118,48.0
girona,0.14938736,0.0
bizkaia,69.664314,225.0
soria,18.485638,37.0
burgos,16.407516,86.0
jaen,76.51916,110.0
valladolid,12.390874,32.0
malaga,10.952825,66.0
leon,29.56826,184.0
castellon,20.09645,26.0
