n,o,l
siracusa,0.41240838,15.0
asti,1.3852386,26.0
oristano,0.04862689,7.0
grosseto,0.7807789,0.0
sondrio,1.2047781,31.0
ascoli_piceno,0.46691218,16.0
savona,0.885378,6.0
reggio_emilia,12.010388,149.0
torino,23.511513,317.0
rovigo,1.0246848,5.0
frosinone,0.29552096,9.0
campobasso,0.2026867,0.0
cosenza,0.5732465,15.0
trapani,0.35282505,5.0
pavia,5.1761937,79.0
cuneo,2.5685322,32.0
genova,6.1280255,86.0
treviso,6.232274,86.0
barletta_andria_trani,0.46641758,3.0
udine,2.8288894,26.0
brescia,17.523172,299.0
ravenna,1.2374882,19.0
latina,0.60611486,16.0
gorizia,0.0,8.0
pordenone,1.4029448,76.0
massa_carrara,1.7693,16.0
la_aquila,0.31690317,13.0
prato,1.1661105,19.0
rieti,0.0,6.0
aosta,2.726715,1.0
ragusa,0.057417985,13.0
fermo,1.7448767,21.0
milano,24.78664,373.0
firenze,4.150285,87.0
arezzo,1.0437384,18.0
bolzano_bozen,4.892731,77.0
piacenza,6.2215357,141.0
ancona,5.0365973,69.0
napoli,3.1762543,38.0
reggio_calabria,0.28843236,8.0
novara,4.3113456,46.0
pistoia,2.1486223,11.0
lodi,3.9384916,24.0
la_spezia,0.3550173,27.0
brindisi,0.49381578,13.0
taranto,0.38051292,5.0
potenza,0.521229,0.0
perugia,3.305039,51.0
alessandria,7.0844817,0.0
enna,0.39539975,27.0
imperia,1.4624401,0.0
vercelli,2.201792,18.0
foggia,1.4929777,22.0
lecce,4.469537,61.0
lecco,5.555352,172.0
padova,1.1607496,35.0
messina,0.58761406,3.0
lucca,1.2005153,49.0
palermo,0.972005,23.0
livorno,0.083205774,0.0
benevento,0.5948074,17.0
catanzaro,0.44195175,2.0
bari,1.7971271,32.0
caltanissetta,0.23008813,5.0
isernia,0.09344597,0.0
biella,0.23581691,47.0
verona,4.878228,76.0
caserta,2.8223345,13.0
chieti,0.8539816,13.0
varese,1.8842269,18.0
teramo,0.6801208,55.0
macerata,2.8263955,27.0
cagliari,0.3621014,10.0
terni,0.803681,8.0
nuoro,0.048769467,0.0
trento,8.665402,112.0
salerno,1.71312,38.0
pesaro_e_urbino,5.3998957,61.0
venezia,4.657224,37.0
siena,0.8223089,17.0
vibo_valentia,0.017294336,2.0
matera,0.2140029,11.0
forli_cesena,2.9712856,17.0
parma,7.4510784,90.0
trieste,0.40614936,26.0
roma,6.902797,141.0
ferrara,1.3146504,14.0
belluno,1.6645697,25.0
sassari,2.951469,9.0
avellino,0.37691414,17.0
agrigento,0.24865769,3.0
como,2.5959444,71.0
cremona,2.126935,95.0
catania,1.7118046,22.0
bologna,4.30571,139.0
pisa,1.5570728,32.0
viterbo,0.63648367,1.0
pescara,2.180306,42.0
rimini,6.493075,52.0
mantova,3.965116,83.0
vicenza,4.2218857,80.0
verbano_cusio_ossola,1.2446426,18.0
modena,6.637139,179.0
crotone,0.659477,5.0
bergamo,18.403168,344.0
