n,o,l
granada,17.732023,57.0
palencia,4.701607,19.0
segovia,58.255817,46.0
valencia,82.55522,95.0
tarragona,3.7177513,13.0
cadiz,18.81442,12.0
huelva,67.86321,28.0
caceres,46.921234,22.0
alicante,32.46798,80.0
cordoba,52.874165,27.0
gipuzkoa,12.020323,0.0
cuenca,30.913774,45.0
sevilla,34.18232,20.0
guadalajara,39.993256,41.0
salamanca,159.61433,49.0
toledo,137.2918,65.0
ciudad_real,14.3527975,55.0
badajoz,855.42554,4.0
barcelona,25.846224,349.0
avila,36.722427,21.0
lleida,26.813864,27.0
araba/alava,5.769026,0.0
albacete,35.49861,70.0
almeria,27.374817,24.0
zamora,0.24425614,16.0
girona,146.96556,40.0
bizkaia,30.464952,0.0
soria,95.45838,28.0
burgos,41.636116,153.0
jaen,19.580647,70.0
valladolid,99.355034,14.0
malaga,37.206562,76.0
leon,10.955143,59.0
castellon,25.05433,67.0
