n,o,l
siracusa,0.026082616,0.0
asti,0.0,26.0
oristano,0.08424746,12.0
grosseto,0.080880016,0.0
sondrio,0.0,45.0
ascoli_piceno,0.05839504,3.0
savona,0.0,19.0
reggio_emilia,0.5112541,68.0
torino,1.9962193,298.0
rovigo,0.19283743,2.0
frosinone,0.11175486,15.0
campobasso,0.07952275,6.0
cosenza,0.102744654,16.0
trapani,0.058249757,1.0
pavia,0.75388974,55.0
cuneo,0.2500376,42.0
genova,0.73724073,7.0
treviso,0.0,92.0
barletta_andria_trani,0.06663609,3.0
udine,0.5525379,20.0
brescia,7.19947,393.0
ravenna,0.38238227,26.0
latina,0.066902846,23.0
gorizia,0.31928664,2.0
pordenone,0.38151824,31.0
massa_carrara,0.54207236,25.0
la_aquila,0.0381519,7.0
prato,0.12808,22.0
rieti,0.08583324,2.0
aosta,0.0061036125,7.0
ragusa,0.039368175,0.0
fermo,0.10294232,6.0
milano,6.804491,375.0
firenze,0.24566942,74.0
arezzo,0.14517248,10.0
bolzano_bozen,0.84982,57.0
piacenza,0.6462002,96.0
ancona,0.22956403,49.0
napoli,1.135501,45.0
reggio_calabria,0.08278236,3.0
novara,0.3432272,51.0
pistoia,0.07680516,14.0
lodi,0.0,43.0
la_spezia,0.08987214,0.0
brindisi,0.13403961,1.0
taranto,0.056693025,5.0
potenza,0.1334616,0.0
perugia,0.2634604,48.0
alessandria,0.14365883,129.0
enna,0.051617242,19.0
imperia,0.020528905,18.0
vercelli,0.13226402,27.0
foggia,0.0,29.0
lecce,0.0,81.0
lecco,2.1866248,93.0
padova,0.0,19.0
messina,0.0,12.0
lucca,0.39431858,24.0
palermo,0.0017801821,61.0
livorno,0.0,1.0
benevento,0.24429648,22.0
catanzaro,0.078443706,3.0
bari,0.39970142,36.0
caltanissetta,0.0,11.0
isernia,0.051333576,0.0
biella,0.10858907,27.0
verona,1.0754067,129.0
caserta,0.0,28.0
chieti,0.0,4.0
varese,0.92251873,29.0
teramo,0.0,16.0
macerata,0.15964846,42.0
cagliari,0.07883601,3.0
terni,0.10706532,21.0
nuoro,0.0,4.0
trento,1.5496603,87.0
salerno,0.0,3.0
pesaro_e_urbino,1.8649993,59.0
venezia,0.68887055,38.0
siena,0.004412532,16.0
vibo_valentia,0.07784708,1.0
matera,0.074068315,7.0
forli_cesena,0.16252637,57.0
parma,0.8150213,71.0
trieste,1.2530653,9.0
roma,0.027173772,116.0
ferrara,0.13394077,18.0
belluno,0.0,19.0
sassari,0.030411199,49.0
avellino,0.0153547935,10.0
agrigento,0.2518953,2.0
como,0.768264,136.0
cremona,0.0,54.0
catania,0.041740246,12.0
bologna,0.896445,135.0
pisa,0.4687066,19.0
viterbo,0.1389657,28.0
pescara,0.0,0.0
rimini,1.7365407,49.0
mantova,0.4106425,108.0
vicenza,0.22030903,53.0
verbano_cusio_ossola,0.0,39.0
modena,1.5776832,199.0
crotone,0.0,4.0
bergamo,5.0308213,257.0
