n,o,l
charente_maritime,2.0826156,0.0
vienne,0.0,0.0
aude,3.6220467,0.0
haute_loire,0.11539171,0.0
haute_savoie,10.529112,0.0
dordogne,0.0,0.0
correze,0.0,0.0
indre_et_loire,1.3721678,1.0
saone_et_loire,6.992916,1.0
loire_atlantique,0.0801799,0.0
haute_vienne,0.35347992,0.0
drome,2.1794112,0.0
cote_d'or,2.093446,0.0
landes,0.10454629,16.0
paris,78.60358,0.0
charente,0.0,0.0
meurthe_et_moselle,1.9927766,5.0
essonne,39.27972,0.0
marne,8.28714,0.0
seine_saint_denis,60.257355,7.0
moselle,13.473684,0.0
bas_rhin,10.620487,0.0
pas_de_calais,12.075582,0.0
nord,8.925485,0.0
loiret,10.19412,0.0
nievre,1.7315367,1.0
alpes_maritimes,4.311538,0.0
pyrenees_atlantiques,1.4624206,0.0
val_d'oise,26.989252,3.0
meuse,0.6090799,0.0
mayenne,0.0,0.0
val_de_marne,45.44736,5.0
hautes_pyrenees,2.9343147,1.0
lot,0.0,0.0
isere,0.6355337,0.0
gironde,8.611111,0.0
yvelines,20.775126,0.0
yonne,0.4495793,0.0
haute_saone,3.1679933,0.0
somme,11.427416,3.0
eure_et_loir,19.935541,0.0
manche,7.22076,0.0
indre,1.2236679,0.0
haute_marne,0.021315165,0.0
haut_rhin,26.161707,0.0
maine_et_loire,0.0,0.0
jura,2.3604147,0.0
savoie,0.011732444,0.0
ardennes,0.42192173,1.0
haute_garonne,3.5520377,0.0
rhone,11.4116125,0.0
ardeche,0.88461703,0.0
aisne,15.898307,0.0
vosges,14.176826,0.0
gers,0.9639414,0.0
oise,30.694202,2.0
hauts_de_seine,64.30797,2.0
territoire_de_belfort,2.3528438,0.0
lot_et_garonne,0.0,0.0
eure,19.26141,0.0
tarn,0.0,0.0
cher,4.683737,0.0
aube,7.3792095,0.0
vaucluse,2.7350245,0.0
pyrenees_orientales,0.21802665,1.0
var,10.601355,0.0
cantal,0.0,1.0
doubs,4.409698,0.0
seine_et_marne,40.72084,4.0
ain,5.931752,0.0
calvados,2.3307657,13.0
herault,25.603128,1.0
bouches_du_rhone,65.79466,1.0
puy_de_dome,5.158798,1.0
tarn_et_garonne,0.030792482,0.0
loire,0.0,0.0
gard,5.930827,0.0
loir_et_cher,0.004087001,0.0
alpes_de_haute_provence,0.2277963,0.0
orne,0.0,0.0
seine_maritime,9.401394,1.0
