n,o,l
siracusa,0.6031113,5.0
asti,1.2952276,1.0
oristano,0.7294106,3.0
grosseto,2.4465578,71.0
sondrio,0.0,81.0
ascoli_piceno,0.0,3.0
savona,0.0,0.0
reggio_emilia,11.530848,127.0
torino,24.434889,288.0
rovigo,1.9415823,5.0
frosinone,2.3370845,3.0
campobasso,0.057470463,0.0
cosenza,1.2142085,18.0
trapani,0.27891994,0.0
pavia,7.6025567,88.0
cuneo,3.9548154,80.0
genova,26.109613,87.0
treviso,5.527066,63.0
barletta_andria_trani,3.2248101,2.0
udine,0.34370756,9.0
brescia,25.407774,191.0
ravenna,1.4475689,11.0
latina,0.69149756,6.0
gorizia,0.051298752,0.0
pordenone,0.79799056,13.0
massa_carrara,2.8349893,6.0
la_aquila,0.7992443,0.0
prato,0.0,8.0
rieti,1.2610326,2.0
aosta,1.5778451,80.0
ragusa,0.12739381,0.0
fermo,0.78151214,2.0
milano,26.417854,269.0
firenze,7.501919,69.0
arezzo,0.30208787,7.0
bolzano_bozen,6.037885,29.0
piacenza,2.8834817,25.0
ancona,2.9113455,16.0
napoli,5.9718976,21.0
reggio_calabria,0.40201023,0.0
novara,6.11955,86.0
pistoia,1.847932,7.0
lodi,4.0714493,36.0
la_spezia,4.1134143,16.0
brindisi,1.5196095,19.0
taranto,0.4068597,4.0
potenza,0.22189385,0.0
perugia,0.36633956,5.0
alessandria,7.565836,56.0
enna,0.6519906,7.0
imperia,7.739882,21.0
vercelli,1.9834214,29.0
foggia,2.6190956,15.0
lecce,2.6175926,25.0
lecco,9.62294,42.0
padova,0.72000635,14.0
messina,0.6010179,9.0
lucca,2.4544747,7.0
palermo,0.935741,8.0
livorno,0.65847725,3.0
benevento,0.8038988,5.0
catanzaro,0.2670696,2.0
bari,2.1696134,25.0
caltanissetta,0.04227214,0.0
isernia,0.0,0.0
biella,1.320979,4.0
verona,14.018404,75.0
caserta,0.6291018,20.0
chieti,1.8116485,13.0
varese,6.004121,85.0
teramo,1.5812306,2.0
macerata,4.2975535,11.0
cagliari,0.6205545,1.0
terni,0.67578524,3.0
nuoro,0.0,3.0
trento,1.6538148,3.0
salerno,12.696104,55.0
pesaro_e_urbino,5.2394767,16.0
venezia,6.2505827,20.0
siena,0.40198478,7.0
vibo_valentia,0.026777249,0.0
matera,0.14556435,2.0
forli_cesena,2.2464542,16.0
parma,3.5632627,43.0
trieste,3.6236918,35.0
roma,7.5290384,130.0
ferrara,0.23022619,15.0
belluno,2.6062415,28.0
sassari,1.8744423,15.0
avellino,0.89795977,2.0
agrigento,0.10862382,0.0
como,7.9079523,154.0
cremona,6.040385,94.0
catania,1.3770194,13.0
bologna,9.55822,60.0
pisa,1.1255008,8.0
viterbo,1.2732271,3.0
pescara,2.0273345,29.0
rimini,2.2645435,14.0
mantova,6.9932313,115.0
vicenza,5.3176336,96.0
verbano_cusio_ossola,4.764235,4.0
modena,6.94852,39.0
crotone,0.0,0.0
bergamo,7.060546,39.0
