n,o,l
granada,24.805868,54.0
palencia,7.7531967,56.0
segovia,63.66821,35.0
valencia,56.199387,100.0
tarragona,0.22161685,23.0
cadiz,4.048695,7.0
huelva,20.860552,9.0
caceres,45.606937,38.0
alicante,63.387466,48.0
cordoba,17.644339,19.0
gipuzkoa,18.546448,57.0
cuenca,50.26866,70.0
sevilla,39.726006,43.0
guadalajara,31.90034,51.0
salamanca,28.03823,49.0
toledo,42.29447,99.0
ciudad_real,104.70753,178.0
badajoz,15.230711,17.0
barcelona,611.94885,705.0
avila,16.234066,42.0
lleida,31.063213,29.0
araba/alava,19.964582,98.0
albacete,29.011726,98.0
almeria,4.0898223,5.0
zamora,13.528949,5.0
girona,0.22153337,182.0
bizkaia,118.06553,197.0
soria,29.261742,33.0
burgos,29.641367,32.0
jaen,122.83131,55.0
valladolid,11.551804,22.0
malaga,33.50735,170.0
leon,76.97561,67.0
castellon,28.162756,23.0
