n,o,l
granada,21.870686,0.0
palencia,8.699112,6.0
segovia,26.615065,37.0
valencia,44.778675,94.0
tarragona,5.6724787,0.0
cadiz,8.548745,0.0
huelva,13.500831,0.0
caceres,9.507816,15.0
alicante,19.213757,100.0
cordoba,9.821597,0.0
gipuzkoa,6.038119,188.0
cuenca,52.654144,0.0
sevilla,11.435045,0.0
guadalajara,29.085632,40.0
salamanca,24.359108,69.0
toledo,32.628666,51.0
ciudad_real,26.506292,75.0
badajoz,5.909107,8.0
barcelona,31.806456,0.0
avila,18.461315,16.0
lleida,5.799515,0.0
araba/alava,6.054167,0.0
albacete,25.600796,47.0
almeria,8.146022,0.0
zamora,6.011847,24.0
girona,2.892028,0.0
bizkaia,6.057607,0.0
soria,24.65863,69.0
burgos,43.113102,76.0
jaen,21.113857,0.0
valladolid,15.908141,26.0
malaga,38.233456,0.0
leon,20.69608,58.0
castellon,19.200357,47.0
