n,o,l
granada,26.148037,0.0
palencia,19.853806,8.0
segovia,42.23641,35.0
valencia,62.138145,91.0
tarragona,26.529377,0.0
cadiz,29.66889,0.0
huelva,24.271238,0.0
caceres,70.82553,5.0
alicante,19.371626,82.0
cordoba,81.34732,0.0
gipuzkoa,25.83704,0.0
cuenca,37.501354,95.0
sevilla,29.049448,0.0
guadalajara,33.418434,26.0
salamanca,63.931633,112.0
toledo,24.779943,59.0
ciudad_real,26.344862,88.0
badajoz,104.85171,2.0
barcelona,31.224081,0.0
avila,26.518494,12.0
lleida,20.776522,0.0
araba/alava,27.764069,0.0
albacete,59.071815,73.0
almeria,29.215672,0.0
zamora,25.468885,6.0
girona,26.060318,0.0
bizkaia,50.613266,0.0
soria,32.83126,75.0
burgos,60.87213,62.0
jaen,31.1985,48.0
valladolid,19.63144,0.0
malaga,45.07223,0.0
leon,24.140087,31.0
castellon,31.345503,23.0
