n,o,l
siracusa,0.19079848,5.0
asti,1.4409827,27.0
oristano,0.64210737,6.0
grosseto,0.0,5.0
sondrio,1.8640556,14.0
ascoli_piceno,0.4540272,2.0
savona,0.4371547,2.0
reggio_emilia,6.8083773,246.0
torino,20.232029,256.0
rovigo,0.5085134,4.0
frosinone,0.8055033,8.0
campobasso,0.44051796,15.0
cosenza,0.8761857,2.0
trapani,0.08181588,2.0
pavia,4.808935,47.0
cuneo,3.2232003,47.0
genova,2.887657,13.0
treviso,6.7994447,32.0
barletta_andria_trani,0.49184436,5.0
udine,0.77910894,40.0
brescia,12.00855,231.0
ravenna,1.8898909,25.0
latina,1.5498941,15.0
gorizia,0.255327,8.0
pordenone,1.7805356,14.0
massa_carrara,1.5423509,50.0
la_aquila,0.40546402,5.0
prato,1.4832034,32.0
rieti,0.0,61.0
aosta,1.8946936,3.0
ragusa,0.016767774,1.0
fermo,0.81185263,4.0
milano,31.902122,611.0
firenze,3.4975052,71.0
arezzo,0.0,11.0
bolzano_bozen,3.806484,47.0
piacenza,4.8009486,81.0
ancona,5.04333,58.0
napoli,2.8807397,108.0
reggio_calabria,0.43265185,6.0
novara,4.480119,57.0
pistoia,1.4433721,1.0
lodi,4.258726,41.0
la_spezia,0.0,0.0
brindisi,0.08168916,27.0
taranto,0.37025827,22.0
potenza,0.35118935,1.0
perugia,2.4419904,9.0
alessandria,8.723725,61.0
enna,0.52622634,21.0
imperia,1.1382331,0.0
vercelli,1.9328707,15.0
foggia,1.7796822,33.0
lecce,6.6209226,46.0
lecco,7.2623215,104.0
padova,2.3248346,8.0
messina,0.9655529,18.0
lucca,2.7180421,42.0
palermo,2.3271286,14.0
livorno,0.08215737,5.0
benevento,1.1341821,15.0
catanzaro,0.34649345,1.0
bari,2.204416,39.0
caltanissetta,0.43445554,6.0
isernia,0.0,0.0
biella,2.9933543,13.0
verona,8.159324,175.0
caserta,0.8815998,17.0
chieti,0.03866742,12.0
varese,1.1382111,44.0
teramo,0.7143035,9.0
macerata,2.656097,13.0
cagliari,0.10717735,5.0
terni,1.26396,6.0
nuoro,0.039202448,2.0
trento,8.925935,124.0
salerno,0.98642915,19.0
pesaro_e_urbino,3.705451,58.0
venezia,4.0021405,61.0
siena,0.8757663,11.0
vibo_valentia,0.0,0.0
matera,0.32047373,10.0
forli_cesena,2.7569568,26.0
parma,6.962342,72.0
trieste,1.615843,30.0
roma,8.11021,74.0
ferrara,1.5279105,6.0
belluno,1.0900363,30.0
sassari,2.6922762,11.0
avellino,0.42265835,32.0
agrigento,0.22586045,2.0
como,3.646252,56.0
cremona,13.469659,72.0
catania,1.420676,12.0
bologna,4.983323,144.0
pisa,1.2934682,20.0
viterbo,1.1628457,12.0
pescara,0.70519376,9.0
rimini,3.5272827,38.0
mantova,5.776015,48.0
vicenza,3.676218,85.0
verbano_cusio_ossola,1.5334771,17.0
modena,9.973421,75.0
crotone,0.42854464,1.0
bergamo,25.544075,236.0
