n,o,l
E10000013,31.763432,13.0
E08000001,20.727106,14.0
E06000032,10.317139,0.0
E08000034,11.209794,13.0
E06000022,1.7874109,1.0
E10000006,29.039433,44.0
E10000025,37.308056,32.0
E08000009,8.401854,12.0
E06000049,23.173052,25.0
E10000024,22.929255,21.0
E09000017,10.691768,3.0
E08000027,16.17124,18.0
E06000021,8.611627,21.0
E10000019,20.621653,11.0
E08000008,8.345207,8.0
E09000026,6.107084,16.0
E06000001,0.77411145,4.0
E06000050,15.290089,19.0
E08000017,8.437215,22.0
E06000055,9.159143,15.0
E06000040,2.968136,2.0
E06000002,11.350298,12.0
E06000004,3.4720404,10.0
E08000030,15.563912,21.0
E08000032,11.321178,26.0
E10000017,69.45091,64.0
E08000004,17.21761,13.0
E08000035,33.814045,21.0
E06000011,14.26926,28.0
E10000032,28.203636,22.0
E06000038,14.941985,5.0
E06000041,9.850148,10.0
E09000015,11.9433155,6.0
E09000006,15.666078,17.0
E08000011,9.275588,10.0
E06000008,5.3368406,8.0
E06000026,4.0695095,2.0
E06000059,1.7790804,3.0
E06000034,0.5567196,7.0
E10000014,63.14622,54.0
E06000016,9.805054,12.0
E06000035,11.371187,8.0
E08000014,16.857523,16.0
E06000056,5.613719,4.0
E10000003,14.163893,27.0
E09000004,10.778704,11.0
E10000018,20.740265,17.0
E08000012,26.503328,21.0
E06000012,0.17250349,0.0
E10000027,13.687817,13.0
E06000014,3.8797178,12.0
E08000036,8.098312,21.0
E09000008,20.968557,19.0
E06000046,0.0,1.0
E06000030,8.644388,3.0
E06000054,7.494318,6.0
E08000005,11.176992,6.0
E06000027,6.132536,1.0
E10000016,106.934044,69.0
E10000030,61.695194,27.0
E08000013,7.168347,8.0
E06000033,0.58431184,5.0
E08000016,13.200271,10.0
E09000016,8.862067,4.0
E06000051,9.647257,8.0
E08000037,15.407299,22.0
E06000052,9.812607,4.0
E09000010,12.0120125,3.0
E10000021,20.424995,12.0
E06000039,6.101943,9.0
E08000024,27.282364,25.0
E09000027,2.2628503,8.0
E09000009,13.704324,7.0
E10000020,44.34093,52.0
E10000023,16.36704,34.0
E10000029,32.03472,25.0
E06000045,8.625088,15.0
E08000018,17.945908,16.0
E10000034,28.491734,14.0
E06000018,7.5533266,6.0
E08000019,46.479496,36.0
E06000017,0.0,0.0
E08000010,22.959013,9.0
E09000003,10.645228,9.0
E10000028,40.95504,31.0
E10000008,15.66723,7.0
E08000025,60.57975,35.0
E10000031,26.186405,17.0
E08000007,18.450462,26.0
E06000013,7.590982,14.0
E06000005,1.8560438,6.0
E08000015,24.74792,8.0
E06000042,7.4779916,13.0
E06000009,13.051818,12.0
E10000007,21.363054,7.0
E09000001,0.0,0.0
E09000022,9.362172,7.0
E06000047,33.58493,46.0
E06000037,7.2865424,5.0
E08000026,10.43911,6.0
E09000002,6.299326,0.0
E09000018,7.5718336,17.0
E06000043,6.9151945,4.0
E06000020,3.3427725,8.0
E06000057,19.158415,19.0
E06000006,4.232248,5.0
E08000003,22.340008,17.0
E10000015,42.88496,33.0
E06000024,2.5350144,9.0
E08000023,15.075463,24.0
E06000036,1.9348127,1.0
E10000011,10.19387,11.0
E06000031,1.7857004,8.0
E08000021,15.552417,34.0
E10000002,17.62693,6.0
E06000044,1.7413434,2.0
E08000031,16.694613,8.0
E09000020,1.2140772,4.0
E06000003,2.8678446,6.0
E08000002,13.021668,11.0
E10000012,44.1524,40.0
E09000005,21.258375,12.0
E06000007,11.705117,16.0
E09000023,1.2738385,7.0
E08000033,11.659907,7.0
E09000021,7.2058206,12.0
E09000029,12.28377,4.0
E08000022,6.566168,15.0
E06000015,1.1844245,1.0
