n,o,l
charente_maritime,0.34167275,0.0
vienne,0.12593293,0.0
aude,0.13266337,0.0
haute_loire,0.20090559,0.0
haute_savoie,2.7734954,0.0
dordogne,0.09050991,0.0
correze,0.07310321,0.0
indre_et_loire,0.23304129,0.0
saone_et_loire,0.63643366,0.0
loire_atlantique,0.07293047,0.0
haute_vienne,0.050755598,0.0
drome,0.2703002,0.0
cote_d'or,0.4371129,0.0
landes,10.168348,3.0
paris,0.03417239,0.0
charente,0.07388648,0.0
meurthe_et_moselle,0.14764425,0.0
essonne,11.934977,0.0
marne,0.14631486,0.0
seine_saint_denis,5.6062837,2.0
moselle,1.1978779,0.0
bas_rhin,1.0003047,0.0
pas_de_calais,3.8029788,0.0
nord,3.6191814,2.0
loiret,0.2580172,0.0
nievre,0.021353561,0.0
alpes_maritimes,0.10357492,0.0
pyrenees_atlantiques,0.5529722,0.0
val_d'oise,2.9241796,2.0
meuse,0.070714265,0.0
mayenne,0.06527816,0.0
val_de_marne,6.867558,1.0
hautes_pyrenees,0.3510825,0.0
lot,0.07311652,0.0
isere,0.120220974,0.0
gironde,0.029134203,0.0
yvelines,6.377645,7.0
yonne,0.087822124,0.0
haute_saone,0.25848132,0.0
somme,4.9056973,1.0
eure_et_loir,0.68058366,0.0
manche,2.4006417,0.0
indre,0.10052128,0.0
haute_marne,0.03703215,0.0
haut_rhin,0.8722874,0.0
maine_et_loire,0.01592651,0.0
jura,0.11819437,0.0
savoie,0.09660603,0.0
ardennes,0.18011788,0.0
haute_garonne,0.9199648,3.0
rhone,1.6298347,0.0
ardeche,0.16964623,0.0
aisne,1.1933756,0.0
vosges,0.09043475,0.0
gers,0.37653077,0.0
oise,4.534295,0.0
hauts_de_seine,4.5902147,1.0
territoire_de_belfort,0.06038619,0.0
lot_et_garonne,0.09050324,0.0
eure,2.344183,2.0
tarn,0.12678905,0.0
cher,0.3245472,0.0
aube,0.72514224,0.0
vaucluse,0.09344353,0.0
pyrenees_orientales,0.021515463,0.0
var,0.27005604,0.0
cantal,0.09475079,0.0
doubs,0.52941227,0.0
seine_et_marne,7.732312,2.0
ain,1.3213637,0.0
calvados,0.037120678,0.0
herault,3.404878,5.0
bouches_du_rhone,9.32427,1.0
puy_de_dome,0.47775826,0.0
tarn_et_garonne,0.1840217,0.0
loire,0.2722482,1.0
gard,1.0663207,0.0
loir_et_cher,0.091208026,0.0
alpes_de_haute_provence,0.14532131,0.0
orne,0.8297789,0.0
seine_maritime,0.6726313,0.0
