n,o,l
charente_maritime,0.0,5.0
vienne,0.0,0.0
aude,0.9119151,14.0
haute_loire,0.0,0.0
haute_savoie,3.208574,34.0
dordogne,0.0,2.0
correze,0.0,0.0
indre_et_loire,0.838803,9.0
saone_et_loire,0.2583811,12.0
loire_atlantique,0.0,5.0
haute_vienne,0.015120871,3.0
drome,0.0,4.0
cote_d'or,0.095674336,6.0
landes,76.12782,182.0
paris,0.0,4.0
charente,0.0,2.0
meurthe_et_moselle,2.0144913,9.0
essonne,46.408722,81.0
marne,3.2395883,14.0
seine_saint_denis,43.144173,119.0
moselle,7.330008,17.0
bas_rhin,4.780552,44.0
pas_de_calais,0.0,14.0
nord,1.126407,13.0
loiret,3.0234027,26.0
nievre,0.0,5.0
alpes_maritimes,0.57594395,33.0
pyrenees_atlantiques,0.1787987,12.0
val_d'oise,29.16058,102.0
meuse,0.0,1.0
mayenne,0.0,0.0
val_de_marne,26.166883,81.0
hautes_pyrenees,0.0,8.0
lot,0.0,1.0
isere,0.32733548,5.0
gironde,4.6557317,28.0
yvelines,15.860685,48.0
yonne,0.0,0.0
haute_saone,1.1126256,6.0
somme,0.9179386,14.0
eure_et_loir,2.3663402,28.0
manche,2.5473075,10.0
indre,0.35784572,10.0
haute_marne,0.0,3.0
haut_rhin,12.927276,58.0
maine_et_loire,0.0,1.0
jura,0.0,2.0
savoie,0.10823605,3.0
ardennes,0.23740438,5.0
haute_garonne,2.0564938,24.0
rhone,0.0,9.0
ardeche,0.23218888,8.0
aisne,0.057778805,27.0
vosges,2.5070035,31.0
gers,0.0,6.0
oise,14.915294,78.0
hauts_de_seine,54.877632,139.0
territoire_de_belfort,0.0,4.0
lot_et_garonne,0.0,2.0
eure,3.4156556,12.0
tarn,0.11927266,2.0
cher,1.6711651,8.0
aube,2.469413,14.0
vaucluse,4.1254554,13.0
pyrenees_orientales,0.03224176,0.0
var,1.9273499,23.0
cantal,0.0,1.0
doubs,2.3021014,3.0
seine_et_marne,19.31506,72.0
ain,0.2380003,9.0
calvados,0.0,11.0
herault,12.537129,58.0
bouches_du_rhone,61.881516,216.0
puy_de_dome,0.76171345,11.0
tarn_et_garonne,0.1760019,2.0
loire,0.0,1.0
gard,0.15717581,12.0
loir_et_cher,0.0,0.0
alpes_de_haute_provence,0.0,4.0
orne,0.0,3.0
seine_maritime,2.2262206,22.0
