n,o,l
charente_maritime,0.19880849,0.0
vienne,0.5407006,0.0
aude,9.221167,4.0
haute_loire,0.6295969,1.0
haute_savoie,22.517082,2.0
dordogne,0.4454615,0.0
correze,0.5260985,0.0
indre_et_loire,0.3663844,1.0
saone_et_loire,2.1770887,0.0
loire_atlantique,0.0,0.0
haute_vienne,1.8140733,2.0
drome,0.0,1.0
cote_d'or,0.19679205,0.0
landes,0.43013293,0.0
paris,112.89844,28.0
charente,0.46937883,0.0
meurthe_et_moselle,104.01265,14.0
essonne,10.476754,1.0
marne,7.507803,0.0
seine_saint_denis,59.789356,24.0
moselle,27.314745,0.0
bas_rhin,2.5060904,0.0
pas_de_calais,11.990389,7.0
nord,12.496092,3.0
loiret,6.158132,0.0
nievre,1.8188683,3.0
alpes_maritimes,0.93325347,0.0
pyrenees_atlantiques,1.402876,1.0
val_d'oise,24.154392,13.0
meuse,3.082022,0.0
mayenne,0.40682626,0.0
val_de_marne,48.264477,9.0
hautes_pyrenees,1.1060975,1.0
lot,0.17799512,0.0
isere,4.8168025,0.0
gironde,3.4030893,0.0
yvelines,34.29858,2.0
yonne,0.22722325,2.0
haute_saone,3.2404706,0.0
somme,6.919122,5.0
eure_et_loir,52.297234,0.0
manche,1.1300285,10.0
indre,1.4101069,0.0
haute_marne,0.8689206,0.0
haut_rhin,15.305213,5.0
maine_et_loire,0.0,0.0
jura,20.177284,0.0
savoie,0.39605254,0.0
ardennes,0.0,2.0
haute_garonne,2.2322047,1.0
rhone,5.7126255,1.0
ardeche,0.0,0.0
aisne,6.1379285,1.0
vosges,5.449867,1.0
gers,1.239225,0.0
oise,38.693367,9.0
hauts_de_seine,63.869625,13.0
territoire_de_belfort,1.3158765,0.0
lot_et_garonne,0.56538045,0.0
eure,18.706936,2.0
tarn,2.3869312,0.0
cher,11.81062,1.0
aube,13.895402,6.0
vaucluse,16.51118,0.0
pyrenees_orientales,0.63511866,0.0
var,6.183892,1.0
cantal,0.67697585,0.0
doubs,3.003285,0.0
seine_et_marne,72.73644,22.0
ain,7.487079,7.0
calvados,0.041259952,1.0
herault,15.129264,3.0
bouches_du_rhone,70.15255,23.0
puy_de_dome,6.347368,7.0
tarn_et_garonne,0.0,0.0
loire,0.5577088,0.0
gard,20.331299,1.0
loir_et_cher,0.8418832,0.0
alpes_de_haute_provence,0.0,0.0
orne,0.42570305,0.0
seine_maritime,10.602271,1.0
