n,o,l
siracusa,0.07758282,1.0
asti,1.7742181,26.0
oristano,0.6441044,9.0
grosseto,0.030265078,37.0
sondrio,0.99882424,1.0
ascoli_piceno,0.5878971,1.0
savona,0.8490453,0.0
reggio_emilia,13.67639,108.0
torino,5.725209,477.0
rovigo,0.4263969,4.0
frosinone,0.0,10.0
campobasso,0.36052614,5.0
cosenza,0.14479627,1.0
trapani,0.3494396,13.0
pavia,5.7600703,168.0
cuneo,3.4943306,82.0
genova,1.5282624,132.0
treviso,3.1798308,30.0
barletta_andria_trani,0.08826843,0.0
udine,2.8790174,73.0
brescia,29.52113,166.0
ravenna,3.229676,32.0
latina,2.4069092,14.0
gorizia,0.35187957,4.0
pordenone,1.1168046,9.0
massa_carrara,0.6110564,15.0
la_aquila,0.13507193,8.0
prato,0.9635727,9.0
rieti,0.42202565,0.0
aosta,2.4673307,29.0
ragusa,0.012277704,1.0
fermo,0.3775129,7.0
milano,35.12655,428.0
firenze,1.9654644,83.0
arezzo,0.0,12.0
bolzano_bozen,3.9188304,33.0
piacenza,6.8885293,31.0
ancona,1.7015641,27.0
napoli,3.5922954,70.0
reggio_calabria,0.5189137,4.0
novara,1.5833445,37.0
pistoia,0.5537091,13.0
lodi,4.456988,24.0
la_spezia,0.32195255,18.0
brindisi,0.26806462,16.0
taranto,0.26234794,2.0
potenza,0.7052791,2.0
perugia,3.3886018,21.0
alessandria,4.444071,100.0
enna,0.43538144,23.0
imperia,0.57802284,0.0
vercelli,0.99249256,18.0
foggia,1.6033413,19.0
lecce,8.00619,34.0
lecco,5.633752,79.0
padova,1.1121446,7.0
messina,1.2230632,3.0
lucca,1.3405914,12.0
palermo,0.13467446,6.0
livorno,0.090433516,1.0
benevento,0.9898909,9.0
catanzaro,0.048702076,0.0
bari,1.8077016,21.0
caltanissetta,0.44305772,10.0
isernia,0.05251277,25.0
biella,0.117660895,15.0
verona,5.541228,59.0
caserta,0.5860891,17.0
chieti,1.393973,7.0
varese,1.7684157,63.0
teramo,1.3033235,19.0
macerata,1.2537717,37.0
cagliari,0.2567809,10.0
terni,0.7517271,6.0
nuoro,0.05527712,0.0
trento,6.881424,26.0
salerno,1.429752,111.0
pesaro_e_urbino,4.4719033,34.0
venezia,5.6700125,41.0
siena,1.1074048,2.0
vibo_valentia,0.014288764,3.0
matera,0.0,1.0
forli_cesena,1.570106,58.0
parma,5.7552476,118.0
trieste,2.1651847,22.0
roma,6.38157,117.0
ferrara,1.4319869,106.0
belluno,1.7334754,23.0
sassari,3.0782526,38.0
avellino,1.4145942,11.0
agrigento,0.28571963,2.0
como,9.458501,63.0
cremona,4.2951493,57.0
catania,1.4955338,10.0
bologna,7.6405663,90.0
pisa,2.0364928,8.0
viterbo,0.71245307,14.0
pescara,2.740938,31.0
rimini,4.006753,12.0
mantova,6.4786577,97.0
vicenza,3.7463133,94.0
verbano_cusio_ossola,1.4745694,30.0
modena,9.020389,53.0
crotone,0.22840972,0.0
bergamo,31.086565,273.0
