n,o,l
E10000013,21.441383,63.0
E08000001,7.1294966,29.0
E06000032,14.612063,22.0
E08000034,11.807892,12.0
E06000022,4.735477,16.0
E10000006,29.164549,70.0
E10000025,55.458904,34.0
E08000009,14.266285,23.0
E06000049,13.018642,29.0
E10000024,28.935062,18.0
E09000017,22.790745,27.0
E08000027,26.57038,20.0
E06000021,5.9182496,24.0
E10000019,18.53256,29.0
E08000008,9.645296,10.0
E09000026,23.515076,10.0
E06000001,1.4528598,4.0
E06000050,11.430194,25.0
E08000017,10.010231,4.0
E06000055,14.251417,17.0
E06000040,6.5295196,2.0
E06000002,6.550084,17.0
E06000004,5.966974,6.0
E08000030,25.222631,21.0
E08000032,14.828372,18.0
E10000017,53.291603,73.0
E08000004,16.023361,48.0
E08000035,23.646439,47.0
E06000011,4.337083,22.0
E10000032,25.365513,26.0
E06000038,5.1816053,14.0
E06000041,6.939132,16.0
E09000015,37.918076,27.0
E09000006,42.24114,23.0
E08000011,8.100717,12.0
E06000008,3.8562953,12.0
E06000026,1.579426,13.0
E06000059,8.973365,12.0
E06000034,12.010348,4.0
E10000014,64.30179,83.0
E06000016,12.837456,20.0
E06000035,14.956011,23.0
E08000014,16.187258,14.0
E06000056,13.729509,18.0
E10000003,20.879814,24.0
E09000004,21.76082,14.0
E10000018,26.696703,27.0
E08000012,33.461754,34.0
E06000012,3.1590858,4.0
E10000027,8.2453375,16.0
E06000014,1.8689661,6.0
E08000036,51.7562,14.0
E09000008,12.42817,25.0
E06000046,1.1343188,5.0
E06000030,3.9729722,14.0
E06000054,14.335658,5.0
E08000005,14.028799,18.0
E06000027,4.371915,5.0
E10000016,61.8264,125.0
E10000030,67.83115,82.0
E08000013,13.520855,12.0
E06000033,8.89032,10.0
E08000016,19.833086,25.0
E09000016,18.29185,26.0
E06000051,12.288179,6.0
E08000037,0.45166966,33.0
E06000052,12.275957,12.0
E09000010,28.068104,24.0
E10000021,28.227316,27.0
E06000039,13.475012,37.0
E08000024,13.497471,14.0
E09000027,21.193783,8.0
E09000009,42.053986,45.0
E10000020,22.212324,48.0
E10000023,18.069494,24.0
E10000029,20.088036,33.0
E06000045,13.422907,9.0
E08000018,16.491753,22.0
E10000034,26.183626,31.0
E06000018,14.639711,13.0
E08000019,69.31469,57.0
E06000017,0.5673985,1.0
E08000010,12.664478,24.0
E09000003,56.75386,21.0
E10000028,41.576515,60.0
E10000008,14.050616,28.0
E08000025,86.099686,64.0
E10000031,28.540415,30.0
E08000007,13.998984,32.0
E06000013,1.7961019,3.0
E06000005,1.980794,4.0
E08000015,14.194033,30.0
E06000042,18.349642,17.0
E06000009,1.8246256,17.0
E10000007,38.481655,26.0
E09000001,2.4208834,0.0
E09000022,47.224907,16.0
E06000047,15.368637,56.0
E06000037,8.778898,13.0
E08000026,20.381718,15.0
E09000002,16.32636,10.0
E09000018,25.351757,16.0
E06000043,11.30258,11.0
E06000020,7.2287884,7.0
E06000057,11.660949,24.0
E06000006,2.077643,12.0
E08000003,18.43642,37.0
E10000015,64.208755,76.0
E06000024,3.2574446,4.0
E08000023,4.4656477,18.0
E06000036,3.6581707,4.0
E10000011,14.24542,18.0
E06000031,5.890418,4.0
E08000021,24.410517,29.0
E10000002,20.70999,26.0
E06000044,10.716805,9.0
E08000031,22.026468,25.0
E09000020,19.806473,10.0
E06000003,7.8128657,9.0
E08000002,11.75413,20.0
E10000012,73.78724,57.0
E09000005,55.927902,39.0
E06000007,7.800747,28.0
E09000023,4.7786536,12.0
E08000033,35.075714,8.0
E09000021,16.697565,10.0
E09000029,24.751066,14.0
E08000022,8.882734,8.0
E06000015,20.063978,12.0
