n,o,l
siracusa,0.1316599,11.0
asti,2.0509548,23.0
oristano,3.0838785,13.0
grosseto,0.21550041,42.0
sondrio,0.28416076,2.0
ascoli_piceno,0.5087651,12.0
savona,0.0,37.0
reggio_emilia,12.51493,135.0
torino,32.948223,379.0
rovigo,0.3221366,3.0
frosinone,0.9296146,6.0
campobasso,0.41115674,2.0
cosenza,0.0,2.0
trapani,0.56065285,5.0
pavia,10.413754,86.0
cuneo,6.1115046,32.0
genova,4.7807727,14.0
treviso,3.6859605,29.0
barletta_andria_trani,0.419085,17.0
udine,2.0015604,20.0
brescia,5.4463315,230.0
ravenna,11.846239,13.0
latina,0.41404572,3.0
gorizia,0.396876,0.0
pordenone,1.3908974,9.0
massa_carrara,2.4326284,16.0
la_aquila,0.42229056,5.0
prato,0.38499627,13.0
rieti,1.1323454,3.0
aosta,1.8858374,23.0
ragusa,0.12437167,3.0
fermo,0.9476309,11.0
milano,39.60033,520.0
firenze,11.2963295,85.0
arezzo,1.3438041,14.0
bolzano_bozen,2.5084472,2.0
piacenza,4.530023,14.0
ancona,2.758929,46.0
napoli,7.5626154,37.0
reggio_calabria,0.0,4.0
novara,4.078218,282.0
pistoia,0.71927,22.0
lodi,2.4947085,53.0
la_spezia,0.0,0.0
brindisi,1.501119,18.0
taranto,0.70726603,10.0
potenza,0.0,0.0
perugia,1.1894908,2.0
alessandria,1.5718111,72.0
enna,6.486225,5.0
imperia,0.0,0.0
vercelli,1.5557721,81.0
foggia,1.879139,3.0
lecce,1.1791797,22.0
lecco,8.178304,44.0
padova,0.15816829,10.0
messina,2.3891258,15.0
lucca,1.3261436,18.0
palermo,0.48706186,12.0
livorno,0.14334223,3.0
benevento,0.51444685,21.0
catanzaro,0.2105068,5.0
bari,2.0128944,27.0
caltanissetta,0.37668985,6.0
isernia,0.5783409,0.0
biella,1.3732291,9.0
verona,8.942021,145.0
caserta,1.0954086,25.0
chieti,0.048404634,49.0
varese,1.3182389,44.0
teramo,4.5205135,21.0
macerata,2.4775152,25.0
cagliari,0.7169927,6.0
terni,0.4335481,4.0
nuoro,0.012137812,0.0
trento,1.837243,20.0
salerno,10.374856,154.0
pesaro_e_urbino,2.4496815,28.0
venezia,4.61928,103.0
siena,0.66377693,6.0
vibo_valentia,0.0,3.0
matera,0.28161606,4.0
forli_cesena,3.4145956,64.0
parma,7.695377,39.0
trieste,2.3880575,15.0
roma,9.711062,105.0
ferrara,4.0837574,14.0
belluno,1.8549364,4.0
sassari,2.7158892,18.0
avellino,1.7506968,2.0
agrigento,0.0,4.0
como,3.177599,96.0
cremona,3.6118317,139.0
catania,2.50042,6.0
bologna,8.916466,121.0
pisa,1.3596386,23.0
viterbo,0.8028268,9.0
pescara,1.1621886,31.0
rimini,0.9002199,26.0
mantova,5.451226,56.0
vicenza,8.499977,56.0
verbano_cusio_ossola,1.7601031,69.0
modena,6.1902313,81.0
crotone,0.0,0.0
bergamo,19.413246,107.0
