n,o,l
siracusa,0.31739688,3.0
asti,8.067257,27.0
oristano,0.1813607,1.0
grosseto,0.2368014,0.0
sondrio,3.0119488,2.0
ascoli_piceno,0.0,2.0
savona,4.1746163,2.0
reggio_emilia,7.553761,20.0
torino,43.014122,275.0
rovigo,2.4363132,2.0
frosinone,0.7787925,9.0
campobasso,0.09542735,0.0
cosenza,1.2626736,0.0
trapani,0.0,0.0
pavia,10.852456,52.0
cuneo,6.8004494,42.0
genova,13.294065,78.0
treviso,3.1948762,4.0
barletta_andria_trani,0.031820193,0.0
udine,0.34509695,2.0
brescia,18.479784,115.0
ravenna,1.0104116,3.0
latina,0.47948933,4.0
gorizia,0.8469517,1.0
pordenone,0.56903046,3.0
massa_carrara,0.99776787,6.0
la_aquila,0.013359405,0.0
prato,0.49894327,2.0
rieti,0.036262166,10.0
aosta,1.7788993,5.0
ragusa,0.0,0.0
fermo,0.41177332,4.0
milano,54.42446,284.0
firenze,6.9824533,40.0
arezzo,1.3348379,1.0
bolzano_bozen,3.670686,9.0
piacenza,8.512639,75.0
ancona,2.01105,5.0
napoli,6.3703456,11.0
reggio_calabria,0.0,0.0
novara,4.632571,21.0
pistoia,0.94165564,3.0
lodi,3.5881681,12.0
la_spezia,1.8481019,2.0
brindisi,1.933288,1.0
taranto,0.0,0.0
potenza,0.0,0.0
perugia,0.0,2.0
alessandria,7.5598617,28.0
enna,0.36116993,6.0
imperia,2.169402,34.0
vercelli,2.8744063,4.0
foggia,3.7605708,28.0
lecce,2.9685032,17.0
lecco,3.838666,0.0
padova,1.1114625,0.0
messina,0.26180774,4.0
lucca,1.3788186,4.0
palermo,0.29630727,10.0
livorno,0.0,5.0
benevento,0.20033726,2.0
catanzaro,0.0,1.0
bari,6.0044312,16.0
caltanissetta,0.0,1.0
isernia,0.0,0.0
biella,3.129008,2.0
verona,9.884863,71.0
caserta,0.040951274,3.0
chieti,3.286759,6.0
varese,7.340681,51.0
teramo,0.059519134,2.0
macerata,1.1509259,4.0
cagliari,0.33641523,2.0
terni,0.14605667,8.0
nuoro,0.0,0.0
trento,9.721569,44.0
salerno,1.0058347,3.0
pesaro_e_urbino,2.0239942,17.0
venezia,4.428999,7.0
siena,0.2758565,0.0
vibo_valentia,0.0,2.0
matera,0.006598234,0.0
forli_cesena,2.2428732,7.0
parma,6.503556,22.0
trieste,1.4086759,8.0
roma,9.474693,52.0
ferrara,2.8547914,9.0
belluno,5.157355,23.0
sassari,0.38052118,3.0
avellino,0.0,3.0
agrigento,0.0,0.0
como,15.263472,53.0
cremona,10.204609,30.0
catania,4.3397255,0.0
bologna,9.424757,89.0
pisa,1.4206163,2.0
viterbo,0.3475821,2.0
pescara,5.4553733,11.0
rimini,3.5023928,17.0
mantova,5.631519,25.0
vicenza,4.325089,20.0
verbano_cusio_ossola,1.0336751,6.0
modena,4.617188,21.0
crotone,0.0,1.0
bergamo,11.088692,95.0
