n,o,l
granada,61.918343,98.0
palencia,24.549202,25.0
segovia,59.20418,85.0
valencia,152.4715,116.0
tarragona,16.007849,5.0
cadiz,46.788094,50.0
huelva,29.270422,69.0
caceres,130.03345,114.0
alicante,38.92606,76.0
cordoba,54.033012,0.0
gipuzkoa,0.21494499,82.0
cuenca,83.53667,67.0
sevilla,0.21520773,0.0
guadalajara,78.17199,90.0
salamanca,0.21482086,0.0
toledo,0.21482083,0.0
ciudad_real,26.519943,17.0
badajoz,1035.5052,900.0
barcelona,24.755518,48.0
avila,50.675434,28.0
lleida,77.32762,100.0
araba/alava,0.2151159,27.0
albacete,16.639914,0.0
almeria,10.546359,27.0
zamora,102.91227,158.0
girona,333.3077,265.0
bizkaia,39.075485,17.0
soria,45.89561,79.0
burgos,34.29913,24.0
jaen,45.803223,40.0
valladolid,59.29466,62.0
malaga,90.163345,63.0
leon,40.427338,42.0
castellon,30.51441,47.0
