n,o,l
siracusa,0.55813193,0.0
asti,7.730229,24.0
oristano,0.14170201,5.0
grosseto,0.0,0.0
sondrio,3.6637635,44.0
ascoli_piceno,0.0,1.0
savona,4.3975916,2.0
reggio_emilia,9.663649,45.0
torino,47.758915,217.0
rovigo,2.5832944,3.0
frosinone,0.95315903,2.0
campobasso,0.34346473,0.0
cosenza,1.8368794,4.0
trapani,0.0,0.0
pavia,8.708768,76.0
cuneo,9.118,27.0
genova,9.356629,94.0
treviso,6.20181,9.0
barletta_andria_trani,0.0581195,2.0
udine,0.4826452,2.0
brescia,20.72361,130.0
ravenna,0.44601566,15.0
latina,0.6089113,3.0
gorizia,0.0,15.0
pordenone,0.38018054,8.0
massa_carrara,1.3329272,2.0
la_aquila,0.010883406,3.0
prato,0.7193977,7.0
rieti,0.0,9.0
aosta,4.0931535,1.0
ragusa,0.0,2.0
fermo,0.116238624,3.0
milano,46.277,277.0
firenze,7.200361,35.0
arezzo,1.015545,10.0
bolzano_bozen,4.1536674,19.0
piacenza,6.7341156,53.0
ancona,2.3710206,4.0
napoli,4.5227103,53.0
reggio_calabria,0.0,0.0
novara,6.651755,20.0
pistoia,0.5960745,9.0
lodi,2.8352127,46.0
la_spezia,1.7680138,10.0
brindisi,1.8529377,15.0
taranto,0.041580115,2.0
potenza,0.0,0.0
perugia,0.17845678,0.0
alessandria,10.232195,26.0
enna,0.64937,8.0
imperia,1.7166749,13.0
vercelli,2.0637503,43.0
foggia,3.2605221,23.0
lecce,3.0846012,23.0
lecco,5.240846,18.0
padova,1.47128,4.0
messina,0.5937854,5.0
lucca,2.2785916,4.0
palermo,0.3831098,6.0
livorno,0.18397683,1.0
benevento,0.98060256,1.0
catanzaro,0.0,4.0
bari,3.3731806,59.0
caltanissetta,0.0,4.0
isernia,0.0,0.0
biella,2.8349319,27.0
verona,10.759682,58.0
caserta,0.0,0.0
chieti,1.8909103,29.0
varese,8.506344,38.0
teramo,0.029530294,0.0
macerata,1.4555411,10.0
cagliari,0.36126822,0.0
terni,0.20165965,3.0
nuoro,0.09702166,0.0
trento,8.171102,81.0
salerno,0.8301195,0.0
pesaro_e_urbino,2.1174955,8.0
venezia,3.5389664,29.0
siena,0.55010355,2.0
vibo_valentia,0.0,0.0
matera,0.087403566,2.0
forli_cesena,2.2138145,17.0
parma,4.5144525,26.0
trieste,2.580614,16.0
roma,11.390283,56.0
ferrara,2.685315,24.0
belluno,5.5841475,8.0
sassari,0.70140564,6.0
avellino,0.15393567,0.0
agrigento,0.0,0.0
como,10.015511,101.0
cremona,11.422973,83.0
catania,3.5568337,19.0
bologna,9.047336,54.0
pisa,0.850935,5.0
viterbo,0.33038247,9.0
pescara,4.6719756,21.0
rimini,1.3501182,37.0
mantova,7.4634504,45.0
vicenza,5.8535714,21.0
verbano_cusio_ossola,0.8928659,11.0
modena,5.4891977,18.0
crotone,0.0,0.0
bergamo,7.187223,98.0
