n,o,l
E10000013,31.23413,34.0
E08000001,23.324112,27.0
E06000032,11.265216,11.0
E08000034,10.9547615,12.0
E06000022,1.9686189,4.0
E10000006,37.857338,43.0
E10000025,33.09759,24.0
E08000009,9.396676,23.0
E06000049,22.620058,21.0
E10000024,27.155306,14.0
E09000017,14.326053,12.0
E08000027,11.015994,16.0
E06000021,8.843163,20.0
E10000019,20.303478,17.0
E08000008,9.9213705,11.0
E09000026,7.9501686,10.0
E06000001,1.3903255,8.0
E06000050,16.30253,40.0
E08000017,8.905021,8.0
E06000055,10.258491,20.0
E06000040,3.9665492,0.0
E06000002,10.444247,18.0
E06000004,4.851437,11.0
E08000030,16.284847,37.0
E08000032,17.800129,25.0
E10000017,74.236435,78.0
E08000004,17.329956,20.0
E08000035,35.391987,72.0
E06000011,13.428538,23.0
E10000032,29.256367,28.0
E06000038,19.465591,21.0
E06000041,10.822612,15.0
E09000015,11.7633915,23.0
E09000006,17.111925,10.0
E08000011,12.745601,11.0
E06000008,6.41938,8.0
E06000026,4.4897337,16.0
E06000059,1.8705088,5.0
E06000034,1.7446514,9.0
E10000014,68.554985,65.0
E06000016,9.217078,16.0
E06000035,10.892136,17.0
E08000014,21.662264,18.0
E06000056,9.467094,20.0
E10000003,14.080881,24.0
E09000004,9.249297,6.0
E10000018,20.20451,30.0
E08000012,30.434252,28.0
E06000012,0.09524764,2.0
E10000027,15.814508,19.0
E06000014,4.1980352,10.0
E08000036,10.062622,15.0
E09000008,24.315653,10.0
E06000046,0.35182402,6.0
E06000030,9.051364,8.0
E06000054,7.9852858,13.0
E08000005,13.153497,17.0
E06000027,0.77208775,6.0
E10000016,121.03056,125.0
E10000030,72.5711,72.0
E08000013,12.399714,30.0
E06000033,1.7337883,5.0
E08000016,14.343944,14.0
E09000016,10.654135,7.0
E06000051,10.071223,28.0
E08000037,15.657705,31.0
E06000052,10.624362,11.0
E09000010,16.020447,15.0
E10000021,19.591986,10.0
E06000039,29.097525,5.0
E08000024,8.197233,21.0
E09000027,2.6904557,2.0
E09000009,19.512224,14.0
E10000020,45.34283,43.0
E10000023,19.674412,28.0
E10000029,24.284359,21.0
E06000045,8.487877,16.0
E08000018,18.366003,19.0
E10000034,31.533102,22.0
E06000018,8.646663,19.0
E08000019,46.1871,40.0
E06000017,0.3040426,0.0
E08000010,24.529291,24.0
E09000003,13.011353,23.0
E10000028,39.669685,55.0
E10000008,19.947105,15.0
E08000025,60.13413,64.0
E10000031,21.939287,24.0
E08000007,18.56805,13.0
E06000013,8.7047825,14.0
E06000005,4.090355,10.0
E08000015,28.670027,24.0
E06000042,8.692081,9.0
E06000009,9.700935,22.0
E10000007,23.868494,38.0
E09000001,0.28775817,1.0
E09000022,13.013525,8.0
E06000047,35.018093,45.0
E06000037,6.611913,12.0
E08000026,13.346839,23.0
E09000002,7.0456285,11.0
E09000018,7.922912,11.0
E06000043,7.2696085,7.0
E06000020,1.573455,6.0
E06000057,22.888485,23.0
E06000006,4.825634,5.0
E08000003,27.485502,27.0
E10000015,47.480923,53.0
E06000024,2.580726,6.0
E08000023,15.520384,18.0
E06000036,3.8356757,3.0
E10000011,9.882543,20.0
E06000031,2.5922532,16.0
E08000021,15.315147,17.0
E10000002,16.763172,17.0
E06000044,4.494925,6.0
E08000031,15.211947,20.0
E09000020,2.1189616,6.0
E06000003,3.7002835,18.0
E08000002,15.649215,7.0
E10000012,50.85876,76.0
E09000005,21.523596,16.0
E06000007,12.338709,24.0
E09000023,3.217062,6.0
E08000033,14.739952,27.0
E09000021,8.055041,9.0
E09000029,19.55914,9.0
E08000022,6.9920826,6.0
E06000015,3.387237,3.0
