n,o,l
siracusa,0.08838795,0.0
asti,0.034570597,1.0
oristano,0.05539151,0.0
grosseto,0.067281015,0.0
sondrio,0.06535478,0.0
ascoli_piceno,0.051985234,1.0
savona,0.053102054,10.0
reggio_emilia,0.6931598,15.0
torino,0.0,118.0
rovigo,0.06383077,2.0
frosinone,0.02704359,10.0
campobasso,0.08336959,1.0
cosenza,0.06840845,2.0
trapani,0.051182956,0.0
pavia,1.7267089,14.0
cuneo,0.0862864,16.0
genova,0.49250323,36.0
treviso,0.28817052,48.0
barletta_andria_trani,0.048621178,4.0
udine,0.015242368,31.0
brescia,8.138848,186.0
ravenna,0.29939422,14.0
latina,0.015161157,4.0
gorizia,0.0,8.0
pordenone,0.04617299,18.0
massa_carrara,0.35130638,25.0
la_aquila,0.08134508,1.0
prato,0.0883378,1.0
rieti,0.052378517,0.0
aosta,0.2936359,1.0
ragusa,0.0838649,0.0
fermo,0.02280407,5.0
milano,3.8038943,161.0
firenze,0.15802984,15.0
arezzo,0.16299015,2.0
bolzano_bozen,0.14109053,21.0
piacenza,1.5716535,31.0
ancona,0.4311654,16.0
napoli,0.0,31.0
reggio_calabria,0.08178782,2.0
novara,0.0,16.0
pistoia,0.10735201,5.0
lodi,1.0192455,10.0
la_spezia,0.13438237,11.0
brindisi,0.07338069,4.0
taranto,0.0516908,2.0
potenza,0.07929081,2.0
perugia,0.12831154,10.0
alessandria,0.0,4.0
enna,0.08389592,0.0
imperia,0.12033374,9.0
vercelli,0.009508681,4.0
foggia,0.14065316,1.0
lecce,0.7484661,38.0
lecco,0.39022923,84.0
padova,0.03455987,0.0
messina,0.0,1.0
lucca,0.2537669,30.0
palermo,0.12493156,0.0
livorno,0.0,0.0
benevento,0.0,11.0
catanzaro,0.087937444,0.0
bari,0.07327317,13.0
caltanissetta,0.051701702,0.0
isernia,0.05430489,0.0
biella,0.0,9.0
verona,0.41175002,60.0
caserta,0.0,4.0
chieti,0.14957538,3.0
varese,0.44014615,27.0
teramo,0.05101892,1.0
macerata,0.000930652,16.0
cagliari,0.018906042,0.0
terni,0.2013317,4.0
nuoro,0.08835972,0.0
trento,0.28443265,56.0
salerno,0.0,2.0
pesaro_e_urbino,1.4634713,93.0
venezia,0.25565118,43.0
siena,0.07858431,0.0
vibo_valentia,0.06615255,0.0
matera,0.070421055,0.0
forli_cesena,0.0,16.0
parma,0.43106192,88.0
trieste,0.0,74.0
roma,0.68852454,56.0
ferrara,0.04912565,7.0
belluno,0.019587226,11.0
sassari,0.055562742,0.0
avellino,0.0,2.0
agrigento,0.04565759,0.0
como,0.5738621,20.0
cremona,5.8518248,42.0
catania,0.3177737,0.0
bologna,0.7320595,33.0
pisa,0.15766647,17.0
viterbo,0.08925,0.0
pescara,0.054510295,0.0
rimini,1.2724789,51.0
mantova,0.79094386,18.0
vicenza,0.29645598,19.0
verbano_cusio_ossola,0.061041195,11.0
modena,0.42275023,61.0
crotone,0.050692543,1.0
bergamo,6.5884175,232.0
