n,o,l
charente_maritime,0.0,0.0
vienne,0.0,0.0
aude,0.0,0.0
haute_loire,0.0,0.0
haute_savoie,3.655461,0.0
dordogne,0.0,0.0
correze,0.0,0.0
indre_et_loire,0.0,0.0
saone_et_loire,0.7199562,0.0
loire_atlantique,0.0,0.0
haute_vienne,0.0,0.0
drome,0.0,0.0
cote_d'or,0.0,0.0
landes,16.31371,0.0
paris,0.0,0.0
charente,0.0,0.0
meurthe_et_moselle,23.560846,0.0
essonne,0.017812803,0.0
marne,0.012441151,0.0
seine_saint_denis,17.951052,0.0
moselle,3.4986296,0.0
bas_rhin,0.49887127,0.0
pas_de_calais,4.2855577,0.0
nord,3.671552,0.0
loiret,0.014129274,0.0
nievre,0.0,0.0
alpes_maritimes,0.0,0.0
pyrenees_atlantiques,1.5757934,0.0
val_d'oise,6.2099695,0.0
meuse,0.0,0.0
mayenne,0.0,0.0
val_de_marne,13.626517,1.0
hautes_pyrenees,0.0,0.0
lot,0.0,0.0
isere,0.0,0.0
gironde,0.0,0.0
yvelines,9.86759,0.0
yonne,0.0,0.0
haute_saone,0.0,0.0
somme,3.0236363,0.0
eure_et_loir,0.7922299,0.0
manche,6.111817,0.0
indre,0.0,0.0
haute_marne,0.0,0.0
haut_rhin,0.65296865,0.0
maine_et_loire,0.0,0.0
jura,0.58903795,0.0
savoie,0.0,0.0
ardennes,0.0,0.0
haute_garonne,1.1347136,0.0
rhone,2.1786573,0.0
ardeche,0.0,0.0
aisne,2.7048638,0.0
vosges,0.0,0.0
gers,0.012831442,0.0
oise,6.0869064,0.0
hauts_de_seine,7.4952755,0.0
territoire_de_belfort,0.0,0.0
lot_et_garonne,0.0,0.0
eure,3.2015636,0.0
tarn,0.0,0.0
cher,0.5825123,0.0
aube,0.8678428,0.0
vaucluse,0.0,0.0
pyrenees_orientales,0.0,0.0
var,0.0,0.0
cantal,0.25612587,1.0
doubs,0.14594984,0.0
seine_et_marne,16.09908,0.0
ain,2.3488941,0.0
calvados,0.0,0.0
herault,7.0765004,0.0
bouches_du_rhone,15.042987,0.0
puy_de_dome,0.051990338,0.0
tarn_et_garonne,0.0,0.0
loire,0.0,0.0
gard,1.1341343,0.0
loir_et_cher,0.0,0.0
alpes_de_haute_provence,0.0,0.0
orne,0.5855453,0.0
seine_maritime,0.9134764,0.0
