n,o,l
E10000013,44.993866,36.0
E08000001,31.4615,20.0
E06000032,22.124434,12.0
E08000034,12.303593,10.0
E06000022,9.123822,6.0
E10000006,48.597057,35.0
E10000025,43.126957,44.0
E08000009,19.462275,9.0
E06000049,28.13147,34.0
E10000024,25.802917,34.0
E09000017,18.484915,6.0
E08000027,16.41839,18.0
E06000021,15.042892,22.0
E10000019,24.030619,19.0
E08000008,16.01122,5.0
E09000026,15.694465,6.0
E06000001,5.406481,19.0
E06000050,24.29159,26.0
E08000017,6.621843,20.0
E06000055,14.35636,29.0
E06000040,5.4800916,5.0
E06000002,13.130143,10.0
E06000004,8.427958,10.0
E08000030,15.317292,17.0
E08000032,22.350788,24.0
E10000017,80.23248,76.0
E08000004,32.90891,18.0
E08000035,40.63258,46.0
E06000011,16.009481,21.0
E10000032,29.697834,30.0
E06000038,16.656277,9.0
E06000041,10.327819,4.0
E09000015,20.66864,11.0
E09000006,21.951721,27.0
E08000011,15.882381,20.0
E06000008,11.984505,11.0
E06000026,5.5331736,7.0
E06000059,9.173013,16.0
E06000034,6.232117,4.0
E10000014,73.6172,63.0
E06000016,21.738123,16.0
E06000035,18.334345,14.0
E08000014,22.614754,5.0
E06000056,17.442966,13.0
E10000003,19.102028,25.0
E09000004,9.146199,4.0
E10000018,21.964197,14.0
E08000012,40.832924,21.0
E06000012,4.994071,9.0
E10000027,15.127616,11.0
E06000014,5.6295924,10.0
E08000036,15.791106,22.0
E09000008,29.237532,7.0
E06000046,4.6512384,10.0
E06000030,13.461215,10.0
E06000054,11.7970915,13.0
E08000005,18.367134,11.0
E06000027,3.5246308,5.0
E10000016,103.691505,84.0
E10000030,66.51866,51.0
E08000013,12.661972,25.0
E06000033,6.7812753,4.0
E08000016,21.711391,17.0
E09000016,22.114025,8.0
E06000051,12.009873,19.0
E08000037,28.823849,43.0
E06000052,16.599445,13.0
E09000010,25.057041,13.0
E10000021,28.615503,12.0
E06000039,40.185146,5.0
E08000024,10.556848,20.0
E09000027,7.378487,1.0
E09000009,30.40834,10.0
E10000020,47.168934,57.0
E10000023,26.283472,28.0
E10000029,9.44496,41.0
E06000045,29.961681,14.0
E08000018,20.549355,20.0
E10000034,30.687805,19.0
E06000018,12.997341,13.0
E08000019,47.73776,19.0
E06000017,4.4251595,1.0
E08000010,28.225044,32.0
E09000003,22.531496,11.0
E10000028,45.567493,55.0
E10000008,22.302942,26.0
E08000025,54.359665,53.0
E10000031,29.694912,20.0
E08000007,26.607088,19.0
E06000013,11.124737,23.0
E06000005,12.048797,8.0
E08000015,33.19516,22.0
E06000042,11.873584,6.0
E06000009,13.533297,21.0
E10000007,25.482893,25.0
E09000001,4.355524,0.0
E09000022,25.351526,18.0
E06000047,48.50485,50.0
E06000037,7.6088133,9.0
E08000026,16.70853,20.0
E09000002,10.882327,3.0
E09000018,13.700572,6.0
E06000043,10.386858,5.0
E06000020,2.4878109,12.0
E06000057,33.597054,9.0
E06000006,10.99881,5.0
E08000003,43.68955,20.0
E10000015,65.96609,34.0
E06000024,4.390202,8.0
E08000023,14.448156,16.0
E06000036,6.1319795,6.0
E10000011,14.1313925,8.0
E06000031,4.490968,9.0
E08000021,24.068663,10.0
E10000002,17.506775,11.0
E06000044,9.836246,2.0
E08000031,18.316578,16.0
E09000020,5.581138,5.0
E06000003,8.997594,9.0
E08000002,21.181122,19.0
E10000012,60.457657,63.0
E09000005,31.374285,15.0
E06000007,20.076124,23.0
E09000023,8.059365,5.0
E08000033,14.319044,4.0
E09000021,9.779883,5.0
E09000029,13.85496,11.0
E08000022,11.6176605,9.0
E06000015,10.169426,8.0
