n,o,l
granada,90.598366,60.0
palencia,45.506073,15.0
segovia,73.83844,85.0
valencia,169.50233,88.0
tarragona,22.611338,3.0
cadiz,55.177353,19.0
huelva,122.00825,55.0
caceres,278.24783,140.0
alicante,72.314476,96.0
cordoba,110.21066,10.0
gipuzkoa,0.0,16.0
cuenca,124.15961,32.0
sevilla,0.0,21.0
guadalajara,137.02151,78.0
salamanca,0.0,36.0
toledo,0.0,129.0
ciudad_real,52.64565,23.0
badajoz,1519.4564,647.0
barcelona,49.018215,20.0
avila,76.151695,27.0
lleida,174.83783,15.0
araba/alava,0.0,4.0
albacete,26.198076,46.0
almeria,26.43203,6.0
zamora,61.14996,0.0
girona,306.03348,135.0
bizkaia,77.95717,63.0
soria,107.84857,37.0
burgos,69.549385,37.0
jaen,70.80331,33.0
valladolid,107.37941,234.0
malaga,126.565895,14.0
leon,82.467094,0.0
castellon,71.6906,35.0
