n,o,l
E10000013,43.541355,27.0
E08000001,32.51765,31.0
E06000032,23.843388,24.0
E08000034,16.394598,24.0
E06000022,6.4760823,9.0
E10000006,48.350647,52.0
E10000025,53.340523,52.0
E08000009,19.945503,24.0
E06000049,29.000486,28.0
E10000024,32.109234,45.0
E09000017,17.87208,17.0
E08000027,19.872856,10.0
E06000021,14.2035265,14.0
E10000019,24.88136,31.0
E08000008,17.727324,15.0
E09000026,24.594854,14.0
E06000001,6.4751825,8.0
E06000050,25.174608,22.0
E08000017,0.0,4.0
E06000055,15.677296,20.0
E06000040,0.32730222,10.0
E06000002,15.584204,20.0
E06000004,12.086738,15.0
E08000030,20.663216,22.0
E08000032,26.014486,17.0
E10000017,85.78269,90.0
E08000004,32.666832,18.0
E08000035,41.440624,36.0
E06000011,16.371477,26.0
E10000032,34.52944,34.0
E06000038,17.37285,36.0
E06000041,10.214537,15.0
E09000015,21.960953,15.0
E09000006,26.568018,20.0
E08000011,5.366054,8.0
E06000008,12.708977,16.0
E06000026,5.7725105,16.0
E06000059,10.816075,8.0
E06000034,9.352246,4.0
E10000014,73.730125,64.0
E06000016,23.276863,13.0
E06000035,20.715153,13.0
E08000014,28.458294,30.0
E06000056,17.821676,16.0
E10000003,20.726833,20.0
E09000004,9.808875,23.0
E10000018,22.789549,22.0
E08000012,48.35264,31.0
E06000012,2.9487126,6.0
E10000027,14.947222,17.0
E06000014,7.0336533,7.0
E08000036,18.273582,48.0
E09000008,34.45983,15.0
E06000046,2.2302759,0.0
E06000030,14.474504,17.0
E06000054,13.525701,5.0
E08000005,21.571512,25.0
E06000027,0.0,3.0
E10000016,102.870476,67.0
E10000030,68.779,86.0
E08000013,17.863138,9.0
E06000033,8.011481,7.0
E08000016,21.500544,27.0
E09000016,23.726154,14.0
E06000051,14.214885,15.0
E08000037,31.625696,25.0
E06000052,18.000982,10.0
E09000010,26.47222,35.0
E10000021,30.061361,33.0
E06000039,43.143806,17.0
E08000024,11.368278,30.0
E09000027,8.174653,8.0
E09000009,30.528595,26.0
E10000020,47.67152,56.0
E10000023,27.17657,15.0
E10000029,12.736791,21.0
E06000045,29.79729,17.0
E08000018,20.467073,20.0
E10000034,33.47516,48.0
E06000018,14.62064,11.0
E08000019,47.633163,48.0
E06000017,0.049928524,0.0
E08000010,30.586273,30.0
E09000003,28.567629,20.0
E10000028,44.559467,51.0
E10000008,23.258495,25.0
E08000025,56.879444,82.0
E10000031,31.66304,20.0
E08000007,27.631649,20.0
E06000013,3.910166,16.0
E06000005,16.20534,7.0
E08000015,36.78459,46.0
E06000042,12.80336,16.0
E06000009,13.239001,8.0
E10000007,28.748806,31.0
E09000001,1.0430031,0.0
E09000022,33.3481,11.0
E06000047,50.577827,39.0
E06000037,8.038324,12.0
E08000026,19.946402,13.0
E09000002,14.2464075,13.0
E09000018,16.528336,21.0
E06000043,12.306232,13.0
E06000020,4.342022,5.0
E06000057,35.26225,31.0
E06000006,8.726835,10.0
E08000003,48.80845,49.0
E10000015,65.64965,61.0
E06000024,0.970769,5.0
E08000023,15.130309,27.0
E06000036,8.186305,10.0
E10000011,17.968847,13.0
E06000031,3.0601504,4.0
E08000021,27.807446,31.0
E10000002,21.462942,21.0
E06000044,10.032765,11.0
E08000031,17.635046,17.0
E09000020,11.404337,6.0
E06000003,10.118801,5.0
E08000002,22.636902,10.0
E10000012,65.55972,50.0
E09000005,30.905233,34.0
E06000007,22.530504,29.0
E09000023,8.379096,8.0
E08000033,6.0322566,15.0
E09000021,13.443784,17.0
E09000029,18.944664,25.0
E08000022,12.453998,11.0
E06000015,11.3935585,5.0
