n,o,l
granada,34.0814,71.0
palencia,17.86997,30.0
segovia,77.92903,25.0
valencia,109.29611,57.0
tarragona,6.6300077,7.0
cadiz,15.605996,12.0
huelva,48.72014,7.0
caceres,47.34694,42.0
alicante,52.31011,40.0
cordoba,1.2260485,70.0
gipuzkoa,18.349321,15.0
cuenca,50.55402,29.0
sevilla,1.2260903,69.0
guadalajara,59.060955,95.0
salamanca,1.2260904,116.0
toledo,1.2260904,158.0
ciudad_real,25.959204,0.0
badajoz,724.3044,441.0
barcelona,30.218906,37.0
avila,40.980324,7.0
lleida,40.405636,39.0
araba/alava,6.5930886,9.0
albacete,1.2265629,59.0
almeria,9.953394,11.0
zamora,18.528284,47.0
girona,142.25426,104.0
bizkaia,19.040075,41.0
soria,36.27006,126.0
burgos,25.962488,15.0
jaen,26.857748,5.0
valladolid,88.80258,103.0
malaga,36.771854,51.0
leon,22.12372,9.0
castellon,32.655308,118.0
