n,o,l
granada,36.46895,43.0
palencia,20.810728,18.0
segovia,66.98713,75.0
valencia,88.04025,116.0
tarragona,13.79624,32.0
cadiz,20.781527,5.0
huelva,38.04562,16.0
caceres,45.93974,30.0
alicante,51.801083,34.0
cordoba,11.75407,21.0
gipuzkoa,20.046064,64.0
cuenca,44.686466,15.0
sevilla,13.160254,19.0
guadalajara,51.788086,38.0
salamanca,15.256155,115.0
toledo,30.089092,66.0
ciudad_real,27.015594,99.0
badajoz,588.7197,7.0
barcelona,29.078495,795.0
avila,42.16734,38.0
lleida,35.691757,25.0
araba/alava,13.497186,85.0
albacete,16.778858,18.0
almeria,12.951189,21.0
zamora,7.13897,19.0
girona,116.97102,209.0
bizkaia,25.469698,195.0
soria,34.502407,13.0
burgos,28.53278,45.0
jaen,28.918549,132.0
valladolid,86.74478,35.0
malaga,35.398308,98.0
leon,12.316127,108.0
castellon,29.235718,14.0
