n,o,l
granada,49.122444,50.0
palencia,18.558195,24.0
segovia,49.726364,97.0
valencia,91.65266,61.0
tarragona,31.753572,4.0
cadiz,10.841711,20.0
huelva,37.32678,29.0
caceres,68.89131,41.0
alicante,32.738728,14.0
cordoba,0.1798302,118.0
gipuzkoa,43.56556,0.0
cuenca,48.82488,44.0
sevilla,0.17983645,0.0
guadalajara,53.16312,88.0
salamanca,0.17983645,0.0
toledo,0.17983907,0.0
ciudad_real,15.29515,19.0
badajoz,712.2307,1032.0
barcelona,24.196424,34.0
avila,30.861712,85.0
lleida,59.647003,62.0
araba/alava,12.033894,0.0
albacete,0.17984042,7.0
almeria,15.33964,2.0
zamora,95.54191,0.0
girona,202.51842,251.0
bizkaia,22.760849,13.0
soria,36.14165,29.0
burgos,23.39241,21.0
jaen,25.84209,157.0
valladolid,49.192513,17.0
malaga,48.475853,74.0
leon,36.962215,54.0
castellon,23.514565,7.0
