n,o,l
siracusa,0.11837057,9.0
asti,3.7940454,14.0
oristano,0.1823858,0.0
grosseto,0.0,1.0
sondrio,2.2561758,16.0
ascoli_piceno,1.1443051,1.0
savona,0.18461803,0.0
reggio_emilia,6.227854,137.0
torino,22.539646,220.0
rovigo,0.5559412,14.0
frosinone,1.3931798,24.0
campobasso,0.45607513,0.0
cosenza,0.26701987,12.0
trapani,0.18716556,5.0
pavia,8.2571335,88.0
cuneo,5.1048813,40.0
genova,5.085942,628.0
treviso,4.614206,125.0
barletta_andria_trani,0.5079282,35.0
udine,1.0896895,17.0
brescia,13.395663,8.0
ravenna,1.2069052,315.0
latina,0.79018813,8.0
gorizia,0.27357918,2.0
pordenone,0.96663857,17.0
massa_carrara,1.2586639,35.0
la_aquila,0.84528035,8.0
prato,0.3150089,1.0
rieti,1.3578882,1.0
aosta,3.9281046,15.0
ragusa,0.22089866,2.0
fermo,0.7949086,20.0
milano,28.808592,252.0
firenze,12.976118,66.0
arezzo,1.6177499,2.0
bolzano_bozen,5.1797485,24.0
piacenza,6.0313773,27.0
ancona,4.126184,26.0
napoli,7.412367,25.0
reggio_calabria,0.8034689,5.0
novara,4.061867,73.0
pistoia,0.9308166,46.0
lodi,2.3420956,26.0
la_spezia,0.0,142.0
brindisi,0.2594587,22.0
taranto,0.8144841,9.0
potenza,0.15554288,5.0
perugia,1.6899636,8.0
alessandria,2.3181372,70.0
enna,0.7668855,7.0
imperia,0.0,132.0
vercelli,2.2735095,13.0
foggia,2.2434132,17.0
lecce,3.1363058,24.0
lecco,7.2985153,91.0
padova,0.2752607,6.0
messina,1.8128059,5.0
lucca,2.1128693,34.0
palermo,0.41893625,12.0
livorno,1.375452,22.0
benevento,1.3125339,13.0
catanzaro,0.0,7.0
bari,3.8431792,27.0
caltanissetta,0.15910266,2.0
isernia,0.0,0.0
biella,1.8695565,9.0
verona,7.9659414,64.0
caserta,1.1721675,18.0
chieti,1.0963234,18.0
varese,1.1334789,22.0
teramo,2.0421226,19.0
macerata,1.4302326,50.0
cagliari,0.42092165,3.0
terni,0.20456454,15.0
nuoro,0.0,2.0
trento,7.464099,126.0
salerno,0.85985583,21.0
pesaro_e_urbino,3.7350066,45.0
venezia,4.573263,87.0
siena,1.8318443,1.0
vibo_valentia,0.031017818,1.0
matera,0.4774501,1.0
forli_cesena,2.7189384,24.0
parma,3.9636855,30.0
trieste,2.3818724,30.0
roma,9.92472,80.0
ferrara,0.9949263,16.0
belluno,1.3106186,25.0
sassari,2.4139445,34.0
avellino,1.189158,3.0
agrigento,0.5938086,3.0
como,4.4177113,17.0
cremona,5.810397,99.0
catania,3.5390933,16.0
bologna,8.182408,102.0
pisa,1.9340609,8.0
viterbo,0.9308856,1.0
pescara,2.6345696,15.0
rimini,0.9122078,12.0
mantova,3.7006428,74.0
vicenza,7.092532,48.0
verbano_cusio_ossola,2.3557832,89.0
modena,9.303215,53.0
crotone,0.0,1.0
bergamo,4.6592536,63.0
